#RIC,Date[L],Time[L],Type,Qualifiers,Open,High,Low,Last,Volume,Open Interest,Settle,Data Source
DOW.AX,01-JAN-2014,,End Of Day,No Trades,,,,,,,,Verified
DOW.AX,02-JAN-2014,,End Of Day,,4.85,4.9,4.82,4.82,548586,,,Verified
DOW.AX,03-JAN-2014,,End Of Day,,4.78,4.815,4.71,4.8,1630072,,,Verified
DOW.AX,04-JAN-2014,,End Of Day,No Trades,,,,,,,,Verified
DOW.AX,05-JAN-2014,,End Of Day,No Trades,,,,,,,,Verified
DOW.AX,06-JAN-2014,,End Of Day,,4.82,4.94,4.8,4.87,1279277,,,Verified
DOW.AX,07-JAN-2014,,End Of Day,,4.9,4.91,4.75,4.81,1558612,,,Verified
DOW.AX,08-JAN-2014,,End Of Day,,4.85,4.87,4.76,4.83,1312364,,,Verified
DOW.AX,09-JAN-2014,,End Of Day,,4.85,4.92,4.8,4.91,1428646,,,Verified
DOW.AX,10-JAN-2014,,End Of Day,,4.95,4.96,4.86,4.96,1145049,,,Verified
DOW.AX,11-JAN-2014,,End Of Day,No Trades,,,,,,,,Verified
DOW.AX,12-JAN-2014,,End Of Day,No Trades,,,,,,,,Verified
DOW.AX,13-JAN-2014,,End Of Day,,4.89,4.95,4.665,4.75,1579208,,,Verified
DOW.AX,14-JAN-2014,,End Of Day,,4.73,4.81,4.68,4.7,1552037,,,Verified
DOW.AX,15-JAN-2014,,End Of Day,,4.77,4.78,4.7,4.75,1227104,,,Verified
DOW.AX,16-JAN-2014,,End Of Day,,4.82,4.94,4.8,4.94,1602462,,,Verified
DOW.AX,17-JAN-2014,,End Of Day,,4.92,4.92,4.82,4.89,950636,,,Verified
DOW.AX,18-JAN-2014,,End Of Day,No Trades,,,,,,,,Verified
DOW.AX,19-JAN-2014,,End Of Day,No Trades,,,,,,,,Verified
DOW.AX,20-JAN-2014,,End Of Day,,4.84,4.92,4.8,4.91,662122,,,Verified
DOW.AX,21-JAN-2014,,End Of Day,,4.91,5.02,4.88,5.02,729438,,,Verified
DOW.AX,22-JAN-2014,,End Of Day,,4.98,5,4.865,4.95,1634547,,,Verified
DOW.AX,23-JAN-2014,,End Of Day,,4.95,4.97,4.85,4.92,933157,,,Verified
DOW.AX,24-JAN-2014,,End Of Day,,4.88,4.955,4.835,4.85,898287,,,Verified
DOW.AX,25-JAN-2014,,End Of Day,No Trades,,,,,,,,Verified
DOW.AX,26-JAN-2014,,End Of Day,No Trades,,,,,,,,Verified
DOW.AX,27-JAN-2014,,End Of Day,No Trades,,,,,,,,Verified
DOW.AX,28-JAN-2014,,End Of Day,,4.76,5.03,4.76,4.97,1921950,,,Verified
DOW.AX,29-JAN-2014,,End Of Day,,4.95,5.1,4.94,5.09,1356775,,,Verified
DOW.AX,30-JAN-2014,,End Of Day,,4.95,5.01,4.72,4.83,3008583,,,Verified
DOW.AX,31-JAN-2014,,End Of Day,,4.85,4.94,4.81,4.93,1716848,,,Verified
DOW.AX,01-FEB-2014,,End Of Day,No Trades,,,,,,,,Verified
DOW.AX,02-FEB-2014,,End Of Day,No Trades,,,,,,,,Verified
DOW.AX,03-FEB-2014,,End Of Day,,4.85,4.925,4.79,4.86,1476324,,,Verified
DOW.AX,04-FEB-2014,,End Of Day,,4.62,4.86,4.62,4.8,3200358,,,Verified
DOW.AX,05-FEB-2014,,End Of Day,,4.76,4.87,4.745,4.8,4067210,,,Verified
DOW.AX,06-FEB-2014,,End Of Day,,4.75,4.98,4.72,4.89,3417324,,,Verified
DOW.AX,07-FEB-2014,,End Of Day,,4.9,4.9,4.78,4.86,2198676,,,Verified
DOW.AX,08-FEB-2014,,End Of Day,No Trades,,,,,,,,Verified
DOW.AX,09-FEB-2014,,End Of Day,No Trades,,,,,,,,Verified
DOW.AX,10-FEB-2014,,End Of Day,,4.85,4.93,4.84,4.93,1873362,,,Verified
DOW.AX,11-FEB-2014,,End Of Day,,4.84,4.95,4.82,4.92,1309675,,,Verified
DOW.AX,12-FEB-2014,,End Of Day,,4.84,4.86,4.76,4.82,1499424,,,Verified
DOW.AX,13-FEB-2014,,End Of Day,,4.82,4.87,4.75,4.8,1292832,,,Verified
DOW.AX,14-FEB-2014,,End Of Day,,4.88,4.92,4.79,4.9,1694497,,,Verified
DOW.AX,15-FEB-2014,,End Of Day,No Trades,,,,,,,,Verified
DOW.AX,16-FEB-2014,,End Of Day,No Trades,,,,,,,,Verified
DOW.AX,17-FEB-2014,,End Of Day,,4.95,4.98,4.88,4.91,1539332,,,Verified
DOW.AX,18-FEB-2014,,End Of Day,,4.92,4.98,4.84,4.88,1271560,,,Verified
DOW.AX,19-FEB-2014,,End Of Day,,4.9,5.02,4.88,4.93,1748308,,,Verified
DOW.AX,20-FEB-2014,,End Of Day,,4.96,5.12,4.89,4.93,2517109,,,Verified
DOW.AX,21-FEB-2014,,End Of Day,,5.03,5.07,4.98,5.07,1862818,,,Verified
DOW.AX,22-FEB-2014,,End Of Day,No Trades,,,,,,,,Verified
DOW.AX,23-FEB-2014,,End Of Day,No Trades,,,,,,,,Verified
DOW.AX,24-FEB-2014,,End Of Day,,5.07,5.11,4.98,5.03,1931628,,,Verified
DOW.AX,25-FEB-2014,,End Of Day,,5.07,5.11,5.04,5.06,1457237,,,Verified
DOW.AX,26-FEB-2014,,End Of Day,,5.07,5.1,5.04,5.04,733443,,,Verified
DOW.AX,27-FEB-2014,,End Of Day,,5.04,5.06,4.91,4.92,894457,,,Verified
DOW.AX,28-FEB-2014,,End Of Day,,4.98,5.02,4.87,4.92,1459482,,,Verified
DOW.AX,01-MAR-2014,,End Of Day,No Trades,,,,,,,,Verified
DOW.AX,02-MAR-2014,,End Of Day,No Trades,,,,,,,,Verified
DOW.AX,03-MAR-2014,,End Of Day,,4.98,5.06,4.95,5.06,1192185,,,Verified
DOW.AX,04-MAR-2014,,End Of Day,,5.04,5.07,4.95,4.96,1389203,,,Verified
DOW.AX,05-MAR-2014,,End Of Day,,5.02,5.08,4.915,4.93,1784947,,,Verified
DOW.AX,06-MAR-2014,,End Of Day,,4.9,5.045,4.9,5.02,956249,,,Verified
DOW.AX,07-MAR-2014,,End Of Day,,5.03,5.19,5.03,5.17,1683518,,,Verified
DOW.AX,08-MAR-2014,,End Of Day,No Trades,,,,,,,,Verified
DOW.AX,09-MAR-2014,,End Of Day,No Trades,,,,,,,,Verified
DOW.AX,10-MAR-2014,,End Of Day,,5.17,5.31,5.13,5.2,1967643,,,Verified
DOW.AX,11-MAR-2014,,End Of Day,,5.18,5.18,4.93,4.95,2285686,,,Verified
DOW.AX,12-MAR-2014,,End Of Day,,4.89,4.95,4.855,4.94,1694241,,,Verified
DOW.AX,13-MAR-2014,,End Of Day,,4.96,5.02,4.88,4.92,1512912,,,Verified
DOW.AX,14-MAR-2014,,End Of Day,,4.83,4.86,4.72,4.81,1428347,,,Verified
DOW.AX,15-MAR-2014,,End Of Day,No Trades,,,,,,,,Verified
DOW.AX,16-MAR-2014,,End Of Day,No Trades,,,,,,,,Verified
DOW.AX,17-MAR-2014,,End Of Day,,4.79,4.86,4.78,4.82,1173056,,,Verified
DOW.AX,18-MAR-2014,,End Of Day,,4.86,4.88,4.79,4.82,1067093,,,Verified
DOW.AX,19-MAR-2014,,End Of Day,,4.79,4.88,4.73,4.81,2094659,,,Verified
DOW.AX,20-MAR-2014,,End Of Day,,4.8,4.84,4.76,4.76,2093246,,,Verified
DOW.AX,21-MAR-2014,,End Of Day,,4.79,4.91,4.76,4.91,1327396,,,Verified
DOW.AX,22-MAR-2014,,End Of Day,No Trades,,,,,,,,Verified
DOW.AX,23-MAR-2014,,End Of Day,No Trades,,,,,,,,Verified
DOW.AX,24-MAR-2014,,End Of Day,,4.82,4.91,4.73,4.9,1367391,,,Verified
DOW.AX,25-MAR-2014,,End Of Day,,4.82,4.89,4.8,4.86,1158076,,,Verified
DOW.AX,26-MAR-2014,,End Of Day,,4.88,4.96,4.86,4.91,1759150,,,Verified
DOW.AX,27-MAR-2014,,End Of Day,,4.85,4.93,4.84,4.91,772203,,,Verified
DOW.AX,28-MAR-2014,,End Of Day,,4.88,4.95,4.85,4.9,1062901,,,Verified
DOW.AX,29-MAR-2014,,End Of Day,No Trades,,,,,,,,Verified
DOW.AX,30-MAR-2014,,End Of Day,No Trades,,,,,,,,Verified
DOW.AX,31-MAR-2014,,End Of Day,,4.95,5.05,4.93,5.02,789665,,,Verified
DOW.AX,01-APR-2014,,End Of Day,,5.07,5.08,4.95,5,2348533,,,Verified
DOW.AX,02-APR-2014,,End Of Day,,5,5.05,4.93,4.97,1347927,,,Verified
DOW.AX,03-APR-2014,,End Of Day,,4.98,5.055,4.96,4.98,715403,,,Verified
DOW.AX,04-APR-2014,,End Of Day,,4.97,5.05,4.96,5.02,1065188,,,Verified
DOW.AX,05-APR-2014,,End Of Day,No Trades,,,,,,,,Verified
DOW.AX,06-APR-2014,,End Of Day,No Trades,,,,,,,,Verified
DOW.AX,07-APR-2014,,End Of Day,,4.96,5.02,4.95,4.97,891787,,,Verified
DOW.AX,08-APR-2014,,End Of Day,,4.92,5.07,4.92,5.04,1053527,,,Verified
DOW.AX,09-APR-2014,,End Of Day,,5.05,5.09,4.93,4.95,3071024,,,Verified
DOW.AX,10-APR-2014,,End Of Day,,4.99,5.04,4.96,4.96,1450596,,,Verified
DOW.AX,11-APR-2014,,End Of Day,,4.9,4.945,4.86,4.91,1074682,,,Verified
DOW.AX,12-APR-2014,,End Of Day,No Trades,,,,,,,,Verified
DOW.AX,13-APR-2014,,End Of Day,No Trades,,,,,,,,Verified
DOW.AX,14-APR-2014,,End Of Day,,4.88,4.96,4.855,4.94,1725630,,,Verified
DOW.AX,15-APR-2014,,End Of Day,,4.93,5.07,4.91,5.05,1729807,,,Verified
DOW.AX,16-APR-2014,,End Of Day,,5.06,5.085,4.98,5.05,1335395,,,Verified
DOW.AX,17-APR-2014,,End Of Day,,5.1,5.1,4.985,5.04,1160951,,,Verified
DOW.AX,18-APR-2014,,End Of Day,No Trades,,,,,,,,Verified
DOW.AX,19-APR-2014,,End Of Day,No Trades,,,,,,,,Verified
DOW.AX,20-APR-2014,,End Of Day,No Trades,,,,,,,,Verified
DOW.AX,21-APR-2014,,End Of Day,No Trades,,,,,,,,Verified
DOW.AX,22-APR-2014,,End Of Day,,5.07,5.08,5.035,5.07,1715078,,,Verified
DOW.AX,23-APR-2014,,End Of Day,,5.12,5.14,5.08,5.14,1121585,,,Verified
DOW.AX,24-APR-2014,,End Of Day,,5.17,5.22,5.135,5.22,1059594,,,Verified
DOW.AX,25-APR-2014,,End Of Day,No Trades,,,,,,,,Verified
DOW.AX,26-APR-2014,,End Of Day,No Trades,,,,,,,,Verified
DOW.AX,27-APR-2014,,End Of Day,No Trades,,,,,,,,Verified
DOW.AX,28-APR-2014,,End Of Day,,5.22,5.24,5.02,5.05,1456654,,,Verified
DOW.AX,29-APR-2014,,End Of Day,,5.07,5.13,4.87,4.95,1101418,,,Verified
DOW.AX,30-APR-2014,,End Of Day,,5.03,5.04,4.96,4.99,1120136,,,Verified
DOW.AX,01-MAY-2014,,End Of Day,,5.03,5.04,4.92,4.94,648453,,,Verified
DOW.AX,02-MAY-2014,,End Of Day,,4.96,5.035,4.945,4.97,932469,,,Verified
DOW.AX,03-MAY-2014,,End Of Day,No Trades,,,,,,,,Verified
DOW.AX,04-MAY-2014,,End Of Day,No Trades,,,,,,,,Verified
DOW.AX,05-MAY-2014,,End Of Day,,4.98,5.08,4.96,5.02,677965,,,Verified
DOW.AX,06-MAY-2014,,End Of Day,,5.02,5.175,5.01,5.08,1233297,,,Verified
DOW.AX,07-MAY-2014,,End Of Day,,5.08,5.235,5.07,5.2,1822577,,,Verified
DOW.AX,08-MAY-2014,,End Of Day,,5.24,5.4,5.24,5.3,2243562,,,Verified
DOW.AX,09-MAY-2014,,End Of Day,,5.28,5.3,5.13,5.28,1123280,,,Verified
DOW.AX,10-MAY-2014,,End Of Day,No Trades,,,,,,,,Verified
DOW.AX,11-MAY-2014,,End Of Day,No Trades,,,,,,,,Verified
DOW.AX,12-MAY-2014,,End Of Day,,5.3,5.43,5.255,5.38,1198018,,,Verified
DOW.AX,13-MAY-2014,,End Of Day,,5.46,5.5,5.38,5.43,1287848,,,Verified
DOW.AX,14-MAY-2014,,End Of Day,,5.46,5.59,5.41,5.47,1753753,,,Verified
DOW.AX,15-MAY-2014,,End Of Day,,5.45,5.505,5.4,5.5,1517192,,,Verified
DOW.AX,16-MAY-2014,,End Of Day,,5.45,5.49,5.41,5.44,1111830,,,Verified
DOW.AX,17-MAY-2014,,End Of Day,No Trades,,,,,,,,Verified
DOW.AX,18-MAY-2014,,End Of Day,No Trades,,,,,,,,Verified
DOW.AX,19-MAY-2014,,End Of Day,,5.44,5.44,5.28,5.3,990320,,,Verified
DOW.AX,20-MAY-2014,,End Of Day,,5.32,5.33,5.155,5.26,1855557,,,Verified
DOW.AX,21-MAY-2014,,End Of Day,,5.22,5.23,5.13,5.22,6256391,,,Verified
DOW.AX,22-MAY-2014,,End Of Day,,5.27,5.35,5.26,5.29,1988431,,,Verified
DOW.AX,23-MAY-2014,,End Of Day,,5.34,5.4,5.28,5.35,2080566,,,Verified
DOW.AX,24-MAY-2014,,End Of Day,No Trades,,,,,,,,Verified
DOW.AX,25-MAY-2014,,End Of Day,No Trades,,,,,,,,Verified
DOW.AX,26-MAY-2014,,End Of Day,,5.39,5.4,5.35,5.38,734543,,,Verified
DOW.AX,27-MAY-2014,,End Of Day,,5.42,5.49,5.3,5.35,1405731,,,Verified
DOW.AX,28-MAY-2014,,End Of Day,,5.41,5.43,5.37,5.39,2061396,,,Verified
DOW.AX,29-MAY-2014,,End Of Day,,5.39,5.43,5.32,5.36,1488083,,,Verified
DOW.AX,30-MAY-2014,,End Of Day,,5.43,5.48,5.33,5.33,2139901,,,Verified
DOW.AX,31-MAY-2014,,End Of Day,No Trades,,,,,,,,Verified
DOW.AX,01-JUN-2014,,End Of Day,No Trades,,,,,,,,Verified
DOW.AX,02-JUN-2014,,End Of Day,,5.39,5.485,5.35,5.41,2527007,,,Verified
DOW.AX,03-JUN-2014,,End Of Day,,5.44,5.52,5.31,5.36,3132197,,,Verified
DOW.AX,04-JUN-2014,,End Of Day,,5.42,5.445,5.3,5.35,2394859,,,Verified
DOW.AX,05-JUN-2014,,End Of Day,,5.35,5.35,5.23,5.25,2347645,,,Verified
DOW.AX,06-JUN-2014,,End Of Day,,5.25,5.32,5.24,5.27,2940647,,,Verified
DOW.AX,07-JUN-2014,,End Of Day,No Trades,,,,,,,,Verified
DOW.AX,08-JUN-2014,,End Of Day,No Trades,,,,,,,,Verified
DOW.AX,09-JUN-2014,,End Of Day,No Trades,,,,,,,,Verified
DOW.AX,10-JUN-2014,,End Of Day,,5.3,5.355,5.28,5.29,2335787,,,Verified
DOW.AX,11-JUN-2014,,End Of Day,,4.81,4.91,4.62,4.7,5087687,,,Verified
DOW.AX,12-JUN-2014,,End Of Day,,4.7,4.725,4.48,4.57,9022378,,,Verified
DOW.AX,13-JUN-2014,,End Of Day,,4.57,4.6,4.5,4.55,4366970,,,Verified
DOW.AX,14-JUN-2014,,End Of Day,No Trades,,,,,,,,Verified
DOW.AX,15-JUN-2014,,End Of Day,No Trades,,,,,,,,Verified
DOW.AX,16-JUN-2014,,End Of Day,,4.52,4.52,4.425,4.5,2374336,,,Verified
DOW.AX,17-JUN-2014,,End Of Day,,4.5,4.5,4.33,4.36,2932131,,,Verified
DOW.AX,18-JUN-2014,,End Of Day,,4.35,4.55,4.35,4.49,4879518,,,Verified
DOW.AX,19-JUN-2014,,End Of Day,,4.48,4.52,4.43,4.5,3827179,,,Verified
DOW.AX,20-JUN-2014,,End Of Day,,4.45,4.46,4.34,4.37,3749881,,,Verified
DOW.AX,21-JUN-2014,,End Of Day,No Trades,,,,,,,,Verified
DOW.AX,22-JUN-2014,,End Of Day,No Trades,,,,,,,,Verified
DOW.AX,23-JUN-2014,,End Of Day,,4.37,4.43,4.34,4.38,2680599,,,Verified
DOW.AX,24-JUN-2014,,End Of Day,,4.37,4.44,4.275,4.41,3564070,,,Verified
DOW.AX,25-JUN-2014,,End Of Day,,4.4,4.53,4.37,4.51,2949250,,,Verified
DOW.AX,26-JUN-2014,,End Of Day,,4.5,4.6,4.485,4.59,2827856,,,Verified
DOW.AX,27-JUN-2014,,End Of Day,,4.58,4.62,4.49,4.51,1588236,,,Verified
DOW.AX,28-JUN-2014,,End Of Day,No Trades,,,,,,,,Verified
DOW.AX,29-JUN-2014,,End Of Day,No Trades,,,,,,,,Verified
DOW.AX,30-JUN-2014,,End Of Day,,4.5,4.6,4.5,4.52,2689512,,,Verified
DOW.AX,01-JUL-2014,,End Of Day,,4.52,4.62,4.495,4.58,2149122,,,Verified
DOW.AX,02-JUL-2014,,End Of Day,,4.58,4.59,4.5,4.53,1880047,,,Verified
DOW.AX,03-JUL-2014,,End Of Day,,4.51,4.62,4.505,4.6,1850323,,,Verified
DOW.AX,04-JUL-2014,,End Of Day,,4.66,4.7,4.63,4.67,980673,,,Verified
DOW.AX,05-JUL-2014,,End Of Day,No Trades,,,,,,,,Verified
DOW.AX,06-JUL-2014,,End Of Day,No Trades,,,,,,,,Verified
DOW.AX,07-JUL-2014,,End Of Day,,4.65,4.67,4.52,4.53,1870874,,,Verified
DOW.AX,08-JUL-2014,,End Of Day,,4.57,4.57,4.51,4.53,2721193,,,Verified
DOW.AX,09-JUL-2014,,End Of Day,,4.54,4.56,4.47,4.51,1846629,,,Verified
DOW.AX,10-JUL-2014,,End Of Day,,4.51,4.6,4.47,4.58,1482855,,,Verified
DOW.AX,11-JUL-2014,,End Of Day,,4.5,4.6,4.5,4.54,675876,,,Verified
DOW.AX,12-JUL-2014,,End Of Day,No Trades,,,,,,,,Verified
DOW.AX,13-JUL-2014,,End Of Day,No Trades,,,,,,,,Verified
DOW.AX,14-JUL-2014,,End Of Day,,4.53,4.58,4.45,4.46,1221013,,,Verified
DOW.AX,15-JUL-2014,,End Of Day,,4.51,4.51,4.4,4.47,1913949,,,Verified
DOW.AX,16-JUL-2014,,End Of Day,,4.45,4.535,4.43,4.52,1354623,,,Verified
DOW.AX,17-JUL-2014,,End Of Day,,4.56,4.59,4.495,4.52,1381484,,,Verified
DOW.AX,18-JUL-2014,,End Of Day,,4.48,4.56,4.48,4.55,546527,,,Verified
DOW.AX,19-JUL-2014,,End Of Day,No Trades,,,,,,,,Verified
DOW.AX,20-JUL-2014,,End Of Day,No Trades,,,,,,,,Verified
DOW.AX,21-JUL-2014,,End Of Day,,4.56,4.755,4.55,4.63,2385196,,,Verified
DOW.AX,22-JUL-2014,,End Of Day,,4.6,4.66,4.565,4.65,1420480,,,Verified
DOW.AX,23-JUL-2014,,End Of Day,,4.6,4.75,4.585,4.72,2404078,,,Verified
DOW.AX,24-JUL-2014,,End Of Day,,4.77,4.77,4.7,4.72,1764387,,,Verified
DOW.AX,25-JUL-2014,,End Of Day,,4.7,4.72,4.64,4.69,1621693,,,Verified
DOW.AX,26-JUL-2014,,End Of Day,No Trades,,,,,,,,Verified
DOW.AX,27-JUL-2014,,End Of Day,No Trades,,,,,,,,Verified
DOW.AX,28-JUL-2014,,End Of Day,,4.7,4.72,4.65,4.69,1108242,,,Verified
DOW.AX,29-JUL-2014,,End Of Day,,4.7,4.73,4.66,4.7,954259,,,Verified
DOW.AX,30-JUL-2014,,End Of Day,,4.73,4.87,4.715,4.85,1557383,,,Verified
DOW.AX,31-JUL-2014,,End Of Day,,4.85,4.9,4.83,4.87,1048434,,,Verified
DOW.AX,01-AUG-2014,,End Of Day,,4.82,4.82,4.7,4.72,1379048,,,Verified
DOW.AX,02-AUG-2014,,End Of Day,No Trades,,,,,,,,Verified
DOW.AX,03-AUG-2014,,End Of Day,No Trades,,,,,,,,Verified
DOW.AX,04-AUG-2014,,End Of Day,,4.77,4.79,4.73,4.78,1326978,,,Verified
DOW.AX,05-AUG-2014,,End Of Day,,4.8,4.83,4.55,4.58,4231818,,,Verified
DOW.AX,06-AUG-2014,,End Of Day,,4.56,4.69,4.52,4.69,7747748,,,Verified
DOW.AX,07-AUG-2014,,End Of Day,,4.72,4.93,4.7,4.91,10782299,,,Verified
DOW.AX,08-AUG-2014,,End Of Day,,4.88,4.94,4.815,4.84,3532171,,,Verified
DOW.AX,09-AUG-2014,,End Of Day,No Trades,,,,,,,,Verified
DOW.AX,10-AUG-2014,,End Of Day,No Trades,,,,,,,,Verified
DOW.AX,11-AUG-2014,,End Of Day,,4.88,4.89,4.82,4.86,2508875,,,Verified
DOW.AX,12-AUG-2014,,End Of Day,,4.83,4.87,4.79,4.85,2661131,,,Verified
DOW.AX,13-AUG-2014,,End Of Day,,4.83,4.88,4.82,4.84,2479234,,,Verified
DOW.AX,14-AUG-2014,,End Of Day,,4.83,4.88,4.82,4.87,3049448,,,Verified
DOW.AX,15-AUG-2014,,End Of Day,,4.76,4.805,4.72,4.8,1007353,,,Verified
DOW.AX,16-AUG-2014,,End Of Day,No Trades,,,,,,,,Verified
DOW.AX,17-AUG-2014,,End Of Day,No Trades,,,,,,,,Verified
DOW.AX,18-AUG-2014,,End Of Day,,4.8,4.84,4.73,4.75,1553225,,,Verified
DOW.AX,19-AUG-2014,,End Of Day,,4.81,4.91,4.78,4.91,2138506,,,Verified
DOW.AX,20-AUG-2014,,End Of Day,,4.92,4.95,4.85,4.95,1476285,,,Verified
DOW.AX,21-AUG-2014,,End Of Day,,4.94,4.97,4.835,4.88,1456201,,,Verified
DOW.AX,22-AUG-2014,,End Of Day,,4.86,4.93,4.83,4.91,1477407,,,Verified
DOW.AX,23-AUG-2014,,End Of Day,No Trades,,,,,,,,Verified
DOW.AX,24-AUG-2014,,End Of Day,No Trades,,,,,,,,Verified
DOW.AX,25-AUG-2014,,End Of Day,,4.87,4.93,4.87,4.89,674374,,,Verified
DOW.AX,26-AUG-2014,,End Of Day,,4.92,4.92,4.84,4.89,1029294,,,Verified
DOW.AX,27-AUG-2014,,End Of Day,,4.89,4.9,4.85,4.9,919301,,,Verified
DOW.AX,28-AUG-2014,,End Of Day,,4.87,4.89,4.84,4.84,871955,,,Verified
DOW.AX,29-AUG-2014,,End Of Day,,4.84,4.87,4.8,4.87,1467109,,,Verified
DOW.AX,30-AUG-2014,,End Of Day,No Trades,,,,,,,,Verified
DOW.AX,31-AUG-2014,,End Of Day,No Trades,,,,,,,,Verified
DOW.AX,01-SEP-2014,,End Of Day,,4.89,4.89,4.8,4.81,1519319,,,Verified
DOW.AX,02-SEP-2014,,End Of Day,,4.75,4.9,4.75,4.84,1517228,,,Verified
DOW.AX,03-SEP-2014,,End Of Day,,4.87,4.91,4.81,4.85,811619,,,Verified
DOW.AX,04-SEP-2014,,End Of Day,,4.87,4.93,4.83,4.86,980601,,,Verified
DOW.AX,05-SEP-2014,,End Of Day,,4.82,4.87,4.75,4.77,2567853,,,Verified
DOW.AX,06-SEP-2014,,End Of Day,No Trades,,,,,,,,Verified
DOW.AX,07-SEP-2014,,End Of Day,No Trades,,,,,,,,Verified
DOW.AX,08-SEP-2014,,End Of Day,,4.76,4.8,4.75,4.77,750923,,,Verified
DOW.AX,09-SEP-2014,,End Of Day,,4.77,4.81,4.73,4.79,693453,,,Verified
DOW.AX,10-SEP-2014,,End Of Day,,4.76,4.79,4.725,4.77,1906693,,,Verified
DOW.AX,11-SEP-2014,,End Of Day,,4.79,4.8,4.68,4.7,1587192,,,Verified
DOW.AX,12-SEP-2014,,End Of Day,,4.7,4.73,4.66,4.68,1205522,,,Verified
DOW.AX,13-SEP-2014,,End Of Day,No Trades,,,,,,,,Verified
DOW.AX,14-SEP-2014,,End Of Day,No Trades,,,,,,,,Verified
DOW.AX,15-SEP-2014,,End Of Day,,4.62,4.65,4.59,4.62,846678,,,Verified
DOW.AX,16-SEP-2014,,End Of Day,,4.61,4.63,4.55,4.59,1203129,,,Verified
DOW.AX,17-SEP-2014,,End Of Day,,4.6,4.62,4.555,4.61,797391,,,Verified
DOW.AX,18-SEP-2014,,End Of Day,,4.64,4.64,4.55,4.58,959493,,,Verified
DOW.AX,19-SEP-2014,,End Of Day,,4.58,4.64,4.52,4.61,748586,,,Verified
DOW.AX,20-SEP-2014,,End Of Day,No Trades,,,,,,,,Verified
DOW.AX,21-SEP-2014,,End Of Day,No Trades,,,,,,,,Verified
DOW.AX,22-SEP-2014,,End Of Day,,4.59,4.59,4.41,4.43,2140851,,,Verified
DOW.AX,23-SEP-2014,,End Of Day,,4.4,4.52,4.4,4.48,1197242,,,Verified
DOW.AX,24-SEP-2014,,End Of Day,,4.44,4.49,4.43,4.49,2328912,,,Verified
DOW.AX,25-SEP-2014,,End Of Day,,4.5,4.52,4.41,4.43,1682091,,,Verified
DOW.AX,26-SEP-2014,,End Of Day,,4.36,4.44,4.355,4.39,576009,,,Verified
DOW.AX,27-SEP-2014,,End Of Day,No Trades,,,,,,,,Verified
DOW.AX,28-SEP-2014,,End Of Day,No Trades,,,,,,,,Verified
DOW.AX,29-SEP-2014,,End Of Day,,4.36,4.42,4.34,4.35,1005485,,,Verified
DOW.AX,30-SEP-2014,,End Of Day,,4.34,4.415,4.32,4.41,2166952,,,Verified
DOW.AX,01-OCT-2014,,End Of Day,,4.34,4.44,4.34,4.41,756530,,,Verified
DOW.AX,02-OCT-2014,,End Of Day,,4.35,4.42,4.34,4.35,1410012,,,Verified
DOW.AX,03-OCT-2014,,End Of Day,,4.31,4.335,4.21,4.31,1548525,,,Verified
DOW.AX,04-OCT-2014,,End Of Day,No Trades,,,,,,,,Verified
DOW.AX,05-OCT-2014,,End Of Day,No Trades,,,,,,,,Verified
DOW.AX,06-OCT-2014,,End Of Day,,4.28,4.32,4.24,4.31,752146,,,Verified
DOW.AX,07-OCT-2014,,End Of Day,,4.32,4.33,4.24,4.26,1925650,,,Verified
DOW.AX,08-OCT-2014,,End Of Day,,4.23,4.33,4.21,4.29,1378956,,,Verified
DOW.AX,09-OCT-2014,,End Of Day,,4.32,4.35,4.27,4.29,1790079,,,Verified
DOW.AX,10-OCT-2014,,End Of Day,,4.17,4.19,4.06,4.06,1876681,,,Verified
DOW.AX,11-OCT-2014,,End Of Day,No Trades,,,,,,,,Verified
DOW.AX,12-OCT-2014,,End Of Day,No Trades,,,,,,,,Verified
DOW.AX,13-OCT-2014,,End Of Day,,3.99,4.06,3.97,3.98,1479658,,,Verified
DOW.AX,14-OCT-2014,,End Of Day,,4,4.14,3.94,4.05,2405135,,,Verified
DOW.AX,15-OCT-2014,,End Of Day,,4.03,4.06,4,4.01,1540505,,,Verified
DOW.AX,16-OCT-2014,,End Of Day,,4.01,4.03,3.93,4.02,1833739,,,Verified
DOW.AX,17-OCT-2014,,End Of Day,,4.02,4.1,4.015,4.05,4555547,,,Verified
DOW.AX,18-OCT-2014,,End Of Day,No Trades,,,,,,,,Verified
DOW.AX,19-OCT-2014,,End Of Day,No Trades,,,,,,,,Verified
DOW.AX,20-OCT-2014,,End Of Day,,4.17,4.33,4.155,4.19,2857457,,,Verified
DOW.AX,21-OCT-2014,,End Of Day,,4.29,4.46,4.28,4.45,4038325,,,Verified
DOW.AX,22-OCT-2014,,End Of Day,,4.55,4.65,4.47,4.51,2861675,,,Verified
DOW.AX,23-OCT-2014,,End Of Day,,4.49,4.69,4.48,4.54,2455127,,,Verified
DOW.AX,24-OCT-2014,,End Of Day,,4.62,4.78,4.61,4.7,3065230,,,Verified
DOW.AX,25-OCT-2014,,End Of Day,No Trades,,,,,,,,Verified
DOW.AX,26-OCT-2014,,End Of Day,No Trades,,,,,,,,Verified
DOW.AX,27-OCT-2014,,End Of Day,,4.72,4.8,4.69,4.74,2166434,,,Verified
DOW.AX,28-OCT-2014,,End Of Day,,4.73,4.76,4.65,4.67,2386189,,,Verified
DOW.AX,29-OCT-2014,,End Of Day,,4.66,4.81,4.66,4.76,2247838,,,Verified
DOW.AX,30-OCT-2014,,End Of Day,,4.79,4.79,4.55,4.59,3204273,,,Verified
DOW.AX,31-OCT-2014,,End Of Day,,4.65,4.76,4.65,4.74,2872614,,,Verified
DOW.AX,01-NOV-2014,,End Of Day,No Trades,,,,,,,,Verified
DOW.AX,02-NOV-2014,,End Of Day,No Trades,,,,,,,,Verified
DOW.AX,03-NOV-2014,,End Of Day,,4.76,4.795,4.645,4.66,1711136,,,Verified
DOW.AX,04-NOV-2014,,End Of Day,,4.67,4.7,4.6,4.66,2222555,,,Verified
DOW.AX,05-NOV-2014,,End Of Day,,4.67,4.85,4.65,4.71,3050792,,,Verified
DOW.AX,06-NOV-2014,,End Of Day,,4.76,4.8,4.59,4.62,1121198,,,Verified
DOW.AX,07-NOV-2014,,End Of Day,,4.65,4.665,4.59,4.64,2013954,,,Verified
DOW.AX,08-NOV-2014,,End Of Day,No Trades,,,,,,,,Verified
DOW.AX,09-NOV-2014,,End Of Day,No Trades,,,,,,,,Verified
DOW.AX,10-NOV-2014,,End Of Day,,4.66,4.68,4.61,4.63,1444013,,,Verified
DOW.AX,11-NOV-2014,,End Of Day,,4.69,4.71,4.61,4.7,2490052,,,Verified
DOW.AX,12-NOV-2014,,End Of Day,,4.75,4.76,4.53,4.53,1882454,,,Verified
DOW.AX,13-NOV-2014,,End Of Day,,4.5,4.52,4.41,4.43,3069456,,,Verified
DOW.AX,14-NOV-2014,,End Of Day,,4.46,4.51,4.37,4.48,964118,,,Verified
DOW.AX,15-NOV-2014,,End Of Day,No Trades,,,,,,,,Verified
DOW.AX,16-NOV-2014,,End Of Day,No Trades,,,,,,,,Verified
DOW.AX,17-NOV-2014,,End Of Day,,4.5,4.52,4.43,4.46,1527062,,,Verified
DOW.AX,18-NOV-2014,,End Of Day,,4.46,4.46,4.36,4.41,1242972,,,Verified
DOW.AX,19-NOV-2014,,End Of Day,,4.46,4.46,4.31,4.32,944040,,,Verified
DOW.AX,20-NOV-2014,,End Of Day,,4.28,4.39,4.28,4.34,1660457,,,Verified
DOW.AX,21-NOV-2014,,End Of Day,,4.4,4.4,4.28,4.29,1070788,,,Verified
DOW.AX,22-NOV-2014,,End Of Day,No Trades,,,,,,,,Verified
DOW.AX,23-NOV-2014,,End Of Day,No Trades,,,,,,,,Verified
DOW.AX,24-NOV-2014,,End Of Day,,4.37,4.42,4.33,4.4,1039173,,,Verified
DOW.AX,25-NOV-2014,,End Of Day,,4.31,4.35,4.19,4.34,2508364,,,Verified
DOW.AX,26-NOV-2014,,End Of Day,,4.34,4.4,4.32,4.37,907459,,,Verified
DOW.AX,27-NOV-2014,,End Of Day,,4.38,4.38,4.3,4.31,1134746,,,Verified
DOW.AX,28-NOV-2014,,End Of Day,,4.31,4.32,4.25,4.3,1739444,,,Verified
DOW.AX,29-NOV-2014,,End Of Day,No Trades,,,,,,,,Verified
DOW.AX,30-NOV-2014,,End Of Day,No Trades,,,,,,,,Verified
DOW.AX,01-DEC-2014,,End Of Day,,4.2,4.24,4.08,4.11,2720697,,,Verified
DOW.AX,02-DEC-2014,,End Of Day,,4.2,4.23,4.13,4.21,2245399,,,Verified
DOW.AX,03-DEC-2014,,End Of Day,,4.21,4.31,4.21,4.25,1931454,,,Verified
DOW.AX,04-DEC-2014,,End Of Day,,4.25,4.32,4.235,4.32,1868467,,,Verified
DOW.AX,05-DEC-2014,,End Of Day,,4.4,4.4,4.22,4.31,1463128,,,Verified
DOW.AX,06-DEC-2014,,End Of Day,No Trades,,,,,,,,Verified
DOW.AX,07-DEC-2014,,End Of Day,No Trades,,,,,,,,Verified
DOW.AX,08-DEC-2014,,End Of Day,,4.3,4.43,4.29,4.42,1174145,,,Verified
DOW.AX,09-DEC-2014,,End Of Day,,4.37,4.41,4.15,4.15,2586650,,,Verified
DOW.AX,10-DEC-2014,,End Of Day,,4.05,4.19,4.05,4.14,1521084,,,Verified
DOW.AX,11-DEC-2014,,End Of Day,,4.06,4.15,4.02,4.07,1668168,,,Verified
DOW.AX,12-DEC-2014,,End Of Day,,4,4.07,3.975,4.04,2470404,,,Verified
DOW.AX,13-DEC-2014,,End Of Day,No Trades,,,,,,,,Verified
DOW.AX,14-DEC-2014,,End Of Day,No Trades,,,,,,,,Verified
DOW.AX,15-DEC-2014,,End Of Day,,3.97,4.16,3.95,4.14,1378916,,,Verified
DOW.AX,16-DEC-2014,,End Of Day,,4.15,4.15,4.04,4.07,1422180,,,Verified
DOW.AX,17-DEC-2014,,End Of Day,,3.98,4.09,3.98,4.08,1141867,,,Verified
DOW.AX,18-DEC-2014,,End Of Day,,4.2,4.32,4.19,4.24,1578985,,,Verified
DOW.AX,19-DEC-2014,,End Of Day,,4.3,4.54,4.29,4.54,2247810,,,Verified
DOW.AX,20-DEC-2014,,End Of Day,No Trades,,,,,,,,Verified
DOW.AX,21-DEC-2014,,End Of Day,No Trades,,,,,,,,Verified
DOW.AX,22-DEC-2014,,End Of Day,,4.57,4.715,4.55,4.69,1488081,,,Verified
DOW.AX,23-DEC-2014,,End Of Day,,4.71,4.8,4.48,4.58,2200241,,,Verified
DOW.AX,24-DEC-2014,,End Of Day,,4.61,4.7,4.545,4.7,900308,,,Verified
DOW.AX,25-DEC-2014,,End Of Day,No Trades,,,,,,,,Verified
DOW.AX,26-DEC-2014,,End Of Day,No Trades,,,,,,,,Verified
DOW.AX,27-DEC-2014,,End Of Day,No Trades,,,,,,,,Verified
DOW.AX,28-DEC-2014,,End Of Day,No Trades,,,,,,,,Verified
DOW.AX,29-DEC-2014,,End Of Day,,4.71,4.83,4.64,4.8,829056,,,Verified
DOW.AX,30-DEC-2014,,End Of Day,,4.79,4.79,4.63,4.65,1349899,,,Verified
DOW.AX,31-DEC-2014,,End Of Day,,4.66,4.76,4.65,4.72,547792,,,Verified
DOW.AX,01-JAN-2015,,End Of Day,No Trades,,,,,,,,Verified
DOW.AX,02-JAN-2015,,End Of Day,,4.73,4.73,4.64,4.7,706601,,,Verified
DOW.AX,03-JAN-2015,,End Of Day,No Trades,,,,,,,,Verified
DOW.AX,04-JAN-2015,,End Of Day,No Trades,,,,,,,,Verified
DOW.AX,05-JAN-2015,,End Of Day,,4.64,4.79,4.64,4.74,940772,,,Verified
DOW.AX,06-JAN-2015,,End Of Day,,4.67,4.69,4.56,4.6,2049432,,,Verified
DOW.AX,07-JAN-2015,,End Of Day,,4.59,4.595,4.43,4.47,1225841,,,Verified
DOW.AX,08-JAN-2015,,End Of Day,,4.51,4.56,4.43,4.49,1299659,,,Verified
DOW.AX,09-JAN-2015,,End Of Day,,4.55,4.62,4.51,4.6,930615,,,Verified
DOW.AX,10-JAN-2015,,End Of Day,No Trades,,,,,,,,Verified
DOW.AX,11-JAN-2015,,End Of Day,No Trades,,,,,,,,Verified
DOW.AX,12-JAN-2015,,End Of Day,,4.51,4.64,4.51,4.55,1054187,,,Verified
DOW.AX,13-JAN-2015,,End Of Day,,4.55,4.61,4.51,4.56,951847,,,Verified
DOW.AX,14-JAN-2015,,End Of Day,,4.58,4.64,4.45,4.48,1334303,,,Verified
DOW.AX,15-JAN-2015,,End Of Day,,4.49,4.51,4.39,4.41,1657070,,,Verified
DOW.AX,16-JAN-2015,,End Of Day,,4.34,4.42,4.28,4.34,1056403,,,Verified
DOW.AX,17-JAN-2015,,End Of Day,No Trades,,,,,,,,Verified
DOW.AX,18-JAN-2015,,End Of Day,No Trades,,,,,,,,Verified
DOW.AX,19-JAN-2015,,End Of Day,,4.27,4.38,4.25,4.28,1959628,,,Verified
DOW.AX,20-JAN-2015,,End Of Day,,4.25,4.28,4.1,4.23,2667657,,,Verified
DOW.AX,21-JAN-2015,,End Of Day,,4.25,4.29,4.18,4.21,1785546,,,Verified
DOW.AX,22-JAN-2015,,End Of Day,,4.23,4.28,4.14,4.15,2322563,,,Verified
DOW.AX,23-JAN-2015,,End Of Day,,4.28,4.36,4.21,4.35,1832630,,,Verified
DOW.AX,24-JAN-2015,,End Of Day,No Trades,,,,,,,,Verified
DOW.AX,25-JAN-2015,,End Of Day,No Trades,,,,,,,,Verified
DOW.AX,26-JAN-2015,,End Of Day,No Trades,,,,,,,,Verified
DOW.AX,27-JAN-2015,,End Of Day,,4.36,4.385,4.21,4.26,1574219,,,Verified
DOW.AX,28-JAN-2015,,End Of Day,,4.22,4.31,4.2,4.22,1607080,,,Verified
DOW.AX,29-JAN-2015,,End Of Day,,4.18,4.23,4.16,4.23,1259384,,,Verified
DOW.AX,30-JAN-2015,,End Of Day,,4.31,4.32,4.21,4.21,1156304,,,Verified
DOW.AX,31-JAN-2015,,End Of Day,No Trades,,,,,,,,Verified
DOW.AX,01-FEB-2015,,End Of Day,No Trades,,,,,,,,Verified
DOW.AX,02-FEB-2015,,End Of Day,,4.18,4.2,4.08,4.13,1450954,,,Verified
DOW.AX,03-FEB-2015,,End Of Day,,4.15,4.315,4.15,4.27,2855868,,,Verified
DOW.AX,04-FEB-2015,,End Of Day,,4.47,4.555,4.43,4.49,2374887,,,Verified
DOW.AX,05-FEB-2015,,End Of Day,,4.3,4.45,4.21,4.45,5499460,,,Verified
DOW.AX,06-FEB-2015,,End Of Day,,4.4,4.44,4.16,4.22,3354830,,,Verified
DOW.AX,07-FEB-2015,,End Of Day,No Trades,,,,,,,,Verified
DOW.AX,08-FEB-2015,,End Of Day,No Trades,,,,,,,,Verified
DOW.AX,09-FEB-2015,,End Of Day,,4.2,4.265,4.15,4.26,2094456,,,Verified
DOW.AX,10-FEB-2015,,End Of Day,,4.22,4.285,4.19,4.21,2561531,,,Verified
DOW.AX,11-FEB-2015,,End Of Day,,4.27,4.28,4.15,4.17,2629754,,,Verified
DOW.AX,12-FEB-2015,,End Of Day,,4.22,4.22,4.14,4.2,2507782,,,Verified
DOW.AX,13-FEB-2015,,End Of Day,,4.25,4.41,4.23,4.36,2159314,,,Verified
DOW.AX,14-FEB-2015,,End Of Day,No Trades,,,,,,,,Verified
DOW.AX,15-FEB-2015,,End Of Day,No Trades,,,,,,,,Verified
DOW.AX,16-FEB-2015,,End Of Day,,4.39,4.41,4.32,4.34,1342814,,,Verified
DOW.AX,17-FEB-2015,,End Of Day,,4.21,4.26,4.14,4.17,1904698,,,Verified
DOW.AX,18-FEB-2015,,End Of Day,,4.2,4.4,4.175,4.33,2301110,,,Verified
DOW.AX,19-FEB-2015,,End Of Day,,4.4,4.4,4.29,4.3,1331775,,,Verified
DOW.AX,20-FEB-2015,,End Of Day,,4.34,4.34,4.21,4.28,1681478,,,Verified
DOW.AX,21-FEB-2015,,End Of Day,No Trades,,,,,,,,Verified
DOW.AX,22-FEB-2015,,End Of Day,No Trades,,,,,,,,Verified
DOW.AX,23-FEB-2015,,End Of Day,,4.32,4.37,4.295,4.35,2093370,,,Verified
DOW.AX,24-FEB-2015,,End Of Day,,4.37,4.46,4.345,4.4,1540642,,,Verified
DOW.AX,25-FEB-2015,,End Of Day,,4.4,4.5,4.39,4.5,1587243,,,Verified
DOW.AX,26-FEB-2015,,End Of Day,,4.4,4.435,4.35,4.41,2179100,,,Verified
DOW.AX,27-FEB-2015,,End Of Day,,4.44,4.46,4.4,4.42,2491286,,,Verified
DOW.AX,28-FEB-2015,,End Of Day,No Trades,,,,,,,,Verified
DOW.AX,01-MAR-2015,,End Of Day,No Trades,,,,,,,,Verified
DOW.AX,02-MAR-2015,,End Of Day,,4.45,4.45,4.38,4.39,1541169,,,Verified
DOW.AX,03-MAR-2015,,End Of Day,,4.41,4.49,4.41,4.43,2029786,,,Verified
DOW.AX,04-MAR-2015,,End Of Day,,4.5,4.58,4.42,4.42,2070969,,,Verified
DOW.AX,05-MAR-2015,,End Of Day,,4.42,4.51,4.42,4.49,1282986,,,Verified
DOW.AX,06-MAR-2015,,End Of Day,,4.5,4.505,4.365,4.44,1837507,,,Verified
DOW.AX,07-MAR-2015,,End Of Day,No Trades,,,,,,,,Verified
DOW.AX,08-MAR-2015,,End Of Day,No Trades,,,,,,,,Verified
DOW.AX,09-MAR-2015,,End Of Day,,4.42,4.45,4.37,4.4,1507346,,,Verified
DOW.AX,10-MAR-2015,,End Of Day,,4.49,4.49,4.34,4.34,1984572,,,Verified
DOW.AX,11-MAR-2015,,End Of Day,,4.32,4.425,4.29,4.3,2117108,,,Verified
DOW.AX,12-MAR-2015,,End Of Day,,4.32,4.41,4.32,4.35,1187133,,,Verified
DOW.AX,13-MAR-2015,,End Of Day,,4.35,4.44,4.35,4.44,1275684,,,Verified
DOW.AX,14-MAR-2015,,End Of Day,No Trades,,,,,,,,Verified
DOW.AX,15-MAR-2015,,End Of Day,No Trades,,,,,,,,Verified
DOW.AX,16-MAR-2015,,End Of Day,,4.44,4.44,4.33,4.38,1192867,,,Verified
DOW.AX,17-MAR-2015,,End Of Day,,4.41,4.45,4.31,4.35,1326131,,,Verified
DOW.AX,18-MAR-2015,,End Of Day,,4.34,4.38,4.28,4.38,1200691,,,Verified
DOW.AX,19-MAR-2015,,End Of Day,,4.46,4.58,4.45,4.54,2195269,,,Verified
DOW.AX,20-MAR-2015,,End Of Day,,4.55,4.73,4.52,4.71,2134061,,,Verified
DOW.AX,21-MAR-2015,,End Of Day,No Trades,,,,,,,,Verified
DOW.AX,22-MAR-2015,,End Of Day,No Trades,,,,,,,,Verified
DOW.AX,23-MAR-2015,,End Of Day,,4.75,4.75,4.56,4.61,1423839,,,Verified
DOW.AX,24-MAR-2015,,End Of Day,,4.54,4.59,4.47,4.56,1292248,,,Verified
DOW.AX,25-MAR-2015,,End Of Day,,4.6,4.6,4.52,4.58,1245603,,,Verified
DOW.AX,26-MAR-2015,,End Of Day,,4.52,4.565,4.44,4.5,1194362,,,Verified
DOW.AX,27-MAR-2015,,End Of Day,,4.48,4.58,4.48,4.55,931303,,,Verified
DOW.AX,28-MAR-2015,,End Of Day,No Trades,,,,,,,,Verified
DOW.AX,29-MAR-2015,,End Of Day,No Trades,,,,,,,,Verified
DOW.AX,30-MAR-2015,,End Of Day,,4.46,4.52,4.42,4.49,1184416,,,Verified
DOW.AX,31-MAR-2015,,End Of Day,,4.55,4.6,4.45,4.47,1240413,,,Verified
DOW.AX,01-APR-2015,,End Of Day,,4.52,4.52,4.42,4.45,1430348,,,Verified
DOW.AX,02-APR-2015,,End Of Day,,4.46,4.53,4.42,4.51,1009452,,,Verified
DOW.AX,03-APR-2015,,End Of Day,No Trades,,,,,,,,Verified
DOW.AX,04-APR-2015,,End Of Day,No Trades,,,,,,,,Verified
DOW.AX,05-APR-2015,,End Of Day,No Trades,,,,,,,,Verified
DOW.AX,06-APR-2015,,End Of Day,No Trades,,,,,,,,Verified
DOW.AX,07-APR-2015,,End Of Day,,4.51,4.54,4.46,4.5,1300606,,,Verified
DOW.AX,08-APR-2015,,End Of Day,,4.54,4.64,4.5,4.63,1176772,,,Verified
DOW.AX,09-APR-2015,,End Of Day,,4.62,4.62,4.45,4.48,985856,,,Verified
DOW.AX,10-APR-2015,,End Of Day,,4.48,4.48,4.39,4.45,512063,,,Verified
DOW.AX,11-APR-2015,,End Of Day,No Trades,,,,,,,,Verified
DOW.AX,12-APR-2015,,End Of Day,No Trades,,,,,,,,Verified
DOW.AX,13-APR-2015,,End Of Day,,4.47,4.5,4.33,4.35,844080,,,Verified
DOW.AX,14-APR-2015,,End Of Day,,4.35,4.43,4.28,4.39,2141722,,,Verified
DOW.AX,15-APR-2015,,End Of Day,,4.38,4.43,4.35,4.38,2182071,,,Verified
DOW.AX,16-APR-2015,,End Of Day,,4.55,4.55,4.37,4.38,1402619,,,Verified
DOW.AX,17-APR-2015,,End Of Day,,4.38,4.4,4.34,4.36,1683074,,,Verified
DOW.AX,18-APR-2015,,End Of Day,No Trades,,,,,,,,Verified
DOW.AX,19-APR-2015,,End Of Day,No Trades,,,,,,,,Verified
DOW.AX,20-APR-2015,,End Of Day,,4.33,4.33,4.22,4.25,1416935,,,Verified
DOW.AX,21-APR-2015,,End Of Day,,4.32,4.33,4.29,4.31,1279652,,,Verified
DOW.AX,22-APR-2015,,End Of Day,,4.32,4.37,4.25,4.34,2229800,,,Verified
DOW.AX,23-APR-2015,,End Of Day,,4.35,4.4,4.28,4.31,1244985,,,Verified
DOW.AX,24-APR-2015,,End Of Day,,4.34,4.42,4.325,4.37,1643042,,,Verified
DOW.AX,25-APR-2015,,End Of Day,No Trades,,,,,,,,Verified
DOW.AX,26-APR-2015,,End Of Day,No Trades,,,,,,,,Verified
DOW.AX,27-APR-2015,,End Of Day,,4.4,4.51,4.4,4.5,1331741,,,Verified
DOW.AX,28-APR-2015,,End Of Day,,4.5,4.56,4.46,4.54,1379516,,,Verified
DOW.AX,29-APR-2015,,End Of Day,,4.52,4.56,4.5,4.52,1741913,,,Verified
DOW.AX,30-APR-2015,,End Of Day,,4.4,4.49,4.4,4.43,2294707,,,Verified
DOW.AX,01-MAY-2015,,End Of Day,,4.35,4.6,4.35,4.56,1265179,,,Verified
DOW.AX,02-MAY-2015,,End Of Day,No Trades,,,,,,,,Verified
DOW.AX,03-MAY-2015,,End Of Day,No Trades,,,,,,,,Verified
DOW.AX,04-MAY-2015,,End Of Day,,4.56,4.67,4.54,4.63,1917413,,,Verified
DOW.AX,05-MAY-2015,,End Of Day,,4.68,4.74,4.65,4.7,4419714,,,Verified
DOW.AX,06-MAY-2015,,End Of Day,,4.56,4.86,4.55,4.83,2108144,,,Verified
DOW.AX,07-MAY-2015,,End Of Day,,4.67,4.84,4.67,4.8,1503233,,,Verified
DOW.AX,08-MAY-2015,,End Of Day,,4.8,4.86,4.765,4.81,1844769,,,Verified
DOW.AX,09-MAY-2015,,End Of Day,No Trades,,,,,,,,Verified
DOW.AX,10-MAY-2015,,End Of Day,No Trades,,,,,,,,Verified
DOW.AX,11-MAY-2015,,End Of Day,,4.85,4.93,4.84,4.89,2606570,,,Verified
DOW.AX,12-MAY-2015,,End Of Day,,4.79,4.95,4.73,4.94,3102113,,,Verified
DOW.AX,13-MAY-2015,,End Of Day,,4.92,5,4.89,4.93,2563424,,,Verified
DOW.AX,14-MAY-2015,,End Of Day,,4.91,4.95,4.88,4.91,2278590,,,Verified
DOW.AX,15-MAY-2015,,End Of Day,,4.96,4.98,4.875,4.92,2091166,,,Verified
DOW.AX,16-MAY-2015,,End Of Day,No Trades,,,,,,,,Verified
DOW.AX,17-MAY-2015,,End Of Day,No Trades,,,,,,,,Verified
DOW.AX,18-MAY-2015,,End Of Day,,4.94,4.99,4.93,4.94,1341938,,,Verified
DOW.AX,19-MAY-2015,,End Of Day,,4.92,4.92,4.74,4.77,2830021,,,Verified
DOW.AX,20-MAY-2015,,End Of Day,,4.78,4.82,4.69,4.81,1967678,,,Verified
DOW.AX,21-MAY-2015,,End Of Day,,4.82,4.95,4.82,4.92,2586729,,,Verified
DOW.AX,22-MAY-2015,,End Of Day,,4.88,4.99,4.88,4.96,2515935,,,Verified
DOW.AX,23-MAY-2015,,End Of Day,No Trades,,,,,,,,Verified
DOW.AX,24-MAY-2015,,End Of Day,No Trades,,,,,,,,Verified
DOW.AX,25-MAY-2015,,End Of Day,,4.95,5.07,4.95,5.07,2014887,,,Verified
DOW.AX,26-MAY-2015,,End Of Day,,5.05,5.15,5.05,5.14,1485959,,,Verified
DOW.AX,27-MAY-2015,,End Of Day,,5.12,5.2,5.06,5.17,1428850,,,Verified
DOW.AX,28-MAY-2015,,End Of Day,,5.2,5.21,5.11,5.16,3495829,,,Verified
DOW.AX,29-MAY-2015,,End Of Day,,5.15,5.22,5.14,5.15,2371865,,,Verified
DOW.AX,30-MAY-2015,,End Of Day,No Trades,,,,,,,,Verified
DOW.AX,31-MAY-2015,,End Of Day,No Trades,,,,,,,,Verified
DOW.AX,01-JUN-2015,,End Of Day,,5.14,5.2,5.115,5.19,1883156,,,Verified
DOW.AX,02-JUN-2015,,End Of Day,,5.2,5.22,4.91,4.95,2873161,,,Verified
DOW.AX,03-JUN-2015,,End Of Day,,4.86,4.96,4.85,4.94,2122384,,,Verified
DOW.AX,04-JUN-2015,,End Of Day,,4.99,5.01,4.92,4.96,1817024,,,Verified
DOW.AX,05-JUN-2015,,End Of Day,,4.94,5.01,4.88,5,1446900,,,Verified
DOW.AX,06-JUN-2015,,End Of Day,No Trades,,,,,,,,Verified
DOW.AX,07-JUN-2015,,End Of Day,No Trades,,,,,,,,Verified
DOW.AX,08-JUN-2015,,End Of Day,No Trades,,,,,,,,Verified
DOW.AX,09-JUN-2015,,End Of Day,,5,5.11,5,5.03,3063373,,,Verified
DOW.AX,10-JUN-2015,,End Of Day,,5.06,5.09,4.99,5.06,1522135,,,Verified
DOW.AX,11-JUN-2015,,End Of Day,,5.05,5.14,5.03,5.06,2978637,,,Verified
DOW.AX,12-JUN-2015,,End Of Day,,5.02,5.125,4.99,5.06,1668154,,,Verified
DOW.AX,13-JUN-2015,,End Of Day,No Trades,,,,,,,,Verified
DOW.AX,14-JUN-2015,,End Of Day,No Trades,,,,,,,,Verified
DOW.AX,15-JUN-2015,,End Of Day,,5.12,5.12,5.05,5.07,2075893,,,Verified
DOW.AX,16-JUN-2015,,End Of Day,,5.13,5.13,4.93,4.96,4905772,,,Verified
DOW.AX,17-JUN-2015,,End Of Day,,5,5.04,4.96,4.99,2777441,,,Verified
DOW.AX,18-JUN-2015,,End Of Day,,4.92,4.995,4.87,4.87,2984389,,,Verified
DOW.AX,19-JUN-2015,,End Of Day,,4.93,5.01,4.9,4.97,2880883,,,Verified
DOW.AX,20-JUN-2015,,End Of Day,No Trades,,,,,,,,Verified
DOW.AX,21-JUN-2015,,End Of Day,No Trades,,,,,,,,Verified
DOW.AX,22-JUN-2015,,End Of Day,,4.99,5.01,4.9,4.99,1895775,,,Verified
DOW.AX,23-JUN-2015,,End Of Day,,5.07,5.08,5.03,5.04,2719890,,,Verified
DOW.AX,24-JUN-2015,,End Of Day,,5.02,5.07,4.97,5.01,3039990,,,Verified
DOW.AX,25-JUN-2015,,End Of Day,,5,5,4.83,4.85,4452135,,,Verified
DOW.AX,26-JUN-2015,,End Of Day,,4.8,4.83,4.67,4.69,5126476,,,Verified
DOW.AX,27-JUN-2015,,End Of Day,No Trades,,,,,,,,Verified
DOW.AX,28-JUN-2015,,End Of Day,No Trades,,,,,,,,Verified
DOW.AX,29-JUN-2015,,End Of Day,,4.61,4.69,4.555,4.68,3401513,,,Verified
DOW.AX,30-JUN-2015,,End Of Day,,4.61,4.84,4.61,4.78,3938227,,,Verified
DOW.AX,01-JUL-2015,,End Of Day,,4.81,4.97,4.81,4.97,4600138,,,Verified
DOW.AX,02-JUL-2015,,End Of Day,,5,5.02,4.91,4.97,2364991,,,Verified
DOW.AX,03-JUL-2015,,End Of Day,,4.95,4.98,4.87,4.93,2987377,,,Verified
DOW.AX,04-JUL-2015,,End Of Day,No Trades,,,,,,,,Verified
DOW.AX,05-JUL-2015,,End Of Day,No Trades,,,,,,,,Verified
DOW.AX,06-JUL-2015,,End Of Day,,4.87,4.88,4.75,4.78,1410466,,,Verified
DOW.AX,07-JUL-2015,,End Of Day,,4.84,4.92,4.74,4.76,3211646,,,Verified
DOW.AX,08-JUL-2015,,End Of Day,,4.71,4.715,4.61,4.62,2554813,,,Verified
DOW.AX,09-JUL-2015,,End Of Day,,4.59,4.71,4.485,4.7,2359698,,,Verified
DOW.AX,10-JUL-2015,,End Of Day,,4.76,4.84,4.7,4.76,3787670,,,Verified
DOW.AX,11-JUL-2015,,End Of Day,No Trades,,,,,,,,Verified
DOW.AX,12-JUL-2015,,End Of Day,No Trades,,,,,,,,Verified
DOW.AX,13-JUL-2015,,End Of Day,,4.72,4.72,4.61,4.62,1686123,,,Verified
DOW.AX,14-JUL-2015,,End Of Day,,4.75,4.8,4.72,4.8,2191715,,,Verified
DOW.AX,15-JUL-2015,,End Of Day,,4.8,4.84,4.75,4.79,1598689,,,Verified
DOW.AX,16-JUL-2015,,End Of Day,,4.87,4.87,4.74,4.8,1533792,,,Verified
DOW.AX,17-JUL-2015,,End Of Day,,4.77,4.77,4.63,4.7,2076046,,,Verified
DOW.AX,18-JUL-2015,,End Of Day,No Trades,,,,,,,,Verified
DOW.AX,19-JUL-2015,,End Of Day,No Trades,,,,,,,,Verified
DOW.AX,20-JUL-2015,,End Of Day,,4.73,4.82,4.73,4.78,1495685,,,Verified
DOW.AX,21-JUL-2015,,End Of Day,,4.82,4.82,4.65,4.68,2864004,,,Verified
DOW.AX,22-JUL-2015,,End Of Day,,4.68,4.7,4.61,4.61,3738151,,,Verified
DOW.AX,23-JUL-2015,,End Of Day,,4.64,4.64,4.56,4.57,1544239,,,Verified
DOW.AX,24-JUL-2015,,End Of Day,,4.56,4.62,4.535,4.61,3125722,,,Verified
DOW.AX,25-JUL-2015,,End Of Day,No Trades,,,,,,,,Verified
DOW.AX,26-JUL-2015,,End Of Day,No Trades,,,,,,,,Verified
DOW.AX,27-JUL-2015,,End Of Day,,4.55,4.6,4.54,4.6,1273858,,,Verified
DOW.AX,28-JUL-2015,,End Of Day,,4.51,4.55,4.43,4.49,3771124,,,Verified
DOW.AX,29-JUL-2015,,End Of Day,,4.56,4.57,4.5,4.55,1789649,,,Verified
DOW.AX,30-JUL-2015,,End Of Day,,4.56,4.57,4.5,4.52,2327608,,,Verified
DOW.AX,31-JUL-2015,,End Of Day,,4.52,4.585,4.52,4.55,2976057,,,Verified
DOW.AX,01-AUG-2015,,End Of Day,No Trades,,,,,,,,Verified
DOW.AX,02-AUG-2015,,End Of Day,No Trades,,,,,,,,Verified
DOW.AX,03-AUG-2015,,End Of Day,,4.53,4.56,4.49,4.5,1795254,,,Verified
DOW.AX,04-AUG-2015,,End Of Day,,4.49,4.53,4.46,4.53,2377968,,,Verified
DOW.AX,05-AUG-2015,,End Of Day,,4.54,4.61,4.49,4.58,2544254,,,Verified
DOW.AX,06-AUG-2015,,End Of Day,,4.12,4.25,4,4.06,5571395,,,Verified
DOW.AX,07-AUG-2015,,End Of Day,,4.02,4.07,3.94,3.98,5971269,,,Verified
DOW.AX,08-AUG-2015,,End Of Day,No Trades,,,,,,,,Verified
DOW.AX,09-AUG-2015,,End Of Day,No Trades,,,,,,,,Verified
DOW.AX,10-AUG-2015,,End Of Day,,3.96,3.98,3.855,3.92,3872940,,,Verified
DOW.AX,11-AUG-2015,,End Of Day,,3.94,3.95,3.86,3.87,3626117,,,Verified
DOW.AX,12-AUG-2015,,End Of Day,,3.87,3.9,3.74,3.78,5471021,,,Verified
DOW.AX,13-AUG-2015,,End Of Day,,3.77,3.85,3.74,3.75,3949552,,,Verified
DOW.AX,14-AUG-2015,,End Of Day,,3.76,3.79,3.69,3.72,4433620,,,Verified
DOW.AX,15-AUG-2015,,End Of Day,No Trades,,,,,,,,Verified
DOW.AX,16-AUG-2015,,End Of Day,No Trades,,,,,,,,Verified
DOW.AX,17-AUG-2015,,End Of Day,,3.76,3.78,3.62,3.66,3088689,,,Verified
DOW.AX,18-AUG-2015,,End Of Day,,3.54,3.57,3.475,3.53,3133830,,,Verified
DOW.AX,19-AUG-2015,,End Of Day,,3.52,3.55,3.48,3.55,2414277,,,Verified
DOW.AX,20-AUG-2015,,End Of Day,,3.55,3.595,3.51,3.55,3648975,,,Verified
DOW.AX,21-AUG-2015,,End Of Day,,3.5,3.6,3.44,3.55,3876860,,,Verified
DOW.AX,22-AUG-2015,,End Of Day,No Trades,,,,,,,,Verified
DOW.AX,23-AUG-2015,,End Of Day,No Trades,,,,,,,,Verified
DOW.AX,24-AUG-2015,,End Of Day,,3.48,3.51,3.355,3.4,2966848,,,Verified
DOW.AX,25-AUG-2015,,End Of Day,,3.26,3.56,3.25,3.55,4295118,,,Verified
DOW.AX,26-AUG-2015,,End Of Day,,3.42,3.57,3.42,3.55,3395930,,,Verified
DOW.AX,27-AUG-2015,,End Of Day,,3.57,3.62,3.53,3.59,2672660,,,Verified
DOW.AX,28-AUG-2015,,End Of Day,,3.68,3.7,3.6,3.64,2534750,,,Verified
DOW.AX,29-AUG-2015,,End Of Day,No Trades,,,,,,,,Verified
DOW.AX,30-AUG-2015,,End Of Day,No Trades,,,,,,,,Verified
DOW.AX,31-AUG-2015,,End Of Day,,3.6,3.67,3.56,3.62,1241394,,,Verified
DOW.AX,01-SEP-2015,,End Of Day,,3.57,3.59,3.41,3.44,2012343,,,Verified
DOW.AX,02-SEP-2015,,End Of Day,,3.38,3.44,3.335,3.41,2959863,,,Verified
DOW.AX,03-SEP-2015,,End Of Day,,3.43,3.46,3.37,3.37,2219539,,,Verified
DOW.AX,04-SEP-2015,,End Of Day,,3.39,3.42,3.31,3.34,2774744,,,Verified
DOW.AX,05-SEP-2015,,End Of Day,No Trades,,,,,,,,Verified
DOW.AX,06-SEP-2015,,End Of Day,No Trades,,,,,,,,Verified
DOW.AX,07-SEP-2015,,End Of Day,,3.34,3.35,3.25,3.3,1622561,,,Verified
DOW.AX,08-SEP-2015,,End Of Day,,3.35,3.44,3.34,3.42,1617764,,,Verified
DOW.AX,09-SEP-2015,,End Of Day,,3.46,3.53,3.43,3.49,2510960,,,Verified
DOW.AX,10-SEP-2015,,End Of Day,,3.44,3.6,3.43,3.49,3006811,,,Verified
DOW.AX,11-SEP-2015,,End Of Day,,3.49,3.52,3.45,3.48,2768927,,,Verified
DOW.AX,12-SEP-2015,,End Of Day,No Trades,,,,,,,,Verified
DOW.AX,13-SEP-2015,,End Of Day,No Trades,,,,,,,,Verified
DOW.AX,14-SEP-2015,,End Of Day,,3.53,3.55,3.48,3.5,2150156,,,Verified
DOW.AX,15-SEP-2015,,End Of Day,,3.51,3.53,3.47,3.48,2525607,,,Verified
DOW.AX,16-SEP-2015,,End Of Day,,3.46,3.51,3.42,3.5,2709051,,,Verified
DOW.AX,17-SEP-2015,,End Of Day,,3.5,3.585,3.48,3.54,2331729,,,Verified
DOW.AX,18-SEP-2015,,End Of Day,,3.51,3.59,3.47,3.58,2780971,,,Verified
DOW.AX,19-SEP-2015,,End Of Day,No Trades,,,,,,,,Verified
DOW.AX,20-SEP-2015,,End Of Day,No Trades,,,,,,,,Verified
DOW.AX,21-SEP-2015,,End Of Day,,3.49,3.5,3.43,3.49,1558444,,,Verified
DOW.AX,22-SEP-2015,,End Of Day,,3.52,3.56,3.43,3.45,1397239,,,Verified
DOW.AX,23-SEP-2015,,End Of Day,,3.41,3.48,3.4,3.42,1385773,,,Verified
DOW.AX,24-SEP-2015,,End Of Day,,3.45,3.47,3.39,3.45,2216782,,,Verified
DOW.AX,25-SEP-2015,,End Of Day,,3.48,3.5,3.29,3.31,2321556,,,Verified
DOW.AX,26-SEP-2015,,End Of Day,No Trades,,,,,,,,Verified
DOW.AX,27-SEP-2015,,End Of Day,No Trades,,,,,,,,Verified
DOW.AX,28-SEP-2015,,End Of Day,,3.32,3.425,3.3,3.42,1486215,,,Verified
DOW.AX,29-SEP-2015,,End Of Day,,3.32,3.33,3.23,3.27,2375871,,,Verified
DOW.AX,30-SEP-2015,,End Of Day,,3.28,3.38,3.26,3.34,2472211,,,Verified
DOW.AX,01-OCT-2015,,End Of Day,,3.36,3.515,3.36,3.49,1621450,,,Verified
DOW.AX,02-OCT-2015,,End Of Day,,3.47,3.51,3.42,3.45,1370147,,,Verified
DOW.AX,03-OCT-2015,,End Of Day,No Trades,,,,,,,,Verified
DOW.AX,04-OCT-2015,,End Of Day,No Trades,,,,,,,,Verified
DOW.AX,05-OCT-2015,,End Of Day,,3.47,3.58,3.47,3.57,674399,,,Verified
DOW.AX,06-OCT-2015,,End Of Day,,3.59,3.67,3.57,3.62,1259167,,,Verified
DOW.AX,07-OCT-2015,,End Of Day,,3.65,3.67,3.56,3.66,1302132,,,Verified
DOW.AX,08-OCT-2015,,End Of Day,,3.67,3.72,3.59,3.62,2140848,,,Verified
DOW.AX,09-OCT-2015,,End Of Day,,3.7,3.79,3.68,3.77,2747814,,,Verified
DOW.AX,10-OCT-2015,,End Of Day,No Trades,,,,,,,,Verified
DOW.AX,11-OCT-2015,,End Of Day,No Trades,,,,,,,,Verified
DOW.AX,12-OCT-2015,,End Of Day,,3.76,3.84,3.75,3.82,1611415,,,Verified
DOW.AX,13-OCT-2015,,End Of Day,,3.85,3.88,3.67,3.69,2271337,,,Verified
DOW.AX,14-OCT-2015,,End Of Day,,3.65,3.8,3.62,3.73,1757985,,,Verified
DOW.AX,15-OCT-2015,,End Of Day,,3.79,3.87,3.75,3.84,1617897,,,Verified
DOW.AX,16-OCT-2015,,End Of Day,,3.9,3.98,3.87,3.93,2020428,,,Verified
DOW.AX,17-OCT-2015,,End Of Day,No Trades,,,,,,,,Verified
DOW.AX,18-OCT-2015,,End Of Day,No Trades,,,,,,,,Verified
DOW.AX,19-OCT-2015,,End Of Day,,3.91,3.96,3.825,3.87,1063572,,,Verified
DOW.AX,20-OCT-2015,,End Of Day,,3.84,3.89,3.67,3.71,2528969,,,Verified
DOW.AX,21-OCT-2015,,End Of Day,,3.67,3.785,3.67,3.77,1926681,,,Verified
DOW.AX,22-OCT-2015,,End Of Day,,3.74,3.78,3.68,3.7,1186838,,,Verified
DOW.AX,23-OCT-2015,,End Of Day,,3.79,3.825,3.735,3.75,2180536,,,Verified
DOW.AX,24-OCT-2015,,End Of Day,No Trades,,,,,,,,Verified
DOW.AX,25-OCT-2015,,End Of Day,No Trades,,,,,,,,Verified
DOW.AX,26-OCT-2015,,End Of Day,,3.78,3.79,3.67,3.67,1581778,,,Verified
DOW.AX,27-OCT-2015,,End Of Day,,3.69,3.7,3.57,3.6,2891099,,,Verified
DOW.AX,28-OCT-2015,,End Of Day,,3.61,3.63,3.51,3.52,2343747,,,Verified
DOW.AX,29-OCT-2015,,End Of Day,,3.57,3.635,3.56,3.58,2540324,,,Verified
DOW.AX,30-OCT-2015,,End Of Day,,3.55,3.56,3.485,3.55,1791024,,,Verified
DOW.AX,31-OCT-2015,,End Of Day,No Trades,,,,,,,,Verified
DOW.AX,01-NOV-2015,,End Of Day,No Trades,,,,,,,,Verified
DOW.AX,02-NOV-2015,,End Of Day,,3.55,3.6,3.53,3.56,1387046,,,Verified
DOW.AX,03-NOV-2015,,End Of Day,,3.6,3.62,3.56,3.62,1938826,,,Verified
DOW.AX,04-NOV-2015,,End Of Day,,3.64,3.74,3.62,3.65,2296874,,,Verified
DOW.AX,05-NOV-2015,,End Of Day,,3.65,3.67,3.57,3.6,1610165,,,Verified
DOW.AX,06-NOV-2015,,End Of Day,,3.58,3.64,3.52,3.56,1732874,,,Verified
DOW.AX,07-NOV-2015,,End Of Day,No Trades,,,,,,,,Verified
DOW.AX,08-NOV-2015,,End Of Day,No Trades,,,,,,,,Verified
DOW.AX,09-NOV-2015,,End Of Day,,3.51,3.58,3.5,3.53,2173108,,,Verified
DOW.AX,10-NOV-2015,,End Of Day,,3.5,3.52,3.43,3.47,2737031,,,Verified
DOW.AX,11-NOV-2015,,End Of Day,,3.46,3.48,3.35,3.38,2745997,,,Verified
DOW.AX,12-NOV-2015,,End Of Day,,3.43,3.45,3.38,3.43,2897780,,,Verified
DOW.AX,13-NOV-2015,,End Of Day,,3.39,3.41,3.28,3.41,2730704,,,Verified
DOW.AX,14-NOV-2015,,End Of Day,No Trades,,,,,,,,Verified
DOW.AX,15-NOV-2015,,End Of Day,No Trades,,,,,,,,Verified
DOW.AX,16-NOV-2015,,End Of Day,,3.35,3.36,3.27,3.3,1817813,,,Verified
DOW.AX,17-NOV-2015,,End Of Day,,3.34,3.38,3.3,3.38,1980503,,,Verified
DOW.AX,18-NOV-2015,,End Of Day,,3.38,3.51,3.36,3.51,3469033,,,Verified
DOW.AX,19-NOV-2015,,End Of Day,,3.54,3.655,3.52,3.65,1802147,,,Verified
DOW.AX,20-NOV-2015,,End Of Day,,3.65,3.67,3.61,3.64,1743548,,,Verified
DOW.AX,21-NOV-2015,,End Of Day,No Trades,,,,,,,,Verified
DOW.AX,22-NOV-2015,,End Of Day,No Trades,,,,,,,,Verified
DOW.AX,23-NOV-2015,,End Of Day,,3.62,3.67,3.61,3.64,1409450,,,Verified
DOW.AX,24-NOV-2015,,End Of Day,,3.63,3.7,3.59,3.65,1517016,,,Verified
DOW.AX,25-NOV-2015,,End Of Day,,3.65,3.66,3.55,3.59,1815868,,,Verified
DOW.AX,26-NOV-2015,,End Of Day,,3.58,3.66,3.56,3.6,1323984,,,Verified
DOW.AX,27-NOV-2015,,End Of Day,,3.62,3.65,3.57,3.6,644738,,,Verified
DOW.AX,28-NOV-2015,,End Of Day,No Trades,,,,,,,,Verified
DOW.AX,29-NOV-2015,,End Of Day,No Trades,,,,,,,,Verified
DOW.AX,30-NOV-2015,,End Of Day,,3.59,3.64,3.55,3.61,1813919,,,Verified
DOW.AX,01-DEC-2015,,End Of Day,,3.64,3.68,3.57,3.66,1905252,,,Verified
DOW.AX,02-DEC-2015,,End Of Day,,3.66,3.73,3.64,3.69,1354052,,,Verified
DOW.AX,03-DEC-2015,,End Of Day,,3.61,3.7,3.52,3.52,2397848,,,Verified
DOW.AX,04-DEC-2015,,End Of Day,,3.45,3.47,3.38,3.42,3149400,,,Verified
DOW.AX,05-DEC-2015,,End Of Day,No Trades,,,,,,,,Verified
DOW.AX,06-DEC-2015,,End Of Day,No Trades,,,,,,,,Verified
DOW.AX,07-DEC-2015,,End Of Day,,3.48,3.52,3.4,3.42,2641162,,,Verified
DOW.AX,08-DEC-2015,,End Of Day,,3.41,3.45,3.34,3.4,2444568,,,Verified
DOW.AX,09-DEC-2015,,End Of Day,,3.39,3.42,3.36,3.38,2509770,,,Verified
DOW.AX,10-DEC-2015,,End Of Day,,3.38,3.4,3.275,3.31,2370460,,,Verified
DOW.AX,11-DEC-2015,,End Of Day,,3.3,3.35,3.19,3.26,2621165,,,Verified
DOW.AX,12-DEC-2015,,End Of Day,No Trades,,,,,,,,Verified
DOW.AX,13-DEC-2015,,End Of Day,No Trades,,,,,,,,Verified
DOW.AX,14-DEC-2015,,End Of Day,,3.24,3.28,3.2,3.22,1948173,,,Verified
DOW.AX,15-DEC-2015,,End Of Day,,3.21,3.36,3.21,3.25,4640198,,,Verified
DOW.AX,16-DEC-2015,,End Of Day,,3.3,3.31,3.22,3.25,3665642,,,Verified
DOW.AX,17-DEC-2015,,End Of Day,,3.31,3.36,3.27,3.3,3741588,,,Verified
DOW.AX,18-DEC-2015,,End Of Day,,3.29,3.43,3.26,3.43,2724941,,,Verified
DOW.AX,19-DEC-2015,,End Of Day,No Trades,,,,,,,,Verified
DOW.AX,20-DEC-2015,,End Of Day,No Trades,,,,,,,,Verified
DOW.AX,21-DEC-2015,,End Of Day,,3.44,3.475,3.35,3.38,1229236,,,Verified
DOW.AX,22-DEC-2015,,End Of Day,,3.45,3.45,3.385,3.43,1284343,,,Verified
DOW.AX,23-DEC-2015,,End Of Day,,3.47,3.5,3.41,3.44,1324719,,,Verified
DOW.AX,24-DEC-2015,,End Of Day,,3.5,3.5,3.43,3.45,466699,,,Verified
DOW.AX,25-DEC-2015,,End Of Day,No Trades,,,,,,,,Verified
DOW.AX,26-DEC-2015,,End Of Day,No Trades,,,,,,,,Verified
DOW.AX,27-DEC-2015,,End Of Day,No Trades,,,,,,,,Verified
DOW.AX,28-DEC-2015,,End Of Day,No Trades,,,,,,,,Verified
DOW.AX,29-DEC-2015,,End Of Day,,3.5,3.62,3.48,3.59,1214423,,,Verified
DOW.AX,30-DEC-2015,,End Of Day,,3.64,3.64,3.52,3.58,915455,,,Verified
DOW.AX,31-DEC-2015,,End Of Day,,3.62,3.63,3.565,3.6,442475,,,Verified
DOW.AX,01-JAN-2016,,End Of Day,No Trades,,,,,,,,Verified
DOW.AX,02-JAN-2016,,End Of Day,No Trades,,,,,,,,Verified
DOW.AX,03-JAN-2016,,End Of Day,No Trades,,,,,,,,Verified
DOW.AX,04-JAN-2016,,End Of Day,,3.6,3.66,3.52,3.61,1291692,,,Verified
DOW.AX,05-JAN-2016,,End Of Day,,3.59,3.61,3.53,3.55,1392869,,,Verified
DOW.AX,06-JAN-2016,,End Of Day,,3.54,3.55,3.41,3.46,1231613,,,Verified
DOW.AX,07-JAN-2016,,End Of Day,,3.48,3.48,3.33,3.37,1286950,,,Verified
DOW.AX,08-JAN-2016,,End Of Day,,3.31,3.4,3.31,3.39,1529911,,,Verified
DOW.AX,09-JAN-2016,,End Of Day,No Trades,,,,,,,,Verified
DOW.AX,10-JAN-2016,,End Of Day,No Trades,,,,,,,,Verified
DOW.AX,11-JAN-2016,,End Of Day,,3.3,3.31,3.205,3.27,1393726,,,Verified
DOW.AX,12-JAN-2016,,End Of Day,,3.27,3.335,3.24,3.27,2034884,,,Verified
DOW.AX,13-JAN-2016,,End Of Day,,3.27,3.33,3.25,3.32,1456725,,,Verified
DOW.AX,14-JAN-2016,,End Of Day,,3.22,3.3,3.18,3.29,1062081,,,Verified
DOW.AX,15-JAN-2016,,End Of Day,,3.33,3.39,3.32,3.33,1018986,,,Verified
DOW.AX,16-JAN-2016,,End Of Day,No Trades,,,,,,,,Verified
DOW.AX,17-JAN-2016,,End Of Day,No Trades,,,,,,,,Verified
DOW.AX,18-JAN-2016,,End Of Day,,3.27,3.38,3.225,3.37,1616476,,,Verified
DOW.AX,19-JAN-2016,,End Of Day,,3.37,3.37,3.19,3.21,2127144,,,Verified
DOW.AX,20-JAN-2016,,End Of Day,,3.2,3.21,3,3.05,2395407,,,Verified
DOW.AX,21-JAN-2016,,End Of Day,,3.09,3.18,3.05,3.11,1670329,,,Verified
DOW.AX,22-JAN-2016,,End Of Day,,3.15,3.17,3.1,3.17,1647211,,,Verified
DOW.AX,23-JAN-2016,,End Of Day,No Trades,,,,,,,,Verified
DOW.AX,24-JAN-2016,,End Of Day,No Trades,,,,,,,,Verified
DOW.AX,25-JAN-2016,,End Of Day,,3.21,3.24,3.16,3.21,1559859,,,Verified
DOW.AX,26-JAN-2016,,End Of Day,No Trades,,,,,,,,Verified
DOW.AX,27-JAN-2016,,End Of Day,,3.17,3.18,3.04,3.05,2854192,,,Verified
DOW.AX,28-JAN-2016,,End Of Day,,3.04,3.065,2.94,3.03,2541383,,,Verified
DOW.AX,29-JAN-2016,,End Of Day,,3.07,3.15,3.02,3.11,5029371,,,Verified
DOW.AX,30-JAN-2016,,End Of Day,No Trades,,,,,,,,Verified
DOW.AX,31-JAN-2016,,End Of Day,No Trades,,,,,,,,Verified
DOW.AX,01-FEB-2016,,End Of Day,,3.26,3.5,3.12,3.19,5110648,,,Verified
DOW.AX,02-FEB-2016,,End Of Day,,3.21,3.24,3.07,3.09,2498707,,,Verified
DOW.AX,03-FEB-2016,,End Of Day,,3.02,3.16,2.925,2.95,2621757,,,Verified
DOW.AX,04-FEB-2016,,End Of Day,,2.96,3.255,2.77,3.21,4473183,,,Verified
DOW.AX,05-FEB-2016,,End Of Day,,3.21,3.27,3.06,3.13,5724580,,,Verified
DOW.AX,06-FEB-2016,,End Of Day,No Trades,,,,,,,,Verified
DOW.AX,07-FEB-2016,,End Of Day,No Trades,,,,,,,,Verified
DOW.AX,08-FEB-2016,,End Of Day,,3.12,3.26,3.11,3.22,2205598,,,Verified
DOW.AX,09-FEB-2016,,End Of Day,,3.19,3.23,3.11,3.14,2456116,,,Verified
DOW.AX,10-FEB-2016,,End Of Day,,3.14,3.14,3.06,3.12,2660460,,,Verified
DOW.AX,11-FEB-2016,,End Of Day,,3.15,3.18,3.1,3.16,1820386,,,Verified
DOW.AX,12-FEB-2016,,End Of Day,,3.12,3.25,3.11,3.17,2167640,,,Verified
DOW.AX,13-FEB-2016,,End Of Day,No Trades,,,,,,,,Verified
DOW.AX,14-FEB-2016,,End Of Day,No Trades,,,,,,,,Verified
DOW.AX,15-FEB-2016,,End Of Day,,3.19,3.23,3.17,3.17,3320149,,,Verified
DOW.AX,16-FEB-2016,,End Of Day,,3.05,3.22,3.05,3.15,3358781,,,Verified
DOW.AX,17-FEB-2016,,End Of Day,,3.15,3.2,3.1,3.17,2016416,,,Verified
DOW.AX,18-FEB-2016,,End Of Day,,3.24,3.28,3.19,3.27,1862053,,,Verified
DOW.AX,19-FEB-2016,,End Of Day,,3.25,3.26,3.15,3.18,1583716,,,Verified
DOW.AX,20-FEB-2016,,End Of Day,No Trades,,,,,,,,Verified
DOW.AX,21-FEB-2016,,End Of Day,No Trades,,,,,,,,Verified
DOW.AX,22-FEB-2016,,End Of Day,,3.2,3.31,3.17,3.28,2938929,,,Verified
DOW.AX,23-FEB-2016,,End Of Day,,3.29,3.345,3.26,3.26,3535220,,,Verified
DOW.AX,24-FEB-2016,,End Of Day,,3.26,3.28,3.195,3.2,1752308,,,Verified
DOW.AX,25-FEB-2016,,End Of Day,,3.22,3.28,3.16,3.25,2459648,,,Verified
DOW.AX,26-FEB-2016,,End Of Day,,3.27,3.3,3.23,3.28,1249887,,,Verified
DOW.AX,27-FEB-2016,,End Of Day,No Trades,,,,,,,,Verified
DOW.AX,28-FEB-2016,,End Of Day,No Trades,,,,,,,,Verified
DOW.AX,29-FEB-2016,,End Of Day,,3.27,3.365,3.26,3.33,2397856,,,Verified
DOW.AX,01-MAR-2016,,End Of Day,,3.3,3.38,3.27,3.29,2298928,,,Verified
DOW.AX,02-MAR-2016,,End Of Day,,3.34,3.42,3.295,3.39,2426742,,,Verified
DOW.AX,03-MAR-2016,,End Of Day,,3.4,3.5,3.39,3.5,2143600,,,Verified
DOW.AX,04-MAR-2016,,End Of Day,,3.51,3.555,3.48,3.53,2151700,,,Verified
DOW.AX,05-MAR-2016,,End Of Day,No Trades,,,,,,,,Verified
DOW.AX,06-MAR-2016,,End Of Day,No Trades,,,,,,,,Verified
DOW.AX,07-MAR-2016,,End Of Day,,3.56,3.68,3.56,3.68,2296567,,,Verified
DOW.AX,08-MAR-2016,,End Of Day,,3.75,3.78,3.54,3.61,2343087,,,Verified
DOW.AX,09-MAR-2016,,End Of Day,,3.61,3.76,3.58,3.68,2246275,,,Verified
DOW.AX,10-MAR-2016,,End Of Day,,3.7,3.74,3.66,3.68,1260134,,,Verified
DOW.AX,11-MAR-2016,,End Of Day,,3.7,3.78,3.69,3.74,1416603,,,Verified
DOW.AX,12-MAR-2016,,End Of Day,No Trades,,,,,,,,Verified
DOW.AX,13-MAR-2016,,End Of Day,No Trades,,,,,,,,Verified
DOW.AX,14-MAR-2016,,End Of Day,,3.78,3.78,3.72,3.77,1679860,,,Verified
DOW.AX,15-MAR-2016,,End Of Day,,3.76,3.77,3.61,3.63,1152020,,,Verified
DOW.AX,16-MAR-2016,,End Of Day,,3.6,3.67,3.58,3.67,1597324,,,Verified
DOW.AX,17-MAR-2016,,End Of Day,,3.71,3.78,3.69,3.75,1722683,,,Verified
DOW.AX,18-MAR-2016,,End Of Day,,3.74,3.78,3.72,3.77,1944498,,,Verified
DOW.AX,19-MAR-2016,,End Of Day,No Trades,,,,,,,,Verified
DOW.AX,20-MAR-2016,,End Of Day,No Trades,,,,,,,,Verified
DOW.AX,21-MAR-2016,,End Of Day,,3.77,3.78,3.715,3.72,1129792,,,Verified
DOW.AX,22-MAR-2016,,End Of Day,,3.78,3.87,3.72,3.87,1637615,,,Verified
DOW.AX,23-MAR-2016,,End Of Day,,3.89,3.89,3.72,3.74,1207850,,,Verified
DOW.AX,24-MAR-2016,,End Of Day,,3.69,3.76,3.65,3.74,905162,,,Verified
DOW.AX,25-MAR-2016,,End Of Day,No Trades,,,,,,,,Verified
DOW.AX,26-MAR-2016,,End Of Day,No Trades,,,,,,,,Verified
DOW.AX,27-MAR-2016,,End Of Day,No Trades,,,,,,,,Verified
DOW.AX,28-MAR-2016,,End Of Day,No Trades,,,,,,,,Verified
DOW.AX,29-MAR-2016,,End Of Day,,3.73,3.76,3.62,3.72,1794665,,,Verified
DOW.AX,30-MAR-2016,,End Of Day,,3.75,3.75,3.71,3.72,1909187,,,Verified
DOW.AX,31-MAR-2016,,End Of Day,,3.78,3.84,3.76,3.84,1165446,,,Verified
DOW.AX,01-APR-2016,,End Of Day,,3.75,3.79,3.695,3.75,2113298,,,Verified
DOW.AX,02-APR-2016,,End Of Day,No Trades,,,,,,,,Verified
DOW.AX,03-APR-2016,,End Of Day,No Trades,,,,,,,,Verified
DOW.AX,04-APR-2016,,End Of Day,,3.74,3.8,3.72,3.74,1610037,,,Verified
DOW.AX,05-APR-2016,,End Of Day,,3.5,3.56,3.36,3.38,3519629,,,Verified
DOW.AX,06-APR-2016,,End Of Day,,3.36,3.49,3.32,3.49,3645031,,,Verified
DOW.AX,07-APR-2016,,End Of Day,,3.5,3.64,3.5,3.6,2493547,,,Verified
DOW.AX,08-APR-2016,,End Of Day,,3.51,3.57,3.49,3.53,1276626,,,Verified
DOW.AX,09-APR-2016,,End Of Day,No Trades,,,,,,,,Verified
DOW.AX,10-APR-2016,,End Of Day,No Trades,,,,,,,,Verified
DOW.AX,11-APR-2016,,End Of Day,,3.52,3.53,3.38,3.43,1597938,,,Verified
DOW.AX,12-APR-2016,,End Of Day,,3.39,3.47,3.39,3.44,1598052,,,Verified
DOW.AX,13-APR-2016,,End Of Day,,3.44,3.55,3.44,3.52,1214104,,,Verified
DOW.AX,14-APR-2016,,End Of Day,,3.51,3.64,3.51,3.61,1702134,,,Verified
DOW.AX,15-APR-2016,,End Of Day,,3.65,3.7,3.63,3.7,1043654,,,Verified
DOW.AX,16-APR-2016,,End Of Day,No Trades,,,,,,,,Verified
DOW.AX,17-APR-2016,,End Of Day,No Trades,,,,,,,,Verified
DOW.AX,18-APR-2016,,End Of Day,,3.7,3.71,3.61,3.63,1291367,,,Verified
DOW.AX,19-APR-2016,,End Of Day,,3.69,3.75,3.655,3.74,1431313,,,Verified
DOW.AX,20-APR-2016,,End Of Day,,3.72,3.77,3.72,3.73,1142227,,,Verified
DOW.AX,21-APR-2016,,End Of Day,,3.78,3.88,3.76,3.86,1043652,,,Verified
DOW.AX,22-APR-2016,,End Of Day,,3.84,3.84,3.71,3.71,966225,,,Verified
DOW.AX,23-APR-2016,,End Of Day,No Trades,,,,,,,,Verified
DOW.AX,24-APR-2016,,End Of Day,No Trades,,,,,,,,Verified
DOW.AX,25-APR-2016,,End Of Day,No Trades,,,,,,,,Verified
DOW.AX,26-APR-2016,,End Of Day,,3.7,3.79,3.69,3.73,1259480,,,Verified
DOW.AX,27-APR-2016,,End Of Day,,3.76,3.81,3.7,3.71,1135925,,,Verified
DOW.AX,28-APR-2016,,End Of Day,,3.71,3.81,3.71,3.81,1189295,,,Verified
DOW.AX,29-APR-2016,,End Of Day,,3.7,3.75,3.67,3.72,1706793,,,Verified
DOW.AX,30-APR-2016,,End Of Day,No Trades,,,,,,,,Verified
DOW.AX,01-MAY-2016,,End Of Day,No Trades,,,,,,,,Verified
DOW.AX,02-MAY-2016,,End Of Day,,3.73,3.76,3.69,3.73,1306866,,,Verified
DOW.AX,03-MAY-2016,,End Of Day,,3.8,3.84,3.72,3.75,2553384,,,Verified
DOW.AX,04-MAY-2016,,End Of Day,,3.8,3.81,3.66,3.67,7057375,,,Verified
DOW.AX,05-MAY-2016,,End Of Day,,3.7,3.79,3.7,3.75,3553215,,,Verified
DOW.AX,06-MAY-2016,,End Of Day,,3.73,3.75,3.62,3.68,2422105,,,Verified
DOW.AX,07-MAY-2016,,End Of Day,No Trades,,,,,,,,Verified
DOW.AX,08-MAY-2016,,End Of Day,No Trades,,,,,,,,Verified
DOW.AX,09-MAY-2016,,End Of Day,,3.68,3.78,3.67,3.78,1499323,,,Verified
DOW.AX,10-MAY-2016,,End Of Day,,3.79,3.79,3.65,3.68,3054379,,,Verified
DOW.AX,11-MAY-2016,,End Of Day,,3.76,3.77,3.7,3.72,1529122,,,Verified
