#RIC,Date[L],Time[L],Type,Qualifiers,Open,High,Low,Last,Volume,Open Interest,Settle,Data Source
CMW.AX,01-JAN-2014,,End Of Day,No Trades,,,,,,,,Verified
CMW.AX,02-JAN-2014,,End Of Day,,0.985,0.99,0.98,0.99,619676,,,Verified
CMW.AX,03-JAN-2014,,End Of Day,,0.98,0.99,0.98,0.98,451721,,,Verified
CMW.AX,04-JAN-2014,,End Of Day,No Trades,,,,,,,,Verified
CMW.AX,05-JAN-2014,,End Of Day,No Trades,,,,,,,,Verified
CMW.AX,06-JAN-2014,,End Of Day,,0.98,0.985,0.98,0.98,626329,,,Verified
CMW.AX,07-JAN-2014,,End Of Day,,0.985,0.99,0.98,0.99,1084357,,,Verified
CMW.AX,08-JAN-2014,,End Of Day,,0.99,0.995,0.98,0.98,1971710,,,Verified
CMW.AX,09-JAN-2014,,End Of Day,,0.985,0.99,0.98,0.99,1183081,,,Verified
CMW.AX,10-JAN-2014,,End Of Day,,0.99,0.995,0.985,0.995,1736847,,,Verified
CMW.AX,11-JAN-2014,,End Of Day,No Trades,,,,,,,,Verified
CMW.AX,12-JAN-2014,,End Of Day,No Trades,,,,,,,,Verified
CMW.AX,13-JAN-2014,,End Of Day,,0.995,0.995,0.98,0.985,1163965,,,Verified
CMW.AX,14-JAN-2014,,End Of Day,,0.98,0.99,0.975,0.975,1894848,,,Verified
CMW.AX,15-JAN-2014,,End Of Day,,0.98,0.985,0.975,0.985,1955971,,,Verified
CMW.AX,16-JAN-2014,,End Of Day,,0.985,0.995,0.98,0.99,2065830,,,Verified
CMW.AX,17-JAN-2014,,End Of Day,,0.985,0.99,0.97,0.975,1717550,,,Verified
CMW.AX,18-JAN-2014,,End Of Day,No Trades,,,,,,,,Verified
CMW.AX,19-JAN-2014,,End Of Day,No Trades,,,,,,,,Verified
CMW.AX,20-JAN-2014,,End Of Day,,0.975,0.98,0.967,0.97,1850879,,,Verified
CMW.AX,21-JAN-2014,,End Of Day,,0.975,0.985,0.97,0.985,1927271,,,Verified
CMW.AX,22-JAN-2014,,End Of Day,,0.985,0.99,0.98,0.985,1502950,,,Verified
CMW.AX,23-JAN-2014,,End Of Day,,0.985,0.99,0.97,0.97,2125252,,,Verified
CMW.AX,24-JAN-2014,,End Of Day,,0.975,0.985,0.97,0.985,3376780,,,Verified
CMW.AX,25-JAN-2014,,End Of Day,No Trades,,,,,,,,Verified
CMW.AX,26-JAN-2014,,End Of Day,No Trades,,,,,,,,Verified
CMW.AX,27-JAN-2014,,End Of Day,No Trades,,,,,,,,Verified
CMW.AX,28-JAN-2014,,End Of Day,,0.98,0.98,0.962,0.97,3760151,,,Verified
CMW.AX,29-JAN-2014,,End Of Day,,0.97,0.975,0.965,0.97,1175863,,,Verified
CMW.AX,30-JAN-2014,,End Of Day,,0.965,0.97,0.95,0.95,3054815,,,Verified
CMW.AX,31-JAN-2014,,End Of Day,,0.955,0.96,0.955,0.955,1496004,,,Verified
CMW.AX,01-FEB-2014,,End Of Day,No Trades,,,,,,,,Verified
CMW.AX,02-FEB-2014,,End Of Day,No Trades,,,,,,,,Verified
CMW.AX,03-FEB-2014,,End Of Day,,0.955,0.965,0.955,0.955,740966,,,Verified
CMW.AX,04-FEB-2014,,End Of Day,,0.95,0.957,0.947,0.95,3183327,,,Verified
CMW.AX,05-FEB-2014,,End Of Day,,0.95,0.955,0.945,0.945,2444356,,,Verified
CMW.AX,06-FEB-2014,,End Of Day,,0.945,0.952,0.94,0.95,1897359,,,Verified
CMW.AX,07-FEB-2014,,End Of Day,,0.95,0.97,0.95,0.97,4311646,,,Verified
CMW.AX,08-FEB-2014,,End Of Day,No Trades,,,,,,,,Verified
CMW.AX,09-FEB-2014,,End Of Day,No Trades,,,,,,,,Verified
CMW.AX,10-FEB-2014,,End Of Day,,0.97,0.975,0.96,0.96,1126686,,,Verified
CMW.AX,11-FEB-2014,,End Of Day,,0.96,0.97,0.96,0.97,887586,,,Verified
CMW.AX,12-FEB-2014,,End Of Day,,0.965,0.975,0.96,0.975,1885082,,,Verified
CMW.AX,13-FEB-2014,,End Of Day,,0.97,0.975,0.965,0.975,776636,,,Verified
CMW.AX,14-FEB-2014,,End Of Day,,0.98,0.985,0.975,0.985,2158636,,,Verified
CMW.AX,15-FEB-2014,,End Of Day,No Trades,,,,,,,,Verified
CMW.AX,16-FEB-2014,,End Of Day,No Trades,,,,,,,,Verified
CMW.AX,17-FEB-2014,,End Of Day,,0.985,0.99,0.98,0.99,1858129,,,Verified
CMW.AX,18-FEB-2014,,End Of Day,,0.99,0.99,0.975,0.98,1507044,,,Verified
CMW.AX,19-FEB-2014,,End Of Day,,0.98,0.99,0.975,0.985,2322531,,,Verified
CMW.AX,20-FEB-2014,,End Of Day,,0.985,0.99,0.985,0.99,2606648,,,Verified
CMW.AX,21-FEB-2014,,End Of Day,,0.99,0.995,0.985,0.995,3566044,,,Verified
CMW.AX,22-FEB-2014,,End Of Day,No Trades,,,,,,,,Verified
CMW.AX,23-FEB-2014,,End Of Day,No Trades,,,,,,,,Verified
CMW.AX,24-FEB-2014,,End Of Day,,0.995,0.995,0.98,0.99,3588013,,,Verified
CMW.AX,25-FEB-2014,,End Of Day,,0.99,0.99,0.98,0.98,2752961,,,Verified
CMW.AX,26-FEB-2014,,End Of Day,,0.98,0.99,0.98,0.98,1525569,,,Verified
CMW.AX,27-FEB-2014,,End Of Day,,0.985,0.99,0.98,0.985,1651226,,,Verified
CMW.AX,28-FEB-2014,,End Of Day,,0.99,0.99,0.98,0.99,3542978,,,Verified
CMW.AX,01-MAR-2014,,End Of Day,No Trades,,,,,,,,Verified
CMW.AX,02-MAR-2014,,End Of Day,No Trades,,,,,,,,Verified
CMW.AX,03-MAR-2014,,End Of Day,,0.985,0.99,0.982,0.99,2785929,,,Verified
CMW.AX,04-MAR-2014,,End Of Day,,0.99,1,0.987,0.99,6197100,,,Verified
CMW.AX,05-MAR-2014,,End Of Day,,1,1,0.985,0.99,6508911,,,Verified
CMW.AX,06-MAR-2014,,End Of Day,,0.99,0.995,0.985,0.995,6593922,,,Verified
CMW.AX,07-MAR-2014,,End Of Day,,1,1.025,0.995,1.02,11688617,,,Verified
CMW.AX,08-MAR-2014,,End Of Day,No Trades,,,,,,,,Verified
CMW.AX,09-MAR-2014,,End Of Day,No Trades,,,,,,,,Verified
CMW.AX,10-MAR-2014,,End Of Day,,1.02,1.03,1.005,1.01,5317614,,,Verified
CMW.AX,11-MAR-2014,,End Of Day,,1.02,1.02,1.005,1.01,4172117,,,Verified
CMW.AX,12-MAR-2014,,End Of Day,,1.01,1.015,1,1.01,4785176,,,Verified
CMW.AX,13-MAR-2014,,End Of Day,,1.01,1.015,1.005,1.005,4494108,,,Verified
CMW.AX,14-MAR-2014,,End Of Day,,1.005,1.005,0.99,0.995,2453408,,,Verified
CMW.AX,15-MAR-2014,,End Of Day,No Trades,,,,,,,,Verified
CMW.AX,16-MAR-2014,,End Of Day,No Trades,,,,,,,,Verified
CMW.AX,17-MAR-2014,,End Of Day,,0.99,1.005,0.99,1,3921235,,,Verified
CMW.AX,18-MAR-2014,,End Of Day,,1,1.005,0.995,1,4868513,,,Verified
CMW.AX,19-MAR-2014,,End Of Day,,1,1,0.99,1,6645600,,,Verified
CMW.AX,20-MAR-2014,,End Of Day,,1.005,1.005,0.992,1,9618240,,,Verified
CMW.AX,21-MAR-2014,,End Of Day,,1,1.005,0.965,0.965,65781576,,,Verified
CMW.AX,22-MAR-2014,,End Of Day,No Trades,,,,,,,,Verified
CMW.AX,23-MAR-2014,,End Of Day,No Trades,,,,,,,,Verified
CMW.AX,24-MAR-2014,,End Of Day,,0.97,0.985,0.965,0.98,10632767,,,Verified
CMW.AX,25-MAR-2014,,End Of Day,,0.975,0.975,0.95,0.95,11481403,,,Verified
CMW.AX,26-MAR-2014,,End Of Day,,0.955,0.96,0.95,0.96,4209381,,,Verified
CMW.AX,27-MAR-2014,,End Of Day,,0.955,0.957,0.945,0.945,3161877,,,Verified
CMW.AX,28-MAR-2014,,End Of Day,,0.95,0.96,0.945,0.955,3337175,,,Verified
CMW.AX,29-MAR-2014,,End Of Day,No Trades,,,,,,,,Verified
CMW.AX,30-MAR-2014,,End Of Day,No Trades,,,,,,,,Verified
CMW.AX,31-MAR-2014,,End Of Day,,0.955,0.965,0.955,0.96,3373337,,,Verified
CMW.AX,01-APR-2014,,End Of Day,,0.965,0.965,0.955,0.955,7306527,,,Verified
CMW.AX,02-APR-2014,,End Of Day,,0.955,0.96,0.95,0.955,3622771,,,Verified
CMW.AX,03-APR-2014,,End Of Day,,0.95,0.96,0.95,0.96,3689261,,,Verified
CMW.AX,04-APR-2014,,End Of Day,,0.965,0.965,0.955,0.96,2705179,,,Verified
CMW.AX,05-APR-2014,,End Of Day,No Trades,,,,,,,,Verified
CMW.AX,06-APR-2014,,End Of Day,No Trades,,,,,,,,Verified
CMW.AX,07-APR-2014,,End Of Day,,0.955,0.96,0.95,0.955,4769664,,,Verified
CMW.AX,08-APR-2014,,End Of Day,,0.95,0.96,0.95,0.955,3191464,,,Verified
CMW.AX,09-APR-2014,,End Of Day,,0.96,0.965,0.955,0.96,7147760,,,Verified
CMW.AX,10-APR-2014,,End Of Day,,0.965,0.985,0.965,0.98,4963686,,,Verified
CMW.AX,11-APR-2014,,End Of Day,,0.975,0.98,0.967,0.97,4665106,,,Verified
CMW.AX,12-APR-2014,,End Of Day,No Trades,,,,,,,,Verified
CMW.AX,13-APR-2014,,End Of Day,No Trades,,,,,,,,Verified
CMW.AX,14-APR-2014,,End Of Day,,0.965,0.975,0.965,0.965,2725904,,,Verified
CMW.AX,15-APR-2014,,End Of Day,,0.97,0.975,0.965,0.975,1164634,,,Verified
CMW.AX,16-APR-2014,,End Of Day,,0.975,0.975,0.97,0.975,2060621,,,Verified
CMW.AX,17-APR-2014,,End Of Day,,0.98,0.98,0.975,0.98,1131099,,,Verified
CMW.AX,18-APR-2014,,End Of Day,No Trades,,,,,,,,Verified
CMW.AX,19-APR-2014,,End Of Day,No Trades,,,,,,,,Verified
CMW.AX,20-APR-2014,,End Of Day,No Trades,,,,,,,,Verified
CMW.AX,21-APR-2014,,End Of Day,No Trades,,,,,,,,Verified
CMW.AX,22-APR-2014,,End Of Day,,0.98,0.985,0.977,0.985,2259287,,,Verified
CMW.AX,23-APR-2014,,End Of Day,,0.985,0.99,0.985,0.99,969589,,,Verified
CMW.AX,24-APR-2014,,End Of Day,,0.99,1.01,0.987,1,9373495,,,Verified
CMW.AX,25-APR-2014,,End Of Day,No Trades,,,,,,,,Verified
CMW.AX,26-APR-2014,,End Of Day,No Trades,,,,,,,,Verified
CMW.AX,27-APR-2014,,End Of Day,No Trades,,,,,,,,Verified
CMW.AX,28-APR-2014,,End Of Day,,0.995,0.995,0.985,0.985,3392422,,,Verified
CMW.AX,29-APR-2014,,End Of Day,,0.99,0.992,0.982,0.985,3229166,,,Verified
CMW.AX,30-APR-2014,,End Of Day,,0.985,0.99,0.982,0.99,1882357,,,Verified
CMW.AX,01-MAY-2014,,End Of Day,,0.99,0.995,0.97,0.975,4145106,,,Verified
CMW.AX,02-MAY-2014,,End Of Day,,0.98,0.98,0.97,0.97,3603052,,,Verified
CMW.AX,03-MAY-2014,,End Of Day,No Trades,,,,,,,,Verified
CMW.AX,04-MAY-2014,,End Of Day,No Trades,,,,,,,,Verified
CMW.AX,05-MAY-2014,,End Of Day,,0.97,0.975,0.965,0.975,3214947,,,Verified
CMW.AX,06-MAY-2014,,End Of Day,,0.97,0.98,0.97,0.98,2177407,,,Verified
CMW.AX,07-MAY-2014,,End Of Day,,0.98,0.982,0.972,0.98,2769823,,,Verified
CMW.AX,08-MAY-2014,,End Of Day,,0.98,1,0.98,0.995,3167877,,,Verified
CMW.AX,09-MAY-2014,,End Of Day,,0.995,0.995,0.987,0.99,2400884,,,Verified
CMW.AX,10-MAY-2014,,End Of Day,No Trades,,,,,,,,Verified
CMW.AX,11-MAY-2014,,End Of Day,No Trades,,,,,,,,Verified
CMW.AX,12-MAY-2014,,End Of Day,,0.99,0.995,0.985,0.985,1313317,,,Verified
CMW.AX,13-MAY-2014,,End Of Day,,0.985,0.987,0.975,0.975,1831905,,,Verified
CMW.AX,14-MAY-2014,,End Of Day,,0.98,0.99,0.975,0.99,1281774,,,Verified
CMW.AX,15-MAY-2014,,End Of Day,,0.985,0.99,0.98,0.98,2006598,,,Verified
CMW.AX,16-MAY-2014,,End Of Day,,0.98,0.99,0.975,0.98,2040553,,,Verified
CMW.AX,17-MAY-2014,,End Of Day,No Trades,,,,,,,,Verified
CMW.AX,18-MAY-2014,,End Of Day,No Trades,,,,,,,,Verified
CMW.AX,19-MAY-2014,,End Of Day,,0.985,0.987,0.98,0.98,1569321,,,Verified
CMW.AX,20-MAY-2014,,End Of Day,,0.985,0.987,0.98,0.98,1144913,,,Verified
CMW.AX,21-MAY-2014,,End Of Day,,0.985,0.985,0.975,0.98,1740566,,,Verified
CMW.AX,22-MAY-2014,,End Of Day,,0.985,0.99,0.98,0.98,1805473,,,Verified
CMW.AX,23-MAY-2014,,End Of Day,,0.985,0.99,0.98,0.98,1351739,,,Verified
CMW.AX,24-MAY-2014,,End Of Day,No Trades,,,,,,,,Verified
CMW.AX,25-MAY-2014,,End Of Day,No Trades,,,,,,,,Verified
CMW.AX,26-MAY-2014,,End Of Day,,0.985,0.99,0.98,0.99,1026922,,,Verified
CMW.AX,27-MAY-2014,,End Of Day,,0.99,0.995,0.985,0.995,2263516,,,Verified
CMW.AX,28-MAY-2014,,End Of Day,,0.995,1,0.992,1,1310724,,,Verified
CMW.AX,29-MAY-2014,,End Of Day,,0.995,1,0.99,0.995,772593,,,Verified
CMW.AX,30-MAY-2014,,End Of Day,,0.995,1,0.992,0.995,2884157,,,Verified
CMW.AX,31-MAY-2014,,End Of Day,No Trades,,,,,,,,Verified
CMW.AX,01-JUN-2014,,End Of Day,No Trades,,,,,,,,Verified
CMW.AX,02-JUN-2014,,End Of Day,,0.99,0.995,0.99,0.99,2764357,,,Verified
CMW.AX,03-JUN-2014,,End Of Day,,0.995,0.995,0.985,0.985,2584481,,,Verified
CMW.AX,04-JUN-2014,,End Of Day,,0.99,0.995,0.985,0.99,1451999,,,Verified
CMW.AX,05-JUN-2014,,End Of Day,,0.99,0.995,0.98,0.98,2220212,,,Verified
CMW.AX,06-JUN-2014,,End Of Day,,0.985,1,0.98,0.99,3437641,,,Verified
CMW.AX,07-JUN-2014,,End Of Day,No Trades,,,,,,,,Verified
CMW.AX,08-JUN-2014,,End Of Day,No Trades,,,,,,,,Verified
CMW.AX,09-JUN-2014,,End Of Day,No Trades,,,,,,,,Verified
CMW.AX,10-JUN-2014,,End Of Day,,0.995,1,0.99,0.99,1328785,,,Verified
CMW.AX,11-JUN-2014,,End Of Day,,0.995,1,0.99,0.99,2760539,,,Verified
CMW.AX,12-JUN-2014,,End Of Day,,0.99,0.995,0.975,0.98,2589473,,,Verified
CMW.AX,13-JUN-2014,,End Of Day,,0.98,0.985,0.97,0.975,3252445,,,Verified
CMW.AX,14-JUN-2014,,End Of Day,No Trades,,,,,,,,Verified
CMW.AX,15-JUN-2014,,End Of Day,No Trades,,,,,,,,Verified
CMW.AX,16-JUN-2014,,End Of Day,,0.975,0.977,0.97,0.97,2247510,,,Verified
CMW.AX,17-JUN-2014,,End Of Day,,0.97,0.98,0.965,0.98,2489012,,,Verified
CMW.AX,18-JUN-2014,,End Of Day,,0.975,0.985,0.975,0.98,3033170,,,Verified
CMW.AX,19-JUN-2014,,End Of Day,,0.98,0.985,0.98,0.98,6898711,,,Verified
CMW.AX,20-JUN-2014,,End Of Day,,0.98,0.99,0.98,0.99,2992166,,,Verified
CMW.AX,21-JUN-2014,,End Of Day,No Trades,,,,,,,,Verified
CMW.AX,22-JUN-2014,,End Of Day,No Trades,,,,,,,,Verified
CMW.AX,23-JUN-2014,,End Of Day,,0.99,1,0.99,1,3779405,,,Verified
CMW.AX,24-JUN-2014,,End Of Day,,0.995,1,0.985,0.985,3313139,,,Verified
CMW.AX,25-JUN-2014,,End Of Day,,0.99,0.995,0.975,0.995,7430040,,,Verified
CMW.AX,26-JUN-2014,,End Of Day,,0.98,0.995,0.975,0.995,3713049,,,Verified
CMW.AX,27-JUN-2014,,End Of Day,,0.99,0.995,0.98,0.98,2752221,,,Verified
CMW.AX,28-JUN-2014,,End Of Day,No Trades,,,,,,,,Verified
CMW.AX,29-JUN-2014,,End Of Day,No Trades,,,,,,,,Verified
CMW.AX,30-JUN-2014,,End Of Day,,0.985,0.985,0.975,0.975,3185833,,,Verified
CMW.AX,01-JUL-2014,,End Of Day,,0.975,0.975,0.965,0.97,4011036,,,Verified
CMW.AX,02-JUL-2014,,End Of Day,,0.975,0.99,0.975,0.99,4467909,,,Verified
CMW.AX,03-JUL-2014,,End Of Day,,0.98,0.995,0.98,0.99,2268475,,,Verified
CMW.AX,04-JUL-2014,,End Of Day,,0.99,1,0.99,0.995,2389255,,,Verified
CMW.AX,05-JUL-2014,,End Of Day,No Trades,,,,,,,,Verified
CMW.AX,06-JUL-2014,,End Of Day,No Trades,,,,,,,,Verified
CMW.AX,07-JUL-2014,,End Of Day,,0.99,1,0.99,1,1094212,,,Verified
CMW.AX,08-JUL-2014,,End Of Day,,0.995,1,0.99,0.99,1328856,,,Verified
CMW.AX,09-JUL-2014,,End Of Day,,0.99,0.995,0.985,0.985,1330881,,,Verified
CMW.AX,10-JUL-2014,,End Of Day,,0.99,1,0.985,1,1717867,,,Verified
CMW.AX,11-JUL-2014,,End Of Day,,0.99,1,0.99,0.995,1915174,,,Verified
CMW.AX,12-JUL-2014,,End Of Day,No Trades,,,,,,,,Verified
CMW.AX,13-JUL-2014,,End Of Day,No Trades,,,,,,,,Verified
CMW.AX,14-JUL-2014,,End Of Day,,0.995,1,0.99,1,1228493,,,Verified
CMW.AX,15-JUL-2014,,End Of Day,,1,1,0.99,0.995,1608425,,,Verified
CMW.AX,16-JUL-2014,,End Of Day,,0.995,0.995,0.985,0.985,4051553,,,Verified
CMW.AX,17-JUL-2014,,End Of Day,,0.995,0.995,0.985,0.985,3143773,,,Verified
CMW.AX,18-JUL-2014,,End Of Day,,0.985,0.99,0.98,0.99,1884566,,,Verified
CMW.AX,19-JUL-2014,,End Of Day,No Trades,,,,,,,,Verified
CMW.AX,20-JUL-2014,,End Of Day,No Trades,,,,,,,,Verified
CMW.AX,21-JUL-2014,,End Of Day,,0.985,0.995,0.985,0.995,3069781,,,Verified
CMW.AX,22-JUL-2014,,End Of Day,,0.995,1,0.99,1,2256596,,,Verified
CMW.AX,23-JUL-2014,,End Of Day,,0.995,1.02,0.995,1,5957707,,,Verified
CMW.AX,24-JUL-2014,,End Of Day,,1.005,1.012,1,1.005,3313389,,,Verified
CMW.AX,25-JUL-2014,,End Of Day,,1,1.005,0.995,1.005,2805585,,,Verified
CMW.AX,26-JUL-2014,,End Of Day,No Trades,,,,,,,,Verified
CMW.AX,27-JUL-2014,,End Of Day,No Trades,,,,,,,,Verified
CMW.AX,28-JUL-2014,,End Of Day,,1,1.007,1,1,2295352,,,Verified
CMW.AX,29-JUL-2014,,End Of Day,,1.005,1.01,1,1.005,1748444,,,Verified
CMW.AX,30-JUL-2014,,End Of Day,,1.01,1.01,1.002,1.01,1829847,,,Verified
CMW.AX,31-JUL-2014,,End Of Day,,1.01,1.02,1.005,1.02,3523295,,,Verified
CMW.AX,01-AUG-2014,,End Of Day,,1.005,1.01,1,1.005,2326864,,,Verified
CMW.AX,02-AUG-2014,,End Of Day,No Trades,,,,,,,,Verified
CMW.AX,03-AUG-2014,,End Of Day,No Trades,,,,,,,,Verified
CMW.AX,04-AUG-2014,,End Of Day,,1,1.01,1,1,1525412,,,Verified
CMW.AX,05-AUG-2014,,End Of Day,,1.005,1.01,1,1,1257729,,,Verified
CMW.AX,06-AUG-2014,,End Of Day,,1,1,0.99,0.99,4314408,,,Verified
CMW.AX,07-AUG-2014,,End Of Day,,0.99,0.995,0.975,0.98,5285354,,,Verified
CMW.AX,08-AUG-2014,,End Of Day,,0.985,0.99,0.97,0.97,3068018,,,Verified
CMW.AX,09-AUG-2014,,End Of Day,No Trades,,,,,,,,Verified
CMW.AX,10-AUG-2014,,End Of Day,No Trades,,,,,,,,Verified
CMW.AX,11-AUG-2014,,End Of Day,,0.98,0.99,0.975,0.975,2840550,,,Verified
CMW.AX,12-AUG-2014,,End Of Day,,0.98,0.992,0.98,0.99,2325974,,,Verified
CMW.AX,13-AUG-2014,,End Of Day,,0.985,0.99,0.985,0.99,1743162,,,Verified
CMW.AX,14-AUG-2014,,End Of Day,,0.99,1,0.99,1,1658807,,,Verified
CMW.AX,15-AUG-2014,,End Of Day,,1,1.005,0.995,1.005,1910883,,,Verified
CMW.AX,16-AUG-2014,,End Of Day,No Trades,,,,,,,,Verified
CMW.AX,17-AUG-2014,,End Of Day,No Trades,,,,,,,,Verified
CMW.AX,18-AUG-2014,,End Of Day,,1.005,1.005,1,1,1417594,,,Verified
CMW.AX,19-AUG-2014,,End Of Day,,1.005,1.01,1,1.01,3049729,,,Verified
CMW.AX,20-AUG-2014,,End Of Day,,1.005,1.02,1.005,1.015,1606138,,,Verified
CMW.AX,21-AUG-2014,,End Of Day,,1.02,1.04,1.02,1.035,3887375,,,Verified
CMW.AX,22-AUG-2014,,End Of Day,,1.03,1.04,1.03,1.03,3010846,,,Verified
CMW.AX,23-AUG-2014,,End Of Day,No Trades,,,,,,,,Verified
CMW.AX,24-AUG-2014,,End Of Day,No Trades,,,,,,,,Verified
CMW.AX,25-AUG-2014,,End Of Day,,1.035,1.05,1.03,1.05,5190687,,,Verified
CMW.AX,26-AUG-2014,,End Of Day,,1.045,1.05,1.025,1.03,3135716,,,Verified
CMW.AX,27-AUG-2014,,End Of Day,,1.035,1.04,1.03,1.04,2367329,,,Verified
CMW.AX,28-AUG-2014,,End Of Day,,1.035,1.04,1.015,1.04,4411758,,,Verified
CMW.AX,29-AUG-2014,,End Of Day,,1.03,1.03,0.995,1.005,60693740,,,Verified
CMW.AX,30-AUG-2014,,End Of Day,No Trades,,,,,,,,Verified
CMW.AX,31-AUG-2014,,End Of Day,No Trades,,,,,,,,Verified
CMW.AX,01-SEP-2014,,End Of Day,,1.005,1.025,1.005,1.015,3502098,,,Verified
CMW.AX,02-SEP-2014,,End Of Day,,1.015,1.02,1.01,1.015,4749865,,,Verified
CMW.AX,03-SEP-2014,,End Of Day,,1.01,1.015,1.005,1.01,6622006,,,Verified
CMW.AX,04-SEP-2014,,End Of Day,,1.01,1.01,1,1.01,2192623,,,Verified
CMW.AX,05-SEP-2014,,End Of Day,,1.005,1.01,0.995,1,2666711,,,Verified
CMW.AX,06-SEP-2014,,End Of Day,No Trades,,,,,,,,Verified
CMW.AX,07-SEP-2014,,End Of Day,No Trades,,,,,,,,Verified
CMW.AX,08-SEP-2014,,End Of Day,,1.005,1.005,0.995,1.005,2556675,,,Verified
CMW.AX,09-SEP-2014,,End Of Day,,1.005,1.01,1,1.01,2638788,,,Verified
CMW.AX,10-SEP-2014,,End Of Day,,1.005,1.005,0.995,1.005,3414894,,,Verified
CMW.AX,11-SEP-2014,,End Of Day,,1.005,1.005,0.995,0.995,3426908,,,Verified
CMW.AX,12-SEP-2014,,End Of Day,,0.995,0.995,0.985,0.995,4143427,,,Verified
CMW.AX,13-SEP-2014,,End Of Day,No Trades,,,,,,,,Verified
CMW.AX,14-SEP-2014,,End Of Day,No Trades,,,,,,,,Verified
CMW.AX,15-SEP-2014,,End Of Day,,0.99,1.005,0.98,0.98,4181341,,,Verified
CMW.AX,16-SEP-2014,,End Of Day,,0.9825,0.99,0.98,0.985,3375509,,,Verified
CMW.AX,17-SEP-2014,,End Of Day,,0.98,0.987,0.97,0.975,3075907,,,Verified
CMW.AX,18-SEP-2014,,End Of Day,,0.98,0.995,0.97,0.985,4044822,,,Verified
CMW.AX,19-SEP-2014,,End Of Day,,0.99,1.005,0.99,1,12295690,,,Verified
CMW.AX,20-SEP-2014,,End Of Day,No Trades,,,,,,,,Verified
CMW.AX,21-SEP-2014,,End Of Day,No Trades,,,,,,,,Verified
CMW.AX,22-SEP-2014,,End Of Day,,1,1,0.982,0.985,3728666,,,Verified
CMW.AX,23-SEP-2014,,End Of Day,,0.985,0.99,0.975,0.98,7276195,,,Verified
CMW.AX,24-SEP-2014,,End Of Day,,0.98,0.98,0.975,0.975,2140091,,,Verified
CMW.AX,25-SEP-2014,,End Of Day,,0.975,0.985,0.975,0.98,4216203,,,Verified
CMW.AX,26-SEP-2014,,End Of Day,,0.955,0.96,0.945,0.95,3005624,,,Verified
CMW.AX,27-SEP-2014,,End Of Day,No Trades,,,,,,,,Verified
CMW.AX,28-SEP-2014,,End Of Day,No Trades,,,,,,,,Verified
CMW.AX,29-SEP-2014,,End Of Day,,0.955,0.96,0.95,0.95,2645537,,,Verified
CMW.AX,30-SEP-2014,,End Of Day,,0.95,0.955,0.95,0.95,2596365,,,Verified
CMW.AX,01-OCT-2014,,End Of Day,,0.95,0.96,0.95,0.96,5134463,,,Verified
CMW.AX,02-OCT-2014,,End Of Day,,0.955,0.96,0.95,0.95,1840749,,,Verified
CMW.AX,03-OCT-2014,,End Of Day,,0.95,0.96,0.95,0.955,2136555,,,Verified
CMW.AX,04-OCT-2014,,End Of Day,No Trades,,,,,,,,Verified
CMW.AX,05-OCT-2014,,End Of Day,No Trades,,,,,,,,Verified
CMW.AX,06-OCT-2014,,End Of Day,,0.955,0.962,0.952,0.96,2356081,,,Verified
CMW.AX,07-OCT-2014,,End Of Day,,0.96,0.965,0.95,0.95,2761668,,,Verified
CMW.AX,08-OCT-2014,,End Of Day,,0.95,0.96,0.945,0.955,2289231,,,Verified
CMW.AX,09-OCT-2014,,End Of Day,,0.955,0.975,0.955,0.96,3143630,,,Verified
CMW.AX,10-OCT-2014,,End Of Day,,0.96,0.96,0.94,0.94,3419791,,,Verified
CMW.AX,11-OCT-2014,,End Of Day,No Trades,,,,,,,,Verified
CMW.AX,12-OCT-2014,,End Of Day,No Trades,,,,,,,,Verified
CMW.AX,13-OCT-2014,,End Of Day,,0.94,0.947,0.935,0.935,1998596,,,Verified
CMW.AX,14-OCT-2014,,End Of Day,,0.935,0.952,0.935,0.945,2226737,,,Verified
CMW.AX,15-OCT-2014,,End Of Day,,0.945,0.955,0.945,0.945,1382150,,,Verified
CMW.AX,16-OCT-2014,,End Of Day,,0.945,0.955,0.94,0.95,3110671,,,Verified
CMW.AX,17-OCT-2014,,End Of Day,,0.945,0.955,0.945,0.95,1929210,,,Verified
CMW.AX,18-OCT-2014,,End Of Day,No Trades,,,,,,,,Verified
CMW.AX,19-OCT-2014,,End Of Day,No Trades,,,,,,,,Verified
CMW.AX,20-OCT-2014,,End Of Day,,0.955,0.96,0.955,0.96,1177924,,,Verified
CMW.AX,21-OCT-2014,,End Of Day,,0.965,0.975,0.96,0.975,4040969,,,Verified
CMW.AX,22-OCT-2014,,End Of Day,,0.98,0.98,0.97,0.975,2022853,,,Verified
CMW.AX,23-OCT-2014,,End Of Day,,0.975,0.98,0.975,0.98,3445434,,,Verified
CMW.AX,24-OCT-2014,,End Of Day,,0.98,0.985,0.975,0.975,3602904,,,Verified
CMW.AX,25-OCT-2014,,End Of Day,No Trades,,,,,,,,Verified
CMW.AX,26-OCT-2014,,End Of Day,No Trades,,,,,,,,Verified
CMW.AX,27-OCT-2014,,End Of Day,,0.98,0.982,0.975,0.98,2618013,,,Verified
CMW.AX,28-OCT-2014,,End Of Day,,0.98,0.985,0.975,0.985,2131377,,,Verified
CMW.AX,29-OCT-2014,,End Of Day,,0.985,0.985,0.977,0.985,2272930,,,Verified
CMW.AX,30-OCT-2014,,End Of Day,,0.98,0.985,0.98,0.985,1932987,,,Verified
CMW.AX,31-OCT-2014,,End Of Day,,0.985,0.99,0.98,0.99,2785212,,,Verified
CMW.AX,01-NOV-2014,,End Of Day,No Trades,,,,,,,,Verified
CMW.AX,02-NOV-2014,,End Of Day,No Trades,,,,,,,,Verified
CMW.AX,03-NOV-2014,,End Of Day,,0.985,1.005,0.985,1.005,4753707,,,Verified
CMW.AX,04-NOV-2014,,End Of Day,,1.005,1.005,0.995,1,1951166,,,Verified
CMW.AX,05-NOV-2014,,End Of Day,,1,1,0.995,1,1168384,,,Verified
CMW.AX,06-NOV-2014,,End Of Day,,1,1.005,0.98,0.98,3727467,,,Verified
CMW.AX,07-NOV-2014,,End Of Day,,0.99,0.99,0.975,0.975,4724469,,,Verified
CMW.AX,08-NOV-2014,,End Of Day,No Trades,,,,,,,,Verified
CMW.AX,09-NOV-2014,,End Of Day,No Trades,,,,,,,,Verified
CMW.AX,10-NOV-2014,,End Of Day,,0.98,0.985,0.975,0.985,2464464,,,Verified
CMW.AX,11-NOV-2014,,End Of Day,,0.985,1,0.985,1,2042389,,,Verified
CMW.AX,12-NOV-2014,,End Of Day,,1,1,0.985,0.985,3062340,,,Verified
CMW.AX,13-NOV-2014,,End Of Day,,0.99,0.99,0.975,0.98,2198937,,,Verified
CMW.AX,14-NOV-2014,,End Of Day,,0.985,0.985,0.975,0.985,1150478,,,Verified
CMW.AX,15-NOV-2014,,End Of Day,No Trades,,,,,,,,Verified
CMW.AX,16-NOV-2014,,End Of Day,No Trades,,,,,,,,Verified
CMW.AX,17-NOV-2014,,End Of Day,,0.985,0.985,0.975,0.975,2410594,,,Verified
CMW.AX,18-NOV-2014,,End Of Day,,0.98,0.98,0.975,0.975,1748924,,,Verified
CMW.AX,19-NOV-2014,,End Of Day,,0.98,0.985,0.975,0.98,2354447,,,Verified
CMW.AX,20-NOV-2014,,End Of Day,,0.975,0.985,0.975,0.975,2007588,,,Verified
CMW.AX,21-NOV-2014,,End Of Day,,0.98,0.985,0.975,0.98,3420213,,,Verified
CMW.AX,22-NOV-2014,,End Of Day,No Trades,,,,,,,,Verified
CMW.AX,23-NOV-2014,,End Of Day,No Trades,,,,,,,,Verified
CMW.AX,24-NOV-2014,,End Of Day,,0.985,0.99,0.98,0.99,1860098,,,Verified
CMW.AX,25-NOV-2014,,End Of Day,,0.985,0.992,0.985,0.99,3524874,,,Verified
CMW.AX,26-NOV-2014,,End Of Day,,0.99,1,0.987,0.995,3516426,,,Verified
CMW.AX,27-NOV-2014,,End Of Day,,0.995,1.005,0.995,1.005,2584093,,,Verified
CMW.AX,28-NOV-2014,,End Of Day,,1,1.0075,1,1.005,2210780,,,Verified
CMW.AX,29-NOV-2014,,End Of Day,No Trades,,,,,,,,Verified
CMW.AX,30-NOV-2014,,End Of Day,No Trades,,,,,,,,Verified
CMW.AX,01-DEC-2014,,End Of Day,,0.995,1.01,0.995,1,4126909,,,Verified
CMW.AX,02-DEC-2014,,End Of Day,,1,1.02,0.997,1.02,4012360,,,Verified
CMW.AX,03-DEC-2014,,End Of Day,,1.02,1.025,1.007,1.025,3016730,,,Verified
CMW.AX,04-DEC-2014,,End Of Day,,1.02,1.025,1.015,1.02,2275559,,,Verified
CMW.AX,05-DEC-2014,,End Of Day,,1.02,1.025,1.015,1.015,1936014,,,Verified
CMW.AX,06-DEC-2014,,End Of Day,No Trades,,,,,,,,Verified
CMW.AX,07-DEC-2014,,End Of Day,No Trades,,,,,,,,Verified
CMW.AX,08-DEC-2014,,End Of Day,,1.015,1.025,1.015,1.02,2595792,,,Verified
CMW.AX,09-DEC-2014,,End Of Day,,1.02,1.025,1,1,2842642,,,Verified
CMW.AX,10-DEC-2014,,End Of Day,,1.005,1.02,1,1.01,2097182,,,Verified
CMW.AX,11-DEC-2014,,End Of Day,,1.005,1.025,1.005,1.01,2408529,,,Verified
CMW.AX,12-DEC-2014,,End Of Day,,1.015,1.035,1.01,1.035,4518031,,,Verified
CMW.AX,13-DEC-2014,,End Of Day,No Trades,,,,,,,,Verified
CMW.AX,14-DEC-2014,,End Of Day,No Trades,,,,,,,,Verified
CMW.AX,15-DEC-2014,,End Of Day,,1.03,1.03,1.015,1.02,1992959,,,Verified
CMW.AX,16-DEC-2014,,End Of Day,,1.02,1.035,1.012,1.035,2889248,,,Verified
CMW.AX,17-DEC-2014,,End Of Day,,1.025,1.035,1.02,1.03,1900071,,,Verified
CMW.AX,18-DEC-2014,,End Of Day,,1.03,1.04,1.03,1.04,5311833,,,Verified
CMW.AX,19-DEC-2014,,End Of Day,,1.045,1.06,1.032,1.06,7760585,,,Verified
CMW.AX,20-DEC-2014,,End Of Day,No Trades,,,,,,,,Verified
CMW.AX,21-DEC-2014,,End Of Day,No Trades,,,,,,,,Verified
CMW.AX,22-DEC-2014,,End Of Day,,1.06,1.09,1.05,1.07,6072792,,,Verified
CMW.AX,23-DEC-2014,,End Of Day,,1.075,1.08,1.06,1.065,1702431,,,Verified
CMW.AX,24-DEC-2014,,End Of Day,,1.06,1.075,1.045,1.07,2365056,,,Verified
CMW.AX,25-DEC-2014,,End Of Day,No Trades,,,,,,,,Verified
CMW.AX,26-DEC-2014,,End Of Day,No Trades,,,,,,,,Verified
CMW.AX,27-DEC-2014,,End Of Day,No Trades,,,,,,,,Verified
CMW.AX,28-DEC-2014,,End Of Day,No Trades,,,,,,,,Verified
CMW.AX,29-DEC-2014,,End Of Day,,1.055,1.075,1.04,1.07,3796074,,,Verified
CMW.AX,30-DEC-2014,,End Of Day,,1.065,1.065,1.045,1.055,2185317,,,Verified
CMW.AX,31-DEC-2014,,End Of Day,,1.055,1.06,1.03,1.03,1752247,,,Verified
CMW.AX,01-JAN-2015,,End Of Day,No Trades,,,,,,,,Verified
CMW.AX,02-JAN-2015,,End Of Day,,1.03,1.045,1.03,1.045,739460,,,Verified
CMW.AX,03-JAN-2015,,End Of Day,No Trades,,,,,,,,Verified
CMW.AX,04-JAN-2015,,End Of Day,No Trades,,,,,,,,Verified
CMW.AX,05-JAN-2015,,End Of Day,,1.04,1.05,1.035,1.05,1505688,,,Verified
CMW.AX,06-JAN-2015,,End Of Day,,1.035,1.045,1.035,1.04,2234131,,,Verified
CMW.AX,07-JAN-2015,,End Of Day,,1.04,1.055,1.04,1.055,2665903,,,Verified
CMW.AX,08-JAN-2015,,End Of Day,,1.055,1.07,1.055,1.07,3081909,,,Verified
CMW.AX,09-JAN-2015,,End Of Day,,1.075,1.08,1.065,1.08,2612621,,,Verified
CMW.AX,10-JAN-2015,,End Of Day,No Trades,,,,,,,,Verified
CMW.AX,11-JAN-2015,,End Of Day,No Trades,,,,,,,,Verified
CMW.AX,12-JAN-2015,,End Of Day,,1.08,1.085,1.075,1.08,2970492,,,Verified
CMW.AX,13-JAN-2015,,End Of Day,,1.08,1.08,1.055,1.065,1717688,,,Verified
CMW.AX,14-JAN-2015,,End Of Day,,1.055,1.08,1.055,1.07,4753045,,,Verified
CMW.AX,15-JAN-2015,,End Of Day,,1.07,1.075,1.05,1.05,4520154,,,Verified
CMW.AX,16-JAN-2015,,End Of Day,,1.05,1.055,1.035,1.035,5057672,,,Verified
CMW.AX,17-JAN-2015,,End Of Day,No Trades,,,,,,,,Verified
CMW.AX,18-JAN-2015,,End Of Day,No Trades,,,,,,,,Verified
CMW.AX,19-JAN-2015,,End Of Day,,1.035,1.045,1.035,1.04,3595673,,,Verified
CMW.AX,20-JAN-2015,,End Of Day,,1.035,1.04,1.035,1.035,1460084,,,Verified
CMW.AX,21-JAN-2015,,End Of Day,,1.04,1.045,1.035,1.045,2963252,,,Verified
CMW.AX,22-JAN-2015,,End Of Day,,1.04,1.05,1.04,1.05,1669487,,,Verified
CMW.AX,23-JAN-2015,,End Of Day,,1.05,1.07,1.05,1.07,3014220,,,Verified
CMW.AX,24-JAN-2015,,End Of Day,No Trades,,,,,,,,Verified
CMW.AX,25-JAN-2015,,End Of Day,No Trades,,,,,,,,Verified
CMW.AX,26-JAN-2015,,End Of Day,No Trades,,,,,,,,Verified
CMW.AX,28-JAN-2015,,End Of Day,,1.06,1.06,1.035,1.045,7401458,,,Verified
CMW.AX,29-JAN-2015,,End Of Day,,1.045,1.065,1.045,1.065,10897621,,,Verified
CMW.AX,30-JAN-2015,,End Of Day,,1.06,1.075,1.055,1.06,7444357,,,Verified
CMW.AX,31-JAN-2015,,End Of Day,No Trades,,,,,,,,Verified
CMW.AX,01-FEB-2015,,End Of Day,No Trades,,,,,,,,Verified
CMW.AX,02-FEB-2015,,End Of Day,,1.07,1.1,1.065,1.1,7434810,,,Verified
CMW.AX,03-FEB-2015,,End Of Day,,1.1,1.125,1.085,1.125,5480110,,,Verified
CMW.AX,04-FEB-2015,,End Of Day,,1.14,1.16,1.125,1.16,9632668,,,Verified
CMW.AX,05-FEB-2015,,End Of Day,,1.175,1.175,1.14,1.15,6111741,,,Verified
CMW.AX,06-FEB-2015,,End Of Day,,1.15,1.15,1.13,1.15,3538370,,,Verified
CMW.AX,07-FEB-2015,,End Of Day,No Trades,,,,,,,,Verified
CMW.AX,08-FEB-2015,,End Of Day,No Trades,,,,,,,,Verified
CMW.AX,09-FEB-2015,,End Of Day,,1.14,1.15,1.125,1.145,5820183,,,Verified
CMW.AX,10-FEB-2015,,End Of Day,,1.11,1.155,1.11,1.15,6780251,,,Verified
CMW.AX,11-FEB-2015,,End Of Day,,1.16,1.17,1.145,1.16,5553707,,,Verified
CMW.AX,12-FEB-2015,,End Of Day,,1.16,1.182,1.15,1.18,7768932,,,Verified
CMW.AX,13-FEB-2015,,End Of Day,,1.17,1.187,1.167,1.185,3615333,,,Verified
CMW.AX,14-FEB-2015,,End Of Day,No Trades,,,,,,,,Verified
CMW.AX,15-FEB-2015,,End Of Day,No Trades,,,,,,,,Verified
CMW.AX,16-FEB-2015,,End Of Day,,1.185,1.185,1.155,1.155,2544623,,,Verified
CMW.AX,17-FEB-2015,,End Of Day,,1.15,1.175,1.15,1.165,4972149,,,Verified
CMW.AX,18-FEB-2015,,End Of Day,,1.17,1.2,1.15,1.18,5204858,,,Verified
CMW.AX,19-FEB-2015,,End Of Day,,1.18,1.185,1.15,1.165,4224532,,,Verified
CMW.AX,20-FEB-2015,,End Of Day,,1.165,1.165,1.145,1.145,2325910,,,Verified
CMW.AX,21-FEB-2015,,End Of Day,No Trades,,,,,,,,Verified
CMW.AX,22-FEB-2015,,End Of Day,No Trades,,,,,,,,Verified
CMW.AX,23-FEB-2015,,End Of Day,,1.15,1.17,1.135,1.15,3021684,,,Verified
CMW.AX,24-FEB-2015,,End Of Day,,1.155,1.16,1.14,1.16,6219500,,,Verified
CMW.AX,25-FEB-2015,,End Of Day,,1.165,1.165,1.145,1.165,6842823,,,Verified
CMW.AX,26-FEB-2015,,End Of Day,,1.155,1.162,1.14,1.155,3893242,,,Verified
CMW.AX,27-FEB-2015,,End Of Day,,1.15,1.17,1.145,1.17,4765287,,,Verified
CMW.AX,28-FEB-2015,,End Of Day,No Trades,,,,,,,,Verified
CMW.AX,01-MAR-2015,,End Of Day,No Trades,,,,,,,,Verified
CMW.AX,02-MAR-2015,,End Of Day,,1.17,1.177,1.165,1.17,5490041,,,Verified
CMW.AX,03-MAR-2015,,End Of Day,,1.175,1.19,1.155,1.165,3613272,,,Verified
CMW.AX,04-MAR-2015,,End Of Day,,1.165,1.17,1.16,1.165,1938024,,,Verified
CMW.AX,05-MAR-2015,,End Of Day,,1.165,1.165,1.14,1.155,3743755,,,Verified
CMW.AX,06-MAR-2015,,End Of Day,,1.15,1.16,1.14,1.155,3179857,,,Verified
CMW.AX,07-MAR-2015,,End Of Day,No Trades,,,,,,,,Verified
CMW.AX,08-MAR-2015,,End Of Day,No Trades,,,,,,,,Verified
CMW.AX,09-MAR-2015,,End Of Day,,1.15,1.15,1.125,1.14,3220651,,,Verified
CMW.AX,10-MAR-2015,,End Of Day,,1.14,1.15,1.13,1.14,3627134,,,Verified
CMW.AX,11-MAR-2015,,End Of Day,,1.135,1.15,1.135,1.15,3539796,,,Verified
CMW.AX,12-MAR-2015,,End Of Day,,1.145,1.15,1.14,1.145,4273081,,,Verified
CMW.AX,13-MAR-2015,,End Of Day,,1.15,1.15,1.135,1.135,3416396,,,Verified
CMW.AX,14-MAR-2015,,End Of Day,No Trades,,,,,,,,Verified
CMW.AX,15-MAR-2015,,End Of Day,No Trades,,,,,,,,Verified
CMW.AX,16-MAR-2015,,End Of Day,,1.135,1.14,1.12,1.125,3411282,,,Verified
CMW.AX,17-MAR-2015,,End Of Day,,1.13,1.14,1.125,1.135,3693111,,,Verified
CMW.AX,18-MAR-2015,,End Of Day,,1.135,1.135,1.115,1.135,3967031,,,Verified
CMW.AX,19-MAR-2015,,End Of Day,,1.14,1.15,1.14,1.15,6296635,,,Verified
CMW.AX,20-MAR-2015,,End Of Day,,1.145,1.17,1.145,1.16,5896985,,,Verified
CMW.AX,21-MAR-2015,,End Of Day,No Trades,,,,,,,,Verified
CMW.AX,22-MAR-2015,,End Of Day,No Trades,,,,,,,,Verified
CMW.AX,23-MAR-2015,,End Of Day,,1.165,1.17,1.14,1.16,2916242,,,Verified
CMW.AX,24-MAR-2015,,End Of Day,,1.15,1.16,1.147,1.155,2332725,,,Verified
CMW.AX,25-MAR-2015,,End Of Day,,1.155,1.16,1.145,1.15,6074344,,,Verified
CMW.AX,26-MAR-2015,,End Of Day,,1.14,1.15,1.125,1.125,5239413,,,Verified
CMW.AX,27-MAR-2015,,End Of Day,,1.11,1.137,1.11,1.135,3285277,,,Verified
CMW.AX,28-MAR-2015,,End Of Day,No Trades,,,,,,,,Verified
CMW.AX,29-MAR-2015,,End Of Day,No Trades,,,,,,,,Verified
CMW.AX,30-MAR-2015,,End Of Day,,1.135,1.135,1.115,1.115,2565764,,,Verified
CMW.AX,31-MAR-2015,,End Of Day,,1.12,1.14,1.115,1.135,5879053,,,Verified
CMW.AX,01-APR-2015,,End Of Day,,1.115,1.13,1.105,1.12,3202379,,,Verified
CMW.AX,02-APR-2015,,End Of Day,,1.125,1.135,1.12,1.13,2349169,,,Verified
CMW.AX,03-APR-2015,,End Of Day,No Trades,,,,,,,,Verified
CMW.AX,04-APR-2015,,End Of Day,No Trades,,,,,,,,Verified
CMW.AX,05-APR-2015,,End Of Day,No Trades,,,,,,,,Verified
CMW.AX,06-APR-2015,,End Of Day,No Trades,,,,,,,,Verified
CMW.AX,07-APR-2015,,End Of Day,,1.13,1.14,1.13,1.14,2813765,,,Verified
CMW.AX,08-APR-2015,,End Of Day,,1.135,1.14,1.125,1.14,1828715,,,Verified
CMW.AX,09-APR-2015,,End Of Day,,1.14,1.145,1.135,1.14,2373799,,,Verified
CMW.AX,10-APR-2015,,End Of Day,,1.14,1.14,1.132,1.14,1949573,,,Verified
CMW.AX,11-APR-2015,,End Of Day,No Trades,,,,,,,,Verified
CMW.AX,12-APR-2015,,End Of Day,No Trades,,,,,,,,Verified
CMW.AX,13-APR-2015,,End Of Day,,1.145,1.145,1.135,1.135,3611520,,,Verified
CMW.AX,14-APR-2015,,End Of Day,,1.135,1.14,1.125,1.13,2768128,,,Verified
CMW.AX,15-APR-2015,,End Of Day,,1.13,1.132,1.12,1.125,1841014,,,Verified
CMW.AX,16-APR-2015,,End Of Day,,1.13,1.14,1.125,1.13,2854984,,,Verified
CMW.AX,17-APR-2015,,End Of Day,,1.13,1.13,1.11,1.11,3672294,,,Verified
CMW.AX,18-APR-2015,,End Of Day,No Trades,,,,,,,,Verified
CMW.AX,19-APR-2015,,End Of Day,No Trades,,,,,,,,Verified
CMW.AX,20-APR-2015,,End Of Day,,1.11,1.12,1.105,1.115,2280137,,,Verified
CMW.AX,21-APR-2015,,End Of Day,,1.125,1.13,1.115,1.115,2273088,,,Verified
CMW.AX,22-APR-2015,,End Of Day,,1.135,1.14,1.11,1.11,3812885,,,Verified
CMW.AX,23-APR-2015,,End Of Day,,1.11,1.112,1.09,1.09,3725077,,,Verified
CMW.AX,24-APR-2015,,End Of Day,,1.095,1.125,1.095,1.12,3667553,,,Verified
CMW.AX,25-APR-2015,,End Of Day,No Trades,,,,,,,,Verified
CMW.AX,26-APR-2015,,End Of Day,No Trades,,,,,,,,Verified
CMW.AX,27-APR-2015,,End Of Day,,1.12,1.13,1.11,1.115,3826514,,,Verified
CMW.AX,28-APR-2015,,End Of Day,,1.115,1.12,1.11,1.12,1796422,,,Verified
CMW.AX,29-APR-2015,,End Of Day,,1.115,1.117,1.11,1.11,2642792,,,Verified
CMW.AX,30-APR-2015,,End Of Day,,1.11,1.115,1.095,1.105,5088194,,,Verified
CMW.AX,01-MAY-2015,,End Of Day,,1.1,1.125,1.097,1.115,4803942,,,Verified
CMW.AX,02-MAY-2015,,End Of Day,No Trades,,,,,,,,Verified
CMW.AX,03-MAY-2015,,End Of Day,No Trades,,,,,,,,Verified
CMW.AX,04-MAY-2015,,End Of Day,,1.115,1.13,1.11,1.11,3446699,,,Verified
CMW.AX,05-MAY-2015,,End Of Day,,1.115,1.13,1.105,1.115,4798169,,,Verified
CMW.AX,06-MAY-2015,,End Of Day,,1.11,1.115,1.09,1.095,2564184,,,Verified
CMW.AX,07-MAY-2015,,End Of Day,,1.085,1.09,1.07,1.08,6505660,,,Verified
CMW.AX,08-MAY-2015,,End Of Day,,1.075,1.11,1.075,1.1,2943078,,,Verified
CMW.AX,09-MAY-2015,,End Of Day,No Trades,,,,,,,,Verified
CMW.AX,10-MAY-2015,,End Of Day,No Trades,,,,,,,,Verified
CMW.AX,11-MAY-2015,,End Of Day,,1.105,1.11,1.09,1.095,2238073,,,Verified
CMW.AX,12-MAY-2015,,End Of Day,,1.085,1.09,1.07,1.09,3950341,,,Verified
CMW.AX,13-MAY-2015,,End Of Day,,1.09,1.09,1.08,1.09,3497209,,,Verified
CMW.AX,14-MAY-2015,,End Of Day,,1.085,1.09,1.082,1.085,2487428,,,Verified
CMW.AX,15-MAY-2015,,End Of Day,,1.095,1.1,1.085,1.09,2830527,,,Verified
CMW.AX,16-MAY-2015,,End Of Day,No Trades,,,,,,,,Verified
CMW.AX,17-MAY-2015,,End Of Day,No Trades,,,,,,,,Verified
CMW.AX,18-MAY-2015,,End Of Day,,1.085,1.105,1.077,1.085,4351378,,,Verified
CMW.AX,19-MAY-2015,,End Of Day,,1.085,1.095,1.07,1.07,2402988,,,Verified
CMW.AX,20-MAY-2015,,End Of Day,,1.065,1.08,1.065,1.07,2946714,,,Verified
CMW.AX,21-MAY-2015,,End Of Day,,1.065,1.08,1.065,1.075,6629692,,,Verified
CMW.AX,22-MAY-2015,,End Of Day,,1.075,1.09,1.075,1.09,2061862,,,Verified
CMW.AX,23-MAY-2015,,End Of Day,No Trades,,,,,,,,Verified
CMW.AX,24-MAY-2015,,End Of Day,No Trades,,,,,,,,Verified
CMW.AX,25-MAY-2015,,End Of Day,,1.09,1.102,1.085,1.085,2558946,,,Verified
CMW.AX,26-MAY-2015,,End Of Day,,1.09,1.1,1.085,1.1,2059922,,,Verified
CMW.AX,27-MAY-2015,,End Of Day,,1.09,1.1,1.085,1.09,3139640,,,Verified
CMW.AX,28-MAY-2015,,End Of Day,,1.095,1.1,1.08,1.09,2267386,,,Verified
CMW.AX,29-MAY-2015,,End Of Day,,1.09,1.09,1.085,1.085,4418444,,,Verified
CMW.AX,30-MAY-2015,,End Of Day,No Trades,,,,,,,,Verified
CMW.AX,31-MAY-2015,,End Of Day,No Trades,,,,,,,,Verified
CMW.AX,01-JUN-2015,,End Of Day,,1.085,1.09,1.075,1.09,2997830,,,Verified
CMW.AX,02-JUN-2015,,End Of Day,,1.09,1.09,1.075,1.08,3745848,,,Verified
CMW.AX,03-JUN-2015,,End Of Day,,1.08,1.08,1.065,1.065,3126488,,,Verified
CMW.AX,04-JUN-2015,,End Of Day,,1.065,1.07,1.05,1.06,7005111,,,Verified
CMW.AX,05-JUN-2015,,End Of Day,,1.055,1.065,1.045,1.055,5889097,,,Verified
CMW.AX,06-JUN-2015,,End Of Day,No Trades,,,,,,,,Verified
CMW.AX,07-JUN-2015,,End Of Day,No Trades,,,,,,,,Verified
CMW.AX,08-JUN-2015,,End Of Day,No Trades,,,,,,,,Verified
CMW.AX,09-JUN-2015,,End Of Day,,1.06,1.06,1.045,1.045,2319305,,,Verified
CMW.AX,10-JUN-2015,,End Of Day,,1.045,1.055,1.035,1.05,3576625,,,Verified
CMW.AX,11-JUN-2015,,End Of Day,,1.05,1.065,1.05,1.065,3307307,,,Verified
CMW.AX,12-JUN-2015,,End Of Day,,1.065,1.065,1.035,1.04,3176364,,,Verified
CMW.AX,13-JUN-2015,,End Of Day,No Trades,,,,,,,,Verified
CMW.AX,14-JUN-2015,,End Of Day,No Trades,,,,,,,,Verified
CMW.AX,15-JUN-2015,,End Of Day,,1.04,1.055,1.03,1.05,3392930,,,Verified
CMW.AX,16-JUN-2015,,End Of Day,,1.05,1.06,1.04,1.045,2915152,,,Verified
CMW.AX,17-JUN-2015,,End Of Day,,1.03,1.037,1.005,1.03,9452092,,,Verified
CMW.AX,18-JUN-2015,,End Of Day,,1.025,1.035,1.025,1.03,7491018,,,Verified
CMW.AX,19-JUN-2015,,End Of Day,,1.035,1.06,1.03,1.05,5207245,,,Verified
CMW.AX,20-JUN-2015,,End Of Day,No Trades,,,,,,,,Verified
CMW.AX,21-JUN-2015,,End Of Day,No Trades,,,,,,,,Verified
CMW.AX,22-JUN-2015,,End Of Day,,1.05,1.07,1.05,1.07,4633245,,,Verified
CMW.AX,23-JUN-2015,,End Of Day,,1.075,1.08,1.06,1.06,5411637,,,Verified
CMW.AX,24-JUN-2015,,End Of Day,,1.065,1.07,1.06,1.065,10500530,,,Verified
CMW.AX,25-JUN-2015,,End Of Day,,1.065,1.065,1.05,1.06,8212905,,,Verified
CMW.AX,26-JUN-2015,,End Of Day,,1.035,1.035,1.015,1.03,6128526,,,Verified
CMW.AX,27-JUN-2015,,End Of Day,No Trades,,,,,,,,Verified
CMW.AX,28-JUN-2015,,End Of Day,No Trades,,,,,,,,Verified
CMW.AX,29-JUN-2015,,End Of Day,,1.025,1.035,1.01,1.015,6612416,,,Verified
CMW.AX,30-JUN-2015,,End Of Day,,1.015,1.03,1.01,1.025,5304802,,,Verified
CMW.AX,01-JUL-2015,,End Of Day,,1.03,1.035,1.02,1.035,3794760,,,Verified
CMW.AX,02-JUL-2015,,End Of Day,,1.03,1.05,1.025,1.045,4461673,,,Verified
CMW.AX,03-JUL-2015,,End Of Day,,1.045,1.05,1.03,1.04,3641878,,,Verified
CMW.AX,04-JUL-2015,,End Of Day,No Trades,,,,,,,,Verified
CMW.AX,05-JUL-2015,,End Of Day,No Trades,,,,,,,,Verified
CMW.AX,06-JUL-2015,,End Of Day,,1.03,1.04,1.025,1.035,4244875,,,Verified
CMW.AX,07-JUL-2015,,End Of Day,,1.035,1.065,1.035,1.055,2725776,,,Verified
CMW.AX,08-JUL-2015,,End Of Day,,1.045,1.06,1.04,1.045,2146829,,,Verified
CMW.AX,09-JUL-2015,,End Of Day,,1.045,1.05,1.03,1.05,4020753,,,Verified
CMW.AX,10-JUL-2015,,End Of Day,,1.055,1.065,1.05,1.06,3003164,,,Verified
CMW.AX,11-JUL-2015,,End Of Day,No Trades,,,,,,,,Verified
CMW.AX,12-JUL-2015,,End Of Day,No Trades,,,,,,,,Verified
CMW.AX,13-JUL-2015,,End Of Day,,1.06,1.07,1.055,1.055,2996058,,,Verified
CMW.AX,14-JUL-2015,,End Of Day,,1.06,1.085,1.055,1.075,5869805,,,Verified
CMW.AX,15-JUL-2015,,End Of Day,,1.08,1.11,1.075,1.095,10250962,,,Verified
CMW.AX,16-JUL-2015,,End Of Day,,1.105,1.11,1.095,1.105,3615387,,,Verified
CMW.AX,17-JUL-2015,,End Of Day,,1.105,1.11,1.09,1.1,2843502,,,Verified
CMW.AX,18-JUL-2015,,End Of Day,No Trades,,,,,,,,Verified
CMW.AX,19-JUL-2015,,End Of Day,No Trades,,,,,,,,Verified
CMW.AX,20-JUL-2015,,End Of Day,,1.1,1.1,1.085,1.09,1856438,,,Verified
CMW.AX,21-JUL-2015,,End Of Day,,1.09,1.095,1.08,1.09,2481660,,,Verified
CMW.AX,22-JUL-2015,,End Of Day,,1.09,1.095,1.07,1.075,2893195,,,Verified
CMW.AX,23-JUL-2015,,End Of Day,,1.07,1.085,1.07,1.08,2885113,,,Verified
CMW.AX,24-JUL-2015,,End Of Day,,1.08,1.09,1.07,1.075,3471542,,,Verified
CMW.AX,25-JUL-2015,,End Of Day,No Trades,,,,,,,,Verified
CMW.AX,26-JUL-2015,,End Of Day,No Trades,,,,,,,,Verified
CMW.AX,27-JUL-2015,,End Of Day,,1.07,1.095,1.07,1.095,3764895,,,Verified
CMW.AX,28-JUL-2015,,End Of Day,,1.085,1.095,1.08,1.095,2857688,,,Verified
CMW.AX,29-JUL-2015,,End Of Day,,1.095,1.105,1.09,1.1,1646364,,,Verified
CMW.AX,30-JUL-2015,,End Of Day,,1.105,1.105,1.1,1.1,1310827,,,Verified
CMW.AX,31-JUL-2015,,End Of Day,,1.1,1.115,1.1,1.115,4916483,,,Verified
CMW.AX,01-AUG-2015,,End Of Day,No Trades,,,,,,,,Verified
CMW.AX,02-AUG-2015,,End Of Day,No Trades,,,,,,,,Verified
CMW.AX,03-AUG-2015,,End Of Day,,1.11,1.125,1.105,1.115,1965705,,,Verified
CMW.AX,04-AUG-2015,,End Of Day,,1.115,1.127,1.105,1.115,2867480,,,Verified
CMW.AX,05-AUG-2015,,End Of Day,,1.105,1.12,1.095,1.105,4873257,,,Verified
CMW.AX,06-AUG-2015,,End Of Day,,1.105,1.115,1.095,1.1,2717630,,,Verified
CMW.AX,07-AUG-2015,,End Of Day,,1.095,1.1,1.08,1.085,3174770,,,Verified
CMW.AX,08-AUG-2015,,End Of Day,No Trades,,,,,,,,Verified
CMW.AX,09-AUG-2015,,End Of Day,No Trades,,,,,,,,Verified
CMW.AX,10-AUG-2015,,End Of Day,,1.08,1.09,1.08,1.085,2256152,,,Verified
CMW.AX,11-AUG-2015,,End Of Day,,1.09,1.092,1.08,1.085,3285789,,,Verified
CMW.AX,12-AUG-2015,,End Of Day,,1.085,1.1,1.075,1.075,4374909,,,Verified
CMW.AX,13-AUG-2015,,End Of Day,,1.075,1.085,1.07,1.08,4144256,,,Verified
CMW.AX,14-AUG-2015,,End Of Day,,1.08,1.085,1.07,1.075,2407974,,,Verified
CMW.AX,15-AUG-2015,,End Of Day,No Trades,,,,,,,,Verified
CMW.AX,16-AUG-2015,,End Of Day,No Trades,,,,,,,,Verified
CMW.AX,17-AUG-2015,,End Of Day,,1.075,1.085,1.07,1.07,2452109,,,Verified
CMW.AX,18-AUG-2015,,End Of Day,,1.075,1.08,1.06,1.065,2894607,,,Verified
CMW.AX,19-AUG-2015,,End Of Day,,1.065,1.085,1.06,1.08,2748083,,,Verified
CMW.AX,20-AUG-2015,,End Of Day,,1.07,1.08,1.06,1.065,2816938,,,Verified
CMW.AX,21-AUG-2015,,End Of Day,,1.06,1.062,1.035,1.045,6266548,,,Verified
CMW.AX,22-AUG-2015,,End Of Day,No Trades,,,,,,,,Verified
CMW.AX,23-AUG-2015,,End Of Day,No Trades,,,,,,,,Verified
CMW.AX,24-AUG-2015,,End Of Day,,1.03,1.037,1.015,1.03,6257759,,,Verified
CMW.AX,25-AUG-2015,,End Of Day,,1.01,1.045,1.005,1.045,7720536,,,Verified
CMW.AX,26-AUG-2015,,End Of Day,,1.03,1.045,1.02,1.04,5747872,,,Verified
CMW.AX,27-AUG-2015,,End Of Day,,1.03,1.047,1.03,1.04,3202509,,,Verified
CMW.AX,28-AUG-2015,,End Of Day,,1.05,1.05,1.03,1.04,2789128,,,Verified
CMW.AX,29-AUG-2015,,End Of Day,No Trades,,,,,,,,Verified
CMW.AX,30-AUG-2015,,End Of Day,No Trades,,,,,,,,Verified
CMW.AX,31-AUG-2015,,End Of Day,,1.035,1.04,1.01,1.025,177951843,,,Verified
CMW.AX,01-SEP-2015,,End Of Day,,1.02,1.025,1.005,1.01,5066902,,,Verified
CMW.AX,02-SEP-2015,,End Of Day,,1,1.015,0.995,1.01,5309543,,,Verified
CMW.AX,03-SEP-2015,,End Of Day,,1.01,1.015,0.985,0.99,7120236,,,Verified
CMW.AX,04-SEP-2015,,End Of Day,,0.99,1.005,0.97,0.995,3882694,,,Verified
CMW.AX,05-SEP-2015,,End Of Day,No Trades,,,,,,,,Verified
CMW.AX,06-SEP-2015,,End Of Day,No Trades,,,,,,,,Verified
CMW.AX,07-SEP-2015,,End Of Day,,0.99,1,0.98,1,1851365,,,Verified
CMW.AX,08-SEP-2015,,End Of Day,,1,1.01,0.995,1.005,3218026,,,Verified
CMW.AX,09-SEP-2015,,End Of Day,,1.015,1.02,1.007,1.02,4589499,,,Verified
CMW.AX,10-SEP-2015,,End Of Day,,1.005,1.01,0.99,0.995,4909761,,,Verified
CMW.AX,11-SEP-2015,,End Of Day,,0.995,1.005,0.985,0.99,1911105,,,Verified
CMW.AX,12-SEP-2015,,End Of Day,No Trades,,,,,,,,Verified
CMW.AX,13-SEP-2015,,End Of Day,No Trades,,,,,,,,Verified
CMW.AX,14-SEP-2015,,End Of Day,,0.99,1,0.987,0.99,2757226,,,Verified
CMW.AX,15-SEP-2015,,End Of Day,,0.99,0.995,0.975,0.975,3360606,,,Verified
CMW.AX,16-SEP-2015,,End Of Day,,0.98,0.985,0.965,0.97,5075260,,,Verified
CMW.AX,17-SEP-2015,,End Of Day,,0.99,0.99,0.98,0.98,4473203,,,Verified
CMW.AX,18-SEP-2015,,End Of Day,,0.985,0.99,0.975,0.975,5132411,,,Verified
CMW.AX,19-SEP-2015,,End Of Day,No Trades,,,,,,,,Verified
CMW.AX,20-SEP-2015,,End Of Day,No Trades,,,,,,,,Verified
CMW.AX,21-SEP-2015,,End Of Day,,0.975,0.975,0.95,0.95,3792912,,,Verified
CMW.AX,22-SEP-2015,,End Of Day,,0.955,0.98,0.955,0.96,4406887,,,Verified
CMW.AX,23-SEP-2015,,End Of Day,,0.96,0.967,0.95,0.955,3823387,,,Verified
CMW.AX,24-SEP-2015,,End Of Day,,0.96,0.98,0.96,0.98,4183188,,,Verified
CMW.AX,25-SEP-2015,,End Of Day,,0.98,0.99,0.97,0.97,3557167,,,Verified
CMW.AX,26-SEP-2015,,End Of Day,No Trades,,,,,,,,Verified
CMW.AX,27-SEP-2015,,End Of Day,No Trades,,,,,,,,Verified
CMW.AX,28-SEP-2015,,End Of Day,,0.96,0.972,0.95,0.97,3938254,,,Verified
CMW.AX,29-SEP-2015,,End Of Day,,0.96,0.96,0.94,0.945,4538666,,,Verified
CMW.AX,30-SEP-2015,,End Of Day,,0.945,0.962,0.94,0.96,5626134,,,Verified
CMW.AX,01-OCT-2015,,End Of Day,,0.96,0.98,0.955,0.965,3206049,,,Verified
CMW.AX,02-OCT-2015,,End Of Day,,0.96,0.97,0.955,0.96,1728917,,,Verified
CMW.AX,03-OCT-2015,,End Of Day,No Trades,,,,,,,,Verified
CMW.AX,04-OCT-2015,,End Of Day,No Trades,,,,,,,,Verified
CMW.AX,05-OCT-2015,,End Of Day,,0.96,0.975,0.955,0.96,1451227,,,Verified
CMW.AX,06-OCT-2015,,End Of Day,,0.97,0.98,0.97,0.975,1864766,,,Verified
CMW.AX,07-OCT-2015,,End Of Day,,0.975,0.975,0.965,0.97,1338803,,,Verified
CMW.AX,08-OCT-2015,,End Of Day,,0.97,0.97,0.955,0.965,2543305,,,Verified
CMW.AX,09-OCT-2015,,End Of Day,,0.965,0.97,0.96,0.97,2549740,,,Verified
CMW.AX,10-OCT-2015,,End Of Day,No Trades,,,,,,,,Verified
CMW.AX,11-OCT-2015,,End Of Day,No Trades,,,,,,,,Verified
CMW.AX,12-OCT-2015,,End Of Day,,0.965,0.97,0.955,0.96,2769094,,,Verified
CMW.AX,13-OCT-2015,,End Of Day,,0.955,0.96,0.95,0.95,2646434,,,Verified
CMW.AX,14-OCT-2015,,End Of Day,,0.95,0.96,0.945,0.96,2113586,,,Verified
CMW.AX,15-OCT-2015,,End Of Day,,0.96,0.965,0.955,0.96,1908400,,,Verified
CMW.AX,16-OCT-2015,,End Of Day,,0.965,0.98,0.965,0.98,3377431,,,Verified
CMW.AX,17-OCT-2015,,End Of Day,No Trades,,,,,,,,Verified
CMW.AX,18-OCT-2015,,End Of Day,No Trades,,,,,,,,Verified
CMW.AX,19-OCT-2015,,End Of Day,,0.975,0.98,0.97,0.98,1262409,,,Verified
CMW.AX,20-OCT-2015,,End Of Day,,0.975,0.98,0.97,0.975,2068044,,,Verified
CMW.AX,21-OCT-2015,,End Of Day,,0.975,0.975,0.97,0.975,946122,,,Verified
CMW.AX,22-OCT-2015,,End Of Day,,0.975,0.98,0.97,0.98,1350538,,,Verified
CMW.AX,23-OCT-2015,,End Of Day,,0.985,1.005,0.985,1,4777228,,,Verified
CMW.AX,24-OCT-2015,,End Of Day,No Trades,,,,,,,,Verified
CMW.AX,25-OCT-2015,,End Of Day,No Trades,,,,,,,,Verified
CMW.AX,26-OCT-2015,,End Of Day,,1,1.005,0.995,1.005,1132828,,,Verified
CMW.AX,27-OCT-2015,,End Of Day,,1.005,1.01,0.995,1.01,2152949,,,Verified
CMW.AX,28-OCT-2015,,End Of Day,,1.01,1.02,1.005,1.015,1541235,,,Verified
CMW.AX,29-OCT-2015,,End Of Day,,1.02,1.02,1.005,1.005,1380281,,,Verified
CMW.AX,30-OCT-2015,,End Of Day,,1,1.017,0.997,1.005,2397089,,,Verified
CMW.AX,31-OCT-2015,,End Of Day,No Trades,,,,,,,,Verified
CMW.AX,01-NOV-2015,,End Of Day,No Trades,,,,,,,,Verified
CMW.AX,02-NOV-2015,,End Of Day,,1.01,1.01,0.99,1,2110945,,,Verified
CMW.AX,03-NOV-2015,,End Of Day,,1,1.01,0.997,1.005,3244132,,,Verified
CMW.AX,04-NOV-2015,,End Of Day,,1.01,1.03,1.01,1.02,2897273,,,Verified
CMW.AX,05-NOV-2015,,End Of Day,,1.01,1.02,1,1.015,4187316,,,Verified
CMW.AX,06-NOV-2015,,End Of Day,,1.015,1.022,1.01,1.015,2310790,,,Verified
CMW.AX,07-NOV-2015,,End Of Day,No Trades,,,,,,,,Verified
CMW.AX,08-NOV-2015,,End Of Day,No Trades,,,,,,,,Verified
CMW.AX,09-NOV-2015,,End Of Day,,1.02,1.02,0.99,0.99,1794776,,,Verified
CMW.AX,10-NOV-2015,,End Of Day,,0.995,1,0.985,1,3707297,,,Verified
CMW.AX,11-NOV-2015,,End Of Day,,0.995,1,0.99,0.995,1623844,,,Verified
CMW.AX,12-NOV-2015,,End Of Day,,0.995,0.995,0.99,0.995,1298235,,,Verified
CMW.AX,13-NOV-2015,,End Of Day,,0.99,0.99,0.982,0.985,2835384,,,Verified
CMW.AX,14-NOV-2015,,End Of Day,No Trades,,,,,,,,Verified
CMW.AX,15-NOV-2015,,End Of Day,No Trades,,,,,,,,Verified
CMW.AX,16-NOV-2015,,End Of Day,,0.98,0.985,0.97,0.97,2645864,,,Verified
CMW.AX,17-NOV-2015,,End Of Day,,0.97,0.995,0.965,0.995,2977790,,,Verified
CMW.AX,18-NOV-2015,,End Of Day,,0.985,0.995,0.985,0.99,1367612,,,Verified
CMW.AX,19-NOV-2015,,End Of Day,,1,1.02,0.995,1.02,2847092,,,Verified
CMW.AX,20-NOV-2015,,End Of Day,,1.02,1.035,1.015,1.035,2552269,,,Verified
CMW.AX,21-NOV-2015,,End Of Day,No Trades,,,,,,,,Verified
CMW.AX,22-NOV-2015,,End Of Day,No Trades,,,,,,,,Verified
CMW.AX,23-NOV-2015,,End Of Day,,1.025,1.045,1.025,1.04,2514668,,,Verified
CMW.AX,24-NOV-2015,,End Of Day,,1.025,1.045,1.025,1.03,3109735,,,Verified
CMW.AX,25-NOV-2015,,End Of Day,,1.025,1.035,1.02,1.02,2224839,,,Verified
CMW.AX,26-NOV-2015,,End Of Day,,1.025,1.03,1.017,1.025,1977433,,,Verified
CMW.AX,27-NOV-2015,,End Of Day,,1.025,1.03,1.02,1.02,1035929,,,Verified
CMW.AX,28-NOV-2015,,End Of Day,No Trades,,,,,,,,Verified
CMW.AX,29-NOV-2015,,End Of Day,No Trades,,,,,,,,Verified
CMW.AX,30-NOV-2015,,End Of Day,,1.02,1.025,1.02,1.02,2864940,,,Verified
CMW.AX,01-DEC-2015,,End Of Day,,1.025,1.04,1.02,1.04,3466125,,,Verified
CMW.AX,02-DEC-2015,,End Of Day,,1.04,1.045,1.032,1.045,3713980,,,Verified
CMW.AX,03-DEC-2015,,End Of Day,,1.035,1.042,1.035,1.035,2830857,,,Verified
CMW.AX,04-DEC-2015,,End Of Day,,1.03,1.035,1.01,1.02,4726853,,,Verified
CMW.AX,05-DEC-2015,,End Of Day,No Trades,,,,,,,,Verified
CMW.AX,06-DEC-2015,,End Of Day,No Trades,,,,,,,,Verified
CMW.AX,07-DEC-2015,,End Of Day,,1.035,1.04,1.022,1.035,2630927,,,Verified
CMW.AX,08-DEC-2015,,End Of Day,,1.025,1.04,1.025,1.03,3123389,,,Verified
CMW.AX,09-DEC-2015,,End Of Day,,1.03,1.035,1.025,1.03,2454672,,,Verified
CMW.AX,10-DEC-2015,,End Of Day,,1.03,1.03,1.005,1.005,2759718,,,Verified
CMW.AX,11-DEC-2015,,End Of Day,,1.01,1.02,1.002,1.01,2659662,,,Verified
CMW.AX,12-DEC-2015,,End Of Day,No Trades,,,,,,,,Verified
CMW.AX,13-DEC-2015,,End Of Day,No Trades,,,,,,,,Verified
CMW.AX,14-DEC-2015,,End Of Day,,1.005,1.01,0.987,0.99,3449787,,,Verified
CMW.AX,15-DEC-2015,,End Of Day,,0.99,1.01,0.99,1.005,2979617,,,Verified
CMW.AX,16-DEC-2015,,End Of Day,,1.01,1.035,1.005,1.035,4565499,,,Verified
CMW.AX,17-DEC-2015,,End Of Day,,1.04,1.05,1.035,1.04,6374570,,,Verified
CMW.AX,18-DEC-2015,,End Of Day,,1.03,1.05,1.015,1.04,6617474,,,Verified
CMW.AX,19-DEC-2015,,End Of Day,No Trades,,,,,,,,Verified
CMW.AX,20-DEC-2015,,End Of Day,No Trades,,,,,,,,Verified
CMW.AX,21-DEC-2015,,End Of Day,,1.035,1.05,1.032,1.045,2609688,,,Verified
CMW.AX,22-DEC-2015,,End Of Day,,1.05,1.057,1.045,1.05,2136081,,,Verified
CMW.AX,23-DEC-2015,,End Of Day,,1.055,1.06,1.05,1.055,1384332,,,Verified
CMW.AX,24-DEC-2015,,End Of Day,,1.06,1.06,1.045,1.06,1092508,,,Verified
CMW.AX,25-DEC-2015,,End Of Day,No Trades,,,,,,,,Verified
CMW.AX,26-DEC-2015,,End Of Day,No Trades,,,,,,,,Verified
CMW.AX,27-DEC-2015,,End Of Day,No Trades,,,,,,,,Verified
CMW.AX,28-DEC-2015,,End Of Day,No Trades,,,,,,,,Verified
CMW.AX,29-DEC-2015,,End Of Day,,1.04,1.075,1.035,1.06,2585394,,,Verified
CMW.AX,30-DEC-2015,,End Of Day,,1.06,1.075,1.05,1.065,2209842,,,Verified
CMW.AX,31-DEC-2015,,End Of Day,,1.055,1.06,1.045,1.05,2278362,,,Verified
CMW.AX,01-JAN-2016,,End Of Day,No Trades,,,,,,,,Verified
CMW.AX,02-JAN-2016,,End Of Day,No Trades,,,,,,,,Verified
CMW.AX,03-JAN-2016,,End Of Day,No Trades,,,,,,,,Verified
CMW.AX,04-JAN-2016,,End Of Day,,1.04,1.052,1.04,1.045,1981801,,,Verified
CMW.AX,05-JAN-2016,,End Of Day,,1.03,1.045,1.03,1.035,2032077,,,Verified
CMW.AX,06-JAN-2016,,End Of Day,,1.045,1.045,1.02,1.03,2510273,,,Verified
CMW.AX,07-JAN-2016,,End Of Day,,1.03,1.03,1.01,1.02,3338272,,,Verified
CMW.AX,08-JAN-2016,,End Of Day,,1.01,1.02,1,1.01,2264291,,,Verified
CMW.AX,09-JAN-2016,,End Of Day,No Trades,,,,,,,,Verified
CMW.AX,10-JAN-2016,,End Of Day,No Trades,,,,,,,,Verified
CMW.AX,11-JAN-2016,,End Of Day,,1,1.005,0.99,1.005,3234402,,,Verified
CMW.AX,12-JAN-2016,,End Of Day,,1,1.01,0.99,1,3726173,,,Verified
CMW.AX,13-JAN-2016,,End Of Day,,0.995,1.02,0.995,1.015,2310363,,,Verified
CMW.AX,14-JAN-2016,,End Of Day,,0.995,1.005,0.99,0.995,3246100,,,Verified
CMW.AX,15-JAN-2016,,End Of Day,,1,1.015,0.985,0.985,3553617,,,Verified
CMW.AX,16-JAN-2016,,End Of Day,No Trades,,,,,,,,Verified
CMW.AX,17-JAN-2016,,End Of Day,No Trades,,,,,,,,Verified
CMW.AX,18-JAN-2016,,End Of Day,,0.98,0.99,0.97,0.985,2904955,,,Verified
CMW.AX,19-JAN-2016,,End Of Day,,0.99,1.005,0.985,1.005,3574506,,,Verified
CMW.AX,20-JAN-2016,,End Of Day,,0.995,1.01,0.99,0.995,2782989,,,Verified
CMW.AX,21-JAN-2016,,End Of Day,,1,1.005,0.99,0.99,3039610,,,Verified
CMW.AX,22-JAN-2016,,End Of Day,,0.995,0.995,0.99,0.995,1788623,,,Verified
CMW.AX,23-JAN-2016,,End Of Day,No Trades,,,,,,,,Verified
CMW.AX,24-JAN-2016,,End Of Day,No Trades,,,,,,,,Verified
CMW.AX,25-JAN-2016,,End Of Day,,1,1.005,0.985,0.985,5070294,,,Verified
CMW.AX,26-JAN-2016,,End Of Day,No Trades,,,,,,,,Verified
CMW.AX,27-JAN-2016,,End Of Day,,0.995,1,0.985,0.985,3412385,,,Verified
CMW.AX,28-JAN-2016,,End Of Day,,0.985,0.997,0.985,0.99,2740503,,,Verified
CMW.AX,29-JAN-2016,,End Of Day,,0.99,0.995,0.985,0.99,2539428,,,Verified
CMW.AX,30-JAN-2016,,End Of Day,No Trades,,,,,,,,Verified
CMW.AX,31-JAN-2016,,End Of Day,No Trades,,,,,,,,Verified
CMW.AX,01-FEB-2016,,End Of Day,,0.995,1.015,0.99,0.995,4417346,,,Verified
CMW.AX,02-FEB-2016,,End Of Day,,0.99,1,0.99,0.995,1732133,,,Verified
CMW.AX,03-FEB-2016,,End Of Day,,0.995,1.005,0.995,0.995,4100501,,,Verified
CMW.AX,04-FEB-2016,,End Of Day,,1,1,0.99,1,2106429,,,Verified
CMW.AX,05-FEB-2016,,End Of Day,,0.995,1.005,0.995,1.005,1987502,,,Verified
CMW.AX,06-FEB-2016,,End Of Day,No Trades,,,,,,,,Verified
CMW.AX,07-FEB-2016,,End Of Day,No Trades,,,,,,,,Verified
CMW.AX,08-FEB-2016,,End Of Day,,1,1,0.99,0.995,2397791,,,Verified
CMW.AX,09-FEB-2016,,End Of Day,,0.99,0.995,0.975,0.975,4331591,,,Verified
CMW.AX,10-FEB-2016,,End Of Day,,0.98,0.985,0.95,0.965,4437561,,,Verified
CMW.AX,11-FEB-2016,,End Of Day,,0.965,0.98,0.965,0.98,2669887,,,Verified
CMW.AX,12-FEB-2016,,End Of Day,,0.97,0.98,0.97,0.975,2152936,,,Verified
CMW.AX,13-FEB-2016,,End Of Day,No Trades,,,,,,,,Verified
CMW.AX,14-FEB-2016,,End Of Day,No Trades,,,,,,,,Verified
CMW.AX,15-FEB-2016,,End Of Day,,0.98,0.985,0.97,0.985,2627776,,,Verified
CMW.AX,16-FEB-2016,,End Of Day,,0.985,0.99,0.975,0.99,4343546,,,Verified
CMW.AX,17-FEB-2016,,End Of Day,,0.99,0.995,0.975,0.98,3656620,,,Verified
CMW.AX,18-FEB-2016,,End Of Day,,0.985,0.985,0.98,0.98,2470615,,,Verified
CMW.AX,19-FEB-2016,,End Of Day,,0.99,1,0.985,0.985,3658678,,,Verified
CMW.AX,20-FEB-2016,,End Of Day,No Trades,,,,,,,,Verified
CMW.AX,21-FEB-2016,,End Of Day,No Trades,,,,,,,,Verified
CMW.AX,22-FEB-2016,,End Of Day,,0.99,0.99,0.975,0.985,2327601,,,Verified
CMW.AX,23-FEB-2016,,End Of Day,,0.99,1,0.985,1,3200285,,,Verified
CMW.AX,24-FEB-2016,,End Of Day,,1.005,1.01,1,1.005,2293895,,,Verified
CMW.AX,25-FEB-2016,,End Of Day,,1.01,1.02,1,1.005,4042577,,,Verified
CMW.AX,26-FEB-2016,,End Of Day,,1.01,1.03,1,1.025,3744568,,,Verified
CMW.AX,27-FEB-2016,,End Of Day,No Trades,,,,,,,,Verified
CMW.AX,28-FEB-2016,,End Of Day,No Trades,,,,,,,,Verified
CMW.AX,29-FEB-2016,,End Of Day,,1.025,1.035,1.01,1.015,3304974,,,Verified
CMW.AX,01-MAR-2016,,End Of Day,,1.015,1.035,1.01,1.03,2097348,,,Verified
CMW.AX,02-MAR-2016,,End Of Day,,1.035,1.04,1.025,1.03,4352764,,,Verified
CMW.AX,03-MAR-2016,,End Of Day,,1.03,1.03,1.015,1.02,3179767,,,Verified
CMW.AX,04-MAR-2016,,End Of Day,,1.02,1.025,1.005,1.005,3736434,,,Verified
CMW.AX,05-MAR-2016,,End Of Day,No Trades,,,,,,,,Verified
CMW.AX,06-MAR-2016,,End Of Day,No Trades,,,,,,,,Verified
CMW.AX,07-MAR-2016,,End Of Day,,1.01,1.015,1,1.005,2940056,,,Verified
CMW.AX,08-MAR-2016,,End Of Day,,1.005,1.01,1.005,1.005,2460141,,,Verified
CMW.AX,09-MAR-2016,,End Of Day,,1.005,1.015,1,1.015,3613883,,,Verified
CMW.AX,10-MAR-2016,,End Of Day,,1.015,1.02,1.01,1.015,2973771,,,Verified
CMW.AX,11-MAR-2016,,End Of Day,,1.015,1.02,1.01,1.01,2210336,,,Verified
CMW.AX,12-MAR-2016,,End Of Day,No Trades,,,,,,,,Verified
CMW.AX,13-MAR-2016,,End Of Day,No Trades,,,,,,,,Verified
CMW.AX,14-MAR-2016,,End Of Day,,1.01,1.015,1,1.005,2208800,,,Verified
CMW.AX,15-MAR-2016,,End Of Day,,1.01,1.015,1.005,1.005,2516702,,,Verified
CMW.AX,16-MAR-2016,,End Of Day,,1.01,1.02,1.005,1.02,4064243,,,Verified
CMW.AX,17-MAR-2016,,End Of Day,,1.03,1.055,1.015,1.05,7614244,,,Verified
CMW.AX,18-MAR-2016,,End Of Day,,1.05,1.055,1.035,1.05,4297349,,,Verified
CMW.AX,19-MAR-2016,,End Of Day,No Trades,,,,,,,,Verified
CMW.AX,20-MAR-2016,,End Of Day,No Trades,,,,,,,,Verified
CMW.AX,21-MAR-2016,,End Of Day,,1.04,1.05,1.04,1.045,1219874,,,Verified
CMW.AX,22-MAR-2016,,End Of Day,,1.05,1.055,1.042,1.055,3503518,,,Verified
CMW.AX,23-MAR-2016,,End Of Day,,1.055,1.055,1.045,1.05,1643701,,,Verified
CMW.AX,24-MAR-2016,,End Of Day,,1.045,1.05,1.035,1.045,1911389,,,Verified
CMW.AX,25-MAR-2016,,End Of Day,No Trades,,,,,,,,Verified
CMW.AX,26-MAR-2016,,End Of Day,No Trades,,,,,,,,Verified
CMW.AX,27-MAR-2016,,End Of Day,No Trades,,,,,,,,Verified
CMW.AX,28-MAR-2016,,End Of Day,No Trades,,,,,,,,Verified
CMW.AX,29-MAR-2016,,End Of Day,,1.05,1.05,1.035,1.045,3104928,,,Verified
CMW.AX,30-MAR-2016,,End Of Day,,1.025,1.042,1.02,1.03,2715640,,,Verified
CMW.AX,31-MAR-2016,,End Of Day,,1.035,1.05,1.03,1.04,3535047,,,Verified
CMW.AX,01-APR-2016,,End Of Day,,1.035,1.035,1.015,1.02,2803539,,,Verified
CMW.AX,02-APR-2016,,End Of Day,No Trades,,,,,,,,Verified
CMW.AX,03-APR-2016,,End Of Day,No Trades,,,,,,,,Verified
CMW.AX,04-APR-2016,,End Of Day,,1.015,1.035,1.015,1.03,1985396,,,Verified
CMW.AX,05-APR-2016,,End Of Day,,1.025,1.03,1.005,1.015,2823974,,,Verified
CMW.AX,06-APR-2016,,End Of Day,,1.015,1.03,1.01,1.03,3568653,,,Verified
CMW.AX,07-APR-2016,,End Of Day,,1.03,1.035,1.025,1.03,1852436,,,Verified
CMW.AX,08-APR-2016,,End Of Day,,1.03,1.035,1.03,1.035,1622141,,,Verified
CMW.AX,09-APR-2016,,End Of Day,No Trades,,,,,,,,Verified
CMW.AX,10-APR-2016,,End Of Day,No Trades,,,,,,,,Verified
CMW.AX,11-APR-2016,,End Of Day,,1.035,1.035,1.025,1.025,1764248,,,Verified
CMW.AX,12-APR-2016,,End Of Day,,1.02,1.03,1.015,1.02,3236730,,,Verified
CMW.AX,13-APR-2016,,End Of Day,,1,1.017,1,1.01,7734775,,,Verified
CMW.AX,14-APR-2016,,End Of Day,,1.005,1.005,0.975,0.995,9195138,,,Verified
CMW.AX,15-APR-2016,,End Of Day,,0.99,0.995,0.98,0.98,4713935,,,Verified
CMW.AX,16-APR-2016,,End Of Day,No Trades,,,,,,,,Verified
CMW.AX,17-APR-2016,,End Of Day,No Trades,,,,,,,,Verified
CMW.AX,18-APR-2016,,End Of Day,,0.98,0.99,0.98,0.99,4340938,,,Verified
CMW.AX,19-APR-2016,,End Of Day,,0.99,0.995,0.985,0.99,3534682,,,Verified
CMW.AX,20-APR-2016,,End Of Day,,0.99,0.995,0.985,0.99,4346425,,,Verified
CMW.AX,21-APR-2016,,End Of Day,,0.99,0.992,0.972,0.985,4397878,,,Verified
CMW.AX,22-APR-2016,,End Of Day,,0.985,0.99,0.98,0.985,4024530,,,Verified
CMW.AX,23-APR-2016,,End Of Day,No Trades,,,,,,,,Verified
CMW.AX,24-APR-2016,,End Of Day,No Trades,,,,,,,,Verified
CMW.AX,25-APR-2016,,End Of Day,No Trades,,,,,,,,Verified
CMW.AX,26-APR-2016,,End Of Day,,0.99,1,0.99,1,3998503,,,Verified
CMW.AX,27-APR-2016,,End Of Day,,1,1.01,0.997,1,2309128,,,Verified
CMW.AX,28-APR-2016,,End Of Day,,1.01,1.015,1.005,1.015,1941133,,,Verified
CMW.AX,29-APR-2016,,End Of Day,,1.015,1.02,1.007,1.02,1877937,,,Verified
CMW.AX,30-APR-2016,,End Of Day,No Trades,,,,,,,,Verified
CMW.AX,01-MAY-2016,,End Of Day,No Trades,,,,,,,,Verified
CMW.AX,02-MAY-2016,,End Of Day,,1.015,1.025,1.005,1.01,3146670,,,Verified
CMW.AX,03-MAY-2016,,End Of Day,,1.015,1.04,1.012,1.03,3998056,,,Verified
CMW.AX,04-MAY-2016,,End Of Day,,1.04,1.045,1.025,1.035,5888247,,,Verified
CMW.AX,05-MAY-2016,,End Of Day,,1.02,1.03,1.015,1.025,3479514,,,Verified
CMW.AX,06-MAY-2016,,End Of Day,,1.02,1.025,1.01,1.02,3938660,,,Verified
CMW.AX,07-MAY-2016,,End Of Day,No Trades,,,,,,,,Verified
CMW.AX,08-MAY-2016,,End Of Day,No Trades,,,,,,,,Verified
CMW.AX,09-MAY-2016,,End Of Day,,1.02,1.025,1.015,1.025,1510243,,,Verified
CMW.AX,10-MAY-2016,,End Of Day,,1.025,1.045,1.025,1.045,3479708,,,Verified
CMW.AX,11-MAY-2016,,End Of Day,,1.045,1.05,1.035,1.04,2776054,,,Verified
