#RIC,Date[L],Time[L],Type,Qualifiers,Open,High,Low,Last,Volume,Open Interest,Settle,Data Source
CGF.AX,01-JAN-2014,,End Of Day,No Trades,,,,,,,,Verified
CGF.AX,02-JAN-2014,,End Of Day,,6.25,6.32,6.22,6.25,760783,,,Verified
CGF.AX,03-JAN-2014,,End Of Day,,6.28,6.3,6.2,6.22,852964,,,Verified
CGF.AX,04-JAN-2014,,End Of Day,No Trades,,,,,,,,Verified
CGF.AX,05-JAN-2014,,End Of Day,No Trades,,,,,,,,Verified
CGF.AX,06-JAN-2014,,End Of Day,,6.29,6.39,6.26,6.27,850975,,,Verified
CGF.AX,07-JAN-2014,,End Of Day,,6.3,6.39,6.25,6.26,928871,,,Verified
CGF.AX,08-JAN-2014,,End Of Day,,6.3,6.36,6.27,6.31,973451,,,Verified
CGF.AX,09-JAN-2014,,End Of Day,,6.37,6.375,6.26,6.31,1500566,,,Verified
CGF.AX,10-JAN-2014,,End Of Day,,6.32,6.38,6.28,6.37,1002799,,,Verified
CGF.AX,11-JAN-2014,,End Of Day,No Trades,,,,,,,,Verified
CGF.AX,12-JAN-2014,,End Of Day,No Trades,,,,,,,,Verified
CGF.AX,13-JAN-2014,,End Of Day,,6.37,6.37,6.26,6.28,903632,,,Verified
CGF.AX,14-JAN-2014,,End Of Day,,6.29,6.31,6,6,2126850,,,Verified
CGF.AX,15-JAN-2014,,End Of Day,,6.05,6.24,6.04,6.2,1373924,,,Verified
CGF.AX,16-JAN-2014,,End Of Day,,6.2,6.31,6.19,6.31,1003110,,,Verified
CGF.AX,17-JAN-2014,,End Of Day,,6.21,6.25,6.12,6.21,924867,,,Verified
CGF.AX,18-JAN-2014,,End Of Day,No Trades,,,,,,,,Verified
CGF.AX,19-JAN-2014,,End Of Day,No Trades,,,,,,,,Verified
CGF.AX,20-JAN-2014,,End Of Day,,6.2,6.2,6.05,6.11,1381046,,,Verified
CGF.AX,21-JAN-2014,,End Of Day,,6.15,6.29,6.15,6.29,736627,,,Verified
CGF.AX,22-JAN-2014,,End Of Day,,6.31,6.31,6.205,6.27,1036309,,,Verified
CGF.AX,23-JAN-2014,,End Of Day,,6.24,6.27,6.175,6.19,1179694,,,Verified
CGF.AX,24-JAN-2014,,End Of Day,,6.19,6.25,6.15,6.15,814740,,,Verified
CGF.AX,25-JAN-2014,,End Of Day,No Trades,,,,,,,,Verified
CGF.AX,26-JAN-2014,,End Of Day,No Trades,,,,,,,,Verified
CGF.AX,27-JAN-2014,,End Of Day,No Trades,,,,,,,,Verified
CGF.AX,28-JAN-2014,,End Of Day,,6.01,6.07,5.96,6.02,1811244,,,Verified
CGF.AX,29-JAN-2014,,End Of Day,,6.11,6.175,6.09,6.13,1319850,,,Verified
CGF.AX,30-JAN-2014,,End Of Day,,6.02,6.03,5.94,6.03,1239109,,,Verified
CGF.AX,31-JAN-2014,,End Of Day,,6.07,6.07,5.95,6,1005093,,,Verified
CGF.AX,01-FEB-2014,,End Of Day,No Trades,,,,,,,,Verified
CGF.AX,02-FEB-2014,,End Of Day,No Trades,,,,,,,,Verified
CGF.AX,03-FEB-2014,,End Of Day,,5.95,5.955,5.86,5.92,1112923,,,Verified
CGF.AX,04-FEB-2014,,End Of Day,,5.8,5.875,5.74,5.76,2237178,,,Verified
CGF.AX,05-FEB-2014,,End Of Day,,5.73,5.76,5.605,5.7,3219147,,,Verified
CGF.AX,06-FEB-2014,,End Of Day,,5.71,5.865,5.71,5.82,2753135,,,Verified
CGF.AX,07-FEB-2014,,End Of Day,,5.87,6.05,5.87,5.95,1744789,,,Verified
CGF.AX,08-FEB-2014,,End Of Day,No Trades,,,,,,,,Verified
CGF.AX,09-FEB-2014,,End Of Day,No Trades,,,,,,,,Verified
CGF.AX,10-FEB-2014,,End Of Day,,6,6.03,5.92,5.98,1051599,,,Verified
CGF.AX,11-FEB-2014,,End Of Day,,6.08,6.15,5.98,6.15,1044592,,,Verified
CGF.AX,12-FEB-2014,,End Of Day,,6.18,6.2,6.14,6.18,1517699,,,Verified
CGF.AX,13-FEB-2014,,End Of Day,,6.17,6.265,6.12,6.23,1488445,,,Verified
CGF.AX,14-FEB-2014,,End Of Day,,6.21,6.42,6.21,6.3,1719648,,,Verified
CGF.AX,15-FEB-2014,,End Of Day,No Trades,,,,,,,,Verified
CGF.AX,16-FEB-2014,,End Of Day,No Trades,,,,,,,,Verified
CGF.AX,17-FEB-2014,,End Of Day,,6.4,6.43,6.31,6.4,1507295,,,Verified
CGF.AX,18-FEB-2014,,End Of Day,,6.52,6.79,6.52,6.61,3310480,,,Verified
CGF.AX,19-FEB-2014,,End Of Day,,6.57,6.7,6.45,6.6,3522488,,,Verified
CGF.AX,20-FEB-2014,,End Of Day,,6.55,6.605,6.46,6.51,2607097,,,Verified
CGF.AX,21-FEB-2014,,End Of Day,,6.57,6.57,6.4,6.47,1608440,,,Verified
CGF.AX,22-FEB-2014,,End Of Day,No Trades,,,,,,,,Verified
CGF.AX,23-FEB-2014,,End Of Day,No Trades,,,,,,,,Verified
CGF.AX,24-FEB-2014,,End Of Day,,6.54,6.55,6.44,6.48,2010310,,,Verified
CGF.AX,25-FEB-2014,,End Of Day,,6.47,6.49,6.27,6.28,1962563,,,Verified
CGF.AX,26-FEB-2014,,End Of Day,,6.27,6.3,6.22,6.25,1210606,,,Verified
CGF.AX,27-FEB-2014,,End Of Day,,6.28,6.295,6.2,6.21,1004516,,,Verified
CGF.AX,28-FEB-2014,,End Of Day,,6.32,6.34,6.17,6.21,1605961,,,Verified
CGF.AX,01-MAR-2014,,End Of Day,No Trades,,,,,,,,Verified
CGF.AX,02-MAR-2014,,End Of Day,No Trades,,,,,,,,Verified
CGF.AX,03-MAR-2014,,End Of Day,,6.19,6.29,6.1,6.27,1762953,,,Verified
CGF.AX,04-MAR-2014,,End Of Day,,6.29,6.37,6.235,6.31,1463704,,,Verified
CGF.AX,05-MAR-2014,,End Of Day,,6.38,6.565,6.38,6.54,2562105,,,Verified
CGF.AX,06-MAR-2014,,End Of Day,,6.58,6.695,6.57,6.67,3552438,,,Verified
CGF.AX,07-MAR-2014,,End Of Day,,6.7,6.81,6.69,6.72,3086246,,,Verified
CGF.AX,08-MAR-2014,,End Of Day,No Trades,,,,,,,,Verified
CGF.AX,09-MAR-2014,,End Of Day,No Trades,,,,,,,,Verified
CGF.AX,10-MAR-2014,,End Of Day,,6.71,6.77,6.6,6.61,1513887,,,Verified
CGF.AX,11-MAR-2014,,End Of Day,,6.63,6.66,6.45,6.54,2430524,,,Verified
CGF.AX,12-MAR-2014,,End Of Day,,6.47,6.5,6.385,6.42,1647579,,,Verified
CGF.AX,13-MAR-2014,,End Of Day,,6.45,6.55,6.44,6.48,1606475,,,Verified
CGF.AX,14-MAR-2014,,End Of Day,,6.42,6.48,6.33,6.43,1459159,,,Verified
CGF.AX,15-MAR-2014,,End Of Day,No Trades,,,,,,,,Verified
CGF.AX,16-MAR-2014,,End Of Day,No Trades,,,,,,,,Verified
CGF.AX,17-MAR-2014,,End Of Day,,6.4,6.51,6.35,6.46,1588536,,,Verified
CGF.AX,18-MAR-2014,,End Of Day,,6.49,6.54,6.42,6.46,1958418,,,Verified
CGF.AX,19-MAR-2014,,End Of Day,,6.45,6.54,6.43,6.45,2837836,,,Verified
CGF.AX,20-MAR-2014,,End Of Day,,6.39,6.5,6.31,6.31,3813146,,,Verified
CGF.AX,21-MAR-2014,,End Of Day,,6.38,6.49,6.36,6.45,2240688,,,Verified
CGF.AX,22-MAR-2014,,End Of Day,No Trades,,,,,,,,Verified
CGF.AX,23-MAR-2014,,End Of Day,No Trades,,,,,,,,Verified
CGF.AX,24-MAR-2014,,End Of Day,,6.41,6.5,6.38,6.5,1558676,,,Verified
CGF.AX,25-MAR-2014,,End Of Day,,6.45,6.47,6.41,6.44,3491121,,,Verified
CGF.AX,26-MAR-2014,,End Of Day,,6.46,6.53,6.45,6.52,3373001,,,Verified
CGF.AX,27-MAR-2014,,End Of Day,,6.46,6.48,6.405,6.45,1461557,,,Verified
CGF.AX,28-MAR-2014,,End Of Day,,6.45,6.49,6.31,6.31,1640967,,,Verified
CGF.AX,29-MAR-2014,,End Of Day,No Trades,,,,,,,,Verified
CGF.AX,30-MAR-2014,,End Of Day,No Trades,,,,,,,,Verified
CGF.AX,31-MAR-2014,,End Of Day,,6.39,6.47,6.37,6.4,1153446,,,Verified
CGF.AX,01-APR-2014,,End Of Day,,6.43,6.48,6.35,6.44,1747178,,,Verified
CGF.AX,02-APR-2014,,End Of Day,,6.5,6.53,6.4,6.52,1495232,,,Verified
CGF.AX,03-APR-2014,,End Of Day,,6.52,6.53,6.445,6.49,1309049,,,Verified
CGF.AX,04-APR-2014,,End Of Day,,6.47,6.5,6.44,6.47,1327743,,,Verified
CGF.AX,05-APR-2014,,End Of Day,No Trades,,,,,,,,Verified
CGF.AX,06-APR-2014,,End Of Day,No Trades,,,,,,,,Verified
CGF.AX,07-APR-2014,,End Of Day,,6.4,6.51,6.39,6.5,1485467,,,Verified
CGF.AX,08-APR-2014,,End Of Day,,6.45,6.45,6.31,6.36,1251050,,,Verified
CGF.AX,09-APR-2014,,End Of Day,,6.37,6.38,6.33,6.35,1626303,,,Verified
CGF.AX,10-APR-2014,,End Of Day,,6.42,6.45,6.37,6.39,1335328,,,Verified
CGF.AX,11-APR-2014,,End Of Day,,6.3,6.39,6.25,6.26,990864,,,Verified
CGF.AX,12-APR-2014,,End Of Day,No Trades,,,,,,,,Verified
CGF.AX,13-APR-2014,,End Of Day,No Trades,,,,,,,,Verified
CGF.AX,14-APR-2014,,End Of Day,,6.25,6.37,6.12,6.14,1342082,,,Verified
CGF.AX,15-APR-2014,,End Of Day,,6.13,6.24,6.07,6.11,1974670,,,Verified
CGF.AX,16-APR-2014,,End Of Day,,6.19,6.52,6.17,6.45,2805442,,,Verified
CGF.AX,17-APR-2014,,End Of Day,,6.5,6.73,6.5,6.72,2553303,,,Verified
CGF.AX,18-APR-2014,,End Of Day,No Trades,,,,,,,,Verified
CGF.AX,19-APR-2014,,End Of Day,No Trades,,,,,,,,Verified
CGF.AX,20-APR-2014,,End Of Day,No Trades,,,,,,,,Verified
CGF.AX,21-APR-2014,,End Of Day,No Trades,,,,,,,,Verified
CGF.AX,22-APR-2014,,End Of Day,,6.74,6.87,6.71,6.84,2299128,,,Verified
CGF.AX,23-APR-2014,,End Of Day,,6.9,6.95,6.87,6.92,1715761,,,Verified
CGF.AX,24-APR-2014,,End Of Day,,6.93,7.05,6.9,7,3316996,,,Verified
CGF.AX,25-APR-2014,,End Of Day,No Trades,,,,,,,,Verified
CGF.AX,26-APR-2014,,End Of Day,No Trades,,,,,,,,Verified
CGF.AX,27-APR-2014,,End Of Day,No Trades,,,,,,,,Verified
CGF.AX,28-APR-2014,,End Of Day,,6.98,7.03,6.91,7,1909230,,,Verified
CGF.AX,29-APR-2014,,End Of Day,,7.01,7.06,6.97,7.01,1500173,,,Verified
CGF.AX,30-APR-2014,,End Of Day,,7,7.06,6.91,7.05,1776066,,,Verified
CGF.AX,01-MAY-2014,,End Of Day,,7.09,7.11,6.99,7.02,1708335,,,Verified
CGF.AX,02-MAY-2014,,End Of Day,,7.01,7.02,6.9,6.95,837943,,,Verified
CGF.AX,03-MAY-2014,,End Of Day,No Trades,,,,,,,,Verified
CGF.AX,04-MAY-2014,,End Of Day,No Trades,,,,,,,,Verified
CGF.AX,05-MAY-2014,,End Of Day,,6.97,6.98,6.89,6.94,481951,,,Verified
CGF.AX,06-MAY-2014,,End Of Day,,6.94,7,6.91,6.97,706927,,,Verified
CGF.AX,07-MAY-2014,,End Of Day,,6.91,6.98,6.865,6.9,1308885,,,Verified
CGF.AX,08-MAY-2014,,End Of Day,,6.9,7.05,6.87,7.03,1320080,,,Verified
CGF.AX,09-MAY-2014,,End Of Day,,6.92,7,6.83,6.91,1137511,,,Verified
CGF.AX,10-MAY-2014,,End Of Day,No Trades,,,,,,,,Verified
CGF.AX,11-MAY-2014,,End Of Day,No Trades,,,,,,,,Verified
CGF.AX,12-MAY-2014,,End Of Day,,6.92,6.95,6.845,6.89,538574,,,Verified
CGF.AX,13-MAY-2014,,End Of Day,,6.99,7.02,6.935,6.98,990891,,,Verified
CGF.AX,14-MAY-2014,,End Of Day,,7.05,7.06,6.96,7.03,3023258,,,Verified
CGF.AX,15-MAY-2014,,End Of Day,,6.98,7.08,6.95,7.06,1572625,,,Verified
CGF.AX,16-MAY-2014,,End Of Day,,7.01,7.08,7,7.03,925216,,,Verified
CGF.AX,17-MAY-2014,,End Of Day,No Trades,,,,,,,,Verified
CGF.AX,18-MAY-2014,,End Of Day,No Trades,,,,,,,,Verified
CGF.AX,19-MAY-2014,,End Of Day,,7.03,7.04,6.98,7,1636277,,,Verified
CGF.AX,20-MAY-2014,,End Of Day,,7.02,7.06,6.98,7.01,3791837,,,Verified
CGF.AX,21-MAY-2014,,End Of Day,,6.98,7.02,6.95,7,1447836,,,Verified
CGF.AX,22-MAY-2014,,End Of Day,,7.07,7.345,7.04,7.24,2489727,,,Verified
CGF.AX,23-MAY-2014,,End Of Day,,7.27,7.43,7.26,7.35,3441204,,,Verified
CGF.AX,24-MAY-2014,,End Of Day,No Trades,,,,,,,,Verified
CGF.AX,25-MAY-2014,,End Of Day,No Trades,,,,,,,,Verified
CGF.AX,26-MAY-2014,,End Of Day,,7.33,7.37,6.98,7.14,4173834,,,Verified
CGF.AX,27-MAY-2014,,End Of Day,,7.14,7.23,7.03,7.12,1574863,,,Verified
CGF.AX,28-MAY-2014,,End Of Day,,7.17,7.34,7.17,7.21,1204098,,,Verified
CGF.AX,29-MAY-2014,,End Of Day,,7.15,7.245,7.13,7.16,878241,,,Verified
CGF.AX,30-MAY-2014,,End Of Day,,7.22,7.24,7.1,7.1,1903190,,,Verified
CGF.AX,31-MAY-2014,,End Of Day,No Trades,,,,,,,,Verified
CGF.AX,01-JUN-2014,,End Of Day,No Trades,,,,,,,,Verified
CGF.AX,02-JUN-2014,,End Of Day,,7.12,7.24,7.07,7.16,916714,,,Verified
CGF.AX,03-JUN-2014,,End Of Day,,7.16,7.18,6.99,7,1836172,,,Verified
CGF.AX,04-JUN-2014,,End Of Day,,7,7.03,6.81,6.81,2325110,,,Verified
CGF.AX,05-JUN-2014,,End Of Day,,6.99,7.12,6.92,7.09,2238914,,,Verified
CGF.AX,06-JUN-2014,,End Of Day,,7.16,7.225,7.12,7.19,1259628,,,Verified
CGF.AX,07-JUN-2014,,End Of Day,No Trades,,,,,,,,Verified
CGF.AX,08-JUN-2014,,End Of Day,No Trades,,,,,,,,Verified
CGF.AX,09-JUN-2014,,End Of Day,No Trades,,,,,,,,Verified
CGF.AX,10-JUN-2014,,End Of Day,,7.22,7.385,7.22,7.35,1683643,,,Verified
CGF.AX,11-JUN-2014,,End Of Day,,7.36,7.44,7.32,7.37,1384396,,,Verified
CGF.AX,12-JUN-2014,,End Of Day,,7.37,7.37,7.2,7.24,1139732,,,Verified
CGF.AX,13-JUN-2014,,End Of Day,,7.17,7.27,7.12,7.23,1248722,,,Verified
CGF.AX,14-JUN-2014,,End Of Day,No Trades,,,,,,,,Verified
CGF.AX,15-JUN-2014,,End Of Day,No Trades,,,,,,,,Verified
CGF.AX,16-JUN-2014,,End Of Day,,7.18,7.26,7.07,7.24,1605352,,,Verified
CGF.AX,17-JUN-2014,,End Of Day,,7.24,7.25,7.14,7.19,905039,,,Verified
CGF.AX,18-JUN-2014,,End Of Day,,7.15,7.36,7.15,7.31,1509863,,,Verified
CGF.AX,19-JUN-2014,,End Of Day,,7.35,7.46,7.33,7.43,3089216,,,Verified
CGF.AX,20-JUN-2014,,End Of Day,,7.41,7.42,7.36,7.38,1017401,,,Verified
CGF.AX,21-JUN-2014,,End Of Day,No Trades,,,,,,,,Verified
CGF.AX,22-JUN-2014,,End Of Day,No Trades,,,,,,,,Verified
CGF.AX,23-JUN-2014,,End Of Day,,7.45,7.61,7.435,7.56,1949177,,,Verified
CGF.AX,24-JUN-2014,,End Of Day,,7.51,7.55,7.45,7.47,1367024,,,Verified
CGF.AX,25-JUN-2014,,End Of Day,,7.42,7.58,7.38,7.58,2695353,,,Verified
CGF.AX,26-JUN-2014,,End Of Day,,7.56,7.6,7.48,7.6,2091765,,,Verified
CGF.AX,27-JUN-2014,,End Of Day,,7.6,7.65,7.49,7.54,1390454,,,Verified
CGF.AX,28-JUN-2014,,End Of Day,No Trades,,,,,,,,Verified
CGF.AX,29-JUN-2014,,End Of Day,No Trades,,,,,,,,Verified
CGF.AX,30-JUN-2014,,End Of Day,,7.51,7.51,7.41,7.44,1705480,,,Verified
CGF.AX,01-JUL-2014,,End Of Day,,7.52,7.52,7.27,7.42,1681335,,,Verified
CGF.AX,02-JUL-2014,,End Of Day,,7.56,7.61,7.52,7.57,2094598,,,Verified
CGF.AX,03-JUL-2014,,End Of Day,,7.55,7.74,7.55,7.7,2142662,,,Verified
CGF.AX,04-JUL-2014,,End Of Day,,7.74,7.785,7.63,7.63,1283684,,,Verified
CGF.AX,05-JUL-2014,,End Of Day,No Trades,,,,,,,,Verified
CGF.AX,06-JUL-2014,,End Of Day,No Trades,,,,,,,,Verified
CGF.AX,07-JUL-2014,,End Of Day,,7.63,7.7,7.62,7.64,534501,,,Verified
CGF.AX,08-JUL-2014,,End Of Day,,7.63,7.64,7.51,7.52,1149278,,,Verified
CGF.AX,09-JUL-2014,,End Of Day,,7.49,7.57,7.365,7.42,2157719,,,Verified
CGF.AX,10-JUL-2014,,End Of Day,,7.38,7.53,7.38,7.48,1305666,,,Verified
CGF.AX,11-JUL-2014,,End Of Day,,7.4,7.5,7.27,7.45,1183454,,,Verified
CGF.AX,12-JUL-2014,,End Of Day,No Trades,,,,,,,,Verified
CGF.AX,13-JUL-2014,,End Of Day,No Trades,,,,,,,,Verified
CGF.AX,14-JUL-2014,,End Of Day,,7.45,7.51,7.44,7.5,1382821,,,Verified
CGF.AX,15-JUL-2014,,End Of Day,,7.54,7.71,7.41,7.45,1446790,,,Verified
CGF.AX,16-JUL-2014,,End Of Day,,7.5,7.52,7.42,7.49,2039879,,,Verified
CGF.AX,17-JUL-2014,,End Of Day,,7.56,7.67,7.56,7.66,2151641,,,Verified
CGF.AX,18-JUL-2014,,End Of Day,,7.59,7.67,7.575,7.65,980909,,,Verified
CGF.AX,19-JUL-2014,,End Of Day,No Trades,,,,,,,,Verified
CGF.AX,20-JUL-2014,,End Of Day,No Trades,,,,,,,,Verified
CGF.AX,21-JUL-2014,,End Of Day,,7.68,7.83,7.68,7.76,950467,,,Verified
CGF.AX,22-JUL-2014,,End Of Day,,7.75,7.83,7.75,7.82,932201,,,Verified
CGF.AX,23-JUL-2014,,End Of Day,,7.85,8.01,7.83,7.98,1685386,,,Verified
CGF.AX,24-JUL-2014,,End Of Day,,7.95,8.13,7.86,7.88,1403517,,,Verified
CGF.AX,25-JUL-2014,,End Of Day,,7.88,7.97,7.88,7.97,1608361,,,Verified
CGF.AX,26-JUL-2014,,End Of Day,No Trades,,,,,,,,Verified
CGF.AX,27-JUL-2014,,End Of Day,No Trades,,,,,,,,Verified
CGF.AX,28-JUL-2014,,End Of Day,,7.97,8.2,7.94,8.18,1600227,,,Verified
CGF.AX,29-JUL-2014,,End Of Day,,8.15,8.16,8.05,8.16,1104814,,,Verified
CGF.AX,30-JUL-2014,,End Of Day,,8.19,8.27,8.14,8.19,1353664,,,Verified
CGF.AX,31-JUL-2014,,End Of Day,,8.18,8.23,8.08,8.08,1278970,,,Verified
CGF.AX,01-AUG-2014,,End Of Day,,7.95,7.97,7.815,7.84,2156707,,,Verified
CGF.AX,02-AUG-2014,,End Of Day,No Trades,,,,,,,,Verified
CGF.AX,03-AUG-2014,,End Of Day,No Trades,,,,,,,,Verified
CGF.AX,04-AUG-2014,,End Of Day,,7.74,7.87,7.73,7.8,1115284,,,Verified
CGF.AX,05-AUG-2014,,End Of Day,,7.8,7.84,7.73,7.76,1392490,,,Verified
CGF.AX,06-AUG-2014,,End Of Day,,7.76,7.83,7.725,7.78,2124228,,,Verified
CGF.AX,07-AUG-2014,,End Of Day,,7.78,7.84,7.76,7.82,1608638,,,Verified
CGF.AX,08-AUG-2014,,End Of Day,,7.74,7.8,7.52,7.53,1784466,,,Verified
CGF.AX,09-AUG-2014,,End Of Day,No Trades,,,,,,,,Verified
CGF.AX,10-AUG-2014,,End Of Day,No Trades,,,,,,,,Verified
CGF.AX,11-AUG-2014,,End Of Day,,7.58,7.71,7.58,7.66,946580,,,Verified
CGF.AX,12-AUG-2014,,End Of Day,,7.7,7.83,7.68,7.8,1445571,,,Verified
CGF.AX,13-AUG-2014,,End Of Day,,7.76,7.78,7.64,7.73,1717290,,,Verified
CGF.AX,14-AUG-2014,,End Of Day,,7.71,7.75,7.67,7.73,1560455,,,Verified
CGF.AX,15-AUG-2014,,End Of Day,,7.73,7.735,7.65,7.68,2056353,,,Verified
CGF.AX,16-AUG-2014,,End Of Day,No Trades,,,,,,,,Verified
CGF.AX,17-AUG-2014,,End Of Day,No Trades,,,,,,,,Verified
CGF.AX,18-AUG-2014,,End Of Day,,7.69,7.72,7.65,7.71,1134241,,,Verified
CGF.AX,19-AUG-2014,,End Of Day,,7.75,7.98,7.75,7.95,2144994,,,Verified
CGF.AX,21-AUG-2014,,End Of Day,,8,8.03,7.64,7.85,5129732,,,Verified
CGF.AX,22-AUG-2014,,End Of Day,,7.8,8.05,7.8,8,4064714,,,Verified
CGF.AX,23-AUG-2014,,End Of Day,No Trades,,,,,,,,Verified
CGF.AX,24-AUG-2014,,End Of Day,No Trades,,,,,,,,Verified
CGF.AX,25-AUG-2014,,End Of Day,,8,8.03,7.89,7.9,1326889,,,Verified
CGF.AX,26-AUG-2014,,End Of Day,,7.92,7.955,7.88,7.9,1289540,,,Verified
CGF.AX,27-AUG-2014,,End Of Day,,7.93,8.04,7.905,8.01,1157155,,,Verified
CGF.AX,28-AUG-2014,,End Of Day,,7.94,8,7.91,7.99,826530,,,Verified
CGF.AX,29-AUG-2014,,End Of Day,,7.84,7.85,7.725,7.85,2728669,,,Verified
CGF.AX,30-AUG-2014,,End Of Day,No Trades,,,,,,,,Verified
CGF.AX,31-AUG-2014,,End Of Day,No Trades,,,,,,,,Verified
CGF.AX,01-SEP-2014,,End Of Day,,7.85,7.93,7.79,7.79,1436152,,,Verified
CGF.AX,02-SEP-2014,,End Of Day,,7.81,7.88,7.75,7.79,1581945,,,Verified
CGF.AX,03-SEP-2014,,End Of Day,,7.79,7.81,7.62,7.65,2896891,,,Verified
CGF.AX,04-SEP-2014,,End Of Day,,7.59,7.64,7.37,7.45,3469297,,,Verified
CGF.AX,05-SEP-2014,,End Of Day,,7.5,7.81,7.5,7.75,3001518,,,Verified
CGF.AX,06-SEP-2014,,End Of Day,No Trades,,,,,,,,Verified
CGF.AX,07-SEP-2014,,End Of Day,No Trades,,,,,,,,Verified
CGF.AX,08-SEP-2014,,End Of Day,,7.72,7.75,7.58,7.7,2291132,,,Verified
CGF.AX,09-SEP-2014,,End Of Day,,7.7,7.8,7.67,7.8,3308495,,,Verified
CGF.AX,10-SEP-2014,,End Of Day,,7.7,7.8,7.62,7.65,2663074,,,Verified
CGF.AX,11-SEP-2014,,End Of Day,,7.7,7.71,7.63,7.66,1541802,,,Verified
CGF.AX,12-SEP-2014,,End Of Day,,7.66,7.68,7.45,7.55,2271453,,,Verified
CGF.AX,13-SEP-2014,,End Of Day,No Trades,,,,,,,,Verified
CGF.AX,14-SEP-2014,,End Of Day,No Trades,,,,,,,,Verified
CGF.AX,15-SEP-2014,,End Of Day,,7.47,7.6,7.43,7.55,2108694,,,Verified
CGF.AX,16-SEP-2014,,End Of Day,,7.525,7.53,7.34,7.36,2816684,,,Verified
CGF.AX,17-SEP-2014,,End Of Day,,7.36,7.37,6.995,7.21,6365568,,,Verified
CGF.AX,18-SEP-2014,,End Of Day,,7.26,7.43,7.12,7.22,2818452,,,Verified
CGF.AX,19-SEP-2014,,End Of Day,,7.23,7.39,7.17,7.34,2874316,,,Verified
CGF.AX,20-SEP-2014,,End Of Day,No Trades,,,,,,,,Verified
CGF.AX,21-SEP-2014,,End Of Day,No Trades,,,,,,,,Verified
CGF.AX,22-SEP-2014,,End Of Day,,7.32,7.33,7.22,7.25,2418812,,,Verified
CGF.AX,23-SEP-2014,,End Of Day,,7.21,7.3,7.17,7.3,1935467,,,Verified
CGF.AX,24-SEP-2014,,End Of Day,,7.29,7.29,7.16,7.22,1867643,,,Verified
CGF.AX,25-SEP-2014,,End Of Day,,7.31,7.4,7.245,7.38,3155594,,,Verified
CGF.AX,26-SEP-2014,,End Of Day,,7.3,7.35,7.21,7.23,2751625,,,Verified
CGF.AX,27-SEP-2014,,End Of Day,No Trades,,,,,,,,Verified
CGF.AX,28-SEP-2014,,End Of Day,No Trades,,,,,,,,Verified
CGF.AX,29-SEP-2014,,End Of Day,,7.17,7.25,7.1,7.13,1538601,,,Verified
CGF.AX,30-SEP-2014,,End Of Day,,7.11,7.17,7.03,7.12,2308149,,,Verified
CGF.AX,01-OCT-2014,,End Of Day,,7.01,7.1,6.9,7.03,3257283,,,Verified
CGF.AX,02-OCT-2014,,End Of Day,,6.93,6.995,6.88,6.93,2967033,,,Verified
CGF.AX,03-OCT-2014,,End Of Day,,6.88,6.98,6.76,6.94,3173559,,,Verified
CGF.AX,04-OCT-2014,,End Of Day,No Trades,,,,,,,,Verified
CGF.AX,05-OCT-2014,,End Of Day,No Trades,,,,,,,,Verified
CGF.AX,06-OCT-2014,,End Of Day,,6.95,7.08,6.89,7.06,1169567,,,Verified
CGF.AX,07-OCT-2014,,End Of Day,,7.1,7.32,6.99,7.26,4951510,,,Verified
CGF.AX,08-OCT-2014,,End Of Day,,7.08,7.11,6.91,7.02,2890197,,,Verified
CGF.AX,09-OCT-2014,,End Of Day,,7.09,7.27,7.05,7.17,2815483,,,Verified
CGF.AX,10-OCT-2014,,End Of Day,,6.95,7.09,6.93,6.94,4045485,,,Verified
CGF.AX,11-OCT-2014,,End Of Day,No Trades,,,,,,,,Verified
CGF.AX,12-OCT-2014,,End Of Day,No Trades,,,,,,,,Verified
CGF.AX,13-OCT-2014,,End Of Day,,6.85,6.85,6.72,6.72,4811488,,,Verified
CGF.AX,14-OCT-2014,,End Of Day,,6.68,6.85,6.52,6.85,4772141,,,Verified
CGF.AX,15-OCT-2014,,End Of Day,,6.8,6.81,6.615,6.76,7425523,,,Verified
CGF.AX,16-OCT-2014,,End Of Day,,6.67,6.73,6.56,6.57,5342076,,,Verified
CGF.AX,17-OCT-2014,,End Of Day,,6.57,6.63,6.51,6.54,3600663,,,Verified
CGF.AX,18-OCT-2014,,End Of Day,No Trades,,,,,,,,Verified
CGF.AX,19-OCT-2014,,End Of Day,No Trades,,,,,,,,Verified
CGF.AX,20-OCT-2014,,End Of Day,,6.65,6.75,6.61,6.67,4301138,,,Verified
CGF.AX,21-OCT-2014,,End Of Day,,6.71,6.74,6.58,6.61,3807972,,,Verified
CGF.AX,22-OCT-2014,,End Of Day,,6.72,6.83,6.71,6.8,5046660,,,Verified
CGF.AX,23-OCT-2014,,End Of Day,,6.8,6.8,6.67,6.71,1924571,,,Verified
CGF.AX,24-OCT-2014,,End Of Day,,6.78,6.82,6.68,6.69,3237852,,,Verified
CGF.AX,25-OCT-2014,,End Of Day,No Trades,,,,,,,,Verified
CGF.AX,26-OCT-2014,,End Of Day,No Trades,,,,,,,,Verified
CGF.AX,27-OCT-2014,,End Of Day,,6.72,6.88,6.72,6.79,3596733,,,Verified
CGF.AX,28-OCT-2014,,End Of Day,,6.79,6.83,6.68,6.72,2124098,,,Verified
CGF.AX,29-OCT-2014,,End Of Day,,6.8,6.8,6.64,6.67,1826379,,,Verified
CGF.AX,30-OCT-2014,,End Of Day,,6.71,6.8,6.68,6.77,2565268,,,Verified
CGF.AX,31-OCT-2014,,End Of Day,,6.89,6.99,6.85,6.93,4268608,,,Verified
CGF.AX,01-NOV-2014,,End Of Day,No Trades,,,,,,,,Verified
CGF.AX,02-NOV-2014,,End Of Day,No Trades,,,,,,,,Verified
CGF.AX,03-NOV-2014,,End Of Day,,6.99,7.12,6.98,7.06,2740782,,,Verified
CGF.AX,04-NOV-2014,,End Of Day,,7.1,7.15,7.03,7.05,2535397,,,Verified
CGF.AX,05-NOV-2014,,End Of Day,,7.05,7.17,7.03,7.15,3169136,,,Verified
CGF.AX,06-NOV-2014,,End Of Day,,7.2,7.26,7,7.1,2511127,,,Verified
CGF.AX,07-NOV-2014,,End Of Day,,7.18,7.2,7.08,7.13,3519528,,,Verified
CGF.AX,08-NOV-2014,,End Of Day,No Trades,,,,,,,,Verified
CGF.AX,09-NOV-2014,,End Of Day,No Trades,,,,,,,,Verified
CGF.AX,10-NOV-2014,,End Of Day,,7.05,7.14,7,7.03,3351615,,,Verified
CGF.AX,11-NOV-2014,,End Of Day,,6.99,7.02,6.88,6.9,3315537,,,Verified
CGF.AX,12-NOV-2014,,End Of Day,,6.95,7.02,6.89,6.92,2163803,,,Verified
CGF.AX,13-NOV-2014,,End Of Day,,6.98,7.02,6.79,6.79,2880266,,,Verified
CGF.AX,14-NOV-2014,,End Of Day,,6.71,6.86,6.68,6.79,1868799,,,Verified
CGF.AX,15-NOV-2014,,End Of Day,No Trades,,,,,,,,Verified
CGF.AX,16-NOV-2014,,End Of Day,No Trades,,,,,,,,Verified
CGF.AX,17-NOV-2014,,End Of Day,,6.84,6.86,6.75,6.84,1949583,,,Verified
CGF.AX,18-NOV-2014,,End Of Day,,6.88,6.89,6.705,6.72,1596384,,,Verified
CGF.AX,19-NOV-2014,,End Of Day,,6.71,6.85,6.67,6.81,3323994,,,Verified
CGF.AX,20-NOV-2014,,End Of Day,,6.76,6.82,6.72,6.76,2691223,,,Verified
CGF.AX,21-NOV-2014,,End Of Day,,6.72,6.75,6.6,6.61,1863555,,,Verified
CGF.AX,22-NOV-2014,,End Of Day,No Trades,,,,,,,,Verified
CGF.AX,23-NOV-2014,,End Of Day,No Trades,,,,,,,,Verified
CGF.AX,24-NOV-2014,,End Of Day,,6.71,6.85,6.67,6.79,1584676,,,Verified
CGF.AX,25-NOV-2014,,End Of Day,,6.76,6.83,6.71,6.79,2619481,,,Verified
CGF.AX,26-NOV-2014,,End Of Day,,6.8,7,6.785,6.99,2860555,,,Verified
CGF.AX,27-NOV-2014,,End Of Day,,7.1,7.16,6.81,6.85,3589504,,,Verified
CGF.AX,28-NOV-2014,,End Of Day,,6.76,6.76,5.97,6.35,7265632,,,Verified
CGF.AX,29-NOV-2014,,End Of Day,No Trades,,,,,,,,Verified
CGF.AX,30-NOV-2014,,End Of Day,No Trades,,,,,,,,Verified
CGF.AX,01-DEC-2014,,End Of Day,,6.34,6.5,6.08,6.08,4119502,,,Verified
CGF.AX,02-DEC-2014,,End Of Day,,6.02,6.29,5.95,6.29,4487722,,,Verified
CGF.AX,03-DEC-2014,,End Of Day,,6.28,6.37,6.16,6.19,4374555,,,Verified
CGF.AX,04-DEC-2014,,End Of Day,,6.15,6.31,6.13,6.3,2064556,,,Verified
CGF.AX,05-DEC-2014,,End Of Day,,6.31,6.42,6.26,6.35,1831558,,,Verified
CGF.AX,06-DEC-2014,,End Of Day,No Trades,,,,,,,,Verified
CGF.AX,07-DEC-2014,,End Of Day,No Trades,,,,,,,,Verified
CGF.AX,08-DEC-2014,,End Of Day,,6.38,6.58,6.37,6.43,4050487,,,Verified
CGF.AX,09-DEC-2014,,End Of Day,,6.38,6.41,6.22,6.25,3966663,,,Verified
CGF.AX,10-DEC-2014,,End Of Day,,6.23,6.24,6.04,6.08,4010708,,,Verified
CGF.AX,11-DEC-2014,,End Of Day,,5.96,6.2,5.96,6.1,3094302,,,Verified
CGF.AX,12-DEC-2014,,End Of Day,,6.05,6.13,6.04,6.1,1014956,,,Verified
CGF.AX,13-DEC-2014,,End Of Day,No Trades,,,,,,,,Verified
CGF.AX,14-DEC-2014,,End Of Day,No Trades,,,,,,,,Verified
CGF.AX,15-DEC-2014,,End Of Day,,6,6.05,5.91,6,1443888,,,Verified
CGF.AX,16-DEC-2014,,End Of Day,,5.98,6.08,5.85,5.9,3442458,,,Verified
CGF.AX,17-DEC-2014,,End Of Day,,5.83,5.97,5.81,5.92,3377537,,,Verified
CGF.AX,18-DEC-2014,,End Of Day,,6.13,6.5,6.13,6.38,5588199,,,Verified
CGF.AX,19-DEC-2014,,End Of Day,,6.48,6.48,6.22,6.45,5025647,,,Verified
CGF.AX,20-DEC-2014,,End Of Day,No Trades,,,,,,,,Verified
CGF.AX,21-DEC-2014,,End Of Day,No Trades,,,,,,,,Verified
CGF.AX,22-DEC-2014,,End Of Day,,6.47,6.54,6.44,6.48,2595632,,,Verified
CGF.AX,23-DEC-2014,,End Of Day,,6.5,6.58,6.45,6.53,1562109,,,Verified
CGF.AX,24-DEC-2014,,End Of Day,,6.52,6.55,6.46,6.48,1574189,,,Verified
CGF.AX,25-DEC-2014,,End Of Day,No Trades,,,,,,,,Verified
CGF.AX,26-DEC-2014,,End Of Day,No Trades,,,,,,,,Verified
CGF.AX,27-DEC-2014,,End Of Day,No Trades,,,,,,,,Verified
CGF.AX,28-DEC-2014,,End Of Day,No Trades,,,,,,,,Verified
CGF.AX,29-DEC-2014,,End Of Day,,6.49,6.68,6.48,6.64,822000,,,Verified
CGF.AX,30-DEC-2014,,End Of Day,,6.65,6.65,6.54,6.54,1244392,,,Verified
CGF.AX,31-DEC-2014,,End Of Day,,6.6,6.61,6.48,6.53,650469,,,Verified
CGF.AX,01-JAN-2015,,End Of Day,No Trades,,,,,,,,Verified
CGF.AX,02-JAN-2015,,End Of Day,,6.54,6.62,6.49,6.58,440023,,,Verified
CGF.AX,03-JAN-2015,,End Of Day,No Trades,,,,,,,,Verified
CGF.AX,04-JAN-2015,,End Of Day,No Trades,,,,,,,,Verified
CGF.AX,05-JAN-2015,,End Of Day,,6.57,6.7,6.57,6.6,985355,,,Verified
CGF.AX,06-JAN-2015,,End Of Day,,6.48,6.515,6.31,6.33,1634191,,,Verified
CGF.AX,07-JAN-2015,,End Of Day,,6.35,6.41,6.24,6.32,2195158,,,Verified
CGF.AX,08-JAN-2015,,End Of Day,,6.37,6.41,6.27,6.34,3013442,,,Verified
CGF.AX,09-JAN-2015,,End Of Day,,6.44,6.5,6.4,6.49,916457,,,Verified
CGF.AX,10-JAN-2015,,End Of Day,No Trades,,,,,,,,Verified
CGF.AX,11-JAN-2015,,End Of Day,No Trades,,,,,,,,Verified
CGF.AX,12-JAN-2015,,End Of Day,,6.45,6.45,6.375,6.39,2705849,,,Verified
CGF.AX,13-JAN-2015,,End Of Day,,6.36,6.415,6.34,6.39,2185128,,,Verified
CGF.AX,14-JAN-2015,,End Of Day,,6.39,6.42,6.31,6.33,2523025,,,Verified
CGF.AX,15-JAN-2015,,End Of Day,,6.3,6.3,6.16,6.18,1600260,,,Verified
CGF.AX,16-JAN-2015,,End Of Day,,6.16,6.21,6.1,6.14,1950687,,,Verified
CGF.AX,17-JAN-2015,,End Of Day,No Trades,,,,,,,,Verified
CGF.AX,18-JAN-2015,,End Of Day,No Trades,,,,,,,,Verified
CGF.AX,19-JAN-2015,,End Of Day,,6.21,6.34,6.21,6.25,2038928,,,Verified
CGF.AX,20-JAN-2015,,End Of Day,,6.23,6.25,6.15,6.19,1798284,,,Verified
CGF.AX,21-JAN-2015,,End Of Day,,6.2,6.23,6.1,6.14,2146022,,,Verified
CGF.AX,22-JAN-2015,,End Of Day,,6.15,6.18,6.08,6.09,2734346,,,Verified
CGF.AX,23-JAN-2015,,End Of Day,,6.18,6.23,6.1,6.19,1973151,,,Verified
CGF.AX,24-JAN-2015,,End Of Day,No Trades,,,,,,,,Verified
CGF.AX,25-JAN-2015,,End Of Day,No Trades,,,,,,,,Verified
CGF.AX,26-JAN-2015,,End Of Day,No Trades,,,,,,,,Verified
CGF.AX,27-JAN-2015,,End Of Day,,6.24,6.24,6.12,6.16,2983427,,,Verified
CGF.AX,28-JAN-2015,,End Of Day,,6.15,6.33,6.13,6.28,1437708,,,Verified
CGF.AX,29-JAN-2015,,End Of Day,,6.24,6.29,6.17,6.25,1428225,,,Verified
CGF.AX,30-JAN-2015,,End Of Day,,6.3,6.38,6.27,6.31,2174487,,,Verified
CGF.AX,31-JAN-2015,,End Of Day,No Trades,,,,,,,,Verified
CGF.AX,01-FEB-2015,,End Of Day,No Trades,,,,,,,,Verified
CGF.AX,02-FEB-2015,,End Of Day,,6.3,6.36,6.245,6.36,2123281,,,Verified
CGF.AX,03-FEB-2015,,End Of Day,,6.4,6.46,6.32,6.41,3406055,,,Verified
CGF.AX,04-FEB-2015,,End Of Day,,6.49,6.62,6.44,6.58,2098658,,,Verified
CGF.AX,05-FEB-2015,,End Of Day,,6.58,6.6,6.38,6.49,4440353,,,Verified
CGF.AX,06-FEB-2015,,End Of Day,,6.52,6.54,6.45,6.46,1441650,,,Verified
CGF.AX,07-FEB-2015,,End Of Day,No Trades,,,,,,,,Verified
CGF.AX,08-FEB-2015,,End Of Day,No Trades,,,,,,,,Verified
CGF.AX,09-FEB-2015,,End Of Day,,6.46,6.48,6.4,6.42,1810781,,,Verified
CGF.AX,10-FEB-2015,,End Of Day,,6.39,6.41,6.24,6.29,3201489,,,Verified
CGF.AX,11-FEB-2015,,End Of Day,,6.42,6.43,6.26,6.3,2019609,,,Verified
CGF.AX,12-FEB-2015,,End Of Day,,6.39,6.39,6.205,6.22,2869858,,,Verified
CGF.AX,13-FEB-2015,,End Of Day,,6.33,6.52,6.28,6.48,13197900,,,Verified
CGF.AX,14-FEB-2015,,End Of Day,No Trades,,,,,,,,Verified
CGF.AX,15-FEB-2015,,End Of Day,No Trades,,,,,,,,Verified
CGF.AX,16-FEB-2015,,End Of Day,,6.49,6.58,6.41,6.51,2463968,,,Verified
CGF.AX,17-FEB-2015,,End Of Day,,6.26,6.46,6.23,6.45,3310537,,,Verified
CGF.AX,18-FEB-2015,,End Of Day,,6.5,6.63,6.29,6.56,5155028,,,Verified
CGF.AX,19-FEB-2015,,End Of Day,,6.63,6.79,6.61,6.78,8234854,,,Verified
CGF.AX,20-FEB-2015,,End Of Day,,6.85,7.06,6.85,6.98,5247773,,,Verified
CGF.AX,21-FEB-2015,,End Of Day,No Trades,,,,,,,,Verified
CGF.AX,22-FEB-2015,,End Of Day,No Trades,,,,,,,,Verified
CGF.AX,23-FEB-2015,,End Of Day,,7.05,7.13,6.91,6.95,2787088,,,Verified
CGF.AX,24-FEB-2015,,End Of Day,,7.01,7.11,7.01,7.09,3377120,,,Verified
CGF.AX,25-FEB-2015,,End Of Day,,7.12,7.12,6.97,6.97,2832004,,,Verified
CGF.AX,26-FEB-2015,,End Of Day,,6.96,7.09,6.93,7.06,2304762,,,Verified
CGF.AX,27-FEB-2015,,End Of Day,,7.1,7.115,7.02,7.02,2736699,,,Verified
CGF.AX,28-FEB-2015,,End Of Day,No Trades,,,,,,,,Verified
CGF.AX,01-MAR-2015,,End Of Day,No Trades,,,,,,,,Verified
CGF.AX,02-MAR-2015,,End Of Day,,6.98,7.06,6.93,6.98,1881401,,,Verified
CGF.AX,03-MAR-2015,,End Of Day,,7.04,7.08,6.91,7.01,2438510,,,Verified
CGF.AX,04-MAR-2015,,End Of Day,,7.04,7.06,6.93,6.95,1745345,,,Verified
CGF.AX,05-MAR-2015,,End Of Day,,6.96,6.99,6.87,6.98,1500555,,,Verified
CGF.AX,06-MAR-2015,,End Of Day,,7,7.03,6.98,6.99,1371776,,,Verified
CGF.AX,07-MAR-2015,,End Of Day,No Trades,,,,,,,,Verified
CGF.AX,08-MAR-2015,,End Of Day,No Trades,,,,,,,,Verified
CGF.AX,09-MAR-2015,,End Of Day,,6.9,7.02,6.79,6.8,2372514,,,Verified
CGF.AX,10-MAR-2015,,End Of Day,,6.87,6.97,6.8,6.84,1733407,,,Verified
CGF.AX,11-MAR-2015,,End Of Day,,6.81,6.88,6.75,6.87,1446065,,,Verified
CGF.AX,12-MAR-2015,,End Of Day,,6.85,7.05,6.81,7.02,2276292,,,Verified
CGF.AX,13-MAR-2015,,End Of Day,,7.05,7.14,6.9,7.02,2170388,,,Verified
CGF.AX,14-MAR-2015,,End Of Day,No Trades,,,,,,,,Verified
CGF.AX,15-MAR-2015,,End Of Day,No Trades,,,,,,,,Verified
CGF.AX,16-MAR-2015,,End Of Day,,7.02,7.025,6.9,6.9,1746502,,,Verified
CGF.AX,17-MAR-2015,,End Of Day,,7,7.05,6.97,7.02,1577100,,,Verified
CGF.AX,18-MAR-2015,,End Of Day,,6.96,6.98,6.875,6.96,2970197,,,Verified
CGF.AX,19-MAR-2015,,End Of Day,,7.04,7.18,7.02,7.14,3619788,,,Verified
CGF.AX,20-MAR-2015,,End Of Day,,7.15,7.22,7.1,7.17,2288428,,,Verified
CGF.AX,21-MAR-2015,,End Of Day,No Trades,,,,,,,,Verified
CGF.AX,22-MAR-2015,,End Of Day,No Trades,,,,,,,,Verified
CGF.AX,23-MAR-2015,,End Of Day,,7.23,7.26,7.18,7.21,1224278,,,Verified
CGF.AX,24-MAR-2015,,End Of Day,,7.26,7.3,7.21,7.24,1805575,,,Verified
CGF.AX,25-MAR-2015,,End Of Day,,7.27,7.27,7.13,7.21,2917174,,,Verified
CGF.AX,26-MAR-2015,,End Of Day,,7.1,7.17,7.06,7.1,1450496,,,Verified
CGF.AX,27-MAR-2015,,End Of Day,,7.1,7.2,7.01,7.1,3800446,,,Verified
CGF.AX,28-MAR-2015,,End Of Day,No Trades,,,,,,,,Verified
CGF.AX,29-MAR-2015,,End Of Day,No Trades,,,,,,,,Verified
CGF.AX,30-MAR-2015,,End Of Day,,7.06,7.1,6.98,7.04,1435391,,,Verified
CGF.AX,31-MAR-2015,,End Of Day,,7.08,7.25,7.08,7.17,1379103,,,Verified
CGF.AX,01-APR-2015,,End Of Day,,7.09,7.135,7,7,2561243,,,Verified
CGF.AX,02-APR-2015,,End Of Day,,7.08,7.1,6.985,7.05,1894131,,,Verified
CGF.AX,03-APR-2015,,End Of Day,No Trades,,,,,,,,Verified
CGF.AX,04-APR-2015,,End Of Day,No Trades,,,,,,,,Verified
CGF.AX,05-APR-2015,,End Of Day,No Trades,,,,,,,,Verified
CGF.AX,06-APR-2015,,End Of Day,No Trades,,,,,,,,Verified
CGF.AX,07-APR-2015,,End Of Day,,7.09,7.16,7.03,7.07,1632163,,,Verified
CGF.AX,08-APR-2015,,End Of Day,,7.14,7.25,7.12,7.22,2435055,,,Verified
CGF.AX,09-APR-2015,,End Of Day,,7.24,7.25,7.13,7.13,1438388,,,Verified
CGF.AX,10-APR-2015,,End Of Day,,7.15,7.22,7.07,7.2,1758043,,,Verified
CGF.AX,11-APR-2015,,End Of Day,No Trades,,,,,,,,Verified
CGF.AX,12-APR-2015,,End Of Day,No Trades,,,,,,,,Verified
CGF.AX,13-APR-2015,,End Of Day,,7.25,7.34,7.23,7.24,1174672,,,Verified
CGF.AX,14-APR-2015,,End Of Day,,7.25,7.41,7.22,7.33,1823775,,,Verified
CGF.AX,15-APR-2015,,End Of Day,,7.35,7.36,7.18,7.25,1722114,,,Verified
CGF.AX,16-APR-2015,,End Of Day,,7.37,7.38,7.2,7.23,2852252,,,Verified
CGF.AX,17-APR-2015,,End Of Day,,7.25,7.26,6.96,6.96,2943580,,,Verified
CGF.AX,18-APR-2015,,End Of Day,No Trades,,,,,,,,Verified
CGF.AX,19-APR-2015,,End Of Day,No Trades,,,,,,,,Verified
CGF.AX,20-APR-2015,,End Of Day,,6.95,7.01,6.76,6.99,3414557,,,Verified
CGF.AX,21-APR-2015,,End Of Day,,7.1,7.19,7.05,7.18,2222243,,,Verified
CGF.AX,22-APR-2015,,End Of Day,,7.17,7.225,6.98,6.99,2783382,,,Verified
CGF.AX,23-APR-2015,,End Of Day,,7.06,7.09,6.93,6.97,1758985,,,Verified
CGF.AX,24-APR-2015,,End Of Day,,7.05,7.09,7,7.04,3008620,,,Verified
CGF.AX,25-APR-2015,,End Of Day,No Trades,,,,,,,,Verified
CGF.AX,26-APR-2015,,End Of Day,No Trades,,,,,,,,Verified
CGF.AX,27-APR-2015,,End Of Day,,7.05,7.16,6.99,7.08,2781578,,,Verified
CGF.AX,28-APR-2015,,End Of Day,,7.1,7.24,7.075,7.08,2341459,,,Verified
CGF.AX,29-APR-2015,,End Of Day,,7.1,7.14,7.04,7.1,3404707,,,Verified
CGF.AX,30-APR-2015,,End Of Day,,7.01,7.09,6.9,7.07,2928915,,,Verified
CGF.AX,01-MAY-2015,,End Of Day,,7.06,7.09,6.98,7.05,1639206,,,Verified
CGF.AX,02-MAY-2015,,End Of Day,No Trades,,,,,,,,Verified
CGF.AX,03-MAY-2015,,End Of Day,No Trades,,,,,,,,Verified
CGF.AX,04-MAY-2015,,End Of Day,,7.1,7.145,7.03,7.12,1274988,,,Verified
CGF.AX,05-MAY-2015,,End Of Day,,7.19,7.27,7.06,7.09,2385380,,,Verified
CGF.AX,06-MAY-2015,,End Of Day,,7.02,7.035,6.94,7,2081891,,,Verified
CGF.AX,07-MAY-2015,,End Of Day,,6.99,7.01,6.955,6.96,2171856,,,Verified
CGF.AX,08-MAY-2015,,End Of Day,,6.97,7.09,6.97,7.01,1343293,,,Verified
CGF.AX,09-MAY-2015,,End Of Day,No Trades,,,,,,,,Verified
CGF.AX,10-MAY-2015,,End Of Day,No Trades,,,,,,,,Verified
CGF.AX,11-MAY-2015,,End Of Day,,7.09,7.14,7.02,7.03,1826304,,,Verified
CGF.AX,12-MAY-2015,,End Of Day,,7,7.05,6.95,7.01,1690296,,,Verified
CGF.AX,13-MAY-2015,,End Of Day,,7,7.2,6.99,7.19,1488706,,,Verified
CGF.AX,14-MAY-2015,,End Of Day,,7.16,7.25,7.12,7.25,3293601,,,Verified
CGF.AX,15-MAY-2015,,End Of Day,,7.27,7.33,7.195,7.24,1548558,,,Verified
CGF.AX,16-MAY-2015,,End Of Day,No Trades,,,,,,,,Verified
CGF.AX,17-MAY-2015,,End Of Day,No Trades,,,,,,,,Verified
CGF.AX,18-MAY-2015,,End Of Day,,7.23,7.27,7.06,7.06,1523759,,,Verified
CGF.AX,19-MAY-2015,,End Of Day,,7.04,7.05,6.92,6.93,2635159,,,Verified
CGF.AX,20-MAY-2015,,End Of Day,,6.96,6.98,6.81,6.83,2528012,,,Verified
CGF.AX,21-MAY-2015,,End Of Day,,6.88,6.91,6.84,6.87,2466040,,,Verified
CGF.AX,22-MAY-2015,,End Of Day,,6.95,7.08,6.925,6.98,2506544,,,Verified
CGF.AX,23-MAY-2015,,End Of Day,No Trades,,,,,,,,Verified
CGF.AX,24-MAY-2015,,End Of Day,No Trades,,,,,,,,Verified
CGF.AX,25-MAY-2015,,End Of Day,,6.98,7.09,6.93,6.95,1434632,,,Verified
CGF.AX,26-MAY-2015,,End Of Day,,7,7.13,6.99,7.08,1470409,,,Verified
CGF.AX,27-MAY-2015,,End Of Day,,7.04,7.12,7,7.01,1707877,,,Verified
CGF.AX,28-MAY-2015,,End Of Day,,7.05,7.06,6.915,6.93,1252043,,,Verified
CGF.AX,29-MAY-2015,,End Of Day,,6.92,6.99,6.88,6.88,3141464,,,Verified
CGF.AX,30-MAY-2015,,End Of Day,No Trades,,,,,,,,Verified
CGF.AX,31-MAY-2015,,End Of Day,No Trades,,,,,,,,Verified
CGF.AX,01-JUN-2015,,End Of Day,,6.97,6.97,6.705,6.81,2596228,,,Verified
CGF.AX,02-JUN-2015,,End Of Day,,6.87,6.89,6.72,6.76,2512648,,,Verified
CGF.AX,03-JUN-2015,,End Of Day,,6.71,6.74,6.61,6.64,3229691,,,Verified
CGF.AX,04-JUN-2015,,End Of Day,,6.69,6.69,6.49,6.52,3288765,,,Verified
CGF.AX,05-JUN-2015,,End Of Day,,6.48,6.58,6.46,6.54,2499533,,,Verified
CGF.AX,06-JUN-2015,,End Of Day,No Trades,,,,,,,,Verified
CGF.AX,07-JUN-2015,,End Of Day,No Trades,,,,,,,,Verified
CGF.AX,08-JUN-2015,,End Of Day,No Trades,,,,,,,,Verified
CGF.AX,09-JUN-2015,,End Of Day,,6.58,6.68,6.58,6.62,2694885,,,Verified
CGF.AX,10-JUN-2015,,End Of Day,,6.62,6.655,6.53,6.63,1658124,,,Verified
CGF.AX,11-JUN-2015,,End Of Day,,6.7,6.81,6.68,6.8,1757669,,,Verified
CGF.AX,12-JUN-2015,,End Of Day,,6.77,6.82,6.73,6.79,1194462,,,Verified
CGF.AX,13-JUN-2015,,End Of Day,No Trades,,,,,,,,Verified
CGF.AX,14-JUN-2015,,End Of Day,No Trades,,,,,,,,Verified
CGF.AX,15-JUN-2015,,End Of Day,,6.73,6.8,6.66,6.67,2028672,,,Verified
CGF.AX,16-JUN-2015,,End Of Day,,6.7,6.825,6.69,6.71,2440737,,,Verified
CGF.AX,17-JUN-2015,,End Of Day,,6.8,7.02,6.78,7.01,2538636,,,Verified
CGF.AX,18-JUN-2015,,End Of Day,,6.96,6.96,6.71,6.78,2772068,,,Verified
CGF.AX,19-JUN-2015,,End Of Day,,6.81,6.87,6.775,6.83,1852960,,,Verified
CGF.AX,20-JUN-2015,,End Of Day,No Trades,,,,,,,,Verified
CGF.AX,21-JUN-2015,,End Of Day,No Trades,,,,,,,,Verified
CGF.AX,22-JUN-2015,,End Of Day,,6.84,6.88,6.75,6.85,1080737,,,Verified
CGF.AX,23-JUN-2015,,End Of Day,,6.93,6.99,6.91,6.96,1399886,,,Verified
CGF.AX,24-JUN-2015,,End Of Day,,6.96,7.06,6.94,7.02,2698718,,,Verified
CGF.AX,25-JUN-2015,,End Of Day,,7.03,7.03,6.88,6.89,1748062,,,Verified
CGF.AX,26-JUN-2015,,End Of Day,,6.83,6.83,6.71,6.79,1594731,,,Verified
CGF.AX,27-JUN-2015,,End Of Day,No Trades,,,,,,,,Verified
CGF.AX,28-JUN-2015,,End Of Day,No Trades,,,,,,,,Verified
CGF.AX,29-JUN-2015,,End Of Day,,6.7,6.7,6.55,6.62,1781346,,,Verified
CGF.AX,30-JUN-2015,,End Of Day,,6.63,6.74,6.5,6.72,3114072,,,Verified
CGF.AX,01-JUL-2015,,End Of Day,,6.7,6.87,6.7,6.79,1790986,,,Verified
CGF.AX,02-JUL-2015,,End Of Day,,6.87,7.03,6.79,6.97,2670916,,,Verified
CGF.AX,03-JUL-2015,,End Of Day,,6.9,6.98,6.78,6.87,2078803,,,Verified
CGF.AX,04-JUL-2015,,End Of Day,No Trades,,,,,,,,Verified
CGF.AX,05-JUL-2015,,End Of Day,No Trades,,,,,,,,Verified
CGF.AX,06-JUL-2015,,End Of Day,,6.71,6.79,6.64,6.67,2041426,,,Verified
CGF.AX,07-JUL-2015,,End Of Day,,6.75,6.905,6.73,6.82,3027626,,,Verified
CGF.AX,08-JUL-2015,,End Of Day,,6.78,6.79,6.62,6.67,2347885,,,Verified
CGF.AX,09-JUL-2015,,End Of Day,,6.63,6.7,6.5,6.68,2428868,,,Verified
CGF.AX,10-JUL-2015,,End Of Day,,6.75,6.81,6.71,6.76,1571360,,,Verified
CGF.AX,11-JUL-2015,,End Of Day,No Trades,,,,,,,,Verified
CGF.AX,12-JUL-2015,,End Of Day,No Trades,,,,,,,,Verified
CGF.AX,13-JUL-2015,,End Of Day,,6.74,6.77,6.63,6.66,1398854,,,Verified
CGF.AX,14-JUL-2015,,End Of Day,,6.74,6.86,6.71,6.82,1603255,,,Verified
CGF.AX,15-JUL-2015,,End Of Day,,6.78,6.99,6.78,6.96,2807604,,,Verified
CGF.AX,16-JUL-2015,,End Of Day,,7,7.02,6.93,6.96,971229,,,Verified
CGF.AX,17-JUL-2015,,End Of Day,,6.99,7.11,6.97,7.06,2093494,,,Verified
CGF.AX,18-JUL-2015,,End Of Day,No Trades,,,,,,,,Verified
CGF.AX,19-JUL-2015,,End Of Day,No Trades,,,,,,,,Verified
CGF.AX,20-JUL-2015,,End Of Day,,7.11,7.19,7.08,7.16,1330959,,,Verified
CGF.AX,21-JUL-2015,,End Of Day,,7.2,7.24,7.16,7.19,1178519,,,Verified
CGF.AX,22-JUL-2015,,End Of Day,,7.17,7.2,7.1,7.1,2418657,,,Verified
CGF.AX,23-JUL-2015,,End Of Day,,7.13,7.19,7.1,7.12,1732911,,,Verified
CGF.AX,24-JUL-2015,,End Of Day,,7.06,7.11,6.97,6.98,1877894,,,Verified
CGF.AX,25-JUL-2015,,End Of Day,No Trades,,,,,,,,Verified
CGF.AX,26-JUL-2015,,End Of Day,No Trades,,,,,,,,Verified
CGF.AX,27-JUL-2015,,End Of Day,,6.92,7.01,6.91,6.96,1228990,,,Verified
CGF.AX,28-JUL-2015,,End Of Day,,6.93,7.07,6.89,7.01,2070563,,,Verified
CGF.AX,29-JUL-2015,,End Of Day,,7.1,7.11,7.02,7.02,1798967,,,Verified
CGF.AX,30-JUL-2015,,End Of Day,,7.06,7.17,7.03,7.11,1423412,,,Verified
CGF.AX,31-JUL-2015,,End Of Day,,7.19,7.26,7.14,7.17,5986930,,,Verified
CGF.AX,01-AUG-2015,,End Of Day,No Trades,,,,,,,,Verified
CGF.AX,02-AUG-2015,,End Of Day,No Trades,,,,,,,,Verified
CGF.AX,03-AUG-2015,,End Of Day,,7.17,7.2,7.12,7.13,1553608,,,Verified
CGF.AX,04-AUG-2015,,End Of Day,,7.11,7.23,7.08,7.2,1891540,,,Verified
CGF.AX,05-AUG-2015,,End Of Day,,7.2,7.25,7.08,7.2,2594950,,,Verified
CGF.AX,06-AUG-2015,,End Of Day,,7.17,7.22,7.13,7.16,1875535,,,Verified
CGF.AX,07-AUG-2015,,End Of Day,,7.09,7.13,7.03,7.09,1366623,,,Verified
CGF.AX,08-AUG-2015,,End Of Day,No Trades,,,,,,,,Verified
CGF.AX,09-AUG-2015,,End Of Day,No Trades,,,,,,,,Verified
CGF.AX,10-AUG-2015,,End Of Day,,7.05,7.15,7.05,7.14,923579,,,Verified
CGF.AX,11-AUG-2015,,End Of Day,,7.18,7.34,7.12,7.34,3218472,,,Verified
CGF.AX,12-AUG-2015,,End Of Day,,7.34,7.35,6.94,6.99,6161697,,,Verified
CGF.AX,13-AUG-2015,,End Of Day,,7.01,7.1,7,7.01,2179807,,,Verified
CGF.AX,14-AUG-2015,,End Of Day,,6.96,7.03,6.87,6.87,3597168,,,Verified
CGF.AX,15-AUG-2015,,End Of Day,No Trades,,,,,,,,Verified
CGF.AX,16-AUG-2015,,End Of Day,No Trades,,,,,,,,Verified
CGF.AX,17-AUG-2015,,End Of Day,,6.87,6.98,6.87,6.91,1958176,,,Verified
CGF.AX,18-AUG-2015,,End Of Day,,7.22,7.39,7.05,7.08,5384763,,,Verified
CGF.AX,19-AUG-2015,,End Of Day,,7.14,7.25,7.09,7.15,5531090,,,Verified
CGF.AX,20-AUG-2015,,End Of Day,,7.08,7.27,7.08,7.25,4633087,,,Verified
CGF.AX,21-AUG-2015,,End Of Day,,7.09,7.275,7.02,7.25,4262032,,,Verified
CGF.AX,22-AUG-2015,,End Of Day,No Trades,,,,,,,,Verified
CGF.AX,23-AUG-2015,,End Of Day,No Trades,,,,,,,,Verified
CGF.AX,24-AUG-2015,,End Of Day,,7.08,7.11,6.96,7.04,5716792,,,Verified
CGF.AX,25-AUG-2015,,End Of Day,,6.84,7.16,6.82,7.15,5056011,,,Verified
CGF.AX,26-AUG-2015,,End Of Day,,7,7.24,7,7.18,3004734,,,Verified
CGF.AX,27-AUG-2015,,End Of Day,,7.29,7.385,7.27,7.36,4743996,,,Verified
CGF.AX,28-AUG-2015,,End Of Day,,7.4,7.44,7.34,7.4,3792912,,,Verified
CGF.AX,29-AUG-2015,,End Of Day,No Trades,,,,,,,,Verified
CGF.AX,30-AUG-2015,,End Of Day,No Trades,,,,,,,,Verified
CGF.AX,31-AUG-2015,,End Of Day,,7.17,7.19,7.08,7.15,3506708,,,Verified
CGF.AX,01-SEP-2015,,End Of Day,,7.12,7.19,6.95,6.98,3855361,,,Verified
CGF.AX,02-SEP-2015,,End Of Day,,6.85,7.005,6.76,6.97,4543806,,,Verified
CGF.AX,03-SEP-2015,,End Of Day,,7.01,7.07,6.755,6.81,3971761,,,Verified
CGF.AX,04-SEP-2015,,End Of Day,,6.8,6.93,6.79,6.89,3499641,,,Verified
CGF.AX,05-SEP-2015,,End Of Day,No Trades,,,,,,,,Verified
CGF.AX,06-SEP-2015,,End Of Day,No Trades,,,,,,,,Verified
CGF.AX,07-SEP-2015,,End Of Day,,6.94,6.96,6.81,6.89,2518662,,,Verified
CGF.AX,08-SEP-2015,,End Of Day,,6.92,7.01,6.87,7.01,3790363,,,Verified
CGF.AX,09-SEP-2015,,End Of Day,,7.05,7.17,7.03,7.14,3340588,,,Verified
CGF.AX,10-SEP-2015,,End Of Day,,7.05,7.06,6.95,6.96,2649982,,,Verified
CGF.AX,11-SEP-2015,,End Of Day,,7,7.06,6.89,7.02,1939800,,,Verified
CGF.AX,12-SEP-2015,,End Of Day,No Trades,,,,,,,,Verified
CGF.AX,13-SEP-2015,,End Of Day,No Trades,,,,,,,,Verified
CGF.AX,14-SEP-2015,,End Of Day,,7.09,7.11,6.99,7.04,1778111,,,Verified
CGF.AX,15-SEP-2015,,End Of Day,,7.07,7.09,6.92,6.93,1906381,,,Verified
CGF.AX,16-SEP-2015,,End Of Day,,7.06,7.12,6.96,7.11,2421076,,,Verified
CGF.AX,17-SEP-2015,,End Of Day,,7.21,7.21,7.05,7.1,2729600,,,Verified
CGF.AX,18-SEP-2015,,End Of Day,,7.1,7.21,7.01,7.15,3253226,,,Verified
CGF.AX,19-SEP-2015,,End Of Day,No Trades,,,,,,,,Verified
CGF.AX,20-SEP-2015,,End Of Day,No Trades,,,,,,,,Verified
CGF.AX,21-SEP-2015,,End Of Day,,7,7.07,6.97,7.04,1773914,,,Verified
CGF.AX,22-SEP-2015,,End Of Day,,7.05,7.07,6.99,7.04,2146323,,,Verified
CGF.AX,23-SEP-2015,,End Of Day,,6.96,7.1,6.94,7.06,3480076,,,Verified
CGF.AX,24-SEP-2015,,End Of Day,,7.07,7.19,7.05,7.18,3042732,,,Verified
CGF.AX,25-SEP-2015,,End Of Day,,7.21,7.25,7.15,7.17,2498750,,,Verified
CGF.AX,26-SEP-2015,,End Of Day,No Trades,,,,,,,,Verified
CGF.AX,27-SEP-2015,,End Of Day,No Trades,,,,,,,,Verified
CGF.AX,28-SEP-2015,,End Of Day,,7.22,7.41,7.21,7.39,2221993,,,Verified
CGF.AX,29-SEP-2015,,End Of Day,,7.24,7.29,7.02,7.1,3949653,,,Verified
CGF.AX,30-SEP-2015,,End Of Day,,7.1,7.22,6.96,7.14,4119159,,,Verified
CGF.AX,01-OCT-2015,,End Of Day,,7.14,7.24,7.14,7.22,2825737,,,Verified
CGF.AX,02-OCT-2015,,End Of Day,,7.2,7.28,7.19,7.24,2627034,,,Verified
CGF.AX,03-OCT-2015,,End Of Day,No Trades,,,,,,,,Verified
CGF.AX,04-OCT-2015,,End Of Day,No Trades,,,,,,,,Verified
CGF.AX,05-OCT-2015,,End Of Day,,7.28,7.34,7.25,7.3,1615967,,,Verified
CGF.AX,06-OCT-2015,,End Of Day,,7.35,7.4,7.33,7.34,2766211,,,Verified
CGF.AX,07-OCT-2015,,End Of Day,,7.4,7.4,7.25,7.36,2923240,,,Verified
CGF.AX,08-OCT-2015,,End Of Day,,7.4,7.46,7.38,7.4,3766719,,,Verified
CGF.AX,09-OCT-2015,,End Of Day,,7.47,7.55,7.39,7.45,4031245,,,Verified
CGF.AX,10-OCT-2015,,End Of Day,No Trades,,,,,,,,Verified
CGF.AX,11-OCT-2015,,End Of Day,No Trades,,,,,,,,Verified
CGF.AX,12-OCT-2015,,End Of Day,,7.39,7.47,7.39,7.41,2591719,,,Verified
CGF.AX,13-OCT-2015,,End Of Day,,7.39,7.41,7.36,7.39,3461608,,,Verified
CGF.AX,14-OCT-2015,,End Of Day,,7.36,7.41,7.26,7.35,2708716,,,Verified
CGF.AX,15-OCT-2015,,End Of Day,,7.35,7.44,7.33,7.42,3077479,,,Verified
CGF.AX,16-OCT-2015,,End Of Day,,7.48,7.655,7.44,7.63,3405658,,,Verified
CGF.AX,17-OCT-2015,,End Of Day,No Trades,,,,,,,,Verified
CGF.AX,18-OCT-2015,,End Of Day,No Trades,,,,,,,,Verified
CGF.AX,19-OCT-2015,,End Of Day,,7.64,7.92,7.61,7.89,3869461,,,Verified
CGF.AX,20-OCT-2015,,End Of Day,,7.84,7.95,7.76,7.91,3245563,,,Verified
CGF.AX,21-OCT-2015,,End Of Day,,7.85,7.95,7.81,7.91,6327699,,,Verified
CGF.AX,22-OCT-2015,,End Of Day,,7.9,7.97,7.835,7.96,2900086,,,Verified
CGF.AX,23-OCT-2015,,End Of Day,,7.98,8.2,7.98,8.19,3782373,,,Verified
CGF.AX,24-OCT-2015,,End Of Day,No Trades,,,,,,,,Verified
CGF.AX,25-OCT-2015,,End Of Day,No Trades,,,,,,,,Verified
CGF.AX,26-OCT-2015,,End Of Day,,8.21,8.22,8.08,8.12,2790445,,,Verified
CGF.AX,27-OCT-2015,,End Of Day,,8.17,8.24,8.11,8.15,2418151,,,Verified
CGF.AX,28-OCT-2015,,End Of Day,,8.15,8.17,8.05,8.1,2344953,,,Verified
CGF.AX,29-OCT-2015,,End Of Day,,8.1,8.17,8.05,8.08,2083679,,,Verified
CGF.AX,30-OCT-2015,,End Of Day,,8.01,8.24,8.01,8.23,1694489,,,Verified
CGF.AX,31-OCT-2015,,End Of Day,No Trades,,,,,,,,Verified
CGF.AX,01-NOV-2015,,End Of Day,No Trades,,,,,,,,Verified
CGF.AX,02-NOV-2015,,End Of Day,,8.22,8.23,8.06,8.09,2234487,,,Verified
CGF.AX,03-NOV-2015,,End Of Day,,8.21,8.41,8.17,8.41,2201701,,,Verified
CGF.AX,04-NOV-2015,,End Of Day,,8.45,8.54,8.24,8.26,2391277,,,Verified
CGF.AX,05-NOV-2015,,End Of Day,,8.31,8.31,8.17,8.19,2246845,,,Verified
CGF.AX,06-NOV-2015,,End Of Day,,8.21,8.335,8.21,8.25,1678849,,,Verified
CGF.AX,07-NOV-2015,,End Of Day,No Trades,,,,,,,,Verified
CGF.AX,08-NOV-2015,,End Of Day,No Trades,,,,,,,,Verified
CGF.AX,09-NOV-2015,,End Of Day,,8.19,8.34,8.18,8.22,2508526,,,Verified
CGF.AX,10-NOV-2015,,End Of Day,,8.16,8.27,8.03,8.15,2155159,,,Verified
CGF.AX,11-NOV-2015,,End Of Day,,8.15,8.36,8.1,8.3,4175776,,,Verified
CGF.AX,12-NOV-2015,,End Of Day,,8.24,8.32,8.165,8.21,2079120,,,Verified
CGF.AX,13-NOV-2015,,End Of Day,,8.14,8.3,8.09,8.3,5682739,,,Verified
CGF.AX,14-NOV-2015,,End Of Day,No Trades,,,,,,,,Verified
CGF.AX,15-NOV-2015,,End Of Day,No Trades,,,,,,,,Verified
CGF.AX,16-NOV-2015,,End Of Day,,8.07,8.32,8.07,8.28,2151930,,,Verified
CGF.AX,17-NOV-2015,,End Of Day,,8.36,8.49,8.33,8.49,3211959,,,Verified
CGF.AX,18-NOV-2015,,End Of Day,,8.51,8.61,8.48,8.57,3514182,,,Verified
CGF.AX,19-NOV-2015,,End Of Day,,8.66,9,8.64,9,5428620,,,Verified
CGF.AX,20-NOV-2015,,End Of Day,,8.99,8.99,8.32,8.78,5448453,,,Verified
CGF.AX,21-NOV-2015,,End Of Day,No Trades,,,,,,,,Verified
CGF.AX,22-NOV-2015,,End Of Day,No Trades,,,,,,,,Verified
CGF.AX,23-NOV-2015,,End Of Day,,8.82,8.96,8.77,8.92,3703005,,,Verified
CGF.AX,24-NOV-2015,,End Of Day,,8.84,8.89,8.76,8.88,4499694,,,Verified
CGF.AX,25-NOV-2015,,End Of Day,,8.85,8.85,8.64,8.65,4380215,,,Verified
CGF.AX,26-NOV-2015,,End Of Day,,8.62,8.76,8.58,8.64,4229822,,,Verified
CGF.AX,27-NOV-2015,,End Of Day,,8.64,8.76,8.48,8.5,3733273,,,Verified
CGF.AX,28-NOV-2015,,End Of Day,No Trades,,,,,,,,Verified
CGF.AX,29-NOV-2015,,End Of Day,No Trades,,,,,,,,Verified
CGF.AX,30-NOV-2015,,End Of Day,,8.55,8.745,8.41,8.44,54337371,,,Verified
CGF.AX,01-DEC-2015,,End Of Day,,8.55,8.73,8.42,8.68,5845803,,,Verified
CGF.AX,02-DEC-2015,,End Of Day,,8.68,8.8,8.66,8.77,2829200,,,Verified
CGF.AX,03-DEC-2015,,End Of Day,,8.67,8.86,8.51,8.85,4027353,,,Verified
CGF.AX,04-DEC-2015,,End Of Day,,8.64,8.71,8.57,8.7,3421578,,,Verified
CGF.AX,05-DEC-2015,,End Of Day,No Trades,,,,,,,,Verified
CGF.AX,06-DEC-2015,,End Of Day,No Trades,,,,,,,,Verified
CGF.AX,07-DEC-2015,,End Of Day,,8.9,8.9,8.615,8.67,2321488,,,Verified
CGF.AX,08-DEC-2015,,End Of Day,,8.6,8.68,8.57,8.63,2374562,,,Verified
CGF.AX,09-DEC-2015,,End Of Day,,8.62,8.66,8.46,8.47,2689346,,,Verified
CGF.AX,10-DEC-2015,,End Of Day,,8.57,8.58,8.355,8.43,3954359,,,Verified
CGF.AX,11-DEC-2015,,End Of Day,,8.46,8.46,8.32,8.34,2251142,,,Verified
CGF.AX,12-DEC-2015,,End Of Day,No Trades,,,,,,,,Verified
CGF.AX,13-DEC-2015,,End Of Day,No Trades,,,,,,,,Verified
CGF.AX,14-DEC-2015,,End Of Day,,8.2,8.23,7.99,7.99,4743169,,,Verified
CGF.AX,15-DEC-2015,,End Of Day,,8.03,8.1,8,8.05,3884327,,,Verified
CGF.AX,16-DEC-2015,,End Of Day,,8.14,8.19,8.09,8.12,4181223,,,Verified
CGF.AX,17-DEC-2015,,End Of Day,,8.22,8.3,8.21,8.25,6602158,,,Verified
CGF.AX,18-DEC-2015,,End Of Day,,8.15,8.28,8.11,8.2,4380161,,,Verified
CGF.AX,19-DEC-2015,,End Of Day,No Trades,,,,,,,,Verified
CGF.AX,20-DEC-2015,,End Of Day,No Trades,,,,,,,,Verified
CGF.AX,21-DEC-2015,,End Of Day,,8.16,8.26,8.07,8.11,3051861,,,Verified
CGF.AX,22-DEC-2015,,End Of Day,,8.2,8.27,8.18,8.24,3836960,,,Verified
CGF.AX,23-DEC-2015,,End Of Day,,8.45,8.45,8.27,8.28,1644647,,,Verified
CGF.AX,24-DEC-2015,,End Of Day,,8.44,8.44,8.29,8.37,642497,,,Verified
CGF.AX,25-DEC-2015,,End Of Day,No Trades,,,,,,,,Verified
CGF.AX,26-DEC-2015,,End Of Day,No Trades,,,,,,,,Verified
CGF.AX,27-DEC-2015,,End Of Day,No Trades,,,,,,,,Verified
CGF.AX,28-DEC-2015,,End Of Day,No Trades,,,,,,,,Verified
CGF.AX,29-DEC-2015,,End Of Day,,8.4,8.49,8.29,8.46,1364673,,,Verified
CGF.AX,30-DEC-2015,,End Of Day,,8.6,8.69,8.54,8.62,2232792,,,Verified
CGF.AX,31-DEC-2015,,End Of Day,,8.66,8.72,8.55,8.72,1846252,,,Verified
CGF.AX,01-JAN-2016,,End Of Day,No Trades,,,,,,,,Verified
CGF.AX,02-JAN-2016,,End Of Day,No Trades,,,,,,,,Verified
CGF.AX,03-JAN-2016,,End Of Day,No Trades,,,,,,,,Verified
CGF.AX,04-JAN-2016,,End Of Day,,8.69,8.72,8.49,8.5,2017425,,,Verified
CGF.AX,05-JAN-2016,,End Of Day,,8.57,8.57,8.26,8.28,2819075,,,Verified
CGF.AX,06-JAN-2016,,End Of Day,,8.26,8.37,8.25,8.3,2362614,,,Verified
CGF.AX,07-JAN-2016,,End Of Day,,8.29,8.37,8.11,8.13,3614059,,,Verified
CGF.AX,08-JAN-2016,,End Of Day,,8.01,8.24,7.99,8.2,2756491,,,Verified
CGF.AX,09-JAN-2016,,End Of Day,No Trades,,,,,,,,Verified
CGF.AX,10-JAN-2016,,End Of Day,No Trades,,,,,,,,Verified
CGF.AX,11-JAN-2016,,End Of Day,,8.03,8.09,7.965,8.06,3312504,,,Verified
CGF.AX,12-JAN-2016,,End Of Day,,8.04,8.25,8.03,8.1,2561700,,,Verified
CGF.AX,13-JAN-2016,,End Of Day,,8.12,8.27,8.1,8.27,2279382,,,Verified
CGF.AX,14-JAN-2016,,End Of Day,,8.05,8.07,7.95,8,3481995,,,Verified
CGF.AX,15-JAN-2016,,End Of Day,,8.14,8.15,7.95,7.99,1797389,,,Verified
CGF.AX,16-JAN-2016,,End Of Day,No Trades,,,,,,,,Verified
CGF.AX,17-JAN-2016,,End Of Day,No Trades,,,,,,,,Verified
CGF.AX,18-JAN-2016,,End Of Day,,7.88,7.9,7.75,7.84,2269852,,,Verified
CGF.AX,19-JAN-2016,,End Of Day,,7.82,7.93,7.82,7.91,2190373,,,Verified
CGF.AX,20-JAN-2016,,End Of Day,,7.82,7.82,7.26,7.37,5151939,,,Verified
CGF.AX,21-JAN-2016,,End Of Day,,7.37,7.47,6.98,6.99,8934100,,,Verified
CGF.AX,22-JAN-2016,,End Of Day,,7.21,7.54,7.195,7.34,8567273,,,Verified
CGF.AX,23-JAN-2016,,End Of Day,No Trades,,,,,,,,Verified
CGF.AX,24-JAN-2016,,End Of Day,No Trades,,,,,,,,Verified
CGF.AX,25-JAN-2016,,End Of Day,,7.5,7.79,7.44,7.78,4076349,,,Verified
CGF.AX,26-JAN-2016,,End Of Day,No Trades,,,,,,,,Verified
CGF.AX,27-JAN-2016,,End Of Day,,7.9,7.96,7.79,7.95,7095979,,,Verified
CGF.AX,28-JAN-2016,,End Of Day,,7.93,7.95,7.73,7.88,4034356,,,Verified
CGF.AX,29-JAN-2016,,End Of Day,,7.85,7.96,7.71,7.94,3554960,,,Verified
CGF.AX,30-JAN-2016,,End Of Day,No Trades,,,,,,,,Verified
CGF.AX,31-JAN-2016,,End Of Day,No Trades,,,,,,,,Verified
CGF.AX,01-FEB-2016,,End Of Day,,8.05,8.14,7.965,8.05,2159553,,,Verified
CGF.AX,02-FEB-2016,,End Of Day,,8.12,8.12,7.43,7.53,4907161,,,Verified
CGF.AX,03-FEB-2016,,End Of Day,,7.4,7.61,7.29,7.35,5446505,,,Verified
CGF.AX,04-FEB-2016,,End Of Day,,7.49,7.54,7.31,7.47,4308401,,,Verified
CGF.AX,05-FEB-2016,,End Of Day,,7.47,7.55,7.37,7.52,2914031,,,Verified
CGF.AX,06-FEB-2016,,End Of Day,No Trades,,,,,,,,Verified
CGF.AX,07-FEB-2016,,End Of Day,No Trades,,,,,,,,Verified
CGF.AX,08-FEB-2016,,End Of Day,,7.5,7.51,7.24,7.38,3008213,,,Verified
CGF.AX,09-FEB-2016,,End Of Day,,7.24,7.3,6.91,6.91,5662339,,,Verified
CGF.AX,10-FEB-2016,,End Of Day,,6.95,7.015,6.72,6.83,6807238,,,Verified
CGF.AX,11-FEB-2016,,End Of Day,,6.91,6.99,6.83,6.84,3461241,,,Verified
CGF.AX,12-FEB-2016,,End Of Day,,6.77,6.8,6.58,6.62,4137661,,,Verified
CGF.AX,13-FEB-2016,,End Of Day,No Trades,,,,,,,,Verified
CGF.AX,14-FEB-2016,,End Of Day,No Trades,,,,,,,,Verified
CGF.AX,15-FEB-2016,,End Of Day,,6.83,6.89,6.76,6.86,3634421,,,Verified
CGF.AX,16-FEB-2016,,End Of Day,,7.4,7.595,6.98,7.18,7979040,,,Verified
CGF.AX,17-FEB-2016,,End Of Day,,7.5,7.59,7.27,7.46,8196807,,,Verified
CGF.AX,18-FEB-2016,,End Of Day,,7.63,7.72,7.53,7.72,4553171,,,Verified
CGF.AX,19-FEB-2016,,End Of Day,,7.68,7.7,7.46,7.7,3450729,,,Verified
CGF.AX,20-FEB-2016,,End Of Day,No Trades,,,,,,,,Verified
CGF.AX,21-FEB-2016,,End Of Day,No Trades,,,,,,,,Verified
CGF.AX,22-FEB-2016,,End Of Day,,7.7,7.825,7.6,7.8,3357039,,,Verified
CGF.AX,23-FEB-2016,,End Of Day,,7.88,7.89,7.6,7.66,2018276,,,Verified
CGF.AX,24-FEB-2016,,End Of Day,,7.55,7.68,7.52,7.54,2327146,,,Verified
CGF.AX,25-FEB-2016,,End Of Day,,7.62,7.67,7.515,7.61,2672074,,,Verified
CGF.AX,26-FEB-2016,,End Of Day,,7.67,7.73,7.51,7.68,2368603,,,Verified
CGF.AX,27-FEB-2016,,End Of Day,No Trades,,,,,,,,Verified
CGF.AX,28-FEB-2016,,End Of Day,No Trades,,,,,,,,Verified
CGF.AX,29-FEB-2016,,End Of Day,,7.52,7.63,7.45,7.52,3048175,,,Verified
CGF.AX,01-MAR-2016,,End Of Day,,7.5,7.73,7.45,7.73,2777814,,,Verified
CGF.AX,02-MAR-2016,,End Of Day,,7.87,8.08,7.85,8.04,4052626,,,Verified
CGF.AX,03-MAR-2016,,End Of Day,,8.01,8.08,7.77,8.06,3865346,,,Verified
CGF.AX,04-MAR-2016,,End Of Day,,8.08,8.14,8.02,8.07,3187486,,,Verified
CGF.AX,05-MAR-2016,,End Of Day,No Trades,,,,,,,,Verified
CGF.AX,06-MAR-2016,,End Of Day,No Trades,,,,,,,,Verified
CGF.AX,07-MAR-2016,,End Of Day,,8.11,8.38,8.1,8.29,3503809,,,Verified
CGF.AX,08-MAR-2016,,End Of Day,,8.4,8.41,8.09,8.13,3253687,,,Verified
CGF.AX,09-MAR-2016,,End Of Day,,8.16,8.36,8.08,8.35,2819943,,,Verified
CGF.AX,10-MAR-2016,,End Of Day,,8.4,8.56,8.37,8.48,3813529,,,Verified
CGF.AX,11-MAR-2016,,End Of Day,,8.43,8.46,8.06,8.21,3546129,,,Verified
CGF.AX,12-MAR-2016,,End Of Day,No Trades,,,,,,,,Verified
CGF.AX,13-MAR-2016,,End Of Day,No Trades,,,,,,,,Verified
CGF.AX,14-MAR-2016,,End Of Day,,8.29,8.33,8.22,8.24,2849792,,,Verified
CGF.AX,15-MAR-2016,,End Of Day,,8.29,8.29,8.02,8.05,2035202,,,Verified
CGF.AX,16-MAR-2016,,End Of Day,,8,8.02,7.82,7.96,4469434,,,Verified
CGF.AX,17-MAR-2016,,End Of Day,,7.98,8.21,7.955,8.17,3125936,,,Verified
CGF.AX,18-MAR-2016,,End Of Day,,8.28,8.285,8.15,8.15,1881327,,,Verified
CGF.AX,19-MAR-2016,,End Of Day,No Trades,,,,,,,,Verified
CGF.AX,20-MAR-2016,,End Of Day,No Trades,,,,,,,,Verified
CGF.AX,21-MAR-2016,,End Of Day,,8.23,8.26,8.13,8.21,1937044,,,Verified
CGF.AX,22-MAR-2016,,End Of Day,,8.25,8.25,8.15,8.2,1497417,,,Verified
CGF.AX,23-MAR-2016,,End Of Day,,8.22,8.23,8.15,8.17,1474425,,,Verified
CGF.AX,24-MAR-2016,,End Of Day,,8.17,8.21,8.13,8.18,1996746,,,Verified
CGF.AX,25-MAR-2016,,End Of Day,No Trades,,,,,,,,Verified
CGF.AX,26-MAR-2016,,End Of Day,No Trades,,,,,,,,Verified
CGF.AX,27-MAR-2016,,End Of Day,No Trades,,,,,,,,Verified
CGF.AX,28-MAR-2016,,End Of Day,No Trades,,,,,,,,Verified
CGF.AX,29-MAR-2016,,End Of Day,,8.2,8.28,8.11,8.12,2487398,,,Verified
CGF.AX,30-MAR-2016,,End Of Day,,8.2,8.25,8.13,8.2,1638115,,,Verified
CGF.AX,31-MAR-2016,,End Of Day,,8.27,8.39,8.24,8.39,1733819,,,Verified
CGF.AX,01-APR-2016,,End Of Day,,8.33,8.45,8.22,8.27,4629323,,,Verified
CGF.AX,02-APR-2016,,End Of Day,No Trades,,,,,,,,Verified
CGF.AX,03-APR-2016,,End Of Day,No Trades,,,,,,,,Verified
CGF.AX,04-APR-2016,,End Of Day,,8.31,8.43,8.27,8.34,1532434,,,Verified
CGF.AX,05-APR-2016,,End Of Day,,8.37,8.39,8.11,8.18,3908615,,,Verified
CGF.AX,06-APR-2016,,End Of Day,,8.21,8.45,8.21,8.43,2780431,,,Verified
CGF.AX,07-APR-2016,,End Of Day,,8.43,8.52,8.38,8.47,1900161,,,Verified
CGF.AX,08-APR-2016,,End Of Day,,8.35,8.51,8.27,8.51,1975178,,,Verified
CGF.AX,09-APR-2016,,End Of Day,No Trades,,,,,,,,Verified
CGF.AX,10-APR-2016,,End Of Day,No Trades,,,,,,,,Verified
CGF.AX,11-APR-2016,,End Of Day,,8.55,8.65,8.52,8.59,2574512,,,Verified
CGF.AX,12-APR-2016,,End Of Day,,8.53,8.68,8.47,8.48,2838551,,,Verified
CGF.AX,13-APR-2016,,End Of Day,,8.54,8.63,8.53,8.56,2225909,,,Verified
CGF.AX,14-APR-2016,,End Of Day,,8.63,8.78,8.56,8.77,2255532,,,Verified
CGF.AX,15-APR-2016,,End Of Day,,8.72,8.92,8.68,8.9,2399706,,,Verified
CGF.AX,16-APR-2016,,End Of Day,No Trades,,,,,,,,Verified
CGF.AX,17-APR-2016,,End Of Day,No Trades,,,,,,,,Verified
CGF.AX,18-APR-2016,,End Of Day,,8.9,8.9,8.77,8.8,1597966,,,Verified
CGF.AX,19-APR-2016,,End Of Day,,8.84,8.86,8.63,8.67,3034044,,,Verified
CGF.AX,20-APR-2016,,End Of Day,,8.67,8.77,8.52,8.59,3381738,,,Verified
CGF.AX,21-APR-2016,,End Of Day,,8.86,9.2,8.72,9.05,5359797,,,Verified
CGF.AX,22-APR-2016,,End Of Day,,8.9,9.06,8.83,8.89,2877401,,,Verified
CGF.AX,23-APR-2016,,End Of Day,No Trades,,,,,,,,Verified
CGF.AX,24-APR-2016,,End Of Day,No Trades,,,,,,,,Verified
CGF.AX,25-APR-2016,,End Of Day,No Trades,,,,,,,,Verified
CGF.AX,26-APR-2016,,End Of Day,,8.94,8.95,8.76,8.82,2484275,,,Verified
CGF.AX,27-APR-2016,,End Of Day,,8.9,9.1,8.9,8.95,3047561,,,Verified
CGF.AX,28-APR-2016,,End Of Day,,9.1,9.1,9,9.08,2904997,,,Verified
CGF.AX,29-APR-2016,,End Of Day,,9.1,9.1,8.91,8.96,2271647,,,Verified
CGF.AX,30-APR-2016,,End Of Day,No Trades,,,,,,,,Verified
CGF.AX,01-MAY-2016,,End Of Day,No Trades,,,,,,,,Verified
CGF.AX,02-MAY-2016,,End Of Day,,8.97,9.07,8.9,9.05,2141614,,,Verified
CGF.AX,03-MAY-2016,,End Of Day,,9.14,9.3,9.07,9.27,2687749,,,Verified
CGF.AX,04-MAY-2016,,End Of Day,,9.39,9.46,9.21,9.23,4674166,,,Verified
CGF.AX,05-MAY-2016,,End Of Day,,9.27,9.34,9.19,9.28,2749079,,,Verified
CGF.AX,06-MAY-2016,,End Of Day,,9.28,9.345,9.1,9.33,2936242,,,Verified
CGF.AX,07-MAY-2016,,End Of Day,No Trades,,,,,,,,Verified
CGF.AX,08-MAY-2016,,End Of Day,No Trades,,,,,,,,Verified
CGF.AX,09-MAY-2016,,End Of Day,,9.33,9.34,9.18,9.29,1619801,,,Verified
CGF.AX,10-MAY-2016,,End Of Day,,9.3,9.33,9.22,9.3,2265874,,,Verified
CGF.AX,11-MAY-2016,,End Of Day,,9.4,9.47,9.24,9.31,2248236,,,Verified
