{
"Name": "Adelaide Brighton Ltd (ABC.AX)",
"Market Cap (intraday)": "3.65B",
"Enterprise Value (28/05/2016)": "3.94B",
"Trailing P/E (ttm, intraday):": "17.62",
"Forward P/E (fye 31/12/2017)": "18.13",
"PEG Ratio (5 yr expected)": "10.18",
"Price/Sales (ttm):": "2.58",
"Price/Book (mrq):": "3.03",
"Enterprise Value/Revenue (ttm)": "2.79",
"Enterprise Value/EBITDA (ttm)": "12.92",
"Fiscal Year Ends:": "31 Dec",
"Most Recent Quarter (mrq):": "31/12/2015",
"Profit Margin (ttm):": "14.71%",
"Operating Margin (ttm):": "16.21%",
"Return on Assets (ttm):": "7.82%",
"Return on Equity (ttm):": "17.73%",
"Revenue (ttm):": "1.41B",
"Revenue Per Share (ttm):": "2.18",
"Qtrly Revenue Growth (yoy):": "-0.10%",
"Gross Profit (ttm):": "318.00M",
"EBITDA (ttm)": "305.20M",
"Net Income Avl to Common (ttm):": "207.90M",
"Diluted EPS (ttm):": "0.32",
"Qtrly Earnings Growth (yoy):": "3.10%",
"Total Cash (mrq):": "33.30M",
"Total Cash Per Share (mrq):": "0.05",
"Total Debt (mrq):": "330.50M",
"Total Debt/Equity (mrq):": "27.38",
"Current Ratio (mrq):": "2.25",
"Book Value Per Share (mrq):": "1.86",
"Operating Cash Flow (ttm):": "229.90M",
"Levered Free Cash Flow (ttm):": "134.98M",
"Beta:": "N/A",
"52-Week Change": "22.44%",
"S&P500 52-Week Change": "-0.60%",
"52-Week High (27/05/2016)": "5.69",
"52-Week Low (14/10/2015)": "4.00",
"50-Day Moving Average": "5.27",
"200-Day Moving Average": "4.81",
"Avg Vol (3 month)": "1,580,030",
"Avg Vol (10 day)": "1,392,280",
"Shares Outstanding": "649.65M",
"Float:": "431.73M",
"% Held by Insiders": "N/A",
"% Held by Institutions": "N/A",
"Shares Short ": "N/A",
"Short Ratio ": "N/A",
"Short % of Float ": "N/A",
"Shares Short (prior month)": "N/A",
"Forward Annual Dividend Rate": "N/A",
"Forward Annual Dividend Yield": "N/A",
"Trailing Annual Dividend Yield": "0.33",
"Trailing Annual Dividend Yield": "5.90%",
"5 Year Average Dividend Yield": "N/A",
"Payout Ratio": "N/A",
"Dividend Date": "N/A",
"Ex-Dividend Date": "N/A",
"Last Split Factor (new per old)": "1:1",
"Last Split Date": "06/03/2008"
}
