#RIC,Date[L],Time[L],Type,Qualifiers,Open,High,Low,Last,Volume,Open Interest,Settle,Data Source
CAR.AX,25-FEB-2015,,End Of Day,,10.36,10.4,10.27,10.34,474176,,,Verified
CAR.AX,26-FEB-2015,,End Of Day,,10.5,10.5,9.96,9.97,7543718,,,Verified
CAR.AX,27-FEB-2015,,End Of Day,,10.08,10.19,10.01,10.01,1083879,,,Verified
CAR.AX,28-FEB-2015,,End Of Day,No Trades,,,,,,,,Verified
CAR.AX,01-MAR-2015,,End Of Day,No Trades,,,,,,,,Verified
CAR.AX,02-MAR-2015,,End Of Day,,10.1,10.18,10.05,10.09,1344584,,,Verified
CAR.AX,03-MAR-2015,,End Of Day,,10.18,10.21,10.1,10.19,4682993,,,Verified
CAR.AX,04-MAR-2015,,End Of Day,,10.22,10.32,10.19,10.23,1215717,,,Verified
CAR.AX,05-MAR-2015,,End Of Day,,10.25,10.27,10.19,10.22,838919,,,Verified
CAR.AX,06-MAR-2015,,End Of Day,,10.3,10.43,10.28,10.42,1119393,,,Verified
CAR.AX,07-MAR-2015,,End Of Day,No Trades,,,,,,,,Verified
CAR.AX,08-MAR-2015,,End Of Day,No Trades,,,,,,,,Verified
CAR.AX,09-MAR-2015,,End Of Day,,10.4,10.47,10.34,10.38,739036,,,Verified
CAR.AX,10-MAR-2015,,End Of Day,,10.43,10.46,10.26,10.3,715799,,,Verified
CAR.AX,11-MAR-2015,,End Of Day,,10.27,10.28,10.16,10.26,600338,,,Verified
CAR.AX,12-MAR-2015,,End Of Day,,10.25,10.41,10.25,10.37,811074,,,Verified
CAR.AX,13-MAR-2015,,End Of Day,,10.35,10.42,10.25,10.26,870199,,,Verified
CAR.AX,14-MAR-2015,,End Of Day,No Trades,,,,,,,,Verified
CAR.AX,15-MAR-2015,,End Of Day,No Trades,,,,,,,,Verified
CAR.AX,16-MAR-2015,,End Of Day,,10.28,10.34,10.1,10.13,731544,,,Verified
CAR.AX,17-MAR-2015,,End Of Day,,10.2,10.25,10.13,10.24,891723,,,Verified
CAR.AX,18-MAR-2015,,End Of Day,,10.21,10.3,10.2,10.27,930304,,,Verified
CAR.AX,19-MAR-2015,,End Of Day,,10.31,10.45,10.31,10.36,1399006,,,Verified
CAR.AX,20-MAR-2015,,End Of Day,,10.4,10.48,10.37,10.4,1153693,,,Verified
CAR.AX,21-MAR-2015,,End Of Day,No Trades,,,,,,,,Verified
CAR.AX,22-MAR-2015,,End Of Day,No Trades,,,,,,,,Verified
CAR.AX,23-MAR-2015,,End Of Day,,10.29,10.29,10.15,10.18,845649,,,Verified
CAR.AX,24-MAR-2015,,End Of Day,,10.18,10.3,10.15,10.18,1075721,,,Verified
CAR.AX,25-MAR-2015,,End Of Day,,10.2,10.21,10.15,10.18,797388,,,Verified
CAR.AX,26-MAR-2015,,End Of Day,,10.11,10.17,10,10.1,850036,,,Verified
CAR.AX,27-MAR-2015,,End Of Day,,10.05,10.185,10.05,10.15,466596,,,Verified
CAR.AX,28-MAR-2015,,End Of Day,No Trades,,,,,,,,Verified
CAR.AX,29-MAR-2015,,End Of Day,No Trades,,,,,,,,Verified
CAR.AX,30-MAR-2015,,End Of Day,,10.1,10.12,9.97,10.01,871791,,,Verified
CAR.AX,31-MAR-2015,,End Of Day,,10.03,10.35,10.02,10.33,1139649,,,Verified
CAR.AX,01-APR-2015,,End Of Day,,10.25,10.41,10.18,10.22,1531053,,,Verified
CAR.AX,02-APR-2015,,End Of Day,,10.25,10.3,10.16,10.2,429689,,,Verified
CAR.AX,03-APR-2015,,End Of Day,No Trades,,,,,,,,Verified
CAR.AX,04-APR-2015,,End Of Day,No Trades,,,,,,,,Verified
CAR.AX,05-APR-2015,,End Of Day,No Trades,,,,,,,,Verified
CAR.AX,06-APR-2015,,End Of Day,No Trades,,,,,,,,Verified
CAR.AX,07-APR-2015,,End Of Day,,10.24,10.25,10.16,10.2,1389019,,,Verified
CAR.AX,08-APR-2015,,End Of Day,,10.22,10.34,10.2,10.22,834811,,,Verified
CAR.AX,09-APR-2015,,End Of Day,,10.22,10.28,10.17,10.19,668407,,,Verified
CAR.AX,10-APR-2015,,End Of Day,,10.25,10.27,10.165,10.19,309686,,,Verified
CAR.AX,11-APR-2015,,End Of Day,No Trades,,,,,,,,Verified
CAR.AX,12-APR-2015,,End Of Day,No Trades,,,,,,,,Verified
CAR.AX,13-APR-2015,,End Of Day,,10.22,10.24,10.01,10.01,484350,,,Verified
CAR.AX,14-APR-2015,,End Of Day,,10,10.1,9.92,9.97,879923,,,Verified
CAR.AX,15-APR-2015,,End Of Day,,9.94,9.96,9.8,9.82,2314473,,,Verified
CAR.AX,16-APR-2015,,End Of Day,,9.83,10.04,9.83,9.91,2704702,,,Verified
CAR.AX,17-APR-2015,,End Of Day,,9.91,9.91,9.8,9.8,665378,,,Verified
CAR.AX,18-APR-2015,,End Of Day,No Trades,,,,,,,,Verified
CAR.AX,19-APR-2015,,End Of Day,No Trades,,,,,,,,Verified
CAR.AX,20-APR-2015,,End Of Day,,9.77,9.89,9.75,9.81,3217073,,,Verified
CAR.AX,21-APR-2015,,End Of Day,,9.91,9.91,9.76,9.77,768717,,,Verified
CAR.AX,22-APR-2015,,End Of Day,,9.75,9.8,9.57,9.58,983267,,,Verified
CAR.AX,23-APR-2015,,End Of Day,,9.59,9.6,9.5,9.54,1139527,,,Verified
CAR.AX,24-APR-2015,,End Of Day,,9.62,9.69,9.62,9.64,1182525,,,Verified
CAR.AX,25-APR-2015,,End Of Day,No Trades,,,,,,,,Verified
CAR.AX,26-APR-2015,,End Of Day,No Trades,,,,,,,,Verified
CAR.AX,27-APR-2015,,End Of Day,,9.65,9.72,9.64,9.7,611515,,,Verified
CAR.AX,28-APR-2015,,End Of Day,,9.7,9.73,9.63,9.66,1622402,,,Verified
CAR.AX,29-APR-2015,,End Of Day,,9.69,9.69,9.51,9.51,1502297,,,Verified
CAR.AX,30-APR-2015,,End Of Day,,9.5,9.56,9.37,9.44,1143700,,,Verified
CAR.AX,01-MAY-2015,,End Of Day,,9.5,9.54,9.37,9.52,668695,,,Verified
CAR.AX,02-MAY-2015,,End Of Day,No Trades,,,,,,,,Verified
CAR.AX,03-MAY-2015,,End Of Day,No Trades,,,,,,,,Verified
CAR.AX,04-MAY-2015,,End Of Day,,9.56,9.645,9.55,9.59,786915,,,Verified
CAR.AX,05-MAY-2015,,End Of Day,,9.79,9.86,9.59,9.66,1236402,,,Verified
CAR.AX,06-MAY-2015,,End Of Day,,9.6,9.82,9.46,9.46,965871,,,Verified
CAR.AX,07-MAY-2015,,End Of Day,,9.4,9.47,9.32,9.34,826967,,,Verified
CAR.AX,08-MAY-2015,,End Of Day,,9.34,9.44,9.3,9.3,585193,,,Verified
CAR.AX,09-MAY-2015,,End Of Day,No Trades,,,,,,,,Verified
CAR.AX,10-MAY-2015,,End Of Day,No Trades,,,,,,,,Verified
CAR.AX,11-MAY-2015,,End Of Day,,9.39,9.44,9.31,9.37,748087,,,Verified
CAR.AX,12-MAY-2015,,End Of Day,,9.37,9.52,9.315,9.52,1488783,,,Verified
CAR.AX,13-MAY-2015,,End Of Day,,9.6,9.76,9.56,9.76,1071412,,,Verified
CAR.AX,14-MAY-2015,,End Of Day,,9.75,9.76,9.53,9.75,3120333,,,Verified
CAR.AX,15-MAY-2015,,End Of Day,,9.85,9.99,9.82,9.98,806242,,,Verified
CAR.AX,16-MAY-2015,,End Of Day,No Trades,,,,,,,,Verified
CAR.AX,17-MAY-2015,,End Of Day,No Trades,,,,,,,,Verified
CAR.AX,18-MAY-2015,,End Of Day,,10,10.11,9.95,10.01,886580,,,Verified
CAR.AX,19-MAY-2015,,End Of Day,,10.02,10.09,9.98,10.02,661240,,,Verified
CAR.AX,20-MAY-2015,,End Of Day,,10.05,10.3,10.03,10.25,1108549,,,Verified
CAR.AX,21-MAY-2015,,End Of Day,,10.47,10.47,10.29,10.4,1076672,,,Verified
CAR.AX,22-MAY-2015,,End Of Day,,10.38,10.43,10.34,10.4,700967,,,Verified
CAR.AX,23-MAY-2015,,End Of Day,No Trades,,,,,,,,Verified
CAR.AX,24-MAY-2015,,End Of Day,No Trades,,,,,,,,Verified
CAR.AX,25-MAY-2015,,End Of Day,,10.41,10.57,10.39,10.54,901109,,,Verified
CAR.AX,26-MAY-2015,,End Of Day,,10.55,10.83,10.54,10.83,1519999,,,Verified
CAR.AX,27-MAY-2015,,End Of Day,,10.75,10.82,10.4,10.51,1406285,,,Verified
CAR.AX,28-MAY-2015,,End Of Day,,10.56,10.58,10.4,10.46,783494,,,Verified
CAR.AX,29-MAY-2015,,End Of Day,,10.5,10.53,10.43,10.45,865555,,,Verified
CAR.AX,30-MAY-2015,,End Of Day,No Trades,,,,,,,,Verified
CAR.AX,31-MAY-2015,,End Of Day,No Trades,,,,,,,,Verified
CAR.AX,01-JUN-2015,,End Of Day,,10.45,10.57,10.29,10.57,844368,,,Verified
CAR.AX,02-JUN-2015,,End Of Day,,10.59,10.6,10.3,10.35,668805,,,Verified
CAR.AX,03-JUN-2015,,End Of Day,,10.25,10.28,10.15,10.26,832660,,,Verified
CAR.AX,04-JUN-2015,,End Of Day,,10.29,10.31,10.16,10.18,605781,,,Verified
CAR.AX,05-JUN-2015,,End Of Day,,10.15,10.32,10.15,10.26,348852,,,Verified
CAR.AX,06-JUN-2015,,End Of Day,No Trades,,,,,,,,Verified
CAR.AX,07-JUN-2015,,End Of Day,No Trades,,,,,,,,Verified
CAR.AX,08-JUN-2015,,End Of Day,No Trades,,,,,,,,Verified
CAR.AX,09-JUN-2015,,End Of Day,,10.28,10.29,10.21,10.21,613433,,,Verified
CAR.AX,10-JUN-2015,,End Of Day,,10.2,10.3,10.14,10.26,475505,,,Verified
CAR.AX,11-JUN-2015,,End Of Day,,10.31,10.51,10.31,10.45,629142,,,Verified
CAR.AX,12-JUN-2015,,End Of Day,,10.49,10.54,10.41,10.45,501209,,,Verified
CAR.AX,13-JUN-2015,,End Of Day,No Trades,,,,,,,,Verified
CAR.AX,14-JUN-2015,,End Of Day,No Trades,,,,,,,,Verified
CAR.AX,15-JUN-2015,,End Of Day,,10.42,10.49,10.37,10.46,553773,,,Verified
CAR.AX,16-JUN-2015,,End Of Day,,10.39,10.4,10.19,10.2,508833,,,Verified
CAR.AX,17-JUN-2015,,End Of Day,,10.29,10.33,10.21,10.26,677017,,,Verified
CAR.AX,18-JUN-2015,,End Of Day,,10,10.08,9.92,10,1977298,,,Verified
CAR.AX,19-JUN-2015,,End Of Day,,10.08,10.19,10.05,10.12,1364509,,,Verified
CAR.AX,20-JUN-2015,,End Of Day,No Trades,,,,,,,,Verified
CAR.AX,21-JUN-2015,,End Of Day,No Trades,,,,,,,,Verified
CAR.AX,22-JUN-2015,,End Of Day,,10.11,10.22,10.08,10.15,935837,,,Verified
CAR.AX,23-JUN-2015,,End Of Day,,10.22,10.41,10.21,10.26,977406,,,Verified
CAR.AX,24-JUN-2015,,End Of Day,,10.25,10.38,10.19,10.34,933754,,,Verified
CAR.AX,25-JUN-2015,,End Of Day,,10.32,10.32,10.1,10.1,1556935,,,Verified
CAR.AX,26-JUN-2015,,End Of Day,,10.15,10.18,9.94,10.15,685001,,,Verified
CAR.AX,27-JUN-2015,,End Of Day,No Trades,,,,,,,,Verified
CAR.AX,28-JUN-2015,,End Of Day,No Trades,,,,,,,,Verified
CAR.AX,29-JUN-2015,,End Of Day,,9.97,10.13,9.94,10.04,1030773,,,Verified
CAR.AX,30-JUN-2015,,End Of Day,,10.01,10.19,9.95,10.19,760016,,,Verified
CAR.AX,01-JUL-2015,,End Of Day,,10.17,10.44,10.16,10.42,902136,,,Verified
CAR.AX,02-JUL-2015,,End Of Day,,10.4,10.64,10.38,10.63,1050124,,,Verified
CAR.AX,03-JUL-2015,,End Of Day,,10.6,10.65,10.4,10.65,996122,,,Verified
CAR.AX,04-JUL-2015,,End Of Day,No Trades,,,,,,,,Verified
CAR.AX,05-JUL-2015,,End Of Day,No Trades,,,,,,,,Verified
CAR.AX,06-JUL-2015,,End Of Day,,10.47,10.58,10.4,10.52,724805,,,Verified
CAR.AX,07-JUL-2015,,End Of Day,,10.52,10.7,10.5,10.67,1005767,,,Verified
CAR.AX,08-JUL-2015,,End Of Day,,10.65,10.7,10.39,10.42,976262,,,Verified
CAR.AX,09-JUL-2015,,End Of Day,,10.31,10.36,10.1,10.33,1007406,,,Verified
CAR.AX,10-JUL-2015,,End Of Day,,10.3,10.48,10.24,10.39,1464729,,,Verified
CAR.AX,11-JUL-2015,,End Of Day,No Trades,,,,,,,,Verified
CAR.AX,12-JUL-2015,,End Of Day,No Trades,,,,,,,,Verified
CAR.AX,13-JUL-2015,,End Of Day,,10.35,10.35,10.15,10.21,1180078,,,Verified
CAR.AX,14-JUL-2015,,End Of Day,,10.35,10.51,10.295,10.51,1014189,,,Verified
CAR.AX,15-JUL-2015,,End Of Day,,10.51,10.63,10.51,10.61,480963,,,Verified
CAR.AX,16-JUL-2015,,End Of Day,,10.7,10.75,10.6,10.65,427136,,,Verified
CAR.AX,17-JUL-2015,,End Of Day,,10.69,10.72,10.535,10.63,511312,,,Verified
CAR.AX,18-JUL-2015,,End Of Day,No Trades,,,,,,,,Verified
CAR.AX,19-JUL-2015,,End Of Day,No Trades,,,,,,,,Verified
CAR.AX,20-JUL-2015,,End Of Day,,10.67,10.8,10.67,10.79,711322,,,Verified
CAR.AX,21-JUL-2015,,End Of Day,,10.83,10.97,10.82,10.9,1130200,,,Verified
CAR.AX,22-JUL-2015,,End Of Day,,10.89,10.89,10.61,10.63,449803,,,Verified
CAR.AX,23-JUL-2015,,End Of Day,,10.6,10.75,10.55,10.65,733125,,,Verified
CAR.AX,24-JUL-2015,,End Of Day,,10.55,10.59,10.41,10.51,641323,,,Verified
CAR.AX,25-JUL-2015,,End Of Day,No Trades,,,,,,,,Verified
CAR.AX,26-JUL-2015,,End Of Day,No Trades,,,,,,,,Verified
CAR.AX,27-JUL-2015,,End Of Day,,10.45,10.59,10.37,10.59,443531,,,Verified
CAR.AX,28-JUL-2015,,End Of Day,,10.45,10.48,10.19,10.44,827349,,,Verified
CAR.AX,29-JUL-2015,,End Of Day,,10.59,10.6,10.4,10.44,461718,,,Verified
CAR.AX,30-JUL-2015,,End Of Day,,10.46,10.52,10.35,10.5,622916,,,Verified
CAR.AX,31-JUL-2015,,End Of Day,,10.55,10.85,10.55,10.85,727423,,,Verified
CAR.AX,01-AUG-2015,,End Of Day,No Trades,,,,,,,,Verified
CAR.AX,02-AUG-2015,,End Of Day,No Trades,,,,,,,,Verified
CAR.AX,03-AUG-2015,,End Of Day,,10.84,10.84,10.72,10.81,524601,,,Verified
CAR.AX,04-AUG-2015,,End Of Day,,10.75,10.96,10.67,10.89,743162,,,Verified
CAR.AX,05-AUG-2015,,End Of Day,,10.84,10.95,10.76,10.91,714813,,,Verified
CAR.AX,06-AUG-2015,,End Of Day,,10.87,10.98,10.79,10.83,1008086,,,Verified
CAR.AX,07-AUG-2015,,End Of Day,,10.65,10.84,10.65,10.69,545271,,,Verified
CAR.AX,08-AUG-2015,,End Of Day,No Trades,,,,,,,,Verified
CAR.AX,09-AUG-2015,,End Of Day,No Trades,,,,,,,,Verified
CAR.AX,10-AUG-2015,,End Of Day,,10.68,10.85,10.65,10.82,516602,,,Verified
CAR.AX,11-AUG-2015,,End Of Day,,10.85,10.88,10.72,10.77,642275,,,Verified
CAR.AX,12-AUG-2015,,End Of Day,,10.5,10.54,10.04,10.08,2012234,,,Verified
CAR.AX,13-AUG-2015,,End Of Day,,10.07,10.07,9.75,9.9,1960835,,,Verified
CAR.AX,14-AUG-2015,,End Of Day,,9.84,9.88,9.76,9.81,1568165,,,Verified
CAR.AX,15-AUG-2015,,End Of Day,No Trades,,,,,,,,Verified
CAR.AX,16-AUG-2015,,End Of Day,No Trades,,,,,,,,Verified
CAR.AX,17-AUG-2015,,End Of Day,,9.9,9.98,9.71,9.73,1978403,,,Verified
CAR.AX,18-AUG-2015,,End Of Day,,9.81,10.03,9.81,10.03,1892104,,,Verified
CAR.AX,19-AUG-2015,,End Of Day,,10,10.02,9.74,9.8,1039159,,,Verified
CAR.AX,20-AUG-2015,,End Of Day,,9.7,9.92,9.7,9.8,828303,,,Verified
CAR.AX,21-AUG-2015,,End Of Day,,9.69,9.91,9.6,9.91,939227,,,Verified
CAR.AX,22-AUG-2015,,End Of Day,No Trades,,,,,,,,Verified
CAR.AX,23-AUG-2015,,End Of Day,No Trades,,,,,,,,Verified
CAR.AX,24-AUG-2015,,End Of Day,,9.66,9.89,9.62,9.79,990389,,,Verified
CAR.AX,25-AUG-2015,,End Of Day,,9.58,9.81,9.51,9.8,2290205,,,Verified
CAR.AX,26-AUG-2015,,End Of Day,,9.7,9.87,9.61,9.71,1418992,,,Verified
CAR.AX,27-AUG-2015,,End Of Day,,9.8,9.95,9.8,9.9,975950,,,Verified
CAR.AX,28-AUG-2015,,End Of Day,,9.9,9.91,9.73,9.73,1092465,,,Verified
CAR.AX,29-AUG-2015,,End Of Day,No Trades,,,,,,,,Verified
CAR.AX,30-AUG-2015,,End Of Day,No Trades,,,,,,,,Verified
CAR.AX,31-AUG-2015,,End Of Day,,9.73,9.85,9.67,9.75,1067918,,,Verified
CAR.AX,01-SEP-2015,,End Of Day,,9.7,9.79,9.48,9.52,1042861,,,Verified
CAR.AX,02-SEP-2015,,End Of Day,,9.4,9.6,9.36,9.55,531433,,,Verified
CAR.AX,03-SEP-2015,,End Of Day,,9.56,9.77,9.5,9.51,821903,,,Verified
CAR.AX,04-SEP-2015,,End Of Day,,9.52,9.68,9.52,9.61,863347,,,Verified
CAR.AX,05-SEP-2015,,End Of Day,No Trades,,,,,,,,Verified
CAR.AX,06-SEP-2015,,End Of Day,No Trades,,,,,,,,Verified
CAR.AX,07-SEP-2015,,End Of Day,,9.61,9.72,9.55,9.67,553375,,,Verified
CAR.AX,08-SEP-2015,,End Of Day,,9.72,9.79,9.55,9.68,561843,,,Verified
CAR.AX,09-SEP-2015,,End Of Day,,9.7,9.79,9.595,9.6,1313666,,,Verified
CAR.AX,10-SEP-2015,,End Of Day,,9.55,9.64,9.53,9.59,893795,,,Verified
CAR.AX,11-SEP-2015,,End Of Day,,9.6,9.65,9.57,9.61,379627,,,Verified
CAR.AX,12-SEP-2015,,End Of Day,No Trades,,,,,,,,Verified
CAR.AX,13-SEP-2015,,End Of Day,No Trades,,,,,,,,Verified
CAR.AX,14-SEP-2015,,End Of Day,,9.67,9.74,9.59,9.62,775076,,,Verified
CAR.AX,15-SEP-2015,,End Of Day,,9.62,9.7,9.56,9.59,525664,,,Verified
CAR.AX,16-SEP-2015,,End Of Day,,9.57,9.66,9.5,9.63,974107,,,Verified
CAR.AX,17-SEP-2015,,End Of Day,,9.63,9.74,9.6,9.61,894587,,,Verified
CAR.AX,18-SEP-2015,,End Of Day,,9.64,9.76,9.63,9.69,636924,,,Verified
CAR.AX,19-SEP-2015,,End Of Day,No Trades,,,,,,,,Verified
CAR.AX,20-SEP-2015,,End Of Day,No Trades,,,,,,,,Verified
CAR.AX,21-SEP-2015,,End Of Day,,9.6,9.67,9.52,9.57,1055464,,,Verified
CAR.AX,22-SEP-2015,,End Of Day,,9.63,9.72,9.52,9.58,519774,,,Verified
CAR.AX,23-SEP-2015,,End Of Day,,9.54,9.64,9.52,9.59,770070,,,Verified
CAR.AX,24-SEP-2015,,End Of Day,,9.63,9.72,9.57,9.61,491613,,,Verified
CAR.AX,25-SEP-2015,,End Of Day,,9.68,9.71,9.56,9.63,434314,,,Verified
CAR.AX,26-SEP-2015,,End Of Day,No Trades,,,,,,,,Verified
CAR.AX,27-SEP-2015,,End Of Day,No Trades,,,,,,,,Verified
CAR.AX,28-SEP-2015,,End Of Day,,9.61,9.83,9.61,9.83,355355,,,Verified
CAR.AX,29-SEP-2015,,End Of Day,,9.65,9.66,9.58,9.59,717037,,,Verified
CAR.AX,30-SEP-2015,,End Of Day,,9.6,9.78,9.58,9.77,464117,,,Verified
CAR.AX,01-OCT-2015,,End Of Day,,9.75,9.95,9.73,9.95,499429,,,Verified
CAR.AX,02-OCT-2015,,End Of Day,,9.86,10.04,9.81,9.93,369940,,,Verified
CAR.AX,03-OCT-2015,,End Of Day,No Trades,,,,,,,,Verified
CAR.AX,04-OCT-2015,,End Of Day,No Trades,,,,,,,,Verified
CAR.AX,05-OCT-2015,,End Of Day,,9.93,10.1,9.93,10.07,336577,,,Verified
CAR.AX,06-OCT-2015,,End Of Day,,10.08,10.15,9.89,9.92,502720,,,Verified
CAR.AX,07-OCT-2015,,End Of Day,,9.94,9.96,9.82,9.88,454093,,,Verified
CAR.AX,08-OCT-2015,,End Of Day,,9.96,10.04,9.84,9.86,678423,,,Verified
CAR.AX,09-OCT-2015,,End Of Day,,9.96,10.04,9.87,9.99,810744,,,Verified
CAR.AX,10-OCT-2015,,End Of Day,No Trades,,,,,,,,Verified
CAR.AX,11-OCT-2015,,End Of Day,No Trades,,,,,,,,Verified
CAR.AX,12-OCT-2015,,End Of Day,,9.95,10,9.82,9.82,527198,,,Verified
CAR.AX,13-OCT-2015,,End Of Day,,9.85,9.925,9.78,9.85,459919,,,Verified
CAR.AX,14-OCT-2015,,End Of Day,,9.85,9.95,9.79,9.89,477668,,,Verified
CAR.AX,15-OCT-2015,,End Of Day,,9.95,9.98,9.78,9.88,601249,,,Verified
CAR.AX,16-OCT-2015,,End Of Day,,9.98,10.03,9.84,9.86,720753,,,Verified
CAR.AX,17-OCT-2015,,End Of Day,No Trades,,,,,,,,Verified
CAR.AX,18-OCT-2015,,End Of Day,No Trades,,,,,,,,Verified
CAR.AX,19-OCT-2015,,End Of Day,,9.9,9.99,9.81,9.89,422493,,,Verified
CAR.AX,20-OCT-2015,,End Of Day,,9.85,9.98,9.83,9.83,299550,,,Verified
CAR.AX,21-OCT-2015,,End Of Day,,9.8,9.85,9.6,9.72,493276,,,Verified
CAR.AX,22-OCT-2015,,End Of Day,,9.7,9.78,9.57,9.7,765455,,,Verified
CAR.AX,23-OCT-2015,,End Of Day,,9.75,9.9,9.71,9.71,751676,,,Verified
CAR.AX,24-OCT-2015,,End Of Day,No Trades,,,,,,,,Verified
CAR.AX,25-OCT-2015,,End Of Day,No Trades,,,,,,,,Verified
CAR.AX,26-OCT-2015,,End Of Day,,9.8,9.98,9.75,9.77,860897,,,Verified
CAR.AX,27-OCT-2015,,End Of Day,,9.84,9.94,9.81,9.83,471370,,,Verified
CAR.AX,28-OCT-2015,,End Of Day,,9.8,9.85,9.75,9.78,550750,,,Verified
CAR.AX,29-OCT-2015,,End Of Day,,9.83,9.88,9.76,9.77,434561,,,Verified
CAR.AX,30-OCT-2015,,End Of Day,,9.85,9.89,9.72,9.8,462342,,,Verified
CAR.AX,31-OCT-2015,,End Of Day,No Trades,,,,,,,,Verified
CAR.AX,01-NOV-2015,,End Of Day,No Trades,,,,,,,,Verified
CAR.AX,02-NOV-2015,,End Of Day,,9.8,9.9,9.8,9.88,363861,,,Verified
CAR.AX,03-NOV-2015,,End Of Day,,9.94,10.02,9.86,9.98,354820,,,Verified
CAR.AX,04-NOV-2015,,End Of Day,,10.05,10.17,9.99,10.02,529956,,,Verified
CAR.AX,05-NOV-2015,,End Of Day,,10.01,10.09,9.85,9.98,441018,,,Verified
CAR.AX,06-NOV-2015,,End Of Day,,10,10.1,9.89,9.98,568193,,,Verified
CAR.AX,07-NOV-2015,,End Of Day,No Trades,,,,,,,,Verified
CAR.AX,08-NOV-2015,,End Of Day,No Trades,,,,,,,,Verified
CAR.AX,09-NOV-2015,,End Of Day,,9.94,10,9.75,9.8,524854,,,Verified
CAR.AX,10-NOV-2015,,End Of Day,,9.76,9.79,9.67,9.75,845508,,,Verified
CAR.AX,11-NOV-2015,,End Of Day,,9.7,9.76,9.61,9.65,560470,,,Verified
CAR.AX,12-NOV-2015,,End Of Day,,9.7,9.74,9.63,9.66,569380,,,Verified
CAR.AX,13-NOV-2015,,End Of Day,,9.6,9.8,9.53,9.78,785199,,,Verified
CAR.AX,14-NOV-2015,,End Of Day,No Trades,,,,,,,,Verified
CAR.AX,15-NOV-2015,,End Of Day,No Trades,,,,,,,,Verified
CAR.AX,16-NOV-2015,,End Of Day,,9.67,9.745,9.6,9.62,762683,,,Verified
CAR.AX,17-NOV-2015,,End Of Day,,9.69,9.89,9.65,9.89,552983,,,Verified
CAR.AX,18-NOV-2015,,End Of Day,,9.86,10.04,9.85,10.04,615303,,,Verified
CAR.AX,19-NOV-2015,,End Of Day,,10.06,10.21,10.05,10.21,840248,,,Verified
CAR.AX,20-NOV-2015,,End Of Day,,10.1,10.38,10.1,10.38,858806,,,Verified
CAR.AX,21-NOV-2015,,End Of Day,No Trades,,,,,,,,Verified
CAR.AX,22-NOV-2015,,End Of Day,No Trades,,,,,,,,Verified
CAR.AX,23-NOV-2015,,End Of Day,,10.38,10.44,10.31,10.37,1426899,,,Verified
CAR.AX,24-NOV-2015,,End Of Day,,10.15,10.34,10.15,10.25,590028,,,Verified
CAR.AX,25-NOV-2015,,End Of Day,,10.22,10.31,10.11,10.27,754723,,,Verified
CAR.AX,26-NOV-2015,,End Of Day,,10.26,10.41,10.25,10.3,750323,,,Verified
CAR.AX,27-NOV-2015,,End Of Day,,10.35,10.41,10.22,10.28,622302,,,Verified
CAR.AX,28-NOV-2015,,End Of Day,No Trades,,,,,,,,Verified
CAR.AX,29-NOV-2015,,End Of Day,No Trades,,,,,,,,Verified
CAR.AX,30-NOV-2015,,End Of Day,,10.28,10.36,10.24,10.27,836942,,,Verified
CAR.AX,01-DEC-2015,,End Of Day,,10.34,10.53,10.29,10.5,765461,,,Verified
CAR.AX,02-DEC-2015,,End Of Day,,10.52,10.52,10.26,10.37,1033415,,,Verified
CAR.AX,03-DEC-2015,,End Of Day,,10.3,10.51,10.29,10.5,921981,,,Verified
CAR.AX,04-DEC-2015,,End Of Day,,10.34,10.47,10.26,10.45,1155156,,,Verified
CAR.AX,05-DEC-2015,,End Of Day,No Trades,,,,,,,,Verified
CAR.AX,06-DEC-2015,,End Of Day,No Trades,,,,,,,,Verified
CAR.AX,07-DEC-2015,,End Of Day,,10.52,10.7,10.49,10.62,1179443,,,Verified
CAR.AX,08-DEC-2015,,End Of Day,,10.56,10.68,10.56,10.65,704887,,,Verified
CAR.AX,09-DEC-2015,,End Of Day,,10.6,10.71,10.58,10.7,3020982,,,Verified
CAR.AX,10-DEC-2015,,End Of Day,,10.69,10.88,10.62,10.88,3000589,,,Verified
CAR.AX,11-DEC-2015,,End Of Day,,10.86,10.94,10.71,10.84,1821104,,,Verified
CAR.AX,12-DEC-2015,,End Of Day,No Trades,,,,,,,,Verified
CAR.AX,13-DEC-2015,,End Of Day,No Trades,,,,,,,,Verified
CAR.AX,14-DEC-2015,,End Of Day,,10.76,10.935,10.72,10.89,1976393,,,Verified
CAR.AX,15-DEC-2015,,End Of Day,,10.9,11.17,10.87,11.14,1501618,,,Verified
CAR.AX,16-DEC-2015,,End Of Day,,11.12,11.23,11.08,11.23,1939498,,,Verified
CAR.AX,17-DEC-2015,,End Of Day,,11.6,11.76,11.45,11.62,2277265,,,Verified
CAR.AX,18-DEC-2015,,End Of Day,,11.43,11.52,11.14,11.15,1367245,,,Verified
CAR.AX,19-DEC-2015,,End Of Day,No Trades,,,,,,,,Verified
CAR.AX,20-DEC-2015,,End Of Day,No Trades,,,,,,,,Verified
CAR.AX,21-DEC-2015,,End Of Day,,11.16,11.23,11.05,11.13,866319,,,Verified
CAR.AX,22-DEC-2015,,End Of Day,,11.19,11.29,11.15,11.24,773793,,,Verified
CAR.AX,23-DEC-2015,,End Of Day,,11.35,11.37,11.24,11.31,403222,,,Verified
CAR.AX,24-DEC-2015,,End Of Day,,11.36,11.4,11.32,11.35,234070,,,Verified
CAR.AX,25-DEC-2015,,End Of Day,No Trades,,,,,,,,Verified
CAR.AX,26-DEC-2015,,End Of Day,No Trades,,,,,,,,Verified
CAR.AX,27-DEC-2015,,End Of Day,No Trades,,,,,,,,Verified
CAR.AX,28-DEC-2015,,End Of Day,No Trades,,,,,,,,Verified
CAR.AX,29-DEC-2015,,End Of Day,,11.4,11.64,11.28,11.64,635141,,,Verified
CAR.AX,30-DEC-2015,,End Of Day,,11.65,11.76,11.64,11.75,396399,,,Verified
CAR.AX,31-DEC-2015,,End Of Day,,11.75,11.79,11.66,11.68,218961,,,Verified
CAR.AX,01-JAN-2016,,End Of Day,No Trades,,,,,,,,Verified
CAR.AX,02-JAN-2016,,End Of Day,No Trades,,,,,,,,Verified
CAR.AX,03-JAN-2016,,End Of Day,No Trades,,,,,,,,Verified
CAR.AX,04-JAN-2016,,End Of Day,,11.68,11.78,11.65,11.74,384544,,,Verified
CAR.AX,05-JAN-2016,,End Of Day,,11.75,11.87,11.56,11.6,833585,,,Verified
CAR.AX,06-JAN-2016,,End Of Day,,11.58,11.75,11.29,11.37,2650521,,,Verified
CAR.AX,07-JAN-2016,,End Of Day,,11.37,11.41,11.08,11.39,2809824,,,Verified
CAR.AX,08-JAN-2016,,End Of Day,,11.33,11.35,11.2,11.3,742976,,,Verified
CAR.AX,09-JAN-2016,,End Of Day,No Trades,,,,,,,,Verified
CAR.AX,10-JAN-2016,,End Of Day,No Trades,,,,,,,,Verified
CAR.AX,11-JAN-2016,,End Of Day,,11.14,11.67,11.13,11.67,1267276,,,Verified
CAR.AX,12-JAN-2016,,End Of Day,,11.58,11.73,11.46,11.49,1493409,,,Verified
CAR.AX,13-JAN-2016,,End Of Day,,11.5,11.7,11.5,11.64,1086420,,,Verified
CAR.AX,14-JAN-2016,,End Of Day,,11.38,11.54,11.26,11.51,1141540,,,Verified
CAR.AX,15-JAN-2016,,End Of Day,,11.66,11.77,11.5,11.54,762229,,,Verified
CAR.AX,16-JAN-2016,,End Of Day,No Trades,,,,,,,,Verified
CAR.AX,17-JAN-2016,,End Of Day,No Trades,,,,,,,,Verified
CAR.AX,18-JAN-2016,,End Of Day,,11.36,11.42,11.27,11.42,841629,,,Verified
CAR.AX,19-JAN-2016,,End Of Day,,11.41,11.79,11.35,11.66,987901,,,Verified
CAR.AX,20-JAN-2016,,End Of Day,,11.59,11.69,11.29,11.31,2163546,,,Verified
CAR.AX,21-JAN-2016,,End Of Day,,11.6,11.6,11.31,11.35,1180475,,,Verified
CAR.AX,22-JAN-2016,,End Of Day,,11.38,11.52,11.29,11.37,1172715,,,Verified
CAR.AX,23-JAN-2016,,End Of Day,No Trades,,,,,,,,Verified
CAR.AX,24-JAN-2016,,End Of Day,No Trades,,,,,,,,Verified
CAR.AX,25-JAN-2016,,End Of Day,,11.41,11.5,11.21,11.32,1041957,,,Verified
CAR.AX,26-JAN-2016,,End Of Day,No Trades,,,,,,,,Verified
CAR.AX,27-JAN-2016,,End Of Day,,11.35,11.84,11.35,11.66,1393367,,,Verified
CAR.AX,28-JAN-2016,,End Of Day,,11.65,11.77,11.425,11.62,727369,,,Verified
CAR.AX,29-JAN-2016,,End Of Day,,11.62,11.83,11.605,11.83,913690,,,Verified
CAR.AX,30-JAN-2016,,End Of Day,No Trades,,,,,,,,Verified
CAR.AX,31-JAN-2016,,End Of Day,No Trades,,,,,,,,Verified
CAR.AX,01-FEB-2016,,End Of Day,,11.89,12.09,11.88,11.88,1044314,,,Verified
CAR.AX,02-FEB-2016,,End Of Day,,11.89,12.1,11.82,11.83,1060647,,,Verified
CAR.AX,03-FEB-2016,,End Of Day,,11.6,11.79,11.51,11.53,911740,,,Verified
CAR.AX,04-FEB-2016,,End Of Day,,11.57,11.65,11.28,11.3,1218231,,,Verified
CAR.AX,05-FEB-2016,,End Of Day,,11.3,11.46,11.15,11.36,1409511,,,Verified
CAR.AX,06-FEB-2016,,End Of Day,No Trades,,,,,,,,Verified
CAR.AX,07-FEB-2016,,End Of Day,No Trades,,,,,,,,Verified
CAR.AX,08-FEB-2016,,End Of Day,,11.32,11.38,11.1,11.29,987423,,,Verified
CAR.AX,09-FEB-2016,,End Of Day,,11.22,11.29,10.99,11.09,977385,,,Verified
CAR.AX,10-FEB-2016,,End Of Day,,10.6,10.86,10.51,10.71,3335534,,,Verified
CAR.AX,11-FEB-2016,,End Of Day,,10.82,11.06,10.78,11.04,2856706,,,Verified
CAR.AX,12-FEB-2016,,End Of Day,,11,11.1,10.87,10.87,1349625,,,Verified
CAR.AX,13-FEB-2016,,End Of Day,No Trades,,,,,,,,Verified
CAR.AX,14-FEB-2016,,End Of Day,No Trades,,,,,,,,Verified
CAR.AX,15-FEB-2016,,End Of Day,,10.98,11.15,10.89,11.07,982849,,,Verified
CAR.AX,16-FEB-2016,,End Of Day,,11.18,11.37,11.17,11.32,810799,,,Verified
CAR.AX,17-FEB-2016,,End Of Day,,11.41,11.58,11.29,11.44,794752,,,Verified
CAR.AX,18-FEB-2016,,End Of Day,,11.54,11.62,11.47,11.59,795145,,,Verified
CAR.AX,19-FEB-2016,,End Of Day,,11.51,11.68,11.5,11.65,844259,,,Verified
CAR.AX,20-FEB-2016,,End Of Day,No Trades,,,,,,,,Verified
CAR.AX,21-FEB-2016,,End Of Day,No Trades,,,,,,,,Verified
CAR.AX,22-FEB-2016,,End Of Day,,11.66,11.86,11.61,11.81,565143,,,Verified
CAR.AX,23-FEB-2016,,End Of Day,,11.83,11.96,11.82,11.96,721747,,,Verified
CAR.AX,24-FEB-2016,,End Of Day,,11.9,11.975,11.69,11.76,758447,,,Verified
CAR.AX,25-FEB-2016,,End Of Day,,11.86,11.99,11.785,11.88,677659,,,Verified
CAR.AX,26-FEB-2016,,End Of Day,,11.92,12.14,11.86,11.89,1163406,,,Verified
CAR.AX,27-FEB-2016,,End Of Day,No Trades,,,,,,,,Verified
CAR.AX,28-FEB-2016,,End Of Day,No Trades,,,,,,,,Verified
CAR.AX,29-FEB-2016,,End Of Day,,11.92,12.01,11.51,11.65,1110611,,,Verified
CAR.AX,01-MAR-2016,,End Of Day,,11.61,11.9,11.61,11.75,1089259,,,Verified
CAR.AX,02-MAR-2016,,End Of Day,,11.84,12.035,11.82,11.82,645338,,,Verified
CAR.AX,03-MAR-2016,,End Of Day,,11.82,11.94,11.67,11.77,665330,,,Verified
CAR.AX,04-MAR-2016,,End Of Day,,11.8,12.09,11.8,11.96,1104703,,,Verified
CAR.AX,05-MAR-2016,,End Of Day,No Trades,,,,,,,,Verified
CAR.AX,06-MAR-2016,,End Of Day,No Trades,,,,,,,,Verified
CAR.AX,07-MAR-2016,,End Of Day,,12.08,12.14,11.62,11.62,2427154,,,Verified
CAR.AX,08-MAR-2016,,End Of Day,,11.72,12.1,11.39,11.48,1109141,,,Verified
CAR.AX,09-MAR-2016,,End Of Day,,11.4,11.8,11.4,11.68,1186391,,,Verified
CAR.AX,10-MAR-2016,,End Of Day,,11.69,11.75,11.5,11.62,850813,,,Verified
CAR.AX,11-MAR-2016,,End Of Day,,11.69,11.7,11.45,11.56,868916,,,Verified
CAR.AX,12-MAR-2016,,End Of Day,No Trades,,,,,,,,Verified
CAR.AX,13-MAR-2016,,End Of Day,No Trades,,,,,,,,Verified
CAR.AX,14-MAR-2016,,End Of Day,,11.62,11.7,11.46,11.63,639082,,,Verified
CAR.AX,15-MAR-2016,,End Of Day,,11.58,11.75,11.48,11.5,638685,,,Verified
CAR.AX,16-MAR-2016,,End Of Day,,11.49,11.75,11.44,11.6,740252,,,Verified
CAR.AX,17-MAR-2016,,End Of Day,,11.7,11.92,11.65,11.9,1133544,,,Verified
CAR.AX,18-MAR-2016,,End Of Day,,11.95,11.99,11.73,11.86,1035768,,,Verified
CAR.AX,19-MAR-2016,,End Of Day,No Trades,,,,,,,,Verified
CAR.AX,20-MAR-2016,,End Of Day,No Trades,,,,,,,,Verified
CAR.AX,21-MAR-2016,,End Of Day,,11.86,11.94,11.72,11.74,309927,,,Verified
CAR.AX,22-MAR-2016,,End Of Day,,11.82,12.05,11.72,12,577945,,,Verified
CAR.AX,23-MAR-2016,,End Of Day,,11.8,11.8,11.54,11.69,721453,,,Verified
CAR.AX,24-MAR-2016,,End Of Day,,11.65,11.98,11.65,11.94,480413,,,Verified
CAR.AX,25-MAR-2016,,End Of Day,No Trades,,,,,,,,Verified
CAR.AX,26-MAR-2016,,End Of Day,No Trades,,,,,,,,Verified
CAR.AX,27-MAR-2016,,End Of Day,No Trades,,,,,,,,Verified
CAR.AX,28-MAR-2016,,End Of Day,No Trades,,,,,,,,Verified
CAR.AX,29-MAR-2016,,End Of Day,,11.99,12,11.51,11.61,763829,,,Verified
CAR.AX,30-MAR-2016,,End Of Day,,11.69,11.84,11.58,11.6,825836,,,Verified
CAR.AX,31-MAR-2016,,End Of Day,,11.78,11.87,11.69,11.76,1535972,,,Verified
CAR.AX,01-APR-2016,,End Of Day,,11.64,11.68,11.47,11.6,897092,,,Verified
CAR.AX,02-APR-2016,,End Of Day,No Trades,,,,,,,,Verified
CAR.AX,03-APR-2016,,End Of Day,No Trades,,,,,,,,Verified
CAR.AX,04-APR-2016,,End Of Day,,11.59,11.85,11.59,11.68,511099,,,Verified
CAR.AX,05-APR-2016,,End Of Day,,11.67,11.72,11.5,11.53,624670,,,Verified
CAR.AX,06-APR-2016,,End Of Day,,11.51,11.7,11.47,11.66,499321,,,Verified
CAR.AX,07-APR-2016,,End Of Day,,11.72,11.77,11.55,11.61,386498,,,Verified
CAR.AX,08-APR-2016,,End Of Day,,11.47,11.5,11.34,11.38,615727,,,Verified
CAR.AX,09-APR-2016,,End Of Day,No Trades,,,,,,,,Verified
CAR.AX,10-APR-2016,,End Of Day,No Trades,,,,,,,,Verified
CAR.AX,11-APR-2016,,End Of Day,,11.37,11.395,11.235,11.29,805146,,,Verified
CAR.AX,12-APR-2016,,End Of Day,,11.23,11.37,11.16,11.3,769510,,,Verified
CAR.AX,13-APR-2016,,End Of Day,,11.35,11.67,11.3,11.51,937260,,,Verified
CAR.AX,14-APR-2016,,End Of Day,,11.57,11.585,11.35,11.4,829683,,,Verified
CAR.AX,15-APR-2016,,End Of Day,,11.45,11.7,11.4,11.7,622237,,,Verified
CAR.AX,16-APR-2016,,End Of Day,No Trades,,,,,,,,Verified
CAR.AX,17-APR-2016,,End Of Day,No Trades,,,,,,,,Verified
CAR.AX,18-APR-2016,,End Of Day,,11.68,11.85,11.59,11.79,812521,,,Verified
CAR.AX,19-APR-2016,,End Of Day,,11.88,12,11.85,12,838225,,,Verified
CAR.AX,20-APR-2016,,End Of Day,,11.98,11.98,11.86,11.98,454221,,,Verified
CAR.AX,21-APR-2016,,End Of Day,,12.09,12.11,11.85,11.89,1639239,,,Verified
CAR.AX,22-APR-2016,,End Of Day,,11.88,12.03,11.71,11.78,836061,,,Verified
CAR.AX,23-APR-2016,,End Of Day,No Trades,,,,,,,,Verified
CAR.AX,24-APR-2016,,End Of Day,No Trades,,,,,,,,Verified
CAR.AX,25-APR-2016,,End Of Day,No Trades,,,,,,,,Verified
CAR.AX,26-APR-2016,,End Of Day,,11.8,11.94,11.61,11.74,1127007,,,Verified
CAR.AX,27-APR-2016,,End Of Day,,11.83,11.85,11.64,11.71,1357796,,,Verified
CAR.AX,28-APR-2016,,End Of Day,,11.84,11.88,11.73,11.86,591644,,,Verified
CAR.AX,29-APR-2016,,End Of Day,,11.87,11.87,11.65,11.76,631619,,,Verified
CAR.AX,30-APR-2016,,End Of Day,No Trades,,,,,,,,Verified
CAR.AX,01-MAY-2016,,End Of Day,No Trades,,,,,,,,Verified
CAR.AX,02-MAY-2016,,End Of Day,,11.64,11.91,11.64,11.91,590822,,,Verified
CAR.AX,03-MAY-2016,,End Of Day,,11.91,12.27,11.86,12.2,1151370,,,Verified
CAR.AX,04-MAY-2016,,End Of Day,,12.17,12.33,12.04,12.07,753621,,,Verified
CAR.AX,05-MAY-2016,,End Of Day,,12.08,12.14,11.99,12.07,516012,,,Verified
CAR.AX,06-MAY-2016,,End Of Day,,12.02,12.73,11.93,12.73,1339613,,,Verified
CAR.AX,07-MAY-2016,,End Of Day,No Trades,,,,,,,,Verified
CAR.AX,08-MAY-2016,,End Of Day,No Trades,,,,,,,,Verified
CAR.AX,09-MAY-2016,,End Of Day,,12.72,12.83,12.47,12.65,685524,,,Verified
CAR.AX,10-MAY-2016,,End Of Day,,12.65,12.81,12.6,12.64,656373,,,Verified
CAR.AX,11-MAY-2016,,End Of Day,,12.8,12.86,12.62,12.65,1043553,,,Verified
