{
"Name": "Trade Me Group Ltd (TME.AX)",
"Market Cap (intraday)": "1.74B",
"Enterprise Value (28/05/2016)": "1.80B",
"Trailing P/E (ttm, intraday):": "32.04",
"Forward P/E (fye 30/06/2017)": "19.09",
"PEG Ratio (5 yr expected)": "3.63",
"Price/Sales (ttm):": "12.16",
"Price/Book (mrq):": "3.64",
"Enterprise Value/Revenue (ttm)": "12.77",
"Enterprise Value/EBITDA (ttm)": "21.11",
"Fiscal Year Ends:": "30 Jun",
"Most Recent Quarter (mrq):": "31/12/2015",
"Profit Margin (ttm):": "38.52%",
"Operating Margin (ttm):": "57.99%",
"Return on Assets (ttm):": "8.59%",
"Return on Equity (ttm):": "11.67%",
"Revenue (ttm):": "141.31M",
"Revenue Per Share (ttm):": "0.36",
"Qtrly Revenue Growth (yoy):": "8.90%",
"Gross Profit (ttm):": "156.00M",
"EBITDA (ttm)": "85.47M",
"Net Income Avl to Common (ttm):": "54.44M",
"Diluted EPS (ttm):": "0.14",
"Qtrly Earnings Growth (yoy):": "0.30%",
"Total Cash (mrq):": "32.04M",
"Total Cash Per Share (mrq):": "0.08",
"Total Debt (mrq):": "113.29M",
"Total Debt/Equity (mrq):": "24.01",
"Current Ratio (mrq):": "2.51",
"Book Value Per Share (mrq):": "1.19",
"Operating Cash Flow (ttm):": "78.80M",
"Levered Free Cash Flow (ttm):": "44.29M",
"Beta:": "N/A",
"52-Week Change": "26.51%",
"S&P500 52-Week Change": "-0.60%",
"52-Week High (06/05/2016)": "4.42",
"52-Week Low (17/08/2015)": "2.68",
"50-Day Moving Average": "4.17",
"200-Day Moving Average": "3.89",
"Avg Vol (3 month)": "949,484",
"Avg Vol (10 day)": "1,016,390",
"Shares Outstanding": "396.98M",
"Float:": "396.22M",
"% Held by Insiders": "N/A",
"% Held by Institutions": "N/A",
"Shares Short ": "N/A",
"Short Ratio ": "N/A",
"Short % of Float ": "N/A",
"Shares Short (prior month)": "N/A",
"Forward Annual Dividend Rate": "N/A",
"Forward Annual Dividend Yield": "N/A",
"Trailing Annual Dividend Yield": "0.14",
"Trailing Annual Dividend Yield": "3.30%",
"5 Year Average Dividend Yield": "N/A",
"Payout Ratio": "N/A",
"Dividend Date": "N/A",
"Ex-Dividend Date": "N/A",
"Last Split Factor (new per old)": "N/A",
"Last Split Date": "N/A"
}
