#RIC,Date[L],Time[L],Type,Qualifiers,Open,High,Low,Last,Volume,Open Interest,Settle,Data Source
AZJ.AX,01-JAN-2014,,End Of Day,No Trades,,,,,,,,Verified
AZJ.AX,02-JAN-2014,,End Of Day,,4.87,4.97,4.87,4.92,2137929,,,Verified
AZJ.AX,03-JAN-2014,,End Of Day,,4.93,4.93,4.865,4.92,1867261,,,Verified
AZJ.AX,04-JAN-2014,,End Of Day,No Trades,,,,,,,,Verified
AZJ.AX,05-JAN-2014,,End Of Day,No Trades,,,,,,,,Verified
AZJ.AX,06-JAN-2014,,End Of Day,,4.94,4.94,4.83,4.85,1684844,,,Verified
AZJ.AX,07-JAN-2014,,End Of Day,,4.9,4.92,4.875,4.9,2534676,,,Verified
AZJ.AX,08-JAN-2014,,End Of Day,,4.9,4.92,4.84,4.89,2649896,,,Verified
AZJ.AX,09-JAN-2014,,End Of Day,,4.93,4.935,4.865,4.91,3421863,,,Verified
AZJ.AX,10-JAN-2014,,End Of Day,,4.93,4.93,4.88,4.9,1749528,,,Verified
AZJ.AX,11-JAN-2014,,End Of Day,No Trades,,,,,,,,Verified
AZJ.AX,12-JAN-2014,,End Of Day,No Trades,,,,,,,,Verified
AZJ.AX,13-JAN-2014,,End Of Day,,4.9,4.91,4.845,4.86,1596500,,,Verified
AZJ.AX,14-JAN-2014,,End Of Day,,4.83,4.845,4.79,4.81,5074761,,,Verified
AZJ.AX,15-JAN-2014,,End Of Day,,4.83,4.89,4.82,4.86,2785026,,,Verified
AZJ.AX,16-JAN-2014,,End Of Day,,4.88,4.97,4.88,4.97,4539538,,,Verified
AZJ.AX,17-JAN-2014,,End Of Day,,4.95,4.955,4.91,4.95,2128515,,,Verified
AZJ.AX,18-JAN-2014,,End Of Day,No Trades,,,,,,,,Verified
AZJ.AX,19-JAN-2014,,End Of Day,No Trades,,,,,,,,Verified
AZJ.AX,20-JAN-2014,,End Of Day,,4.92,4.95,4.88,4.93,2718939,,,Verified
AZJ.AX,21-JAN-2014,,End Of Day,,4.94,5.02,4.91,4.99,2904446,,,Verified
AZJ.AX,22-JAN-2014,,End Of Day,,4.99,5.02,4.96,5.01,5046630,,,Verified
AZJ.AX,23-JAN-2014,,End Of Day,,5,5.075,4.99,5.06,7231687,,,Verified
AZJ.AX,24-JAN-2014,,End Of Day,,5.01,5.08,4.985,5.02,4266254,,,Verified
AZJ.AX,25-JAN-2014,,End Of Day,No Trades,,,,,,,,Verified
AZJ.AX,26-JAN-2014,,End Of Day,No Trades,,,,,,,,Verified
AZJ.AX,27-JAN-2014,,End Of Day,No Trades,,,,,,,,Verified
AZJ.AX,28-JAN-2014,,End Of Day,,4.95,5.04,4.92,5,6210270,,,Verified
AZJ.AX,29-JAN-2014,,End Of Day,,5.01,5.02,4.92,4.97,4594376,,,Verified
AZJ.AX,30-JAN-2014,,End Of Day,,4.9,4.94,4.87,4.91,5565463,,,Verified
AZJ.AX,31-JAN-2014,,End Of Day,,4.96,5,4.9,4.92,3141571,,,Verified
AZJ.AX,01-FEB-2014,,End Of Day,No Trades,,,,,,,,Verified
AZJ.AX,02-FEB-2014,,End Of Day,No Trades,,,,,,,,Verified
AZJ.AX,03-FEB-2014,,End Of Day,,4.97,4.98,4.92,4.92,2005094,,,Verified
AZJ.AX,04-FEB-2014,,End Of Day,,4.84,4.87,4.82,4.82,6241029,,,Verified
AZJ.AX,05-FEB-2014,,End Of Day,,4.85,4.85,4.755,4.77,5668137,,,Verified
AZJ.AX,06-FEB-2014,,End Of Day,,4.77,4.8,4.75,4.78,4004686,,,Verified
AZJ.AX,07-FEB-2014,,End Of Day,,4.81,4.88,4.78,4.87,3676555,,,Verified
AZJ.AX,08-FEB-2014,,End Of Day,No Trades,,,,,,,,Verified
AZJ.AX,09-FEB-2014,,End Of Day,No Trades,,,,,,,,Verified
AZJ.AX,10-FEB-2014,,End Of Day,,4.89,4.91,4.87,4.9,2521546,,,Verified
AZJ.AX,11-FEB-2014,,End Of Day,,4.93,4.96,4.88,4.92,2674080,,,Verified
AZJ.AX,12-FEB-2014,,End Of Day,,4.95,5.02,4.95,4.99,6444451,,,Verified
AZJ.AX,13-FEB-2014,,End Of Day,,5,5.05,4.98,5,3213302,,,Verified
AZJ.AX,14-FEB-2014,,End Of Day,,5.05,5.1,5.02,5.1,5183726,,,Verified
AZJ.AX,15-FEB-2014,,End Of Day,No Trades,,,,,,,,Verified
AZJ.AX,16-FEB-2014,,End Of Day,No Trades,,,,,,,,Verified
AZJ.AX,17-FEB-2014,,End Of Day,,5.2,5.255,5.14,5.19,7494267,,,Verified
AZJ.AX,18-FEB-2014,,End Of Day,,5.15,5.17,5.08,5.1,6760343,,,Verified
AZJ.AX,19-FEB-2014,,End Of Day,,5.1,5.1,5.055,5.08,5370838,,,Verified
AZJ.AX,20-FEB-2014,,End Of Day,,5.05,5.105,5.015,5.04,9121295,,,Verified
AZJ.AX,21-FEB-2014,,End Of Day,,5.07,5.12,5.07,5.1,8809562,,,Verified
AZJ.AX,22-FEB-2014,,End Of Day,No Trades,,,,,,,,Verified
AZJ.AX,23-FEB-2014,,End Of Day,No Trades,,,,,,,,Verified
AZJ.AX,24-FEB-2014,,End Of Day,,5.08,5.17,5.07,5.14,4384147,,,Verified
AZJ.AX,25-FEB-2014,,End Of Day,,5.19,5.19,5.115,5.14,2752731,,,Verified
AZJ.AX,26-FEB-2014,,End Of Day,,5.15,5.17,5.12,5.13,3099286,,,Verified
AZJ.AX,27-FEB-2014,,End Of Day,,5.07,5.15,5.04,5.15,8393797,,,Verified
AZJ.AX,28-FEB-2014,,End Of Day,,5.15,5.15,5.075,5.09,5455252,,,Verified
AZJ.AX,01-MAR-2014,,End Of Day,No Trades,,,,,,,,Verified
AZJ.AX,02-MAR-2014,,End Of Day,No Trades,,,,,,,,Verified
AZJ.AX,03-MAR-2014,,End Of Day,,5.08,5.14,5.04,5.13,12993688,,,Verified
AZJ.AX,04-MAR-2014,,End Of Day,,5.13,5.185,5.11,5.16,5736002,,,Verified
AZJ.AX,05-MAR-2014,,End Of Day,,5.15,5.21,5.14,5.17,6090102,,,Verified
AZJ.AX,06-MAR-2014,,End Of Day,,5.16,5.23,5.15,5.22,5485280,,,Verified
AZJ.AX,07-MAR-2014,,End Of Day,,5.19,5.245,5.19,5.2,2841703,,,Verified
AZJ.AX,08-MAR-2014,,End Of Day,No Trades,,,,,,,,Verified
AZJ.AX,09-MAR-2014,,End Of Day,No Trades,,,,,,,,Verified
AZJ.AX,10-MAR-2014,,End Of Day,,5.2,5.235,5.19,5.22,5260662,,,Verified
AZJ.AX,11-MAR-2014,,End Of Day,,5.23,5.25,5.2,5.21,2927753,,,Verified
AZJ.AX,12-MAR-2014,,End Of Day,,5.2,5.21,5.1,5.14,4220844,,,Verified
AZJ.AX,13-MAR-2014,,End Of Day,,5.15,5.2,5.13,5.16,6045936,,,Verified
AZJ.AX,14-MAR-2014,,End Of Day,,5.12,5.16,5.11,5.12,3459234,,,Verified
AZJ.AX,15-MAR-2014,,End Of Day,No Trades,,,,,,,,Verified
AZJ.AX,16-MAR-2014,,End Of Day,No Trades,,,,,,,,Verified
AZJ.AX,17-MAR-2014,,End Of Day,,5.09,5.12,5.08,5.11,3308875,,,Verified
AZJ.AX,18-MAR-2014,,End Of Day,,5.14,5.16,5.11,5.13,3191664,,,Verified
AZJ.AX,19-MAR-2014,,End Of Day,,5.12,5.16,5.1,5.16,6286443,,,Verified
AZJ.AX,20-MAR-2014,,End Of Day,,5.13,5.135,5.07,5.07,11415520,,,Verified
AZJ.AX,21-MAR-2014,,End Of Day,,5.1,5.13,5.045,5.13,4686607,,,Verified
AZJ.AX,22-MAR-2014,,End Of Day,No Trades,,,,,,,,Verified
AZJ.AX,23-MAR-2014,,End Of Day,No Trades,,,,,,,,Verified
AZJ.AX,24-MAR-2014,,End Of Day,,5.13,5.13,5.065,5.11,2973766,,,Verified
AZJ.AX,25-MAR-2014,,End Of Day,,5.07,5.09,5.045,5.07,4179730,,,Verified
AZJ.AX,26-MAR-2014,,End Of Day,,5.1,5.145,5.09,5.11,4724437,,,Verified
AZJ.AX,27-MAR-2014,,End Of Day,,5.07,5.08,5.03,5.06,4166409,,,Verified
AZJ.AX,28-MAR-2014,,End Of Day,,5.05,5.14,5.04,5.12,4766959,,,Verified
AZJ.AX,29-MAR-2014,,End Of Day,No Trades,,,,,,,,Verified
AZJ.AX,30-MAR-2014,,End Of Day,No Trades,,,,,,,,Verified
AZJ.AX,31-MAR-2014,,End Of Day,,5.14,5.175,5.135,5.14,2452475,,,Verified
AZJ.AX,01-APR-2014,,End Of Day,,5.16,5.16,5.06,5.09,6317116,,,Verified
AZJ.AX,02-APR-2014,,End Of Day,,5.13,5.17,5.12,5.15,3020744,,,Verified
AZJ.AX,03-APR-2014,,End Of Day,,5.17,5.18,5.15,5.17,1922623,,,Verified
AZJ.AX,04-APR-2014,,End Of Day,,5.18,5.215,5.16,5.19,3045382,,,Verified
AZJ.AX,05-APR-2014,,End Of Day,No Trades,,,,,,,,Verified
AZJ.AX,06-APR-2014,,End Of Day,No Trades,,,,,,,,Verified
AZJ.AX,07-APR-2014,,End Of Day,,5.16,5.19,5.15,5.17,1783999,,,Verified
AZJ.AX,08-APR-2014,,End Of Day,,5.17,5.18,5.08,5.08,2882589,,,Verified
AZJ.AX,09-APR-2014,,End Of Day,,5.11,5.125,5.09,5.09,6359919,,,Verified
AZJ.AX,10-APR-2014,,End Of Day,,5.13,5.19,5.13,5.14,4720094,,,Verified
AZJ.AX,11-APR-2014,,End Of Day,,5.13,5.16,5.085,5.1,6001907,,,Verified
AZJ.AX,12-APR-2014,,End Of Day,No Trades,,,,,,,,Verified
AZJ.AX,13-APR-2014,,End Of Day,No Trades,,,,,,,,Verified
AZJ.AX,14-APR-2014,,End Of Day,,5.09,5.11,5.06,5.06,6636519,,,Verified
AZJ.AX,15-APR-2014,,End Of Day,,5.06,5.1,5.055,5.07,4599335,,,Verified
AZJ.AX,16-APR-2014,,End Of Day,,5.07,5.14,5.05,5.1,2544112,,,Verified
AZJ.AX,17-APR-2014,,End Of Day,,5.11,5.15,5.11,5.14,2832874,,,Verified
AZJ.AX,18-APR-2014,,End Of Day,No Trades,,,,,,,,Verified
AZJ.AX,19-APR-2014,,End Of Day,No Trades,,,,,,,,Verified
AZJ.AX,20-APR-2014,,End Of Day,No Trades,,,,,,,,Verified
AZJ.AX,21-APR-2014,,End Of Day,No Trades,,,,,,,,Verified
AZJ.AX,22-APR-2014,,End Of Day,,5.17,5.21,5.145,5.16,2949767,,,Verified
AZJ.AX,23-APR-2014,,End Of Day,,5.19,5.22,5.175,5.21,10900004,,,Verified
AZJ.AX,24-APR-2014,,End Of Day,,5.22,5.22,5.17,5.19,5525437,,,Verified
AZJ.AX,25-APR-2014,,End Of Day,No Trades,,,,,,,,Verified
AZJ.AX,26-APR-2014,,End Of Day,No Trades,,,,,,,,Verified
AZJ.AX,27-APR-2014,,End Of Day,No Trades,,,,,,,,Verified
AZJ.AX,28-APR-2014,,End Of Day,,5.21,5.23,5.19,5.21,3215343,,,Verified
AZJ.AX,29-APR-2014,,End Of Day,,5.24,5.265,5.16,5.17,5254175,,,Verified
AZJ.AX,30-APR-2014,,End Of Day,,5.17,5.2,5.16,5.18,6654376,,,Verified
AZJ.AX,01-MAY-2014,,End Of Day,,5.18,5.2,5.13,5.14,3568411,,,Verified
AZJ.AX,02-MAY-2014,,End Of Day,,5.14,5.185,5.13,5.17,3355031,,,Verified
AZJ.AX,03-MAY-2014,,End Of Day,No Trades,,,,,,,,Verified
AZJ.AX,04-MAY-2014,,End Of Day,No Trades,,,,,,,,Verified
AZJ.AX,05-MAY-2014,,End Of Day,,5.05,5.07,4.85,4.92,19525143,,,Verified
AZJ.AX,06-MAY-2014,,End Of Day,,4.94,4.97,4.91,4.91,9485923,,,Verified
AZJ.AX,07-MAY-2014,,End Of Day,,4.85,4.905,4.845,4.88,12259137,,,Verified
AZJ.AX,08-MAY-2014,,End Of Day,,4.94,4.97,4.85,4.88,9340650,,,Verified
AZJ.AX,09-MAY-2014,,End Of Day,,4.88,4.9,4.845,4.87,4138112,,,Verified
AZJ.AX,10-MAY-2014,,End Of Day,No Trades,,,,,,,,Verified
AZJ.AX,11-MAY-2014,,End Of Day,No Trades,,,,,,,,Verified
AZJ.AX,12-MAY-2014,,End Of Day,,4.87,4.91,4.85,4.9,4122373,,,Verified
AZJ.AX,13-MAY-2014,,End Of Day,,4.98,4.99,4.92,4.94,5365855,,,Verified
AZJ.AX,14-MAY-2014,,End Of Day,,4.95,4.98,4.94,4.95,2982679,,,Verified
AZJ.AX,15-MAY-2014,,End Of Day,,5,5.025,4.95,4.99,5919828,,,Verified
AZJ.AX,16-MAY-2014,,End Of Day,,4.97,5.02,4.96,5.01,5988851,,,Verified
AZJ.AX,17-MAY-2014,,End Of Day,No Trades,,,,,,,,Verified
AZJ.AX,18-MAY-2014,,End Of Day,No Trades,,,,,,,,Verified
AZJ.AX,19-MAY-2014,,End Of Day,,5,5.01,4.9,4.9,6898271,,,Verified
AZJ.AX,20-MAY-2014,,End Of Day,,4.94,4.94,4.85,4.9,3175351,,,Verified
AZJ.AX,21-MAY-2014,,End Of Day,,4.9,4.91,4.86,4.9,4534747,,,Verified
AZJ.AX,22-MAY-2014,,End Of Day,,4.91,4.96,4.895,4.92,5298807,,,Verified
AZJ.AX,23-MAY-2014,,End Of Day,,4.9,4.93,4.89,4.89,2043796,,,Verified
AZJ.AX,24-MAY-2014,,End Of Day,No Trades,,,,,,,,Verified
AZJ.AX,25-MAY-2014,,End Of Day,No Trades,,,,,,,,Verified
AZJ.AX,26-MAY-2014,,End Of Day,,4.92,4.94,4.89,4.94,2591996,,,Verified
AZJ.AX,27-MAY-2014,,End Of Day,,4.91,4.945,4.855,4.92,4584613,,,Verified
AZJ.AX,28-MAY-2014,,End Of Day,,4.98,5,4.935,4.94,2723425,,,Verified
AZJ.AX,29-MAY-2014,,End Of Day,,4.94,4.945,4.9,4.94,2574362,,,Verified
AZJ.AX,30-MAY-2014,,End Of Day,,4.97,4.97,4.9,4.94,12494369,,,Verified
AZJ.AX,31-MAY-2014,,End Of Day,No Trades,,,,,,,,Verified
AZJ.AX,01-JUN-2014,,End Of Day,No Trades,,,,,,,,Verified
AZJ.AX,02-JUN-2014,,End Of Day,,4.94,4.94,4.905,4.94,3951020,,,Verified
AZJ.AX,03-JUN-2014,,End Of Day,,4.95,4.965,4.9,4.9,5298719,,,Verified
AZJ.AX,04-JUN-2014,,End Of Day,,4.92,4.94,4.9,4.91,3411206,,,Verified
AZJ.AX,05-JUN-2014,,End Of Day,,4.91,4.94,4.89,4.91,3229880,,,Verified
AZJ.AX,06-JUN-2014,,End Of Day,,4.91,4.97,4.91,4.96,2975974,,,Verified
AZJ.AX,07-JUN-2014,,End Of Day,No Trades,,,,,,,,Verified
AZJ.AX,08-JUN-2014,,End Of Day,No Trades,,,,,,,,Verified
AZJ.AX,09-JUN-2014,,End Of Day,No Trades,,,,,,,,Verified
AZJ.AX,10-JUN-2014,,End Of Day,,4.98,4.99,4.875,4.88,4059990,,,Verified
AZJ.AX,11-JUN-2014,,End Of Day,,4.88,4.88,4.79,4.82,6925640,,,Verified
AZJ.AX,12-JUN-2014,,End Of Day,,4.81,4.835,4.745,4.8,9447675,,,Verified
AZJ.AX,13-JUN-2014,,End Of Day,,4.77,4.91,4.77,4.9,7817489,,,Verified
AZJ.AX,14-JUN-2014,,End Of Day,No Trades,,,,,,,,Verified
AZJ.AX,15-JUN-2014,,End Of Day,No Trades,,,,,,,,Verified
AZJ.AX,16-JUN-2014,,End Of Day,,4.9,4.92,4.81,4.92,14878271,,,Verified
AZJ.AX,17-JUN-2014,,End Of Day,,4.94,4.97,4.87,4.89,6663060,,,Verified
AZJ.AX,18-JUN-2014,,End Of Day,,4.88,4.9,4.83,4.84,5837238,,,Verified
AZJ.AX,19-JUN-2014,,End Of Day,,4.93,4.97,4.89,4.96,7140302,,,Verified
AZJ.AX,20-JUN-2014,,End Of Day,,4.95,4.98,4.94,4.96,4422716,,,Verified
AZJ.AX,21-JUN-2014,,End Of Day,No Trades,,,,,,,,Verified
AZJ.AX,22-JUN-2014,,End Of Day,No Trades,,,,,,,,Verified
AZJ.AX,23-JUN-2014,,End Of Day,,4.98,5.035,4.95,5,3590452,,,Verified
AZJ.AX,24-JUN-2014,,End Of Day,,5,5.01,4.96,5,3551901,,,Verified
AZJ.AX,25-JUN-2014,,End Of Day,,4.99,5.01,4.91,4.96,6003315,,,Verified
AZJ.AX,26-JUN-2014,,End Of Day,,4.96,5.06,4.96,5.06,7024270,,,Verified
AZJ.AX,27-JUN-2014,,End Of Day,,5.07,5.12,5.02,5.04,81382960,,,Verified
AZJ.AX,28-JUN-2014,,End Of Day,No Trades,,,,,,,,Verified
AZJ.AX,29-JUN-2014,,End Of Day,No Trades,,,,,,,,Verified
AZJ.AX,30-JUN-2014,,End Of Day,,5.01,5.02,4.98,4.98,4307000,,,Verified
AZJ.AX,01-JUL-2014,,End Of Day,,5,5.02,4.97,4.98,24665153,,,Verified
AZJ.AX,02-JUL-2014,,End Of Day,,5.01,5.06,5.01,5.05,3964781,,,Verified
AZJ.AX,03-JUL-2014,,End Of Day,,5.08,5.11,5.05,5.08,4162843,,,Verified
AZJ.AX,04-JUL-2014,,End Of Day,,5.13,5.13,5.065,5.08,3762734,,,Verified
AZJ.AX,05-JUL-2014,,End Of Day,No Trades,,,,,,,,Verified
AZJ.AX,06-JUL-2014,,End Of Day,No Trades,,,,,,,,Verified
AZJ.AX,07-JUL-2014,,End Of Day,,5.08,5.09,5.06,5.06,2615114,,,Verified
AZJ.AX,08-JUL-2014,,End Of Day,,5.07,5.075,5.025,5.05,5580909,,,Verified
AZJ.AX,09-JUL-2014,,End Of Day,,5.03,5.04,4.96,4.98,4773129,,,Verified
AZJ.AX,10-JUL-2014,,End Of Day,,5.04,5.04,4.98,5.02,6051862,,,Verified
AZJ.AX,11-JUL-2014,,End Of Day,,4.99,5.04,4.97,5.03,4408772,,,Verified
AZJ.AX,12-JUL-2014,,End Of Day,No Trades,,,,,,,,Verified
AZJ.AX,13-JUL-2014,,End Of Day,No Trades,,,,,,,,Verified
AZJ.AX,14-JUL-2014,,End Of Day,,5.06,5.08,5.01,5.03,3773926,,,Verified
AZJ.AX,15-JUL-2014,,End Of Day,,5.06,5.07,5.02,5.04,2041955,,,Verified
AZJ.AX,16-JUL-2014,,End Of Day,,5.05,5.06,5.015,5.04,3232205,,,Verified
AZJ.AX,17-JUL-2014,,End Of Day,,5.06,5.09,5.03,5.03,3828659,,,Verified
AZJ.AX,18-JUL-2014,,End Of Day,,5.01,5.045,5.01,5.04,4526229,,,Verified
AZJ.AX,19-JUL-2014,,End Of Day,No Trades,,,,,,,,Verified
AZJ.AX,20-JUL-2014,,End Of Day,No Trades,,,,,,,,Verified
AZJ.AX,21-JUL-2014,,End Of Day,,5.08,5.08,5.035,5.05,3585584,,,Verified
AZJ.AX,22-JUL-2014,,End Of Day,,5.03,5.04,5,5.02,3570655,,,Verified
AZJ.AX,23-JUL-2014,,End Of Day,,5.04,5.06,5.03,5.05,3245156,,,Verified
AZJ.AX,24-JUL-2014,,End Of Day,,5.05,5.065,5.03,5.05,3014065,,,Verified
AZJ.AX,25-JUL-2014,,End Of Day,,5.04,5.055,5.01,5.04,3452817,,,Verified
AZJ.AX,26-JUL-2014,,End Of Day,No Trades,,,,,,,,Verified
AZJ.AX,27-JUL-2014,,End Of Day,No Trades,,,,,,,,Verified
AZJ.AX,28-JUL-2014,,End Of Day,,5.01,5.04,4.995,5.03,1442171,,,Verified
AZJ.AX,29-JUL-2014,,End Of Day,,5.01,5.04,5,5.04,2468953,,,Verified
AZJ.AX,30-JUL-2014,,End Of Day,,5.03,5.05,5.01,5.04,5350080,,,Verified
AZJ.AX,31-JUL-2014,,End Of Day,,5.03,5.04,5.01,5.02,4034711,,,Verified
AZJ.AX,01-AUG-2014,,End Of Day,,5.03,5.03,4.98,5.02,4051889,,,Verified
AZJ.AX,02-AUG-2014,,End Of Day,No Trades,,,,,,,,Verified
AZJ.AX,03-AUG-2014,,End Of Day,No Trades,,,,,,,,Verified
AZJ.AX,04-AUG-2014,,End Of Day,,5.01,5.03,4.96,4.97,2934060,,,Verified
AZJ.AX,05-AUG-2014,,End Of Day,,4.99,5.01,4.93,4.95,3076787,,,Verified
AZJ.AX,06-AUG-2014,,End Of Day,,4.94,4.97,4.915,4.94,4242039,,,Verified
AZJ.AX,07-AUG-2014,,End Of Day,,4.95,4.98,4.935,4.96,4582324,,,Verified
AZJ.AX,08-AUG-2014,,End Of Day,,4.94,4.97,4.885,4.91,5511762,,,Verified
AZJ.AX,09-AUG-2014,,End Of Day,No Trades,,,,,,,,Verified
AZJ.AX,10-AUG-2014,,End Of Day,No Trades,,,,,,,,Verified
AZJ.AX,11-AUG-2014,,End Of Day,,5,5,4.92,4.93,3692164,,,Verified
AZJ.AX,12-AUG-2014,,End Of Day,,4.96,5.01,4.955,5,5228743,,,Verified
AZJ.AX,13-AUG-2014,,End Of Day,,4.98,4.99,4.93,4.95,3904122,,,Verified
AZJ.AX,14-AUG-2014,,End Of Day,,4.97,5.02,4.97,5.01,5445733,,,Verified
AZJ.AX,15-AUG-2014,,End Of Day,,5.03,5.07,5.025,5.03,4722790,,,Verified
AZJ.AX,16-AUG-2014,,End Of Day,No Trades,,,,,,,,Verified
AZJ.AX,17-AUG-2014,,End Of Day,No Trades,,,,,,,,Verified
AZJ.AX,18-AUG-2014,,End Of Day,,4.91,5.015,4.83,4.88,13811022,,,Verified
AZJ.AX,19-AUG-2014,,End Of Day,,4.87,4.9,4.83,4.9,11858493,,,Verified
AZJ.AX,20-AUG-2014,,End Of Day,,4.88,4.89,4.85,4.87,6014534,,,Verified
AZJ.AX,21-AUG-2014,,End Of Day,,4.87,4.89,4.82,4.82,8590846,,,Verified
AZJ.AX,22-AUG-2014,,End Of Day,,4.83,4.865,4.81,4.81,8700015,,,Verified
AZJ.AX,23-AUG-2014,,End Of Day,No Trades,,,,,,,,Verified
AZJ.AX,24-AUG-2014,,End Of Day,No Trades,,,,,,,,Verified
AZJ.AX,25-AUG-2014,,End Of Day,,4.82,4.84,4.8,4.81,2648571,,,Verified
AZJ.AX,26-AUG-2014,,End Of Day,,4.83,4.85,4.795,4.82,12052758,,,Verified
AZJ.AX,27-AUG-2014,,End Of Day,,4.84,4.88,4.83,4.83,9829755,,,Verified
AZJ.AX,28-AUG-2014,,End Of Day,,4.83,4.85,4.79,4.82,4305945,,,Verified
AZJ.AX,29-AUG-2014,,End Of Day,,4.78,4.81,4.69,4.77,6618564,,,Verified
AZJ.AX,30-AUG-2014,,End Of Day,No Trades,,,,,,,,Verified
AZJ.AX,31-AUG-2014,,End Of Day,No Trades,,,,,,,,Verified
AZJ.AX,01-SEP-2014,,End Of Day,,4.77,4.79,4.695,4.72,5322888,,,Verified
AZJ.AX,02-SEP-2014,,End Of Day,,4.71,4.73,4.66,4.7,6238448,,,Verified
AZJ.AX,03-SEP-2014,,End Of Day,,4.7,4.78,4.69,4.72,7835071,,,Verified
AZJ.AX,04-SEP-2014,,End Of Day,,4.71,4.74,4.7,4.72,10648644,,,Verified
AZJ.AX,05-SEP-2014,,End Of Day,,4.74,4.755,4.71,4.73,5133419,,,Verified
AZJ.AX,06-SEP-2014,,End Of Day,No Trades,,,,,,,,Verified
AZJ.AX,07-SEP-2014,,End Of Day,No Trades,,,,,,,,Verified
AZJ.AX,08-SEP-2014,,End Of Day,,4.73,4.78,4.71,4.71,2527006,,,Verified
AZJ.AX,09-SEP-2014,,End Of Day,,4.72,4.73,4.69,4.71,9499224,,,Verified
AZJ.AX,10-SEP-2014,,End Of Day,,4.69,4.74,4.69,4.74,7649341,,,Verified
AZJ.AX,11-SEP-2014,,End Of Day,,4.76,4.8,4.715,4.72,4072496,,,Verified
AZJ.AX,12-SEP-2014,,End Of Day,,4.71,4.73,4.7,4.72,7900359,,,Verified
AZJ.AX,13-SEP-2014,,End Of Day,No Trades,,,,,,,,Verified
AZJ.AX,14-SEP-2014,,End Of Day,No Trades,,,,,,,,Verified
AZJ.AX,15-SEP-2014,,End Of Day,,4.69,4.7,4.63,4.65,5410150,,,Verified
AZJ.AX,16-SEP-2014,,End Of Day,,4.64,4.66,4.625,4.64,10414448,,,Verified
AZJ.AX,17-SEP-2014,,End Of Day,,4.67,4.67,4.6,4.67,15092206,,,Verified
AZJ.AX,18-SEP-2014,,End Of Day,,4.67,4.69,4.62,4.65,9193300,,,Verified
AZJ.AX,19-SEP-2014,,End Of Day,,4.65,4.66,4.62,4.64,15726561,,,Verified
AZJ.AX,20-SEP-2014,,End Of Day,No Trades,,,,,,,,Verified
AZJ.AX,21-SEP-2014,,End Of Day,No Trades,,,,,,,,Verified
AZJ.AX,22-SEP-2014,,End Of Day,,4.63,4.66,4.61,4.63,4414200,,,Verified
AZJ.AX,23-SEP-2014,,End Of Day,,4.61,4.65,4.6,4.6,8058155,,,Verified
AZJ.AX,24-SEP-2014,,End Of Day,,4.57,4.62,4.57,4.59,9585590,,,Verified
AZJ.AX,25-SEP-2014,,End Of Day,,4.62,4.62,4.58,4.6,16866290,,,Verified
AZJ.AX,26-SEP-2014,,End Of Day,,4.55,4.575,4.55,4.55,4313567,,,Verified
AZJ.AX,27-SEP-2014,,End Of Day,No Trades,,,,,,,,Verified
AZJ.AX,28-SEP-2014,,End Of Day,No Trades,,,,,,,,Verified
AZJ.AX,29-SEP-2014,,End Of Day,,4.5,4.53,4.49,4.5,4385772,,,Verified
AZJ.AX,30-SEP-2014,,End Of Day,,4.49,4.54,4.425,4.53,8132433,,,Verified
AZJ.AX,01-OCT-2014,,End Of Day,,4.52,4.71,4.5,4.7,12564477,,,Verified
AZJ.AX,02-OCT-2014,,End Of Day,,4.64,4.67,4.62,4.65,6097057,,,Verified
AZJ.AX,03-OCT-2014,,End Of Day,,4.61,4.64,4.57,4.61,6357280,,,Verified
AZJ.AX,04-OCT-2014,,End Of Day,No Trades,,,,,,,,Verified
AZJ.AX,05-OCT-2014,,End Of Day,No Trades,,,,,,,,Verified
AZJ.AX,06-OCT-2014,,End Of Day,,4.61,4.64,4.58,4.6,2224760,,,Verified
AZJ.AX,07-OCT-2014,,End Of Day,,4.57,4.61,4.49,4.59,8732727,,,Verified
AZJ.AX,08-OCT-2014,,End Of Day,,4.54,4.56,4.48,4.48,8516025,,,Verified
AZJ.AX,09-OCT-2014,,End Of Day,,4.51,4.545,4.49,4.5,4462507,,,Verified
AZJ.AX,10-OCT-2014,,End Of Day,,4.4,4.46,4.32,4.32,10904844,,,Verified
AZJ.AX,11-OCT-2014,,End Of Day,No Trades,,,,,,,,Verified
AZJ.AX,12-OCT-2014,,End Of Day,No Trades,,,,,,,,Verified
AZJ.AX,13-OCT-2014,,End Of Day,,4.19,4.23,4.16,4.18,18371475,,,Verified
AZJ.AX,14-OCT-2014,,End Of Day,,4.15,4.31,4.15,4.3,8691814,,,Verified
AZJ.AX,15-OCT-2014,,End Of Day,,4.3,4.41,4.28,4.4,15114257,,,Verified
AZJ.AX,16-OCT-2014,,End Of Day,,4.34,4.37,4.32,4.37,7584354,,,Verified
AZJ.AX,17-OCT-2014,,End Of Day,,4.38,4.43,4.38,4.41,6554847,,,Verified
AZJ.AX,18-OCT-2014,,End Of Day,No Trades,,,,,,,,Verified
AZJ.AX,19-OCT-2014,,End Of Day,No Trades,,,,,,,,Verified
AZJ.AX,20-OCT-2014,,End Of Day,,4.47,4.55,4.47,4.51,8533142,,,Verified
AZJ.AX,21-OCT-2014,,End Of Day,,4.5,4.53,4.49,4.5,15310012,,,Verified
AZJ.AX,22-OCT-2014,,End Of Day,,4.54,4.57,4.515,4.56,7685634,,,Verified
AZJ.AX,23-OCT-2014,,End Of Day,,4.54,4.58,4.52,4.53,10836204,,,Verified
AZJ.AX,24-OCT-2014,,End Of Day,,4.57,4.595,4.55,4.57,6842715,,,Verified
AZJ.AX,25-OCT-2014,,End Of Day,No Trades,,,,,,,,Verified
AZJ.AX,26-OCT-2014,,End Of Day,No Trades,,,,,,,,Verified
AZJ.AX,27-OCT-2014,,End Of Day,,4.6,4.65,4.57,4.58,15827242,,,Verified
AZJ.AX,28-OCT-2014,,End Of Day,,4.59,4.6,4.52,4.54,4486081,,,Verified
AZJ.AX,29-OCT-2014,,End Of Day,,4.58,4.61,4.545,4.6,7406408,,,Verified
AZJ.AX,30-OCT-2014,,End Of Day,,4.61,4.62,4.59,4.62,6793782,,,Verified
AZJ.AX,31-OCT-2014,,End Of Day,,4.63,4.71,4.6,4.68,8001809,,,Verified
AZJ.AX,01-NOV-2014,,End Of Day,No Trades,,,,,,,,Verified
AZJ.AX,02-NOV-2014,,End Of Day,No Trades,,,,,,,,Verified
AZJ.AX,03-NOV-2014,,End Of Day,,4.68,4.7,4.645,4.68,3222944,,,Verified
AZJ.AX,04-NOV-2014,,End Of Day,,4.66,4.7,4.61,4.69,6259217,,,Verified
AZJ.AX,05-NOV-2014,,End Of Day,,4.7,4.7,4.63,4.67,4878421,,,Verified
AZJ.AX,06-NOV-2014,,End Of Day,,4.68,4.71,4.65,4.67,4327962,,,Verified
AZJ.AX,07-NOV-2014,,End Of Day,,4.65,4.65,4.58,4.65,7017396,,,Verified
AZJ.AX,08-NOV-2014,,End Of Day,No Trades,,,,,,,,Verified
AZJ.AX,09-NOV-2014,,End Of Day,No Trades,,,,,,,,Verified
AZJ.AX,10-NOV-2014,,End Of Day,,4.66,4.69,4.63,4.67,3831656,,,Verified
AZJ.AX,11-NOV-2014,,End Of Day,,4.69,4.715,4.66,4.7,6459645,,,Verified
AZJ.AX,12-NOV-2014,,End Of Day,,4.8,4.85,4.79,4.8,14142934,,,Verified
AZJ.AX,13-NOV-2014,,End Of Day,,4.82,4.82,4.755,4.78,10096542,,,Verified
AZJ.AX,14-NOV-2014,,End Of Day,,4.76,4.79,4.73,4.75,9944856,,,Verified
AZJ.AX,15-NOV-2014,,End Of Day,No Trades,,,,,,,,Verified
AZJ.AX,16-NOV-2014,,End Of Day,No Trades,,,,,,,,Verified
AZJ.AX,17-NOV-2014,,End Of Day,,4.81,4.81,4.75,4.77,6082283,,,Verified
AZJ.AX,18-NOV-2014,,End Of Day,,4.79,4.79,4.74,4.78,7513270,,,Verified
AZJ.AX,19-NOV-2014,,End Of Day,,4.8,4.815,4.76,4.78,5089668,,,Verified
AZJ.AX,20-NOV-2014,,End Of Day,,4.76,4.78,4.67,4.67,6668250,,,Verified
AZJ.AX,21-NOV-2014,,End Of Day,,4.66,4.69,4.63,4.63,6276234,,,Verified
AZJ.AX,22-NOV-2014,,End Of Day,No Trades,,,,,,,,Verified
AZJ.AX,23-NOV-2014,,End Of Day,No Trades,,,,,,,,Verified
AZJ.AX,24-NOV-2014,,End Of Day,,4.68,4.72,4.66,4.7,4443812,,,Verified
AZJ.AX,25-NOV-2014,,End Of Day,,4.66,4.7,4.64,4.69,5373447,,,Verified
AZJ.AX,26-NOV-2014,,End Of Day,,4.7,4.76,4.7,4.74,3813143,,,Verified
AZJ.AX,27-NOV-2014,,End Of Day,,4.72,4.75,4.67,4.69,4245899,,,Verified
AZJ.AX,28-NOV-2014,,End Of Day,,4.74,4.74,4.6,4.61,5573347,,,Verified
AZJ.AX,29-NOV-2014,,End Of Day,No Trades,,,,,,,,Verified
AZJ.AX,30-NOV-2014,,End Of Day,No Trades,,,,,,,,Verified
AZJ.AX,01-DEC-2014,,End Of Day,,4.58,4.61,4.48,4.49,9381652,,,Verified
AZJ.AX,02-DEC-2014,,End Of Day,,4.49,4.53,4.47,4.52,9523676,,,Verified
AZJ.AX,03-DEC-2014,,End Of Day,,4.5,4.575,4.5,4.55,10269189,,,Verified
AZJ.AX,04-DEC-2014,,End Of Day,,4.55,4.6,4.51,4.57,6114823,,,Verified
AZJ.AX,05-DEC-2014,,End Of Day,,4.58,4.65,4.57,4.63,8201983,,,Verified
AZJ.AX,06-DEC-2014,,End Of Day,No Trades,,,,,,,,Verified
AZJ.AX,07-DEC-2014,,End Of Day,No Trades,,,,,,,,Verified
AZJ.AX,08-DEC-2014,,End Of Day,,4.65,4.7,4.6,4.61,6713797,,,Verified
AZJ.AX,09-DEC-2014,,End Of Day,,4.56,4.63,4.49,4.5,16993489,,,Verified
AZJ.AX,10-DEC-2014,,End Of Day,,4.55,4.56,4.47,4.53,6459735,,,Verified
AZJ.AX,11-DEC-2014,,End Of Day,,4.45,4.5,4.42,4.45,7340042,,,Verified
AZJ.AX,12-DEC-2014,,End Of Day,,4.47,4.54,4.43,4.46,6065542,,,Verified
AZJ.AX,13-DEC-2014,,End Of Day,No Trades,,,,,,,,Verified
AZJ.AX,14-DEC-2014,,End Of Day,No Trades,,,,,,,,Verified
AZJ.AX,15-DEC-2014,,End Of Day,,4.41,4.46,4.37,4.42,3503002,,,Verified
AZJ.AX,16-DEC-2014,,End Of Day,,4.44,4.45,4.37,4.4,6270605,,,Verified
AZJ.AX,17-DEC-2014,,End Of Day,,4.39,4.46,4.36,4.4,4605340,,,Verified
AZJ.AX,18-DEC-2014,,End Of Day,,4.4,4.54,4.4,4.48,6572000,,,Verified
AZJ.AX,19-DEC-2014,,End Of Day,,4.56,4.65,4.54,4.61,8979341,,,Verified
AZJ.AX,20-DEC-2014,,End Of Day,No Trades,,,,,,,,Verified
AZJ.AX,21-DEC-2014,,End Of Day,No Trades,,,,,,,,Verified
AZJ.AX,22-DEC-2014,,End Of Day,,4.69,4.71,4.63,4.71,3604288,,,Verified
AZJ.AX,23-DEC-2014,,End Of Day,,4.69,4.7,4.61,4.61,2816097,,,Verified
AZJ.AX,24-DEC-2014,,End Of Day,,4.67,4.67,4.57,4.62,1335332,,,Verified
AZJ.AX,25-DEC-2014,,End Of Day,No Trades,,,,,,,,Verified
AZJ.AX,26-DEC-2014,,End Of Day,No Trades,,,,,,,,Verified
AZJ.AX,27-DEC-2014,,End Of Day,No Trades,,,,,,,,Verified
AZJ.AX,28-DEC-2014,,End Of Day,No Trades,,,,,,,,Verified
AZJ.AX,29-DEC-2014,,End Of Day,,4.65,4.74,4.62,4.73,2936898,,,Verified
AZJ.AX,30-DEC-2014,,End Of Day,,4.75,4.75,4.64,4.64,2359618,,,Verified
AZJ.AX,31-DEC-2014,,End Of Day,,4.64,4.665,4.6,4.62,1644389,,,Verified
AZJ.AX,01-JAN-2015,,End Of Day,No Trades,,,,,,,,Verified
AZJ.AX,02-JAN-2015,,End Of Day,,4.7,4.7,4.61,4.66,975092,,,Verified
AZJ.AX,03-JAN-2015,,End Of Day,No Trades,,,,,,,,Verified
AZJ.AX,04-JAN-2015,,End Of Day,No Trades,,,,,,,,Verified
AZJ.AX,05-JAN-2015,,End Of Day,,4.68,4.7,4.63,4.68,1602113,,,Verified
AZJ.AX,06-JAN-2015,,End Of Day,,4.61,4.65,4.545,4.58,2931047,,,Verified
AZJ.AX,07-JAN-2015,,End Of Day,,4.53,4.57,4.5,4.56,3137660,,,Verified
AZJ.AX,08-JAN-2015,,End Of Day,,4.62,4.62,4.52,4.61,3873271,,,Verified
AZJ.AX,09-JAN-2015,,End Of Day,,4.65,4.7,4.63,4.67,2269571,,,Verified
AZJ.AX,10-JAN-2015,,End Of Day,No Trades,,,,,,,,Verified
AZJ.AX,11-JAN-2015,,End Of Day,No Trades,,,,,,,,Verified
AZJ.AX,12-JAN-2015,,End Of Day,,4.63,4.67,4.59,4.61,2449625,,,Verified
AZJ.AX,13-JAN-2015,,End Of Day,,4.56,4.73,4.55,4.73,4533789,,,Verified
AZJ.AX,14-JAN-2015,,End Of Day,,4.72,4.75,4.61,4.64,4203984,,,Verified
AZJ.AX,15-JAN-2015,,End Of Day,,4.65,4.65,4.55,4.59,5073053,,,Verified
AZJ.AX,16-JAN-2015,,End Of Day,,4.54,4.6,4.5,4.54,5384148,,,Verified
AZJ.AX,17-JAN-2015,,End Of Day,No Trades,,,,,,,,Verified
AZJ.AX,18-JAN-2015,,End Of Day,No Trades,,,,,,,,Verified
AZJ.AX,19-JAN-2015,,End Of Day,,4.57,4.625,4.52,4.55,2894984,,,Verified
AZJ.AX,20-JAN-2015,,End Of Day,,4.55,4.605,4.52,4.59,3894177,,,Verified
AZJ.AX,21-JAN-2015,,End Of Day,,4.61,4.68,4.6,4.68,5279336,,,Verified
AZJ.AX,22-JAN-2015,,End Of Day,,4.73,4.8,4.72,4.8,9586228,,,Verified
AZJ.AX,23-JAN-2015,,End Of Day,,4.88,4.89,4.82,4.88,8018345,,,Verified
AZJ.AX,24-JAN-2015,,End Of Day,No Trades,,,,,,,,Verified
AZJ.AX,25-JAN-2015,,End Of Day,No Trades,,,,,,,,Verified
AZJ.AX,26-JAN-2015,,End Of Day,No Trades,,,,,,,,Verified
AZJ.AX,27-JAN-2015,,End Of Day,,4.9,4.9,4.79,4.8,5897151,,,Verified
AZJ.AX,28-JAN-2015,,End Of Day,,4.8,4.91,4.79,4.88,8177224,,,Verified
AZJ.AX,29-JAN-2015,,End Of Day,,4.87,4.93,4.84,4.93,4632042,,,Verified
AZJ.AX,30-JAN-2015,,End Of Day,,5,5,4.93,4.95,10217600,,,Verified
AZJ.AX,31-JAN-2015,,End Of Day,No Trades,,,,,,,,Verified
AZJ.AX,01-FEB-2015,,End Of Day,No Trades,,,,,,,,Verified
AZJ.AX,02-FEB-2015,,End Of Day,,4.95,5.04,4.92,4.97,3291957,,,Verified
AZJ.AX,03-FEB-2015,,End Of Day,,5.05,5.05,4.92,4.98,4056694,,,Verified
AZJ.AX,04-FEB-2015,,End Of Day,,5.05,5.05,4.965,4.99,3985344,,,Verified
AZJ.AX,05-FEB-2015,,End Of Day,,5,5.01,4.96,4.99,5469887,,,Verified
AZJ.AX,06-FEB-2015,,End Of Day,,5.05,5.05,4.98,5.02,3202402,,,Verified
AZJ.AX,07-FEB-2015,,End Of Day,No Trades,,,,,,,,Verified
AZJ.AX,08-FEB-2015,,End Of Day,No Trades,,,,,,,,Verified
AZJ.AX,09-FEB-2015,,End Of Day,,5.02,5.02,4.97,5.01,2522668,,,Verified
AZJ.AX,10-FEB-2015,,End Of Day,,5.05,5.05,4.95,4.98,3298224,,,Verified
AZJ.AX,11-FEB-2015,,End Of Day,,5.04,5.06,4.92,4.94,5011675,,,Verified
AZJ.AX,12-FEB-2015,,End Of Day,,4.98,4.99,4.87,4.88,9050416,,,Verified
AZJ.AX,13-FEB-2015,,End Of Day,,4.95,5.05,4.93,5,6215901,,,Verified
AZJ.AX,14-FEB-2015,,End Of Day,No Trades,,,,,,,,Verified
AZJ.AX,15-FEB-2015,,End Of Day,No Trades,,,,,,,,Verified
AZJ.AX,16-FEB-2015,,End Of Day,,5.15,5.15,4.83,4.88,9894613,,,Verified
AZJ.AX,17-FEB-2015,,End Of Day,,4.85,4.94,4.77,4.94,5216519,,,Verified
AZJ.AX,18-FEB-2015,,End Of Day,,4.9,5.05,4.9,5.03,6994282,,,Verified
AZJ.AX,19-FEB-2015,,End Of Day,,5.09,5.1,4.96,5,5870173,,,Verified
AZJ.AX,20-FEB-2015,,End Of Day,,5,5.02,4.91,4.92,10816123,,,Verified
AZJ.AX,21-FEB-2015,,End Of Day,No Trades,,,,,,,,Verified
AZJ.AX,22-FEB-2015,,End Of Day,No Trades,,,,,,,,Verified
AZJ.AX,23-FEB-2015,,End Of Day,,4.97,4.98,4.88,4.96,8948018,,,Verified
AZJ.AX,24-FEB-2015,,End Of Day,,5,5,4.93,4.95,3976472,,,Verified
AZJ.AX,25-FEB-2015,,End Of Day,,5,5.04,4.95,4.99,5945460,,,Verified
AZJ.AX,26-FEB-2015,,End Of Day,,4.92,4.95,4.86,4.89,81969071,,,Verified
AZJ.AX,27-FEB-2015,,End Of Day,,4.81,4.82,4.73,4.73,10783304,,,Verified
AZJ.AX,28-FEB-2015,,End Of Day,No Trades,,,,,,,,Verified
AZJ.AX,01-MAR-2015,,End Of Day,No Trades,,,,,,,,Verified
AZJ.AX,02-MAR-2015,,End Of Day,,4.7,4.78,4.63,4.69,5854083,,,Verified
AZJ.AX,03-MAR-2015,,End Of Day,,4.73,4.74,4.67,4.71,4591763,,,Verified
AZJ.AX,04-MAR-2015,,End Of Day,,4.74,4.8,4.7,4.77,18723717,,,Verified
AZJ.AX,05-MAR-2015,,End Of Day,,4.8,4.82,4.77,4.81,17647189,,,Verified
AZJ.AX,06-MAR-2015,,End Of Day,,4.8,4.84,4.78,4.81,9058074,,,Verified
AZJ.AX,07-MAR-2015,,End Of Day,No Trades,,,,,,,,Verified
AZJ.AX,08-MAR-2015,,End Of Day,No Trades,,,,,,,,Verified
AZJ.AX,09-MAR-2015,,End Of Day,,4.78,4.83,4.74,4.77,4580248,,,Verified
AZJ.AX,10-MAR-2015,,End Of Day,,4.79,4.8,4.76,4.79,12929433,,,Verified
AZJ.AX,11-MAR-2015,,End Of Day,,4.75,4.825,4.74,4.79,8815525,,,Verified
AZJ.AX,12-MAR-2015,,End Of Day,,4.79,4.88,4.775,4.88,10800492,,,Verified
AZJ.AX,13-MAR-2015,,End Of Day,,4.9,4.91,4.84,4.89,9568831,,,Verified
AZJ.AX,14-MAR-2015,,End Of Day,No Trades,,,,,,,,Verified
AZJ.AX,15-MAR-2015,,End Of Day,No Trades,,,,,,,,Verified
AZJ.AX,16-MAR-2015,,End Of Day,,4.85,4.89,4.83,4.87,7223349,,,Verified
AZJ.AX,17-MAR-2015,,End Of Day,,4.92,4.93,4.88,4.92,8279834,,,Verified
AZJ.AX,18-MAR-2015,,End Of Day,,4.92,4.95,4.87,4.95,9658952,,,Verified
AZJ.AX,19-MAR-2015,,End Of Day,,4.98,5.01,4.98,4.99,8931882,,,Verified
AZJ.AX,20-MAR-2015,,End Of Day,,5,5.01,4.97,5,5493162,,,Verified
AZJ.AX,21-MAR-2015,,End Of Day,No Trades,,,,,,,,Verified
AZJ.AX,22-MAR-2015,,End Of Day,No Trades,,,,,,,,Verified
AZJ.AX,23-MAR-2015,,End Of Day,,5,5.06,4.98,5.04,4821142,,,Verified
AZJ.AX,24-MAR-2015,,End Of Day,,5.04,5.05,4.99,5.01,3468472,,,Verified
AZJ.AX,25-MAR-2015,,End Of Day,,5,5.01,4.935,4.96,4563098,,,Verified
AZJ.AX,26-MAR-2015,,End Of Day,,4.9,4.93,4.86,4.89,3748644,,,Verified
AZJ.AX,27-MAR-2015,,End Of Day,,4.86,4.92,4.86,4.91,9362899,,,Verified
AZJ.AX,28-MAR-2015,,End Of Day,No Trades,,,,,,,,Verified
AZJ.AX,29-MAR-2015,,End Of Day,No Trades,,,,,,,,Verified
AZJ.AX,30-MAR-2015,,End Of Day,,4.86,4.89,4.825,4.88,3444290,,,Verified
AZJ.AX,31-MAR-2015,,End Of Day,,4.9,4.95,4.84,4.85,8417821,,,Verified
AZJ.AX,01-APR-2015,,End Of Day,,4.87,4.89,4.8,4.81,3343136,,,Verified
AZJ.AX,02-APR-2015,,End Of Day,,5,5,4.81,4.87,10007144,,,Verified
AZJ.AX,03-APR-2015,,End Of Day,No Trades,,,,,,,,Verified
AZJ.AX,04-APR-2015,,End Of Day,No Trades,,,,,,,,Verified
AZJ.AX,05-APR-2015,,End Of Day,No Trades,,,,,,,,Verified
AZJ.AX,06-APR-2015,,End Of Day,No Trades,,,,,,,,Verified
AZJ.AX,07-APR-2015,,End Of Day,,4.9,4.98,4.88,4.95,7412931,,,Verified
AZJ.AX,08-APR-2015,,End Of Day,,4.95,4.99,4.91,4.95,6035619,,,Verified
AZJ.AX,09-APR-2015,,End Of Day,,4.92,4.95,4.865,4.88,3279825,,,Verified
AZJ.AX,10-APR-2015,,End Of Day,,4.92,4.92,4.87,4.89,4096160,,,Verified
AZJ.AX,11-APR-2015,,End Of Day,No Trades,,,,,,,,Verified
AZJ.AX,12-APR-2015,,End Of Day,No Trades,,,,,,,,Verified
AZJ.AX,13-APR-2015,,End Of Day,,4.86,4.87,4.75,4.79,4414828,,,Verified
AZJ.AX,14-APR-2015,,End Of Day,,4.77,4.83,4.74,4.81,6885055,,,Verified
AZJ.AX,15-APR-2015,,End Of Day,,4.81,4.83,4.72,4.74,4998368,,,Verified
AZJ.AX,16-APR-2015,,End Of Day,,4.75,4.78,4.715,4.74,3948489,,,Verified
AZJ.AX,17-APR-2015,,End Of Day,,4.72,4.72,4.66,4.67,7502417,,,Verified
AZJ.AX,18-APR-2015,,End Of Day,No Trades,,,,,,,,Verified
AZJ.AX,19-APR-2015,,End Of Day,No Trades,,,,,,,,Verified
AZJ.AX,20-APR-2015,,End Of Day,,4.67,4.69,4.58,4.6,7591249,,,Verified
AZJ.AX,21-APR-2015,,End Of Day,,4.65,4.68,4.61,4.64,5700520,,,Verified
AZJ.AX,22-APR-2015,,End Of Day,,4.66,4.85,4.62,4.82,19339099,,,Verified
AZJ.AX,23-APR-2015,,End Of Day,,4.84,4.96,4.79,4.93,13094327,,,Verified
AZJ.AX,24-APR-2015,,End Of Day,,4.97,5.005,4.94,5,11315715,,,Verified
AZJ.AX,25-APR-2015,,End Of Day,No Trades,,,,,,,,Verified
AZJ.AX,26-APR-2015,,End Of Day,No Trades,,,,,,,,Verified
AZJ.AX,27-APR-2015,,End Of Day,,5,5.04,4.955,5,7124405,,,Verified
AZJ.AX,28-APR-2015,,End Of Day,,4.96,4.98,4.86,4.88,20688633,,,Verified
AZJ.AX,29-APR-2015,,End Of Day,,4.89,4.95,4.86,4.87,12712394,,,Verified
AZJ.AX,30-APR-2015,,End Of Day,,4.87,4.87,4.795,4.85,8040155,,,Verified
AZJ.AX,01-MAY-2015,,End Of Day,,4.83,4.905,4.8,4.9,6049290,,,Verified
AZJ.AX,02-MAY-2015,,End Of Day,No Trades,,,,,,,,Verified
AZJ.AX,03-MAY-2015,,End Of Day,No Trades,,,,,,,,Verified
AZJ.AX,04-MAY-2015,,End Of Day,,4.92,4.94,4.885,4.91,7017472,,,Verified
AZJ.AX,05-MAY-2015,,End Of Day,,4.95,5.04,4.92,5,11674713,,,Verified
AZJ.AX,06-MAY-2015,,End Of Day,,4.89,4.93,4.86,4.9,5411130,,,Verified
AZJ.AX,07-MAY-2015,,End Of Day,,4.81,4.92,4.8,4.87,8108803,,,Verified
AZJ.AX,08-MAY-2015,,End Of Day,,4.94,4.95,4.86,4.86,4513801,,,Verified
AZJ.AX,09-MAY-2015,,End Of Day,No Trades,,,,,,,,Verified
AZJ.AX,10-MAY-2015,,End Of Day,No Trades,,,,,,,,Verified
AZJ.AX,11-MAY-2015,,End Of Day,,4.9,4.97,4.88,4.88,2914970,,,Verified
AZJ.AX,12-MAY-2015,,End Of Day,,4.86,4.94,4.85,4.9,4665138,,,Verified
AZJ.AX,13-MAY-2015,,End Of Day,,4.93,5.08,4.93,5.07,6824258,,,Verified
AZJ.AX,14-MAY-2015,,End Of Day,,5.01,5.06,4.985,5.06,5016574,,,Verified
AZJ.AX,15-MAY-2015,,End Of Day,,5.12,5.19,5.1,5.18,6048251,,,Verified
AZJ.AX,16-MAY-2015,,End Of Day,No Trades,,,,,,,,Verified
AZJ.AX,17-MAY-2015,,End Of Day,No Trades,,,,,,,,Verified
AZJ.AX,18-MAY-2015,,End Of Day,,5.15,5.2,5.15,5.17,3416108,,,Verified
AZJ.AX,19-MAY-2015,,End Of Day,,5.19,5.2,5.13,5.16,8376556,,,Verified
AZJ.AX,20-MAY-2015,,End Of Day,,5.2,5.2,5.125,5.16,3795365,,,Verified
AZJ.AX,21-MAY-2015,,End Of Day,,5.23,5.24,5.18,5.19,4988039,,,Verified
AZJ.AX,22-MAY-2015,,End Of Day,,5.22,5.3,5.18,5.29,3955233,,,Verified
AZJ.AX,23-MAY-2015,,End Of Day,No Trades,,,,,,,,Verified
AZJ.AX,24-MAY-2015,,End Of Day,No Trades,,,,,,,,Verified
AZJ.AX,25-MAY-2015,,End Of Day,,5.29,5.37,5.24,5.35,3157931,,,Verified
AZJ.AX,26-MAY-2015,,End Of Day,,5.3,5.34,5.27,5.31,4669840,,,Verified
AZJ.AX,27-MAY-2015,,End Of Day,,5.26,5.33,5.26,5.3,5964326,,,Verified
AZJ.AX,28-MAY-2015,,End Of Day,,5.3,5.3,5.24,5.25,3085591,,,Verified
AZJ.AX,29-MAY-2015,,End Of Day,,5.28,5.36,5.25,5.34,7568674,,,Verified
AZJ.AX,30-MAY-2015,,End Of Day,No Trades,,,,,,,,Verified
AZJ.AX,31-MAY-2015,,End Of Day,No Trades,,,,,,,,Verified
AZJ.AX,01-JUN-2015,,End Of Day,,5.32,5.32,5.2,5.26,3103298,,,Verified
AZJ.AX,02-JUN-2015,,End Of Day,,5.26,5.32,5.19,5.2,4126387,,,Verified
AZJ.AX,03-JUN-2015,,End Of Day,,5.16,5.2,5.07,5.18,4978726,,,Verified
AZJ.AX,04-JUN-2015,,End Of Day,,5.25,5.27,5.15,5.18,6779312,,,Verified
AZJ.AX,05-JUN-2015,,End Of Day,,5.2,5.23,5.14,5.19,9620609,,,Verified
AZJ.AX,06-JUN-2015,,End Of Day,No Trades,,,,,,,,Verified
AZJ.AX,07-JUN-2015,,End Of Day,No Trades,,,,,,,,Verified
AZJ.AX,08-JUN-2015,,End Of Day,No Trades,,,,,,,,Verified
AZJ.AX,09-JUN-2015,,End Of Day,,5.23,5.265,5.16,5.21,4335572,,,Verified
AZJ.AX,10-JUN-2015,,End Of Day,,5.25,5.3,5.17,5.27,5088709,,,Verified
AZJ.AX,11-JUN-2015,,End Of Day,,5.33,5.34,5.26,5.31,3845722,,,Verified
AZJ.AX,12-JUN-2015,,End Of Day,,5.31,5.31,5.25,5.27,2988526,,,Verified
AZJ.AX,13-JUN-2015,,End Of Day,No Trades,,,,,,,,Verified
AZJ.AX,14-JUN-2015,,End Of Day,No Trades,,,,,,,,Verified
AZJ.AX,15-JUN-2015,,End Of Day,,5.26,5.33,5.23,5.32,5305182,,,Verified
AZJ.AX,16-JUN-2015,,End Of Day,,5.32,5.37,5.24,5.27,8805423,,,Verified
AZJ.AX,17-JUN-2015,,End Of Day,,5.27,5.31,5.22,5.25,4658638,,,Verified
AZJ.AX,18-JUN-2015,,End Of Day,,5.2,5.23,5.15,5.17,8253409,,,Verified
AZJ.AX,19-JUN-2015,,End Of Day,,5.23,5.27,5.22,5.23,7097255,,,Verified
AZJ.AX,20-JUN-2015,,End Of Day,No Trades,,,,,,,,Verified
AZJ.AX,21-JUN-2015,,End Of Day,No Trades,,,,,,,,Verified
AZJ.AX,22-JUN-2015,,End Of Day,,5.27,5.28,5.2,5.24,13071526,,,Verified
AZJ.AX,23-JUN-2015,,End Of Day,,5.29,5.38,5.29,5.36,6990480,,,Verified
AZJ.AX,24-JUN-2015,,End Of Day,,5.38,5.39,5.34,5.35,10077015,,,Verified
AZJ.AX,25-JUN-2015,,End Of Day,,5.36,5.36,5.285,5.3,4531001,,,Verified
AZJ.AX,26-JUN-2015,,End Of Day,,5.28,5.28,5.1,5.1,9753948,,,Verified
AZJ.AX,27-JUN-2015,,End Of Day,No Trades,,,,,,,,Verified
AZJ.AX,28-JUN-2015,,End Of Day,No Trades,,,,,,,,Verified
AZJ.AX,29-JUN-2015,,End Of Day,,5.05,5.11,5.01,5.1,6072452,,,Verified
AZJ.AX,30-JUN-2015,,End Of Day,,5.05,5.14,5.05,5.13,7513498,,,Verified
AZJ.AX,01-JUL-2015,,End Of Day,,5.15,5.43,5.14,5.43,11669187,,,Verified
AZJ.AX,02-JUL-2015,,End Of Day,,5.43,5.605,5.38,5.5,12625627,,,Verified
AZJ.AX,03-JUL-2015,,End Of Day,,5.5,5.5,5.315,5.42,7463141,,,Verified
AZJ.AX,04-JUL-2015,,End Of Day,No Trades,,,,,,,,Verified
AZJ.AX,05-JUL-2015,,End Of Day,No Trades,,,,,,,,Verified
AZJ.AX,06-JUL-2015,,End Of Day,,5.3,5.39,5.3,5.34,3798607,,,Verified
AZJ.AX,07-JUL-2015,,End Of Day,,5.41,5.53,5.39,5.49,6986814,,,Verified
AZJ.AX,08-JUL-2015,,End Of Day,,5.37,5.41,5.18,5.22,10452101,,,Verified
AZJ.AX,09-JUL-2015,,End Of Day,,5.32,5.34,5.22,5.3,9889773,,,Verified
AZJ.AX,10-JUL-2015,,End Of Day,,5.35,5.36,5.265,5.27,4832505,,,Verified
AZJ.AX,11-JUL-2015,,End Of Day,No Trades,,,,,,,,Verified
AZJ.AX,12-JUL-2015,,End Of Day,No Trades,,,,,,,,Verified
AZJ.AX,13-JUL-2015,,End Of Day,,5.3,5.32,5.26,5.27,4541306,,,Verified
AZJ.AX,14-JUL-2015,,End Of Day,,5.3,5.35,5.28,5.33,4420813,,,Verified
AZJ.AX,15-JUL-2015,,End Of Day,,5.35,5.37,5.32,5.34,6222063,,,Verified
AZJ.AX,16-JUL-2015,,End Of Day,,5.37,5.41,5.34,5.38,7686086,,,Verified
AZJ.AX,17-JUL-2015,,End Of Day,,5.42,5.45,5.4,5.43,4986561,,,Verified
AZJ.AX,18-JUL-2015,,End Of Day,No Trades,,,,,,,,Verified
AZJ.AX,19-JUL-2015,,End Of Day,No Trades,,,,,,,,Verified
AZJ.AX,20-JUL-2015,,End Of Day,,5.43,5.47,5.42,5.46,1692927,,,Verified
AZJ.AX,21-JUL-2015,,End Of Day,,5.5,5.57,5.47,5.47,6256882,,,Verified
AZJ.AX,22-JUL-2015,,End Of Day,,5.41,5.47,5.36,5.37,4484028,,,Verified
AZJ.AX,23-JUL-2015,,End Of Day,,5.37,5.4,5.29,5.34,2852473,,,Verified
AZJ.AX,24-JUL-2015,,End Of Day,,5.29,5.35,5.28,5.32,6710174,,,Verified
AZJ.AX,25-JUL-2015,,End Of Day,No Trades,,,,,,,,Verified
AZJ.AX,26-JUL-2015,,End Of Day,No Trades,,,,,,,,Verified
AZJ.AX,27-JUL-2015,,End Of Day,,5.28,5.37,5.245,5.32,2682909,,,Verified
AZJ.AX,28-JUL-2015,,End Of Day,,5.29,5.325,5.23,5.26,9002666,,,Verified
AZJ.AX,29-JUL-2015,,End Of Day,,5.3,5.365,5.25,5.31,4102493,,,Verified
AZJ.AX,30-JUL-2015,,End Of Day,,5.34,5.36,5.28,5.29,5102991,,,Verified
AZJ.AX,31-JUL-2015,,End Of Day,,5.33,5.335,5.29,5.3,8731805,,,Verified
AZJ.AX,01-AUG-2015,,End Of Day,No Trades,,,,,,,,Verified
AZJ.AX,02-AUG-2015,,End Of Day,No Trades,,,,,,,,Verified
AZJ.AX,03-AUG-2015,,End Of Day,,5.32,5.34,5.285,5.31,3289381,,,Verified
AZJ.AX,04-AUG-2015,,End Of Day,,5.35,5.35,5.27,5.3,6823564,,,Verified
AZJ.AX,05-AUG-2015,,End Of Day,,5.32,5.35,5.26,5.33,9901510,,,Verified
AZJ.AX,06-AUG-2015,,End Of Day,,5.29,5.29,5.13,5.16,5019952,,,Verified
AZJ.AX,07-AUG-2015,,End Of Day,,5.13,5.17,5.1,5.1,4478511,,,Verified
AZJ.AX,08-AUG-2015,,End Of Day,No Trades,,,,,,,,Verified
AZJ.AX,09-AUG-2015,,End Of Day,No Trades,,,,,,,,Verified
AZJ.AX,10-AUG-2015,,End Of Day,,5.09,5.16,5.085,5.14,2246022,,,Verified
AZJ.AX,11-AUG-2015,,End Of Day,,5.17,5.19,5.08,5.1,3544042,,,Verified
AZJ.AX,12-AUG-2015,,End Of Day,,5.13,5.16,5.005,5.01,6283972,,,Verified
AZJ.AX,13-AUG-2015,,End Of Day,,4.98,5.12,4.98,5.04,5064761,,,Verified
AZJ.AX,14-AUG-2015,,End Of Day,,5.03,5.11,5.03,5.06,17212402,,,Verified
AZJ.AX,15-AUG-2015,,End Of Day,No Trades,,,,,,,,Verified
AZJ.AX,16-AUG-2015,,End Of Day,No Trades,,,,,,,,Verified
AZJ.AX,17-AUG-2015,,End Of Day,,5.2,5.31,5.17,5.24,6595311,,,Verified
AZJ.AX,18-AUG-2015,,End Of Day,,5.25,5.4,5.22,5.22,21168043,,,Verified
AZJ.AX,19-AUG-2015,,End Of Day,,5.25,5.27,5.205,5.26,22755310,,,Verified
AZJ.AX,20-AUG-2015,,End Of Day,,5.2,5.24,5.1,5.14,7821643,,,Verified
AZJ.AX,21-AUG-2015,,End Of Day,,5.09,5.15,5.04,5.1,9607696,,,Verified
AZJ.AX,22-AUG-2015,,End Of Day,No Trades,,,,,,,,Verified
AZJ.AX,23-AUG-2015,,End Of Day,No Trades,,,,,,,,Verified
AZJ.AX,24-AUG-2015,,End Of Day,,4.98,5.045,4.93,4.93,10555981,,,Verified
AZJ.AX,25-AUG-2015,,End Of Day,,4.91,5.09,4.87,5.01,14141613,,,Verified
AZJ.AX,26-AUG-2015,,End Of Day,,4.94,5.03,4.93,5,16694915,,,Verified
AZJ.AX,27-AUG-2015,,End Of Day,,5.06,5.19,5,5.05,26129649,,,Verified
AZJ.AX,28-AUG-2015,,End Of Day,,4.95,5.03,4.915,4.99,10436875,,,Verified
AZJ.AX,29-AUG-2015,,End Of Day,No Trades,,,,,,,,Verified
AZJ.AX,30-AUG-2015,,End Of Day,No Trades,,,,,,,,Verified
AZJ.AX,31-AUG-2015,,End Of Day,,4.95,5.01,4.91,4.96,10767481,,,Verified
AZJ.AX,01-SEP-2015,,End Of Day,,4.95,5.03,4.94,4.96,8648660,,,Verified
AZJ.AX,02-SEP-2015,,End Of Day,,5.02,5.02,4.885,4.97,15250231,,,Verified
AZJ.AX,03-SEP-2015,,End Of Day,,5.07,5.08,4.94,4.95,7153366,,,Verified
AZJ.AX,04-SEP-2015,,End Of Day,,4.99,5.07,4.95,5.03,7474721,,,Verified
AZJ.AX,05-SEP-2015,,End Of Day,No Trades,,,,,,,,Verified
AZJ.AX,06-SEP-2015,,End Of Day,No Trades,,,,,,,,Verified
AZJ.AX,07-SEP-2015,,End Of Day,,5.04,5.06,4.98,5.04,4630480,,,Verified
AZJ.AX,08-SEP-2015,,End Of Day,,5.06,5.1,5.02,5.07,4488956,,,Verified
AZJ.AX,09-SEP-2015,,End Of Day,,5.1,5.18,5.08,5.14,5234234,,,Verified
AZJ.AX,10-SEP-2015,,End Of Day,,5.01,5.07,5.005,5.02,5766994,,,Verified
AZJ.AX,11-SEP-2015,,End Of Day,,5,5.06,4.99,4.99,4315523,,,Verified
AZJ.AX,12-SEP-2015,,End Of Day,No Trades,,,,,,,,Verified
AZJ.AX,13-SEP-2015,,End Of Day,No Trades,,,,,,,,Verified
AZJ.AX,14-SEP-2015,,End Of Day,,5.05,5.09,4.985,5.03,6813767,,,Verified
AZJ.AX,15-SEP-2015,,End Of Day,,5.04,5.07,4.98,4.99,4935163,,,Verified
AZJ.AX,16-SEP-2015,,End Of Day,,5,5.09,4.98,5.08,5094775,,,Verified
AZJ.AX,17-SEP-2015,,End Of Day,,5.2,5.2,5.11,5.13,6674342,,,Verified
AZJ.AX,18-SEP-2015,,End Of Day,,5.09,5.215,5.06,5.17,5511367,,,Verified
AZJ.AX,19-SEP-2015,,End Of Day,No Trades,,,,,,,,Verified
AZJ.AX,20-SEP-2015,,End Of Day,No Trades,,,,,,,,Verified
AZJ.AX,21-SEP-2015,,End Of Day,,5.07,5.12,5.02,5.07,4699466,,,Verified
AZJ.AX,22-SEP-2015,,End Of Day,,5.1,5.125,5.05,5.12,7712127,,,Verified
AZJ.AX,23-SEP-2015,,End Of Day,,5.12,5.14,5.03,5.06,10288104,,,Verified
AZJ.AX,24-SEP-2015,,End Of Day,,5.07,5.22,5.06,5.17,6500454,,,Verified
AZJ.AX,25-SEP-2015,,End Of Day,,5.2,5.235,5.13,5.13,7390095,,,Verified
AZJ.AX,26-SEP-2015,,End Of Day,No Trades,,,,,,,,Verified
AZJ.AX,27-SEP-2015,,End Of Day,No Trades,,,,,,,,Verified
AZJ.AX,28-SEP-2015,,End Of Day,,5.11,5.18,5.09,5.17,13075734,,,Verified
AZJ.AX,29-SEP-2015,,End Of Day,,5.05,5.07,4.93,4.93,16031621,,,Verified
AZJ.AX,30-SEP-2015,,End Of Day,,4.94,5.01,4.93,5.01,10028604,,,Verified
AZJ.AX,01-OCT-2015,,End Of Day,,5.04,5.14,5.01,5.13,6623651,,,Verified
AZJ.AX,02-OCT-2015,,End Of Day,,5.05,5.17,5.05,5.12,8043533,,,Verified
AZJ.AX,03-OCT-2015,,End Of Day,No Trades,,,,,,,,Verified
AZJ.AX,04-OCT-2015,,End Of Day,No Trades,,,,,,,,Verified
AZJ.AX,05-OCT-2015,,End Of Day,,5.13,5.25,5.1,5.24,4064148,,,Verified
AZJ.AX,06-OCT-2015,,End Of Day,,5.25,5.26,5.15,5.15,5173970,,,Verified
AZJ.AX,07-OCT-2015,,End Of Day,,5.15,5.19,5.09,5.13,5636060,,,Verified
AZJ.AX,08-OCT-2015,,End Of Day,,5.17,5.2,5.06,5.07,4603362,,,Verified
AZJ.AX,09-OCT-2015,,End Of Day,,5.15,5.19,5.13,5.16,6918175,,,Verified
AZJ.AX,10-OCT-2015,,End Of Day,No Trades,,,,,,,,Verified
AZJ.AX,11-OCT-2015,,End Of Day,No Trades,,,,,,,,Verified
AZJ.AX,12-OCT-2015,,End Of Day,,5.12,5.18,5.1,5.13,5484110,,,Verified
AZJ.AX,13-OCT-2015,,End Of Day,,5.09,5.21,5.08,5.2,6851845,,,Verified
AZJ.AX,14-OCT-2015,,End Of Day,,5.15,5.23,5.15,5.17,5113825,,,Verified
AZJ.AX,15-OCT-2015,,End Of Day,,5.18,5.18,5.1,5.16,4543224,,,Verified
AZJ.AX,16-OCT-2015,,End Of Day,,5.2,5.24,5.14,5.2,5098204,,,Verified
AZJ.AX,17-OCT-2015,,End Of Day,No Trades,,,,,,,,Verified
AZJ.AX,18-OCT-2015,,End Of Day,No Trades,,,,,,,,Verified
AZJ.AX,19-OCT-2015,,End Of Day,,5.21,5.235,5.19,5.2,2173184,,,Verified
AZJ.AX,20-OCT-2015,,End Of Day,,5.16,5.22,5.13,5.14,4535561,,,Verified
AZJ.AX,21-OCT-2015,,End Of Day,,5.1,5.12,5.05,5.12,4931374,,,Verified
AZJ.AX,22-OCT-2015,,End Of Day,,5.08,5.09,5,5.08,5926036,,,Verified
AZJ.AX,23-OCT-2015,,End Of Day,,5.17,5.18,5.06,5.09,6203219,,,Verified
AZJ.AX,24-OCT-2015,,End Of Day,No Trades,,,,,,,,Verified
AZJ.AX,25-OCT-2015,,End Of Day,No Trades,,,,,,,,Verified
AZJ.AX,26-OCT-2015,,End Of Day,,5.1,5.17,5.09,5.11,5110648,,,Verified
AZJ.AX,27-OCT-2015,,End Of Day,,5.12,5.16,5.08,5.12,3242721,,,Verified
AZJ.AX,28-OCT-2015,,End Of Day,,5.14,5.17,5.1,5.11,1945856,,,Verified
AZJ.AX,29-OCT-2015,,End Of Day,,5.14,5.16,5.06,5.09,4085852,,,Verified
AZJ.AX,30-OCT-2015,,End Of Day,,5.09,5.17,5.05,5.17,5194440,,,Verified
AZJ.AX,31-OCT-2015,,End Of Day,No Trades,,,,,,,,Verified
AZJ.AX,01-NOV-2015,,End Of Day,No Trades,,,,,,,,Verified
AZJ.AX,02-NOV-2015,,End Of Day,,5.17,5.18,5.09,5.1,3381795,,,Verified
AZJ.AX,03-NOV-2015,,End Of Day,,5.15,5.18,5.08,5.13,3083727,,,Verified
AZJ.AX,04-NOV-2015,,End Of Day,,5.17,5.18,5.09,5.1,3649578,,,Verified
AZJ.AX,05-NOV-2015,,End Of Day,,5.13,5.15,5.08,5.14,4654954,,,Verified
AZJ.AX,06-NOV-2015,,End Of Day,,5.15,5.26,5.11,5.25,7256592,,,Verified
AZJ.AX,07-NOV-2015,,End Of Day,No Trades,,,,,,,,Verified
AZJ.AX,08-NOV-2015,,End Of Day,No Trades,,,,,,,,Verified
AZJ.AX,09-NOV-2015,,End Of Day,,5.21,5.24,5.09,5.1,5953788,,,Verified
AZJ.AX,10-NOV-2015,,End Of Day,,5.09,5.14,5.04,5.13,8241149,,,Verified
AZJ.AX,11-NOV-2015,,End Of Day,,5.16,5.27,5.15,5.26,5556119,,,Verified
AZJ.AX,12-NOV-2015,,End Of Day,,5.23,5.49,5.23,5.47,12349175,,,Verified
AZJ.AX,13-NOV-2015,,End Of Day,,5.4,5.41,5.285,5.34,7341361,,,Verified
AZJ.AX,14-NOV-2015,,End Of Day,No Trades,,,,,,,,Verified
AZJ.AX,15-NOV-2015,,End Of Day,No Trades,,,,,,,,Verified
AZJ.AX,16-NOV-2015,,End Of Day,,5.25,5.31,5.23,5.28,3405798,,,Verified
AZJ.AX,17-NOV-2015,,End Of Day,,5.3,5.36,5.27,5.35,4910460,,,Verified
AZJ.AX,18-NOV-2015,,End Of Day,,5.34,5.42,5.29,5.38,5015040,,,Verified
AZJ.AX,19-NOV-2015,,End Of Day,,5.45,5.53,5.4,5.53,9068905,,,Verified
AZJ.AX,20-NOV-2015,,End Of Day,,5.52,5.53,5.43,5.47,5745240,,,Verified
AZJ.AX,21-NOV-2015,,End Of Day,No Trades,,,,,,,,Verified
AZJ.AX,22-NOV-2015,,End Of Day,No Trades,,,,,,,,Verified
AZJ.AX,23-NOV-2015,,End Of Day,,5.46,5.59,5.45,5.59,4479608,,,Verified
AZJ.AX,24-NOV-2015,,End Of Day,,5.55,5.59,5.5,5.54,3950787,,,Verified
AZJ.AX,25-NOV-2015,,End Of Day,,5.56,5.625,5.5,5.5,4460291,,,Verified
AZJ.AX,26-NOV-2015,,End Of Day,,5.51,5.66,5.51,5.61,4724524,,,Verified
AZJ.AX,27-NOV-2015,,End Of Day,,5.66,5.69,5.51,5.52,4709249,,,Verified
AZJ.AX,28-NOV-2015,,End Of Day,No Trades,,,,,,,,Verified
AZJ.AX,29-NOV-2015,,End Of Day,No Trades,,,,,,,,Verified
AZJ.AX,30-NOV-2015,,End Of Day,,5.49,5.59,5.49,5.57,8214182,,,Verified
AZJ.AX,01-DEC-2015,,End Of Day,,5.55,5.65,5.53,5.62,5089137,,,Verified
AZJ.AX,02-DEC-2015,,End Of Day,,5.6,5.6,5.51,5.57,5886542,,,Verified
AZJ.AX,03-DEC-2015,,End Of Day,,5.5,5.54,5.36,5.43,7108252,,,Verified
AZJ.AX,04-DEC-2015,,End Of Day,,5.34,5.38,5.28,5.36,6364038,,,Verified
AZJ.AX,05-DEC-2015,,End Of Day,No Trades,,,,,,,,Verified
AZJ.AX,06-DEC-2015,,End Of Day,No Trades,,,,,,,,Verified
AZJ.AX,07-DEC-2015,,End Of Day,,5.43,5.48,5.315,5.34,27291830,,,Verified
AZJ.AX,08-DEC-2015,,End Of Day,,5.27,5.37,5.26,5.27,5151492,,,Verified
AZJ.AX,09-DEC-2015,,End Of Day,,5.23,5.27,5.2,5.21,5565054,,,Verified
AZJ.AX,10-DEC-2015,,End Of Day,,5.25,5.25,5.14,5.2,4912388,,,Verified
AZJ.AX,11-DEC-2015,,End Of Day,,5.17,5.205,5.1,5.13,3915310,,,Verified
AZJ.AX,12-DEC-2015,,End Of Day,No Trades,,,,,,,,Verified
AZJ.AX,13-DEC-2015,,End Of Day,No Trades,,,,,,,,Verified
AZJ.AX,14-DEC-2015,,End Of Day,,5.04,5.08,4.95,4.96,9174900,,,Verified
AZJ.AX,15-DEC-2015,,End Of Day,,4.97,5.04,4.93,4.94,6855982,,,Verified
AZJ.AX,16-DEC-2015,,End Of Day,,5.02,5.09,4.99,5.03,28260790,,,Verified
AZJ.AX,17-DEC-2015,,End Of Day,,5,5.02,4.86,4.91,11288743,,,Verified
AZJ.AX,18-DEC-2015,,End Of Day,,4.84,4.92,4.83,4.91,12982503,,,Verified
AZJ.AX,19-DEC-2015,,End Of Day,No Trades,,,,,,,,Verified
AZJ.AX,20-DEC-2015,,End Of Day,No Trades,,,,,,,,Verified
AZJ.AX,21-DEC-2015,,End Of Day,,4.89,4.95,4.835,4.85,5947630,,,Verified
AZJ.AX,22-DEC-2015,,End Of Day,,4.9,4.97,4.9,4.94,5030542,,,Verified
AZJ.AX,23-DEC-2015,,End Of Day,,4.35,4.64,4.14,4.36,27442125,,,Verified
AZJ.AX,24-DEC-2015,,End Of Day,,4.22,4.32,4.12,4.2,8655606,,,Verified
AZJ.AX,25-DEC-2015,,End Of Day,No Trades,,,,,,,,Verified
AZJ.AX,26-DEC-2015,,End Of Day,No Trades,,,,,,,,Verified
AZJ.AX,27-DEC-2015,,End Of Day,No Trades,,,,,,,,Verified
AZJ.AX,28-DEC-2015,,End Of Day,No Trades,,,,,,,,Verified
AZJ.AX,29-DEC-2015,,End Of Day,,4.17,4.28,4.12,4.23,9987879,,,Verified
AZJ.AX,30-DEC-2015,,End Of Day,,4.3,4.39,4.285,4.39,8252623,,,Verified
AZJ.AX,31-DEC-2015,,End Of Day,,4.4,4.4,4.325,4.38,6625552,,,Verified
AZJ.AX,01-JAN-2016,,End Of Day,No Trades,,,,,,,,Verified
AZJ.AX,02-JAN-2016,,End Of Day,No Trades,,,,,,,,Verified
AZJ.AX,03-JAN-2016,,End Of Day,No Trades,,,,,,,,Verified
AZJ.AX,04-JAN-2016,,End Of Day,,4.37,4.4,4.285,4.34,8504369,,,Verified
AZJ.AX,05-JAN-2016,,End Of Day,,4.3,4.35,4.25,4.27,10381305,,,Verified
AZJ.AX,06-JAN-2016,,End Of Day,,4.27,4.32,4.24,4.27,7584034,,,Verified
AZJ.AX,07-JAN-2016,,End Of Day,,4.23,4.3,4.2,4.21,10437844,,,Verified
AZJ.AX,08-JAN-2016,,End Of Day,,4.17,4.25,4.14,4.15,7003880,,,Verified
AZJ.AX,09-JAN-2016,,End Of Day,No Trades,,,,,,,,Verified
AZJ.AX,10-JAN-2016,,End Of Day,No Trades,,,,,,,,Verified
AZJ.AX,11-JAN-2016,,End Of Day,,4.06,4.135,4,4.1,10610130,,,Verified
AZJ.AX,12-JAN-2016,,End Of Day,,4.12,4.24,4.07,4.14,8349131,,,Verified
AZJ.AX,13-JAN-2016,,End Of Day,,4.13,4.14,3.87,3.88,12845599,,,Verified
AZJ.AX,14-JAN-2016,,End Of Day,,3.78,3.915,3.75,3.8,11876578,,,Verified
AZJ.AX,15-JAN-2016,,End Of Day,,3.84,3.925,3.82,3.87,8032431,,,Verified
AZJ.AX,16-JAN-2016,,End Of Day,No Trades,,,,,,,,Verified
AZJ.AX,17-JAN-2016,,End Of Day,No Trades,,,,,,,,Verified
AZJ.AX,18-JAN-2016,,End Of Day,,3.8,3.85,3.73,3.83,5371341,,,Verified
AZJ.AX,19-JAN-2016,,End Of Day,,3.79,3.83,3.725,3.75,6191828,,,Verified
AZJ.AX,20-JAN-2016,,End Of Day,,3.75,3.84,3.7,3.74,6975273,,,Verified
AZJ.AX,21-JAN-2016,,End Of Day,,3.77,3.82,3.72,3.73,9232092,,,Verified
AZJ.AX,22-JAN-2016,,End Of Day,,3.76,3.835,3.73,3.74,6661303,,,Verified
AZJ.AX,23-JAN-2016,,End Of Day,No Trades,,,,,,,,Verified
AZJ.AX,24-JAN-2016,,End Of Day,No Trades,,,,,,,,Verified
AZJ.AX,25-JAN-2016,,End Of Day,,3.81,3.89,3.77,3.8,6196303,,,Verified
AZJ.AX,26-JAN-2016,,End Of Day,No Trades,,,,,,,,Verified
AZJ.AX,27-JAN-2016,,End Of Day,,3.75,3.78,3.6,3.61,9455358,,,Verified
AZJ.AX,28-JAN-2016,,End Of Day,,3.63,3.815,3.61,3.78,7921655,,,Verified
AZJ.AX,29-JAN-2016,,End Of Day,,3.74,3.75,3.61,3.69,16499326,,,Verified
AZJ.AX,30-JAN-2016,,End Of Day,No Trades,,,,,,,,Verified
AZJ.AX,31-JAN-2016,,End Of Day,No Trades,,,,,,,,Verified
AZJ.AX,01-FEB-2016,,End Of Day,,3.74,3.8,3.71,3.74,8398321,,,Verified
AZJ.AX,02-FEB-2016,,End Of Day,,3.71,3.74,3.655,3.68,8688854,,,Verified
AZJ.AX,03-FEB-2016,,End Of Day,,3.62,3.68,3.57,3.62,12405675,,,Verified
AZJ.AX,04-FEB-2016,,End Of Day,,3.66,3.735,3.62,3.72,10004813,,,Verified
AZJ.AX,05-FEB-2016,,End Of Day,,3.73,3.92,3.71,3.92,14228001,,,Verified
AZJ.AX,06-FEB-2016,,End Of Day,No Trades,,,,,,,,Verified
AZJ.AX,07-FEB-2016,,End Of Day,No Trades,,,,,,,,Verified
AZJ.AX,08-FEB-2016,,End Of Day,,3.92,4.16,3.91,4.12,15504312,,,Verified
AZJ.AX,09-FEB-2016,,End Of Day,,4.02,4.05,3.94,3.99,12125354,,,Verified
AZJ.AX,10-FEB-2016,,End Of Day,,4.02,4.025,3.81,3.84,6511611,,,Verified
AZJ.AX,11-FEB-2016,,End Of Day,,3.86,3.92,3.85,3.89,6246913,,,Verified
AZJ.AX,12-FEB-2016,,End Of Day,,3.83,3.89,3.78,3.85,6319675,,,Verified
AZJ.AX,13-FEB-2016,,End Of Day,No Trades,,,,,,,,Verified
AZJ.AX,14-FEB-2016,,End Of Day,No Trades,,,,,,,,Verified
AZJ.AX,15-FEB-2016,,End Of Day,,3.6,3.85,3.35,3.42,17854224,,,Verified
AZJ.AX,16-FEB-2016,,End Of Day,,3.55,3.73,3.52,3.67,20883646,,,Verified
AZJ.AX,17-FEB-2016,,End Of Day,,3.71,3.83,3.64,3.71,22865968,,,Verified
AZJ.AX,18-FEB-2016,,End Of Day,,3.77,3.865,3.71,3.81,22334334,,,Verified
AZJ.AX,19-FEB-2016,,End Of Day,,3.84,3.95,3.84,3.91,10959820,,,Verified
AZJ.AX,20-FEB-2016,,End Of Day,No Trades,,,,,,,,Verified
AZJ.AX,21-FEB-2016,,End Of Day,No Trades,,,,,,,,Verified
AZJ.AX,22-FEB-2016,,End Of Day,,3.86,3.92,3.86,3.86,11355824,,,Verified
AZJ.AX,23-FEB-2016,,End Of Day,,3.93,4.04,3.91,3.99,7930124,,,Verified
AZJ.AX,24-FEB-2016,,End Of Day,,3.99,4.03,3.95,4.01,10514242,,,Verified
AZJ.AX,25-FEB-2016,,End Of Day,,4.05,4.05,3.97,4.01,7532744,,,Verified
AZJ.AX,26-FEB-2016,,End Of Day,,3.9,4.005,3.895,3.97,8129625,,,Verified
AZJ.AX,27-FEB-2016,,End Of Day,No Trades,,,,,,,,Verified
AZJ.AX,28-FEB-2016,,End Of Day,No Trades,,,,,,,,Verified
AZJ.AX,29-FEB-2016,,End Of Day,,3.97,4.13,3.94,4.07,10725130,,,Verified
AZJ.AX,01-MAR-2016,,End Of Day,,4.03,4.16,4.03,4.14,10582210,,,Verified
AZJ.AX,02-MAR-2016,,End Of Day,,4.15,4.19,4.08,4.11,11459685,,,Verified
AZJ.AX,03-MAR-2016,,End Of Day,,4.08,4.13,4.005,4.04,7955586,,,Verified
AZJ.AX,04-MAR-2016,,End Of Day,,4.05,4.15,4.02,4.14,7115965,,,Verified
AZJ.AX,05-MAR-2016,,End Of Day,No Trades,,,,,,,,Verified
AZJ.AX,06-MAR-2016,,End Of Day,No Trades,,,,,,,,Verified
AZJ.AX,07-MAR-2016,,End Of Day,,4.14,4.17,4.055,4.06,5768657,,,Verified
AZJ.AX,08-MAR-2016,,End Of Day,,4.06,4.13,4.02,4.09,7591355,,,Verified
AZJ.AX,09-MAR-2016,,End Of Day,,4.1,4.11,4.02,4.09,8881960,,,Verified
AZJ.AX,10-MAR-2016,,End Of Day,,4.04,4.12,4,4.07,12899532,,,Verified
AZJ.AX,11-MAR-2016,,End Of Day,,4.09,4.1,4.02,4.02,12461143,,,Verified
AZJ.AX,12-MAR-2016,,End Of Day,No Trades,,,,,,,,Verified
AZJ.AX,13-MAR-2016,,End Of Day,No Trades,,,,,,,,Verified
AZJ.AX,14-MAR-2016,,End Of Day,,4.05,4.13,4.04,4.1,4465450,,,Verified
AZJ.AX,15-MAR-2016,,End Of Day,,4.06,4.09,4.03,4.04,4605433,,,Verified
AZJ.AX,16-MAR-2016,,End Of Day,,4,4.04,3.95,3.99,6659701,,,Verified
AZJ.AX,17-MAR-2016,,End Of Day,,3.93,3.96,3.73,3.91,22327233,,,Verified
AZJ.AX,18-MAR-2016,,End Of Day,,3.97,3.99,3.905,3.97,6415833,,,Verified
AZJ.AX,19-MAR-2016,,End Of Day,No Trades,,,,,,,,Verified
AZJ.AX,20-MAR-2016,,End Of Day,No Trades,,,,,,,,Verified
AZJ.AX,21-MAR-2016,,End Of Day,,3.97,3.98,3.92,3.95,3730854,,,Verified
AZJ.AX,22-MAR-2016,,End Of Day,,3.96,4.01,3.95,3.96,4923758,,,Verified
AZJ.AX,23-MAR-2016,,End Of Day,,3.99,3.99,3.915,3.96,2799070,,,Verified
AZJ.AX,24-MAR-2016,,End Of Day,,3.95,4.01,3.92,3.98,6853938,,,Verified
AZJ.AX,25-MAR-2016,,End Of Day,No Trades,,,,,,,,Verified
AZJ.AX,26-MAR-2016,,End Of Day,No Trades,,,,,,,,Verified
AZJ.AX,27-MAR-2016,,End Of Day,No Trades,,,,,,,,Verified
AZJ.AX,28-MAR-2016,,End Of Day,No Trades,,,,,,,,Verified
AZJ.AX,29-MAR-2016,,End Of Day,,3.99,4.03,3.95,3.95,5292682,,,Verified
AZJ.AX,30-MAR-2016,,End Of Day,,3.99,4.01,3.935,3.95,3580082,,,Verified
AZJ.AX,31-MAR-2016,,End Of Day,,4.01,4.03,3.93,3.96,8972879,,,Verified
AZJ.AX,01-APR-2016,,End Of Day,,3.92,4,3.91,3.98,7751628,,,Verified
AZJ.AX,02-APR-2016,,End Of Day,No Trades,,,,,,,,Verified
AZJ.AX,03-APR-2016,,End Of Day,No Trades,,,,,,,,Verified
AZJ.AX,04-APR-2016,,End Of Day,,4,4.04,3.94,3.94,2772832,,,Verified
AZJ.AX,05-APR-2016,,End Of Day,,3.9,3.95,3.79,3.83,6814937,,,Verified
AZJ.AX,06-APR-2016,,End Of Day,,3.83,3.91,3.82,3.89,4069942,,,Verified
AZJ.AX,07-APR-2016,,End Of Day,,3.87,3.91,3.81,3.81,10390523,,,Verified
AZJ.AX,08-APR-2016,,End Of Day,,3.76,3.83,3.76,3.82,7263738,,,Verified
AZJ.AX,09-APR-2016,,End Of Day,No Trades,,,,,,,,Verified
AZJ.AX,10-APR-2016,,End Of Day,No Trades,,,,,,,,Verified
AZJ.AX,11-APR-2016,,End Of Day,,3.87,3.87,3.81,3.85,3151217,,,Verified
AZJ.AX,12-APR-2016,,End Of Day,,3.84,3.86,3.8,3.84,5244170,,,Verified
AZJ.AX,13-APR-2016,,End Of Day,,3.88,3.9,3.85,3.86,13868840,,,Verified
AZJ.AX,14-APR-2016,,End Of Day,,3.85,4.08,3.835,4.07,19403122,,,Verified
AZJ.AX,15-APR-2016,,End Of Day,,4.06,4.09,4.02,4.09,5745106,,,Verified
AZJ.AX,16-APR-2016,,End Of Day,No Trades,,,,,,,,Verified
AZJ.AX,17-APR-2016,,End Of Day,No Trades,,,,,,,,Verified
AZJ.AX,18-APR-2016,,End Of Day,,4.05,4.17,4.04,4.11,8354231,,,Verified
AZJ.AX,19-APR-2016,,End Of Day,,4.19,4.29,4.16,4.2,8044107,,,Verified
AZJ.AX,20-APR-2016,,End Of Day,,4.18,4.355,4.18,4.33,8337002,,,Verified
AZJ.AX,21-APR-2016,,End Of Day,,4.4,4.405,4.34,4.39,8391471,,,Verified
AZJ.AX,22-APR-2016,,End Of Day,,4.36,4.39,4.26,4.29,7296186,,,Verified
AZJ.AX,23-APR-2016,,End Of Day,No Trades,,,,,,,,Verified
AZJ.AX,24-APR-2016,,End Of Day,No Trades,,,,,,,,Verified
AZJ.AX,25-APR-2016,,End Of Day,No Trades,,,,,,,,Verified
AZJ.AX,26-APR-2016,,End Of Day,,4.31,4.36,4.26,4.3,7753778,,,Verified
AZJ.AX,27-APR-2016,,End Of Day,,4.33,4.36,4.24,4.26,6203591,,,Verified
AZJ.AX,28-APR-2016,,End Of Day,,4.26,4.29,4.22,4.26,25424129,,,Verified
AZJ.AX,29-APR-2016,,End Of Day,,4.26,4.28,4.21,4.27,9762135,,,Verified
AZJ.AX,30-APR-2016,,End Of Day,No Trades,,,,,,,,Verified
AZJ.AX,01-MAY-2016,,End Of Day,No Trades,,,,,,,,Verified
AZJ.AX,02-MAY-2016,,End Of Day,,4.28,4.33,4.21,4.33,6630438,,,Verified
AZJ.AX,03-MAY-2016,,End Of Day,,4.32,4.47,4.305,4.45,16799037,,,Verified
AZJ.AX,04-MAY-2016,,End Of Day,,4.43,4.45,4.35,4.36,6010486,,,Verified
AZJ.AX,05-MAY-2016,,End Of Day,,4.34,4.44,4.32,4.41,4326340,,,Verified
AZJ.AX,06-MAY-2016,,End Of Day,,4.4,4.47,4.35,4.37,12542870,,,Verified
AZJ.AX,07-MAY-2016,,End Of Day,No Trades,,,,,,,,Verified
AZJ.AX,08-MAY-2016,,End Of Day,No Trades,,,,,,,,Verified
AZJ.AX,09-MAY-2016,,End Of Day,,4.35,4.45,4.32,4.45,11508862,,,Verified
AZJ.AX,10-MAY-2016,,End Of Day,,4.42,4.44,4.29,4.44,6634472,,,Verified
AZJ.AX,11-MAY-2016,,End Of Day,,4.48,4.59,4.48,4.55,10842263,,,Verified
