{
"Name": "Vicinity Centres (VCX.AX)",
"Market Cap (intraday)": "12.94B",
"Enterprise Value (28/05/2016)": "17.33B",
"Trailing P/E (ttm, intraday):": "16.03",
"Forward P/E (fye 30/06/2017)": "17.21",
"PEG Ratio (5 yr expected)": "3.49",
"Price/Sales (ttm):": "11.13",
"Price/Book (mrq):": "1.21",
"Enterprise Value/Revenue (ttm)": "14.91",
"Enterprise Value/EBITDA (ttm)": "24.26",
"Fiscal Year Ends:": "30 Jun",
"Most Recent Quarter (mrq):": "30/12/2015",
"Profit Margin (ttm):": "59.09%",
"Operating Margin (ttm):": "61.15%",
"Return on Assets (ttm):": "3.45%",
"Return on Equity (ttm):": "8.07%",
"Revenue (ttm):": "1.16B",
"Revenue Per Share (ttm):": "0.35",
"Qtrly Revenue Growth (yoy):": "64.70%",
"Gross Profit (ttm):": "675.00M",
"EBITDA (ttm)": "714.40M",
"Net Income Avl to Common (ttm):": "687.00M",
"Diluted EPS (ttm):": "0.20",
"Qtrly Earnings Growth (yoy):": "2.90%",
"Total Cash (mrq):": "124.40M",
"Total Cash Per Share (mrq):": "0.03",
"Total Debt (mrq):": "4.75B",
"Total Debt/Equity (mrq):": "44.57",
"Current Ratio (mrq):": "0.22",
"Book Value Per Share (mrq):": "2.70",
"Operating Cash Flow (ttm):": "583.80M",
"Levered Free Cash Flow (ttm):": "668.01M",
"Beta:": "N/A",
"52-Week Change": "8.28%",
"S&P500 52-Week Change": "-0.60%",
"52-Week High (11/05/2016)": "3.53",
"52-Week Low (21/09/2015)": "2.58",
"50-Day Moving Average": "3.30",
"200-Day Moving Average": "3.01",
"Avg Vol (3 month)": "9,401,860",
"Avg Vol (10 day)": "9,381,220",
"Shares Outstanding": "3.96B",
"Float:": "2.61B",
"% Held by Insiders": "N/A",
"% Held by Institutions": "N/A",
"Shares Short ": "N/A",
"Short Ratio ": "N/A",
"Short % of Float ": "N/A",
"Shares Short (prior month)": "N/A",
"Forward Annual Dividend Rate": "N/A",
"Forward Annual Dividend Yield": "N/A",
"Trailing Annual Dividend Yield": "0.17",
"Trailing Annual Dividend Yield": "5.30%",
"5 Year Average Dividend Yield": "N/A",
"Payout Ratio": "N/A",
"Dividend Date": "N/A",
"Ex-Dividend Date": "N/A",
"Last Split Factor (new per old)": "N/A",
"Last Split Date": "N/A"
}
