#RIC,Date[L],Time[L],Type,Qualifiers,Open,High,Low,Last,Volume,Open Interest,Settle,Data Source
QANDA.AX,27-OCT-2015,,End Of Day,,3.81,3.95,3.79,3.91,2837091,,,Verified
QANDA.AX,28-OCT-2015,,End Of Day,,3.91,4.03,3.91,4.03,4997583,,,Verified
QANDA.AX,29-OCT-2015,,End Of Day,,3.99,4.015,3.91,4,7123623,,,Verified
QANDA.AX,30-OCT-2015,,End Of Day,,3.92,3.96,3.91,3.95,7633242,,,Verified
QANDA.AX,31-OCT-2015,,End Of Day,No Trades,,,,,,,,Verified
QANDA.AX,01-NOV-2015,,End Of Day,No Trades,,,,,,,,Verified
QANDA.AX,02-NOV-2015,,End Of Day,,3.95,3.97,3.84,3.84,3394293,,,Verified
QANDA.AX,03-NOV-2015,,End Of Day,,3.91,3.93,3.77,3.82,5612245,,,Verified
QANDA.AX,04-NOV-2015,,End Of Day,,3.86,3.915,3.78,3.83,8656483,,,Verified
QANDA.AX,05-NOV-2015,,End Of Day,,3.9,3.9,3.71,3.75,6798274,,,Verified
QANDA.AX,06-NOV-2015,,End Of Day,,3.74,3.77,3.67,3.71,6958903,,,Verified
