#RIC,Date[L],Time[L],Type,Qualifiers,Open,High,Low,Last,Volume,Open Interest,Settle,Data Source
DMP.AX,01-JAN-2014,,End Of Day,No Trades,,,,,,,,Verified
DMP.AX,02-JAN-2014,,End Of Day,,16.2,16.51,16.2,16.4,58368,,,Verified
DMP.AX,03-JAN-2014,,End Of Day,,16.6,16.705,16.335,16.7,112260,,,Verified
DMP.AX,04-JAN-2014,,End Of Day,No Trades,,,,,,,,Verified
DMP.AX,05-JAN-2014,,End Of Day,No Trades,,,,,,,,Verified
DMP.AX,06-JAN-2014,,End Of Day,,16.72,17.05,16.72,16.89,124830,,,Verified
DMP.AX,07-JAN-2014,,End Of Day,,17.02,17.13,16.95,17.08,105041,,,Verified
DMP.AX,08-JAN-2014,,End Of Day,,17.24,17.37,17.09,17.26,102022,,,Verified
DMP.AX,09-JAN-2014,,End Of Day,,17.37,17.47,17.07,17.3,81884,,,Verified
DMP.AX,10-JAN-2014,,End Of Day,,17.4,17.5,16.83,17.2,128887,,,Verified
DMP.AX,11-JAN-2014,,End Of Day,No Trades,,,,,,,,Verified
DMP.AX,12-JAN-2014,,End Of Day,No Trades,,,,,,,,Verified
DMP.AX,13-JAN-2014,,End Of Day,,17.21,17.25,16.49,16.6,101960,,,Verified
DMP.AX,14-JAN-2014,,End Of Day,,16.37,16.54,16.1,16.17,158382,,,Verified
DMP.AX,15-JAN-2014,,End Of Day,,16.3,16.64,16.24,16.6,88893,,,Verified
DMP.AX,16-JAN-2014,,End Of Day,,16.7,16.82,16.68,16.79,79687,,,Verified
DMP.AX,17-JAN-2014,,End Of Day,,16.72,16.72,16.35,16.47,80044,,,Verified
DMP.AX,18-JAN-2014,,End Of Day,No Trades,,,,,,,,Verified
DMP.AX,19-JAN-2014,,End Of Day,No Trades,,,,,,,,Verified
DMP.AX,20-JAN-2014,,End Of Day,,16.42,16.45,15.8,15.85,160379,,,Verified
DMP.AX,21-JAN-2014,,End Of Day,,15.8,16.12,15.55,16.11,113499,,,Verified
DMP.AX,22-JAN-2014,,End Of Day,,16.13,16.37,16.13,16.25,130017,,,Verified
DMP.AX,23-JAN-2014,,End Of Day,,16.26,16.27,15.79,15.81,102920,,,Verified
DMP.AX,24-JAN-2014,,End Of Day,,15.75,16.01,15.6,15.92,181111,,,Verified
DMP.AX,25-JAN-2014,,End Of Day,No Trades,,,,,,,,Verified
DMP.AX,26-JAN-2014,,End Of Day,No Trades,,,,,,,,Verified
DMP.AX,27-JAN-2014,,End Of Day,No Trades,,,,,,,,Verified
DMP.AX,28-JAN-2014,,End Of Day,,15.72,15.92,15.6,15.71,116613,,,Verified
DMP.AX,29-JAN-2014,,End Of Day,,15.82,15.94,15.76,15.83,144295,,,Verified
DMP.AX,30-JAN-2014,,End Of Day,,15.7,16,15.55,15.94,194636,,,Verified
DMP.AX,31-JAN-2014,,End Of Day,,15.94,16.26,15.79,16.25,103312,,,Verified
DMP.AX,01-FEB-2014,,End Of Day,No Trades,,,,,,,,Verified
DMP.AX,02-FEB-2014,,End Of Day,No Trades,,,,,,,,Verified
DMP.AX,03-FEB-2014,,End Of Day,,16.17,16.22,16.05,16.11,98292,,,Verified
DMP.AX,04-FEB-2014,,End Of Day,,15.79,16.05,15.73,15.95,159948,,,Verified
DMP.AX,05-FEB-2014,,End Of Day,,15.82,16.04,15.69,16,105223,,,Verified
DMP.AX,06-FEB-2014,,End Of Day,,15.95,16.31,15.74,16.31,113295,,,Verified
DMP.AX,07-FEB-2014,,End Of Day,,16.33,16.71,16.32,16.69,180758,,,Verified
DMP.AX,08-FEB-2014,,End Of Day,No Trades,,,,,,,,Verified
DMP.AX,09-FEB-2014,,End Of Day,No Trades,,,,,,,,Verified
DMP.AX,10-FEB-2014,,End Of Day,,17,17.06,16.18,16.8,229358,,,Verified
DMP.AX,11-FEB-2014,,End Of Day,,16.82,17.17,16.64,17.13,177429,,,Verified
DMP.AX,12-FEB-2014,,End Of Day,,17.61,19.77,17.56,19.25,502703,,,Verified
DMP.AX,13-FEB-2014,,End Of Day,,19.25,20.1,18.72,18.81,544214,,,Verified
DMP.AX,14-FEB-2014,,End Of Day,,18.59,19.66,18,19.51,331066,,,Verified
DMP.AX,15-FEB-2014,,End Of Day,No Trades,,,,,,,,Verified
DMP.AX,16-FEB-2014,,End Of Day,No Trades,,,,,,,,Verified
DMP.AX,17-FEB-2014,,End Of Day,,19.75,20.19,19.75,19.99,239789,,,Verified
DMP.AX,18-FEB-2014,,End Of Day,,20.06,21.22,20.06,20.56,576743,,,Verified
DMP.AX,19-FEB-2014,,End Of Day,,20.67,20.7,19.87,19.99,300229,,,Verified
DMP.AX,20-FEB-2014,,End Of Day,,19.83,20.58,19.52,20.45,327808,,,Verified
DMP.AX,21-FEB-2014,,End Of Day,,20.7,21.21,20.69,20.83,253614,,,Verified
DMP.AX,22-FEB-2014,,End Of Day,No Trades,,,,,,,,Verified
DMP.AX,23-FEB-2014,,End Of Day,No Trades,,,,,,,,Verified
DMP.AX,24-FEB-2014,,End Of Day,,20.83,20.98,20.52,20.93,132512,,,Verified
DMP.AX,25-FEB-2014,,End Of Day,,21.2,21.45,20.6,20.63,104058,,,Verified
DMP.AX,26-FEB-2014,,End Of Day,,20.63,20.98,20.5,20.96,141125,,,Verified
DMP.AX,27-FEB-2014,,End Of Day,,20.84,20.97,20.35,20.47,75175,,,Verified
DMP.AX,28-FEB-2014,,End Of Day,,20.5,20.6,20.27,20.47,228412,,,Verified
DMP.AX,01-MAR-2014,,End Of Day,No Trades,,,,,,,,Verified
DMP.AX,02-MAR-2014,,End Of Day,No Trades,,,,,,,,Verified
DMP.AX,03-MAR-2014,,End Of Day,,20.46,20.81,20.25,20.72,110396,,,Verified
DMP.AX,04-MAR-2014,,End Of Day,,20.73,21.32,20.68,21.32,159820,,,Verified
DMP.AX,05-MAR-2014,,End Of Day,,21.45,21.92,21.09,21.32,181332,,,Verified
DMP.AX,06-MAR-2014,,End Of Day,,21.35,21.81,21.18,21.71,133958,,,Verified
DMP.AX,07-MAR-2014,,End Of Day,,21.75,21.95,21.3,21.57,163408,,,Verified
DMP.AX,08-MAR-2014,,End Of Day,No Trades,,,,,,,,Verified
DMP.AX,09-MAR-2014,,End Of Day,No Trades,,,,,,,,Verified
DMP.AX,10-MAR-2014,,End Of Day,,21.57,22.32,21.51,22.29,161800,,,Verified
DMP.AX,11-MAR-2014,,End Of Day,,22.29,22.3,21.66,21.91,166540,,,Verified
DMP.AX,12-MAR-2014,,End Of Day,,21.82,21.82,20.88,21.4,201808,,,Verified
DMP.AX,13-MAR-2014,,End Of Day,,21.4,21.4,20.7,20.75,239232,,,Verified
DMP.AX,14-MAR-2014,,End Of Day,,20.4,20.62,20.02,20.37,220949,,,Verified
DMP.AX,15-MAR-2014,,End Of Day,No Trades,,,,,,,,Verified
DMP.AX,16-MAR-2014,,End Of Day,No Trades,,,,,,,,Verified
DMP.AX,17-MAR-2014,,End Of Day,,20.36,20.68,20.14,20.49,298459,,,Verified
DMP.AX,18-MAR-2014,,End Of Day,,20.62,21,20.53,20.7,162365,,,Verified
DMP.AX,19-MAR-2014,,End Of Day,,20.77,21.33,20.73,21.07,309990,,,Verified
DMP.AX,20-MAR-2014,,End Of Day,,20.7,20.98,20.48,20.65,259756,,,Verified
DMP.AX,21-MAR-2014,,End Of Day,,20.73,21.03,20.71,20.85,528744,,,Verified
DMP.AX,22-MAR-2014,,End Of Day,No Trades,,,,,,,,Verified
DMP.AX,23-MAR-2014,,End Of Day,No Trades,,,,,,,,Verified
DMP.AX,24-MAR-2014,,End Of Day,,20.71,20.95,20.35,20.4,358816,,,Verified
DMP.AX,25-MAR-2014,,End Of Day,,20.15,20.28,19.51,19.57,360838,,,Verified
DMP.AX,26-MAR-2014,,End Of Day,,19.53,19.99,19.53,19.67,265409,,,Verified
DMP.AX,27-MAR-2014,,End Of Day,,19.15,19.46,19.03,19.14,235685,,,Verified
DMP.AX,28-MAR-2014,,End Of Day,,19.06,19.59,19.04,19.51,388090,,,Verified
DMP.AX,29-MAR-2014,,End Of Day,No Trades,,,,,,,,Verified
DMP.AX,30-MAR-2014,,End Of Day,No Trades,,,,,,,,Verified
DMP.AX,31-MAR-2014,,End Of Day,,19.73,20.32,19.73,20,448075,,,Verified
DMP.AX,01-APR-2014,,End Of Day,,19.88,20.07,19.68,19.85,277090,,,Verified
DMP.AX,02-APR-2014,,End Of Day,,19.95,19.99,19.62,19.89,94418,,,Verified
DMP.AX,03-APR-2014,,End Of Day,,19.92,19.92,19.46,19.52,138110,,,Verified
DMP.AX,04-APR-2014,,End Of Day,,19.5,19.63,19.32,19.54,250150,,,Verified
DMP.AX,05-APR-2014,,End Of Day,No Trades,,,,,,,,Verified
DMP.AX,06-APR-2014,,End Of Day,No Trades,,,,,,,,Verified
DMP.AX,07-APR-2014,,End Of Day,,19.33,19.51,19.09,19.09,350436,,,Verified
DMP.AX,08-APR-2014,,End Of Day,,19,19.07,18.7,18.92,252447,,,Verified
DMP.AX,09-APR-2014,,End Of Day,,19.17,19.82,19.13,19.71,269010,,,Verified
DMP.AX,10-APR-2014,,End Of Day,,20.15,20.4,19.82,20.03,288112,,,Verified
DMP.AX,11-APR-2014,,End Of Day,,19.79,19.79,19.35,19.59,121663,,,Verified
DMP.AX,12-APR-2014,,End Of Day,No Trades,,,,,,,,Verified
DMP.AX,13-APR-2014,,End Of Day,No Trades,,,,,,,,Verified
DMP.AX,14-APR-2014,,End Of Day,,19.59,19.8,19.02,19.02,187395,,,Verified
DMP.AX,15-APR-2014,,End Of Day,,19.15,19.89,19.15,19.7,289129,,,Verified
DMP.AX,16-APR-2014,,End Of Day,,19.76,19.85,19.405,19.6,161621,,,Verified
DMP.AX,17-APR-2014,,End Of Day,,19.83,19.83,19.5,19.75,85346,,,Verified
DMP.AX,18-APR-2014,,End Of Day,No Trades,,,,,,,,Verified
DMP.AX,19-APR-2014,,End Of Day,No Trades,,,,,,,,Verified
DMP.AX,20-APR-2014,,End Of Day,No Trades,,,,,,,,Verified
DMP.AX,21-APR-2014,,End Of Day,No Trades,,,,,,,,Verified
DMP.AX,22-APR-2014,,End Of Day,,19.8,19.96,19.66,19.86,94547,,,Verified
DMP.AX,23-APR-2014,,End Of Day,,20.15,20.82,19.98,20.67,342476,,,Verified
DMP.AX,24-APR-2014,,End Of Day,,20.81,21.06,20.26,20.64,165422,,,Verified
DMP.AX,25-APR-2014,,End Of Day,No Trades,,,,,,,,Verified
DMP.AX,26-APR-2014,,End Of Day,No Trades,,,,,,,,Verified
DMP.AX,27-APR-2014,,End Of Day,No Trades,,,,,,,,Verified
DMP.AX,28-APR-2014,,End Of Day,,20.32,20.53,19.91,20.19,126925,,,Verified
DMP.AX,29-APR-2014,,End Of Day,,20.5,20.52,19.04,19.55,289953,,,Verified
DMP.AX,30-APR-2014,,End Of Day,,19.7,19.9,19.57,19.8,95061,,,Verified
DMP.AX,01-MAY-2014,,End Of Day,,20,20.13,19.51,19.81,142934,,,Verified
DMP.AX,02-MAY-2014,,End Of Day,,19.81,19.9,19.33,19.63,98207,,,Verified
DMP.AX,03-MAY-2014,,End Of Day,No Trades,,,,,,,,Verified
DMP.AX,04-MAY-2014,,End Of Day,No Trades,,,,,,,,Verified
DMP.AX,05-MAY-2014,,End Of Day,,19.69,19.84,19.13,19.34,88631,,,Verified
DMP.AX,06-MAY-2014,,End Of Day,,19.4,19.8,19.38,19.6,84398,,,Verified
DMP.AX,07-MAY-2014,,End Of Day,,19.59,19.59,19.2,19.38,72208,,,Verified
DMP.AX,08-MAY-2014,,End Of Day,,19.29,19.37,19.16,19.27,81839,,,Verified
DMP.AX,09-MAY-2014,,End Of Day,,19.16,19.2,18.62,18.65,264007,,,Verified
DMP.AX,10-MAY-2014,,End Of Day,No Trades,,,,,,,,Verified
DMP.AX,11-MAY-2014,,End Of Day,No Trades,,,,,,,,Verified
DMP.AX,12-MAY-2014,,End Of Day,,18.59,19.27,18.55,18.69,279289,,,Verified
DMP.AX,13-MAY-2014,,End Of Day,,18.82,19.25,18.8,19.23,236029,,,Verified
DMP.AX,14-MAY-2014,,End Of Day,,19.45,19.9,19.38,19.78,198458,,,Verified
DMP.AX,15-MAY-2014,,End Of Day,,19.62,19.76,19.44,19.61,108709,,,Verified
DMP.AX,16-MAY-2014,,End Of Day,,19.45,19.59,19.26,19.53,98003,,,Verified
DMP.AX,17-MAY-2014,,End Of Day,No Trades,,,,,,,,Verified
DMP.AX,18-MAY-2014,,End Of Day,No Trades,,,,,,,,Verified
DMP.AX,19-MAY-2014,,End Of Day,,19.57,19.57,18.815,18.93,148951,,,Verified
DMP.AX,20-MAY-2014,,End Of Day,,18.98,19.45,18.93,19.14,165372,,,Verified
DMP.AX,21-MAY-2014,,End Of Day,,19.01,19.15,18.63,18.97,246139,,,Verified
DMP.AX,22-MAY-2014,,End Of Day,,19.1,19.855,19.08,19.79,193765,,,Verified
DMP.AX,23-MAY-2014,,End Of Day,,19.82,20.46,19.68,20.14,193213,,,Verified
DMP.AX,24-MAY-2014,,End Of Day,No Trades,,,,,,,,Verified
DMP.AX,25-MAY-2014,,End Of Day,No Trades,,,,,,,,Verified
DMP.AX,26-MAY-2014,,End Of Day,,20.2,20.57,20.03,20.52,114244,,,Verified
DMP.AX,27-MAY-2014,,End Of Day,,20.54,20.87,20.29,20.79,155273,,,Verified
DMP.AX,28-MAY-2014,,End Of Day,,20.9,20.9,20.38,20.77,121682,,,Verified
DMP.AX,29-MAY-2014,,End Of Day,,20.72,21.29,20.72,21.08,276600,,,Verified
DMP.AX,30-MAY-2014,,End Of Day,,21.2,21.56,21.03,21.05,296195,,,Verified
DMP.AX,31-MAY-2014,,End Of Day,No Trades,,,,,,,,Verified
DMP.AX,01-JUN-2014,,End Of Day,No Trades,,,,,,,,Verified
DMP.AX,02-JUN-2014,,End Of Day,,21.12,21.32,21.05,21.15,148111,,,Verified
DMP.AX,03-JUN-2014,,End Of Day,,21.16,21.17,20.36,20.45,228340,,,Verified
DMP.AX,04-JUN-2014,,End Of Day,,20.45,20.56,20.35,20.45,111435,,,Verified
DMP.AX,05-JUN-2014,,End Of Day,,20.44,20.44,19.82,20.2,217343,,,Verified
DMP.AX,06-JUN-2014,,End Of Day,,20.08,20.5,19.94,20.22,110130,,,Verified
DMP.AX,07-JUN-2014,,End Of Day,No Trades,,,,,,,,Verified
DMP.AX,08-JUN-2014,,End Of Day,No Trades,,,,,,,,Verified
DMP.AX,09-JUN-2014,,End Of Day,No Trades,,,,,,,,Verified
DMP.AX,10-JUN-2014,,End Of Day,,20.3,20.49,20.05,20.26,199439,,,Verified
DMP.AX,11-JUN-2014,,End Of Day,,20.09,20.48,19.94,20.25,119180,,,Verified
DMP.AX,12-JUN-2014,,End Of Day,,19.98,20.19,19.8,20.09,153404,,,Verified
DMP.AX,13-JUN-2014,,End Of Day,,19.78,19.96,19.65,19.94,235364,,,Verified
DMP.AX,14-JUN-2014,,End Of Day,No Trades,,,,,,,,Verified
DMP.AX,15-JUN-2014,,End Of Day,No Trades,,,,,,,,Verified
DMP.AX,16-JUN-2014,,End Of Day,,19.8,20,19.74,19.94,104279,,,Verified
DMP.AX,17-JUN-2014,,End Of Day,,19.85,20.44,19.65,20.3,112899,,,Verified
DMP.AX,18-JUN-2014,,End Of Day,,20.37,20.95,20.32,20.77,113898,,,Verified
DMP.AX,19-JUN-2014,,End Of Day,,20.9,21.07,20.82,20.93,258654,,,Verified
DMP.AX,20-JUN-2014,,End Of Day,,20.76,20.93,20.6,20.79,97162,,,Verified
DMP.AX,21-JUN-2014,,End Of Day,No Trades,,,,,,,,Verified
DMP.AX,22-JUN-2014,,End Of Day,No Trades,,,,,,,,Verified
DMP.AX,23-JUN-2014,,End Of Day,,20.56,21.09,20.4,20.9,134024,,,Verified
DMP.AX,24-JUN-2014,,End Of Day,,20.84,21.04,20.6,21.01,196028,,,Verified
DMP.AX,25-JUN-2014,,End Of Day,,20.88,21.15,20.43,21.11,103398,,,Verified
DMP.AX,26-JUN-2014,,End Of Day,,21.11,22.14,21.05,22.01,207522,,,Verified
DMP.AX,27-JUN-2014,,End Of Day,,22.03,22.185,21.8,21.82,206022,,,Verified
DMP.AX,28-JUN-2014,,End Of Day,No Trades,,,,,,,,Verified
DMP.AX,29-JUN-2014,,End Of Day,No Trades,,,,,,,,Verified
DMP.AX,30-JUN-2014,,End Of Day,,21.82,21.86,21.46,21.46,86149,,,Verified
DMP.AX,01-JUL-2014,,End Of Day,,21.45,22.21,21.45,22,193045,,,Verified
DMP.AX,02-JUL-2014,,End Of Day,,22.14,22.63,22.12,22.56,165082,,,Verified
DMP.AX,03-JUL-2014,,End Of Day,,21.9,22.98,21.76,22.41,189073,,,Verified
DMP.AX,04-JUL-2014,,End Of Day,,22.56,22.69,22.44,22.59,113127,,,Verified
DMP.AX,05-JUL-2014,,End Of Day,No Trades,,,,,,,,Verified
DMP.AX,06-JUL-2014,,End Of Day,No Trades,,,,,,,,Verified
DMP.AX,07-JUL-2014,,End Of Day,,22.74,22.88,22,22.02,153604,,,Verified
DMP.AX,08-JUL-2014,,End Of Day,,22.02,22.36,21.72,22.1,161679,,,Verified
DMP.AX,09-JUL-2014,,End Of Day,,21.76,21.76,21.14,21.32,137437,,,Verified
DMP.AX,10-JUL-2014,,End Of Day,,21.4,21.9,21.39,21.66,194088,,,Verified
DMP.AX,11-JUL-2014,,End Of Day,,21.4,21.6,21.25,21.48,73076,,,Verified
DMP.AX,12-JUL-2014,,End Of Day,No Trades,,,,,,,,Verified
DMP.AX,13-JUL-2014,,End Of Day,No Trades,,,,,,,,Verified
DMP.AX,14-JUL-2014,,End Of Day,,21.48,21.48,21.32,21.36,100604,,,Verified
DMP.AX,15-JUL-2014,,End Of Day,,21.6,21.63,21.36,21.41,83804,,,Verified
DMP.AX,16-JUL-2014,,End Of Day,,21.36,21.45,21.08,21.2,93538,,,Verified
DMP.AX,17-JUL-2014,,End Of Day,,21.7,21.7,21.03,21.05,203565,,,Verified
DMP.AX,18-JUL-2014,,End Of Day,,20.96,20.97,20.51,20.78,172812,,,Verified
DMP.AX,19-JUL-2014,,End Of Day,No Trades,,,,,,,,Verified
DMP.AX,20-JUL-2014,,End Of Day,No Trades,,,,,,,,Verified
DMP.AX,21-JUL-2014,,End Of Day,,20.76,20.87,20.59,20.59,171218,,,Verified
DMP.AX,22-JUL-2014,,End Of Day,,20.54,20.71,20.43,20.71,181140,,,Verified
DMP.AX,23-JUL-2014,,End Of Day,,20.75,21.03,20.49,20.52,211227,,,Verified
DMP.AX,24-JUL-2014,,End Of Day,,20.61,20.86,20.54,20.83,143662,,,Verified
DMP.AX,25-JUL-2014,,End Of Day,,20.73,21.01,20.56,20.91,279691,,,Verified
DMP.AX,26-JUL-2014,,End Of Day,No Trades,,,,,,,,Verified
DMP.AX,27-JUL-2014,,End Of Day,No Trades,,,,,,,,Verified
DMP.AX,28-JUL-2014,,End Of Day,,20.91,21.17,20.89,21.11,158235,,,Verified
DMP.AX,29-JUL-2014,,End Of Day,,21.11,21.67,21.1,21.54,162964,,,Verified
DMP.AX,30-JUL-2014,,End Of Day,,21.64,22.01,21.45,21.48,159591,,,Verified
DMP.AX,31-JUL-2014,,End Of Day,,21.49,21.75,21.46,21.58,62095,,,Verified
DMP.AX,01-AUG-2014,,End Of Day,,21.09,21.33,21.06,21.24,257538,,,Verified
DMP.AX,02-AUG-2014,,End Of Day,No Trades,,,,,,,,Verified
DMP.AX,03-AUG-2014,,End Of Day,No Trades,,,,,,,,Verified
DMP.AX,04-AUG-2014,,End Of Day,,21.2,21.34,21.04,21.1,88348,,,Verified
DMP.AX,05-AUG-2014,,End Of Day,,21.1,21.22,20.82,20.87,162987,,,Verified
DMP.AX,06-AUG-2014,,End Of Day,,20.75,20.84,20.65,20.75,105823,,,Verified
DMP.AX,07-AUG-2014,,End Of Day,,20.8,21.04,20.77,21.04,321402,,,Verified
DMP.AX,08-AUG-2014,,End Of Day,,20.91,21.15,20.45,20.5,296147,,,Verified
DMP.AX,09-AUG-2014,,End Of Day,No Trades,,,,,,,,Verified
DMP.AX,10-AUG-2014,,End Of Day,No Trades,,,,,,,,Verified
DMP.AX,11-AUG-2014,,End Of Day,,20.51,20.76,20.08,20.61,385050,,,Verified
DMP.AX,12-AUG-2014,,End Of Day,,21.73,23.58,21.55,23.39,744443,,,Verified
DMP.AX,13-AUG-2014,,End Of Day,,23.99,24.28,23.47,23.65,605285,,,Verified
DMP.AX,14-AUG-2014,,End Of Day,,23.7,24.18,23.7,23.98,284973,,,Verified
DMP.AX,15-AUG-2014,,End Of Day,,24.1,24.8,24.04,24.78,400541,,,Verified
DMP.AX,16-AUG-2014,,End Of Day,No Trades,,,,,,,,Verified
DMP.AX,17-AUG-2014,,End Of Day,No Trades,,,,,,,,Verified
DMP.AX,18-AUG-2014,,End Of Day,,24.78,25.42,24.78,25.28,344090,,,Verified
DMP.AX,19-AUG-2014,,End Of Day,,25.5,25.61,25.26,25.34,602035,,,Verified
DMP.AX,20-AUG-2014,,End Of Day,,25.5,25.66,25.08,25.5,177301,,,Verified
DMP.AX,21-AUG-2014,,End Of Day,,25.85,26.21,25.71,26.09,347393,,,Verified
DMP.AX,22-AUG-2014,,End Of Day,,26.03,26.09,25.35,25.6,505529,,,Verified
DMP.AX,23-AUG-2014,,End Of Day,No Trades,,,,,,,,Verified
DMP.AX,24-AUG-2014,,End Of Day,No Trades,,,,,,,,Verified
DMP.AX,25-AUG-2014,,End Of Day,,25.59,25.93,25.41,25.59,203713,,,Verified
DMP.AX,26-AUG-2014,,End Of Day,,25.72,25.83,25.12,25.19,155879,,,Verified
DMP.AX,27-AUG-2014,,End Of Day,,25.26,25.78,25.22,25.66,177312,,,Verified
DMP.AX,28-AUG-2014,,End Of Day,,25.5,25.63,25.2,25.5,102824,,,Verified
DMP.AX,29-AUG-2014,,End Of Day,,25.66,25.8,25.35,25.63,126690,,,Verified
DMP.AX,30-AUG-2014,,End Of Day,No Trades,,,,,,,,Verified
DMP.AX,31-AUG-2014,,End Of Day,No Trades,,,,,,,,Verified
DMP.AX,01-SEP-2014,,End Of Day,,25.83,26,25.6,25.6,247090,,,Verified
DMP.AX,02-SEP-2014,,End Of Day,,25.5,25.975,25.2,25.88,204727,,,Verified
DMP.AX,03-SEP-2014,,End Of Day,,25.87,25.99,25.76,25.92,115177,,,Verified
DMP.AX,04-SEP-2014,,End Of Day,,25.5,25.9,25.5,25.8,120872,,,Verified
DMP.AX,05-SEP-2014,,End Of Day,,25.74,25.84,25.37,25.42,104348,,,Verified
DMP.AX,06-SEP-2014,,End Of Day,No Trades,,,,,,,,Verified
DMP.AX,07-SEP-2014,,End Of Day,No Trades,,,,,,,,Verified
DMP.AX,08-SEP-2014,,End Of Day,,25.5,25.5,25.07,25.28,127164,,,Verified
DMP.AX,09-SEP-2014,,End Of Day,,25.24,25.25,25.04,25.2,137234,,,Verified
DMP.AX,10-SEP-2014,,End Of Day,,25.2,25.44,24.81,25.43,245347,,,Verified
DMP.AX,11-SEP-2014,,End Of Day,,25.5,26,25.24,25.33,225730,,,Verified
DMP.AX,12-SEP-2014,,End Of Day,,25.26,25.54,25.05,25.28,193390,,,Verified
DMP.AX,13-SEP-2014,,End Of Day,No Trades,,,,,,,,Verified
DMP.AX,14-SEP-2014,,End Of Day,No Trades,,,,,,,,Verified
DMP.AX,15-SEP-2014,,End Of Day,,25.04,25.33,25,25.33,192823,,,Verified
DMP.AX,16-SEP-2014,,End Of Day,,25.12,25.19,24.73,24.8,177799,,,Verified
DMP.AX,17-SEP-2014,,End Of Day,,24.9,25.3,24.79,25.06,131256,,,Verified
DMP.AX,18-SEP-2014,,End Of Day,,25.22,25.32,24.92,25.21,124823,,,Verified
DMP.AX,19-SEP-2014,,End Of Day,,25.28,25.77,25.19,25.77,129371,,,Verified
DMP.AX,20-SEP-2014,,End Of Day,No Trades,,,,,,,,Verified
DMP.AX,21-SEP-2014,,End Of Day,No Trades,,,,,,,,Verified
DMP.AX,22-SEP-2014,,End Of Day,,25.81,27.14,25.81,26.6,244758,,,Verified
DMP.AX,23-SEP-2014,,End Of Day,,26.73,27.53,26.66,27.53,256998,,,Verified
DMP.AX,24-SEP-2014,,End Of Day,,27.44,27.44,26.67,26.88,183019,,,Verified
DMP.AX,25-SEP-2014,,End Of Day,,26.88,27.21,26.52,26.91,164639,,,Verified
DMP.AX,26-SEP-2014,,End Of Day,,26.47,26.61,26.12,26.58,119290,,,Verified
DMP.AX,27-SEP-2014,,End Of Day,No Trades,,,,,,,,Verified
DMP.AX,28-SEP-2014,,End Of Day,No Trades,,,,,,,,Verified
DMP.AX,29-SEP-2014,,End Of Day,,26.11,26.3,25.81,26.05,148736,,,Verified
DMP.AX,30-SEP-2014,,End Of Day,,26.03,26.37,25.58,26.23,136611,,,Verified
DMP.AX,01-OCT-2014,,End Of Day,,25.85,27.39,25.66,27.17,210438,,,Verified
DMP.AX,02-OCT-2014,,End Of Day,,26.58,27.12,26.47,26.97,139815,,,Verified
DMP.AX,03-OCT-2014,,End Of Day,,26.84,27.08,26.54,27,102491,,,Verified
DMP.AX,04-OCT-2014,,End Of Day,No Trades,,,,,,,,Verified
DMP.AX,05-OCT-2014,,End Of Day,No Trades,,,,,,,,Verified
DMP.AX,06-OCT-2014,,End Of Day,,26.94,27.24,26.55,27.12,49210,,,Verified
DMP.AX,07-OCT-2014,,End Of Day,,27.27,27.37,26.06,26.51,178875,,,Verified
DMP.AX,08-OCT-2014,,End Of Day,,25.95,26.2,25.3,25.39,279589,,,Verified
DMP.AX,09-OCT-2014,,End Of Day,,25.6,25.9,25.08,25.67,174112,,,Verified
DMP.AX,10-OCT-2014,,End Of Day,,24.97,24.97,24.25,24.77,286431,,,Verified
DMP.AX,11-OCT-2014,,End Of Day,No Trades,,,,,,,,Verified
DMP.AX,12-OCT-2014,,End Of Day,No Trades,,,,,,,,Verified
DMP.AX,13-OCT-2014,,End Of Day,,24.25,25.88,24.17,25.48,272634,,,Verified
DMP.AX,14-OCT-2014,,End Of Day,,25.1,25.55,24.97,25.48,181239,,,Verified
DMP.AX,15-OCT-2014,,End Of Day,,25.43,25.76,25.16,25.6,154251,,,Verified
DMP.AX,16-OCT-2014,,End Of Day,,25.99,26.86,25.5,26.8,436251,,,Verified
DMP.AX,17-OCT-2014,,End Of Day,,26.92,27.38,26.78,27,303671,,,Verified
DMP.AX,18-OCT-2014,,End Of Day,No Trades,,,,,,,,Verified
DMP.AX,19-OCT-2014,,End Of Day,No Trades,,,,,,,,Verified
DMP.AX,20-OCT-2014,,End Of Day,,27.42,29,27.42,27.78,526607,,,Verified
DMP.AX,21-OCT-2014,,End Of Day,,28.2,28.25,27.92,28,239961,,,Verified
DMP.AX,22-OCT-2014,,End Of Day,,28.46,29.35,28.32,29.03,288267,,,Verified
DMP.AX,23-OCT-2014,,End Of Day,,28.98,29.19,28.76,29,139741,,,Verified
DMP.AX,24-OCT-2014,,End Of Day,,29.29,29.41,28.89,28.99,165951,,,Verified
DMP.AX,25-OCT-2014,,End Of Day,No Trades,,,,,,,,Verified
DMP.AX,26-OCT-2014,,End Of Day,No Trades,,,,,,,,Verified
DMP.AX,27-OCT-2014,,End Of Day,,29.08,29.37,28.78,28.96,232595,,,Verified
DMP.AX,28-OCT-2014,,End Of Day,,28.96,28.97,28.27,28.27,341927,,,Verified
DMP.AX,29-OCT-2014,,End Of Day,,27.75,28.33,26.44,26.53,999058,,,Verified
DMP.AX,30-OCT-2014,,End Of Day,,26.7,26.85,26.37,26.7,694484,,,Verified
DMP.AX,31-OCT-2014,,End Of Day,,26.95,27.44,26.93,27.08,268566,,,Verified
DMP.AX,01-NOV-2014,,End Of Day,No Trades,,,,,,,,Verified
DMP.AX,02-NOV-2014,,End Of Day,No Trades,,,,,,,,Verified
DMP.AX,03-NOV-2014,,End Of Day,,26.85,27.41,26.83,27.1,298316,,,Verified
DMP.AX,04-NOV-2014,,End Of Day,,27.16,27.86,27.16,27.75,352300,,,Verified
DMP.AX,05-NOV-2014,,End Of Day,,27.83,27.98,27.63,27.68,239816,,,Verified
DMP.AX,06-NOV-2014,,End Of Day,,27.91,28.16,27.7,27.7,350616,,,Verified
DMP.AX,07-NOV-2014,,End Of Day,,28.09,28.09,27.56,27.68,186525,,,Verified
DMP.AX,08-NOV-2014,,End Of Day,No Trades,,,,,,,,Verified
DMP.AX,09-NOV-2014,,End Of Day,No Trades,,,,,,,,Verified
DMP.AX,10-NOV-2014,,End Of Day,,27.77,27.85,27.01,27.03,179183,,,Verified
DMP.AX,11-NOV-2014,,End Of Day,,27.2,27.22,26.84,26.84,180220,,,Verified
DMP.AX,12-NOV-2014,,End Of Day,,26.99,27.36,26.98,27.17,138911,,,Verified
DMP.AX,13-NOV-2014,,End Of Day,,27.21,27.25,26.78,26.94,104661,,,Verified
DMP.AX,14-NOV-2014,,End Of Day,,26.98,27.53,26.92,27.49,159229,,,Verified
DMP.AX,15-NOV-2014,,End Of Day,No Trades,,,,,,,,Verified
DMP.AX,16-NOV-2014,,End Of Day,No Trades,,,,,,,,Verified
DMP.AX,17-NOV-2014,,End Of Day,,27.69,27.74,26.79,26.87,123436,,,Verified
DMP.AX,18-NOV-2014,,End Of Day,,26.94,26.98,26.53,26.87,68447,,,Verified
DMP.AX,19-NOV-2014,,End Of Day,,26.72,26.72,25.91,26.29,95286,,,Verified
DMP.AX,20-NOV-2014,,End Of Day,,25.98,26.09,25.29,25.88,253611,,,Verified
DMP.AX,21-NOV-2014,,End Of Day,,25.94,25.96,24.58,25.08,340681,,,Verified
DMP.AX,22-NOV-2014,,End Of Day,No Trades,,,,,,,,Verified
DMP.AX,23-NOV-2014,,End Of Day,No Trades,,,,,,,,Verified
DMP.AX,24-NOV-2014,,End Of Day,,25.2,26.565,25.2,25.58,211382,,,Verified
DMP.AX,25-NOV-2014,,End Of Day,,25.58,25.7,25.1,25.38,175088,,,Verified
DMP.AX,26-NOV-2014,,End Of Day,,25.15,26.19,25.09,25.95,209927,,,Verified
DMP.AX,27-NOV-2014,,End Of Day,,25.92,26.1,24.37,24.38,343824,,,Verified
DMP.AX,28-NOV-2014,,End Of Day,,24.08,25.09,21.3,24.5,500674,,,Verified
DMP.AX,29-NOV-2014,,End Of Day,No Trades,,,,,,,,Verified
DMP.AX,30-NOV-2014,,End Of Day,No Trades,,,,,,,,Verified
DMP.AX,01-DEC-2014,,End Of Day,,24.5,24.97,23.85,23.95,443951,,,Verified
DMP.AX,02-DEC-2014,,End Of Day,,24,24.42,23.49,24.02,311985,,,Verified
DMP.AX,03-DEC-2014,,End Of Day,,23.74,25.16,23.72,25.04,310542,,,Verified
DMP.AX,04-DEC-2014,,End Of Day,,25.69,25.96,25.14,25.94,378019,,,Verified
DMP.AX,05-DEC-2014,,End Of Day,,25.86,25.94,25.2,25.31,232332,,,Verified
DMP.AX,06-DEC-2014,,End Of Day,No Trades,,,,,,,,Verified
DMP.AX,07-DEC-2014,,End Of Day,No Trades,,,,,,,,Verified
DMP.AX,08-DEC-2014,,End Of Day,,25.4,25.57,24.92,24.99,173276,,,Verified
DMP.AX,09-DEC-2014,,End Of Day,,24.85,25.13,23.89,24.09,226527,,,Verified
DMP.AX,10-DEC-2014,,End Of Day,,23.75,24.15,22.74,23.98,324223,,,Verified
DMP.AX,11-DEC-2014,,End Of Day,,23.15,23.76,23.08,23.5,242065,,,Verified
DMP.AX,12-DEC-2014,,End Of Day,,23.6,24.39,23.43,23.81,225931,,,Verified
DMP.AX,13-DEC-2014,,End Of Day,No Trades,,,,,,,,Verified
DMP.AX,14-DEC-2014,,End Of Day,No Trades,,,,,,,,Verified
DMP.AX,15-DEC-2014,,End Of Day,,23.23,24.1,23.19,23.88,167349,,,Verified
DMP.AX,16-DEC-2014,,End Of Day,,23.8,24.51,23.73,24.46,285886,,,Verified
DMP.AX,17-DEC-2014,,End Of Day,,24.31,24.6,23.84,24.3,167713,,,Verified
DMP.AX,18-DEC-2014,,End Of Day,,24.27,24.77,23.51,23.55,339804,,,Verified
DMP.AX,19-DEC-2014,,End Of Day,,24.01,24.58,23.69,24.42,224672,,,Verified
DMP.AX,20-DEC-2014,,End Of Day,No Trades,,,,,,,,Verified
DMP.AX,21-DEC-2014,,End Of Day,No Trades,,,,,,,,Verified
DMP.AX,22-DEC-2014,,End Of Day,,24.7,26.01,24.7,26.01,292197,,,Verified
DMP.AX,23-DEC-2014,,End Of Day,,26,26,25.11,25.61,157117,,,Verified
DMP.AX,24-DEC-2014,,End Of Day,,25.36,25.55,25.07,25.23,53636,,,Verified
DMP.AX,25-DEC-2014,,End Of Day,No Trades,,,,,,,,Verified
DMP.AX,26-DEC-2014,,End Of Day,No Trades,,,,,,,,Verified
DMP.AX,27-DEC-2014,,End Of Day,No Trades,,,,,,,,Verified
DMP.AX,28-DEC-2014,,End Of Day,No Trades,,,,,,,,Verified
DMP.AX,29-DEC-2014,,End Of Day,,25.34,26.15,25.28,26.02,91386,,,Verified
DMP.AX,30-DEC-2014,,End Of Day,,26.06,26.06,25.5,25.52,105942,,,Verified
DMP.AX,31-DEC-2014,,End Of Day,,25.27,25.51,25.07,25.2,57766,,,Verified
DMP.AX,01-JAN-2015,,End Of Day,No Trades,,,,,,,,Verified
DMP.AX,02-JAN-2015,,End Of Day,,25.2,25.38,24.92,25.23,67685,,,Verified
DMP.AX,03-JAN-2015,,End Of Day,No Trades,,,,,,,,Verified
DMP.AX,04-JAN-2015,,End Of Day,No Trades,,,,,,,,Verified
DMP.AX,05-JAN-2015,,End Of Day,,24.99,25.21,24.54,25,111246,,,Verified
DMP.AX,06-JAN-2015,,End Of Day,,24.58,25.03,24.5,24.76,139509,,,Verified
DMP.AX,07-JAN-2015,,End Of Day,,24.72,24.96,24.45,24.79,92457,,,Verified
DMP.AX,08-JAN-2015,,End Of Day,,25,25.09,24.31,24.51,144188,,,Verified
DMP.AX,09-JAN-2015,,End Of Day,,24.8,25.85,24.47,25.51,101601,,,Verified
DMP.AX,10-JAN-2015,,End Of Day,No Trades,,,,,,,,Verified
DMP.AX,11-JAN-2015,,End Of Day,No Trades,,,,,,,,Verified
DMP.AX,12-JAN-2015,,End Of Day,,25.04,25.42,24.905,25.24,80311,,,Verified
DMP.AX,13-JAN-2015,,End Of Day,,24.91,25.265,24.8,24.92,120573,,,Verified
DMP.AX,14-JAN-2015,,End Of Day,,24.94,25.2,24.5,24.55,173670,,,Verified
DMP.AX,15-JAN-2015,,End Of Day,,24.54,24.88,24.48,24.5,182839,,,Verified
DMP.AX,16-JAN-2015,,End Of Day,,24.13,24.83,24.11,24.47,182166,,,Verified
DMP.AX,17-JAN-2015,,End Of Day,No Trades,,,,,,,,Verified
DMP.AX,18-JAN-2015,,End Of Day,No Trades,,,,,,,,Verified
DMP.AX,19-JAN-2015,,End Of Day,,24.71,24.88,24.32,24.48,113036,,,Verified
DMP.AX,20-JAN-2015,,End Of Day,,24.4,24.7,24.22,24.59,118115,,,Verified
DMP.AX,21-JAN-2015,,End Of Day,,24.66,24.98,24.525,24.6,181021,,,Verified
DMP.AX,22-JAN-2015,,End Of Day,,24.6,24.73,24.38,24.52,209613,,,Verified
DMP.AX,23-JAN-2015,,End Of Day,,24.89,24.91,24.56,24.88,160267,,,Verified
DMP.AX,24-JAN-2015,,End Of Day,No Trades,,,,,,,,Verified
DMP.AX,25-JAN-2015,,End Of Day,No Trades,,,,,,,,Verified
DMP.AX,26-JAN-2015,,End Of Day,No Trades,,,,,,,,Verified
DMP.AX,27-JAN-2015,,End Of Day,,24.96,25.42,24.66,25.41,203730,,,Verified
DMP.AX,28-JAN-2015,,End Of Day,,25.1,26.03,25.05,25.79,142411,,,Verified
DMP.AX,29-JAN-2015,,End Of Day,,25.75,25.79,25.33,25.5,179448,,,Verified
DMP.AX,30-JAN-2015,,End Of Day,,25.69,26.51,25.67,26.24,307359,,,Verified
DMP.AX,31-JAN-2015,,End Of Day,No Trades,,,,,,,,Verified
DMP.AX,01-FEB-2015,,End Of Day,No Trades,,,,,,,,Verified
DMP.AX,02-FEB-2015,,End Of Day,,26.25,26.41,26.01,26.12,135348,,,Verified
DMP.AX,03-FEB-2015,,End Of Day,,26.34,27.16,26.33,26.76,267904,,,Verified
DMP.AX,04-FEB-2015,,End Of Day,,26.76,27.59,26.76,26.86,210097,,,Verified
DMP.AX,05-FEB-2015,,End Of Day,,26.95,27.6,26.95,27.34,204238,,,Verified
DMP.AX,06-FEB-2015,,End Of Day,,27.57,27.75,26.95,27.06,153403,,,Verified
DMP.AX,07-FEB-2015,,End Of Day,No Trades,,,,,,,,Verified
DMP.AX,08-FEB-2015,,End Of Day,No Trades,,,,,,,,Verified
DMP.AX,09-FEB-2015,,End Of Day,,26.98,26.98,26.58,26.7,245893,,,Verified
DMP.AX,10-FEB-2015,,End Of Day,,26.84,27.59,26.82,27.23,246649,,,Verified
DMP.AX,11-FEB-2015,,End Of Day,,32.5,33.41,31,33,872778,,,Verified
DMP.AX,12-FEB-2015,,End Of Day,,32.7,33.18,31.6,32.7,548167,,,Verified
DMP.AX,13-FEB-2015,,End Of Day,,33.2,34.79,32.97,34.3,422062,,,Verified
DMP.AX,14-FEB-2015,,End Of Day,No Trades,,,,,,,,Verified
DMP.AX,15-FEB-2015,,End Of Day,No Trades,,,,,,,,Verified
DMP.AX,16-FEB-2015,,End Of Day,,34.26,36.14,34.19,35.89,444011,,,Verified
DMP.AX,17-FEB-2015,,End Of Day,,35.83,36.74,35.25,35.92,419042,,,Verified
DMP.AX,18-FEB-2015,,End Of Day,,35.9,36,35.01,35.55,407587,,,Verified
DMP.AX,19-FEB-2015,,End Of Day,,35.5,35.5,34.37,34.6,257516,,,Verified
DMP.AX,20-FEB-2015,,End Of Day,,35.2,35.2,34.17,34.47,243783,,,Verified
DMP.AX,21-FEB-2015,,End Of Day,No Trades,,,,,,,,Verified
DMP.AX,22-FEB-2015,,End Of Day,No Trades,,,,,,,,Verified
DMP.AX,23-FEB-2015,,End Of Day,,34.6,34.6,34,34.18,203599,,,Verified
DMP.AX,24-FEB-2015,,End Of Day,,34.05,34.86,33.93,34.75,249852,,,Verified
DMP.AX,25-FEB-2015,,End Of Day,,35.03,35.25,34.005,34.76,284905,,,Verified
DMP.AX,26-FEB-2015,,End Of Day,,34.76,34.81,33.79,34.5,220957,,,Verified
DMP.AX,27-FEB-2015,,End Of Day,,34.5,35.11,34.12,34.93,252197,,,Verified
DMP.AX,28-FEB-2015,,End Of Day,No Trades,,,,,,,,Verified
DMP.AX,01-MAR-2015,,End Of Day,No Trades,,,,,,,,Verified
DMP.AX,02-MAR-2015,,End Of Day,,35,37.04,34.93,36.56,315424,,,Verified
DMP.AX,03-MAR-2015,,End Of Day,,37,37.715,36.2,36.49,192226,,,Verified
DMP.AX,04-MAR-2015,,End Of Day,,36.76,37.18,36.16,36.18,187214,,,Verified
DMP.AX,05-MAR-2015,,End Of Day,,36.45,36.77,36.1,36.25,183475,,,Verified
DMP.AX,06-MAR-2015,,End Of Day,,36.38,36.57,35.18,35.6,180923,,,Verified
DMP.AX,07-MAR-2015,,End Of Day,No Trades,,,,,,,,Verified
DMP.AX,08-MAR-2015,,End Of Day,No Trades,,,,,,,,Verified
DMP.AX,09-MAR-2015,,End Of Day,,34.71,35.2,34.61,34.88,206497,,,Verified
DMP.AX,10-MAR-2015,,End Of Day,,35.15,36.365,35.15,35.8,208093,,,Verified
DMP.AX,11-MAR-2015,,End Of Day,,35.45,35.5,34.75,35.38,100171,,,Verified
DMP.AX,12-MAR-2015,,End Of Day,,35.33,37.22,35.33,36.73,157053,,,Verified
DMP.AX,13-MAR-2015,,End Of Day,,36.49,36.49,35.27,35.47,123153,,,Verified
DMP.AX,14-MAR-2015,,End Of Day,No Trades,,,,,,,,Verified
DMP.AX,15-MAR-2015,,End Of Day,No Trades,,,,,,,,Verified
DMP.AX,16-MAR-2015,,End Of Day,,35.25,36.42,35.12,35.83,80857,,,Verified
DMP.AX,17-MAR-2015,,End Of Day,,36.26,36.76,35.98,36.08,120368,,,Verified
DMP.AX,18-MAR-2015,,End Of Day,,35.74,36.06,35.14,35.56,107660,,,Verified
DMP.AX,19-MAR-2015,,End Of Day,,35.3,35.65,35.15,35.61,236328,,,Verified
DMP.AX,20-MAR-2015,,End Of Day,,35.65,36.6,35.65,36.19,257287,,,Verified
DMP.AX,21-MAR-2015,,End Of Day,No Trades,,,,,,,,Verified
DMP.AX,22-MAR-2015,,End Of Day,No Trades,,,,,,,,Verified
DMP.AX,23-MAR-2015,,End Of Day,,35.81,36.445,35.12,35.4,164968,,,Verified
DMP.AX,24-MAR-2015,,End Of Day,,35.39,36.4,35.22,36.1,223356,,,Verified
DMP.AX,25-MAR-2015,,End Of Day,,36.35,36.45,35.9,36.22,172919,,,Verified
DMP.AX,26-MAR-2015,,End Of Day,,36.1,36.1,35.2,35.24,131193,,,Verified
DMP.AX,27-MAR-2015,,End Of Day,,35.6,36.02,35.12,35.94,202784,,,Verified
DMP.AX,28-MAR-2015,,End Of Day,No Trades,,,,,,,,Verified
DMP.AX,29-MAR-2015,,End Of Day,No Trades,,,,,,,,Verified
DMP.AX,30-MAR-2015,,End Of Day,,35.76,36.24,35.34,36.1,355886,,,Verified
DMP.AX,31-MAR-2015,,End Of Day,,36.29,37.55,36.29,37.17,393414,,,Verified
DMP.AX,01-APR-2015,,End Of Day,,37.4,37.5,36.51,37.05,262886,,,Verified
DMP.AX,02-APR-2015,,End Of Day,,36.97,37.57,36.82,37,138259,,,Verified
DMP.AX,03-APR-2015,,End Of Day,No Trades,,,,,,,,Verified
DMP.AX,04-APR-2015,,End Of Day,No Trades,,,,,,,,Verified
DMP.AX,05-APR-2015,,End Of Day,No Trades,,,,,,,,Verified
DMP.AX,06-APR-2015,,End Of Day,No Trades,,,,,,,,Verified
DMP.AX,07-APR-2015,,End Of Day,,36.87,37.31,36.16,36.4,118865,,,Verified
DMP.AX,08-APR-2015,,End Of Day,,36.62,37.45,36.62,37.41,127282,,,Verified
DMP.AX,09-APR-2015,,End Of Day,,37.28,37.71,37.05,37.06,91394,,,Verified
DMP.AX,10-APR-2015,,End Of Day,,37.5,37.6,37.1,37.25,59690,,,Verified
DMP.AX,11-APR-2015,,End Of Day,No Trades,,,,,,,,Verified
DMP.AX,12-APR-2015,,End Of Day,No Trades,,,,,,,,Verified
DMP.AX,13-APR-2015,,End Of Day,,37.32,37.85,36.85,37.04,93905,,,Verified
DMP.AX,14-APR-2015,,End Of Day,,36.85,37.11,36.51,36.82,68769,,,Verified
DMP.AX,15-APR-2015,,End Of Day,,36.83,36.94,35.64,36.09,128651,,,Verified
DMP.AX,16-APR-2015,,End Of Day,,36.47,36.84,36.26,36.41,79821,,,Verified
DMP.AX,17-APR-2015,,End Of Day,,36.41,36.74,35.06,35.19,125541,,,Verified
DMP.AX,18-APR-2015,,End Of Day,No Trades,,,,,,,,Verified
DMP.AX,19-APR-2015,,End Of Day,No Trades,,,,,,,,Verified
DMP.AX,20-APR-2015,,End Of Day,,35.14,35.37,34.69,35.05,122376,,,Verified
DMP.AX,21-APR-2015,,End Of Day,,35.3,35.92,35.3,35.91,111154,,,Verified
DMP.AX,22-APR-2015,,End Of Day,,35.9,36.6,35.8,35.94,140729,,,Verified
DMP.AX,23-APR-2015,,End Of Day,,35.96,36.22,35.5,36.02,127775,,,Verified
DMP.AX,24-APR-2015,,End Of Day,,36.34,37.13,36.34,36.94,144808,,,Verified
DMP.AX,25-APR-2015,,End Of Day,No Trades,,,,,,,,Verified
DMP.AX,26-APR-2015,,End Of Day,No Trades,,,,,,,,Verified
DMP.AX,27-APR-2015,,End Of Day,,37.1,38.09,37.1,37.75,225114,,,Verified
DMP.AX,28-APR-2015,,End Of Day,,37.86,38.22,37.7,37.98,127100,,,Verified
DMP.AX,29-APR-2015,,End Of Day,,38.09,38.57,37.5,37.58,132267,,,Verified
DMP.AX,30-APR-2015,,End Of Day,,37,37.99,36.47,36.63,256882,,,Verified
DMP.AX,01-MAY-2015,,End Of Day,,36.4,36.9,36.05,36.75,152851,,,Verified
DMP.AX,02-MAY-2015,,End Of Day,No Trades,,,,,,,,Verified
DMP.AX,03-MAY-2015,,End Of Day,No Trades,,,,,,,,Verified
DMP.AX,04-MAY-2015,,End Of Day,,36.79,38.05,36.79,37.95,256334,,,Verified
DMP.AX,05-MAY-2015,,End Of Day,,38.5,41.64,38.5,41.26,461179,,,Verified
DMP.AX,06-MAY-2015,,End Of Day,,40.5,40.5,38.37,39.96,349133,,,Verified
DMP.AX,07-MAY-2015,,End Of Day,,38.5,39.11,36.85,37.99,429896,,,Verified
DMP.AX,08-MAY-2015,,End Of Day,,37.99,39.57,37.99,38.61,185283,,,Verified
DMP.AX,09-MAY-2015,,End Of Day,No Trades,,,,,,,,Verified
DMP.AX,10-MAY-2015,,End Of Day,No Trades,,,,,,,,Verified
DMP.AX,11-MAY-2015,,End Of Day,,40,40.98,39,39.57,210883,,,Verified
DMP.AX,12-MAY-2015,,End Of Day,,39.64,40.5,39.64,40.02,337069,,,Verified
DMP.AX,13-MAY-2015,,End Of Day,,40,40,39.2,39.62,184775,,,Verified
DMP.AX,14-MAY-2015,,End Of Day,,39.34,39.48,38.42,38.69,333762,,,Verified
DMP.AX,15-MAY-2015,,End Of Day,,39,39.01,37.55,37.83,273151,,,Verified
DMP.AX,16-MAY-2015,,End Of Day,No Trades,,,,,,,,Verified
DMP.AX,17-MAY-2015,,End Of Day,No Trades,,,,,,,,Verified
DMP.AX,18-MAY-2015,,End Of Day,,37.8,37.91,36.46,36.46,269869,,,Verified
DMP.AX,19-MAY-2015,,End Of Day,,36.4,37.43,35.86,36.91,242818,,,Verified
DMP.AX,20-MAY-2015,,End Of Day,,36.64,37.6,36.5,37.41,125955,,,Verified
DMP.AX,21-MAY-2015,,End Of Day,,37.46,39.11,37.46,38.88,230105,,,Verified
DMP.AX,22-MAY-2015,,End Of Day,,39.06,39.64,38.78,38.94,183772,,,Verified
DMP.AX,23-MAY-2015,,End Of Day,No Trades,,,,,,,,Verified
DMP.AX,24-MAY-2015,,End Of Day,No Trades,,,,,,,,Verified
DMP.AX,25-MAY-2015,,End Of Day,,39.13,39.52,38.59,39.09,191991,,,Verified
DMP.AX,26-MAY-2015,,End Of Day,,39.16,39.44,38.585,38.75,101109,,,Verified
DMP.AX,27-MAY-2015,,End Of Day,,38.47,38.94,38.21,38.25,126489,,,Verified
DMP.AX,28-MAY-2015,,End Of Day,,38.44,38.75,37.89,38.35,119994,,,Verified
DMP.AX,29-MAY-2015,,End Of Day,,38.39,39.2,38.39,38.71,173253,,,Verified
DMP.AX,30-MAY-2015,,End Of Day,No Trades,,,,,,,,Verified
DMP.AX,31-MAY-2015,,End Of Day,No Trades,,,,,,,,Verified
DMP.AX,01-JUN-2015,,End Of Day,,38.61,39.16,38.07,38.86,220760,,,Verified
DMP.AX,02-JUN-2015,,End Of Day,,38.86,39,37.13,37.17,220319,,,Verified
DMP.AX,03-JUN-2015,,End Of Day,,37,37.71,36.25,36.29,274412,,,Verified
DMP.AX,04-JUN-2015,,End Of Day,,36.47,36.47,34.37,34.58,413220,,,Verified
DMP.AX,05-JUN-2015,,End Of Day,,34.12,35.03,33.8,34.65,336138,,,Verified
DMP.AX,06-JUN-2015,,End Of Day,No Trades,,,,,,,,Verified
DMP.AX,07-JUN-2015,,End Of Day,No Trades,,,,,,,,Verified
DMP.AX,08-JUN-2015,,End Of Day,No Trades,,,,,,,,Verified
DMP.AX,09-JUN-2015,,End Of Day,,34.63,35.84,34.6,34.94,230141,,,Verified
DMP.AX,10-JUN-2015,,End Of Day,,35.2,35.73,34.87,35.45,226359,,,Verified
DMP.AX,11-JUN-2015,,End Of Day,,35.64,36.89,35.63,36.49,307257,,,Verified
DMP.AX,12-JUN-2015,,End Of Day,,36.1,36.61,35.87,35.98,302720,,,Verified
DMP.AX,13-JUN-2015,,End Of Day,No Trades,,,,,,,,Verified
DMP.AX,14-JUN-2015,,End Of Day,No Trades,,,,,,,,Verified
DMP.AX,15-JUN-2015,,End Of Day,,36,36.45,35.845,36.38,230949,,,Verified
DMP.AX,16-JUN-2015,,End Of Day,,36.4,36.97,36.33,36.61,232683,,,Verified
DMP.AX,17-JUN-2015,,End Of Day,,37,38.1,36.91,37.33,312403,,,Verified
DMP.AX,18-JUN-2015,,End Of Day,,37.23,37.7,36.79,37,359076,,,Verified
DMP.AX,19-JUN-2015,,End Of Day,,37.27,38.03,35.54,36.44,1349979,,,Verified
DMP.AX,20-JUN-2015,,End Of Day,No Trades,,,,,,,,Verified
DMP.AX,21-JUN-2015,,End Of Day,No Trades,,,,,,,,Verified
DMP.AX,22-JUN-2015,,End Of Day,,36.49,37.31,36.25,36.9,184041,,,Verified
DMP.AX,23-JUN-2015,,End Of Day,,36.76,37.88,36.76,37.78,218189,,,Verified
DMP.AX,24-JUN-2015,,End Of Day,,37.88,38.49,36.94,37,294613,,,Verified
DMP.AX,25-JUN-2015,,End Of Day,,37.24,37.24,36.62,36.94,97350,,,Verified
DMP.AX,26-JUN-2015,,End Of Day,,36.6,36.71,35.75,36.16,211937,,,Verified
DMP.AX,27-JUN-2015,,End Of Day,No Trades,,,,,,,,Verified
DMP.AX,28-JUN-2015,,End Of Day,No Trades,,,,,,,,Verified
DMP.AX,29-JUN-2015,,End Of Day,,35.65,35.71,34.65,35,220424,,,Verified
DMP.AX,30-JUN-2015,,End Of Day,,35.11,35.75,34.61,35.69,264460,,,Verified
DMP.AX,01-JUL-2015,,End Of Day,,35.43,36.9,35.43,36.88,250756,,,Verified
DMP.AX,02-JUL-2015,,End Of Day,,37,38.16,37,38.05,344625,,,Verified
DMP.AX,03-JUL-2015,,End Of Day,,37.9,37.91,37.01,37.71,851767,,,Verified
DMP.AX,04-JUL-2015,,End Of Day,No Trades,,,,,,,,Verified
DMP.AX,05-JUL-2015,,End Of Day,No Trades,,,,,,,,Verified
DMP.AX,06-JUL-2015,,End Of Day,,37.16,37.7,36.33,37.13,156304,,,Verified
DMP.AX,07-JUL-2015,,End Of Day,,37.27,38.45,37.14,38.41,281259,,,Verified
DMP.AX,08-JUL-2015,,End Of Day,,38.24,39,37.92,37.92,226123,,,Verified
DMP.AX,09-JUL-2015,,End Of Day,,37.69,38.35,36.82,37.83,182025,,,Verified
DMP.AX,10-JUL-2015,,End Of Day,,38.2,38.66,37.25,37.49,153053,,,Verified
DMP.AX,11-JUL-2015,,End Of Day,No Trades,,,,,,,,Verified
DMP.AX,12-JUL-2015,,End Of Day,No Trades,,,,,,,,Verified
DMP.AX,13-JUL-2015,,End Of Day,,37.7,38.68,37.5,38.12,181008,,,Verified
DMP.AX,14-JUL-2015,,End Of Day,,38.71,38.99,38.39,38.63,191422,,,Verified
DMP.AX,15-JUL-2015,,End Of Day,,38.65,39.64,38.59,38.94,249842,,,Verified
DMP.AX,16-JUL-2015,,End Of Day,,39.6,39.88,38.53,38.86,200720,,,Verified
DMP.AX,17-JUL-2015,,End Of Day,,39.38,39.79,39.01,39.55,168285,,,Verified
DMP.AX,18-JUL-2015,,End Of Day,No Trades,,,,,,,,Verified
DMP.AX,19-JUL-2015,,End Of Day,No Trades,,,,,,,,Verified
DMP.AX,20-JUL-2015,,End Of Day,,39.68,40.2,39.46,40.06,108445,,,Verified
DMP.AX,21-JUL-2015,,End Of Day,,40.56,40.64,39.7,40.17,169461,,,Verified
DMP.AX,22-JUL-2015,,End Of Day,,40.13,40.2,39,39.18,231364,,,Verified
DMP.AX,23-JUL-2015,,End Of Day,,39.27,40.33,39.26,40.04,160052,,,Verified
DMP.AX,24-JUL-2015,,End Of Day,,40.02,40.19,39.21,39.54,118023,,,Verified
DMP.AX,25-JUL-2015,,End Of Day,No Trades,,,,,,,,Verified
DMP.AX,26-JUL-2015,,End Of Day,No Trades,,,,,,,,Verified
DMP.AX,27-JUL-2015,,End Of Day,,39.39,39.425,38.65,39.21,128759,,,Verified
DMP.AX,28-JUL-2015,,End Of Day,,38.81,39.23,38.06,38.64,179148,,,Verified
DMP.AX,29-JUL-2015,,End Of Day,,39.25,39.25,38.12,38.21,202688,,,Verified
DMP.AX,30-JUL-2015,,End Of Day,,38.6,39.08,38.31,39.01,178108,,,Verified
DMP.AX,31-JUL-2015,,End Of Day,,39.17,40.59,39.05,40.46,203159,,,Verified
DMP.AX,01-AUG-2015,,End Of Day,No Trades,,,,,,,,Verified
DMP.AX,02-AUG-2015,,End Of Day,No Trades,,,,,,,,Verified
DMP.AX,03-AUG-2015,,End Of Day,,40.65,40.71,39.89,40.02,168982,,,Verified
DMP.AX,04-AUG-2015,,End Of Day,,40.02,41.49,40.02,41.42,301254,,,Verified
DMP.AX,05-AUG-2015,,End Of Day,,41.53,43.3,40.85,41.27,348683,,,Verified
DMP.AX,06-AUG-2015,,End Of Day,,41.55,42.67,41.52,41.71,210839,,,Verified
DMP.AX,07-AUG-2015,,End Of Day,,41.25,41.8,40.97,41.2,207725,,,Verified
DMP.AX,08-AUG-2015,,End Of Day,No Trades,,,,,,,,Verified
DMP.AX,09-AUG-2015,,End Of Day,No Trades,,,,,,,,Verified
DMP.AX,10-AUG-2015,,End Of Day,,41.15,41.39,40.96,41.15,314880,,,Verified
DMP.AX,11-AUG-2015,,End Of Day,,40.5,41.59,37.43,41.07,1248215,,,Verified
DMP.AX,12-AUG-2015,,End Of Day,,40.5,42.49,40.47,42.3,604281,,,Verified
DMP.AX,13-AUG-2015,,End Of Day,,42.26,42.66,41.06,41.13,471923,,,Verified
DMP.AX,14-AUG-2015,,End Of Day,,42,42.06,40.32,41.2,221601,,,Verified
DMP.AX,15-AUG-2015,,End Of Day,No Trades,,,,,,,,Verified
DMP.AX,16-AUG-2015,,End Of Day,No Trades,,,,,,,,Verified
DMP.AX,17-AUG-2015,,End Of Day,,41.24,42.49,41.24,41.82,121560,,,Verified
DMP.AX,18-AUG-2015,,End Of Day,,42.04,42.85,41.44,42.28,261335,,,Verified
DMP.AX,19-AUG-2015,,End Of Day,,42.28,42.35,41.7,42.07,145152,,,Verified
DMP.AX,20-AUG-2015,,End Of Day,,41.08,42.06,41.08,41.26,179230,,,Verified
DMP.AX,21-AUG-2015,,End Of Day,,40.16,40.69,39.59,40.05,300109,,,Verified
DMP.AX,22-AUG-2015,,End Of Day,No Trades,,,,,,,,Verified
DMP.AX,23-AUG-2015,,End Of Day,No Trades,,,,,,,,Verified
DMP.AX,24-AUG-2015,,End Of Day,,39.18,39.78,38.62,39.19,405884,,,Verified
DMP.AX,25-AUG-2015,,End Of Day,,38,40.2,37.05,39.98,578978,,,Verified
DMP.AX,26-AUG-2015,,End Of Day,,38.82,40.12,38.8,39.6,189427,,,Verified
DMP.AX,27-AUG-2015,,End Of Day,,39.8,41.1,39.8,40.29,215150,,,Verified
DMP.AX,28-AUG-2015,,End Of Day,,40.69,40.99,39.54,40.07,291828,,,Verified
DMP.AX,29-AUG-2015,,End Of Day,No Trades,,,,,,,,Verified
DMP.AX,30-AUG-2015,,End Of Day,No Trades,,,,,,,,Verified
DMP.AX,31-AUG-2015,,End Of Day,,39.77,40.42,39.23,39.65,157668,,,Verified
DMP.AX,01-SEP-2015,,End Of Day,,39.42,40.85,39.42,39.86,353408,,,Verified
DMP.AX,02-SEP-2015,,End Of Day,,39.4,39.4,38.19,38.84,292207,,,Verified
DMP.AX,03-SEP-2015,,End Of Day,,38.81,39.29,37.46,37.5,285855,,,Verified
DMP.AX,04-SEP-2015,,End Of Day,,37.6,38.84,37.49,38.56,226886,,,Verified
DMP.AX,05-SEP-2015,,End Of Day,No Trades,,,,,,,,Verified
DMP.AX,06-SEP-2015,,End Of Day,No Trades,,,,,,,,Verified
DMP.AX,07-SEP-2015,,End Of Day,,38.56,38.59,37.99,38.44,127384,,,Verified
DMP.AX,08-SEP-2015,,End Of Day,,39.59,39.59,38.72,39.46,244940,,,Verified
DMP.AX,09-SEP-2015,,End Of Day,,39.66,40.27,39.42,39.78,166263,,,Verified
DMP.AX,10-SEP-2015,,End Of Day,,38.75,39.44,38.53,39.17,220413,,,Verified
DMP.AX,11-SEP-2015,,End Of Day,,39.1,39.27,38.47,38.61,145929,,,Verified
DMP.AX,12-SEP-2015,,End Of Day,No Trades,,,,,,,,Verified
DMP.AX,13-SEP-2015,,End Of Day,No Trades,,,,,,,,Verified
DMP.AX,14-SEP-2015,,End Of Day,,39.17,39.19,38.13,38.61,158138,,,Verified
DMP.AX,15-SEP-2015,,End Of Day,,38.46,38.98,37.65,38.21,162116,,,Verified
DMP.AX,16-SEP-2015,,End Of Day,,38.51,39.19,38.42,38.76,263913,,,Verified
DMP.AX,17-SEP-2015,,End Of Day,,39.41,39.49,38.9,39.15,215419,,,Verified
DMP.AX,18-SEP-2015,,End Of Day,,39.04,40.41,38.74,40.11,201217,,,Verified
DMP.AX,19-SEP-2015,,End Of Day,No Trades,,,,,,,,Verified
DMP.AX,20-SEP-2015,,End Of Day,No Trades,,,,,,,,Verified
DMP.AX,21-SEP-2015,,End Of Day,,39.13,39.33,38.69,38.79,305693,,,Verified
DMP.AX,22-SEP-2015,,End Of Day,,39.35,39.95,38.9,39.17,86924,,,Verified
DMP.AX,23-SEP-2015,,End Of Day,,38.64,39.14,38.1,38.17,193815,,,Verified
DMP.AX,24-SEP-2015,,End Of Day,,38.45,39.18,38.24,39.06,321634,,,Verified
DMP.AX,25-SEP-2015,,End Of Day,,39.31,39.63,38.77,39.54,178861,,,Verified
DMP.AX,26-SEP-2015,,End Of Day,No Trades,,,,,,,,Verified
DMP.AX,27-SEP-2015,,End Of Day,No Trades,,,,,,,,Verified
DMP.AX,28-SEP-2015,,End Of Day,,39.47,40.75,39.11,40.75,148407,,,Verified
DMP.AX,29-SEP-2015,,End Of Day,,39.85,40.49,39.55,39.77,339013,,,Verified
DMP.AX,30-SEP-2015,,End Of Day,,39.67,40.37,39.58,40.24,192402,,,Verified
DMP.AX,01-OCT-2015,,End Of Day,,40.15,40.93,39.98,40.7,238020,,,Verified
DMP.AX,02-OCT-2015,,End Of Day,,40.14,40.9,40.07,40.48,115628,,,Verified
DMP.AX,03-OCT-2015,,End Of Day,No Trades,,,,,,,,Verified
DMP.AX,04-OCT-2015,,End Of Day,No Trades,,,,,,,,Verified
DMP.AX,05-OCT-2015,,End Of Day,,40.62,41.63,40.62,41.6,122581,,,Verified
DMP.AX,06-OCT-2015,,End Of Day,,42.03,42.54,41.74,41.86,219779,,,Verified
DMP.AX,07-OCT-2015,,End Of Day,,41.98,41.98,41.03,41.3,226440,,,Verified
DMP.AX,08-OCT-2015,,End Of Day,,41.98,41.98,40.68,40.73,122963,,,Verified
DMP.AX,09-OCT-2015,,End Of Day,,40.98,41.19,40.32,40.76,176057,,,Verified
DMP.AX,10-OCT-2015,,End Of Day,No Trades,,,,,,,,Verified
DMP.AX,11-OCT-2015,,End Of Day,No Trades,,,,,,,,Verified
DMP.AX,12-OCT-2015,,End Of Day,,40.78,41.05,40.33,40.66,180286,,,Verified
DMP.AX,13-OCT-2015,,End Of Day,,40.37,40.68,39.63,39.77,177397,,,Verified
DMP.AX,14-OCT-2015,,End Of Day,,41,42.6,41,42.52,567935,,,Verified
DMP.AX,15-OCT-2015,,End Of Day,,43.2,47.15,43.2,46.62,674448,,,Verified
DMP.AX,16-OCT-2015,,End Of Day,,47.89,47.97,46.76,47.03,534141,,,Verified
DMP.AX,17-OCT-2015,,End Of Day,No Trades,,,,,,,,Verified
DMP.AX,18-OCT-2015,,End Of Day,No Trades,,,,,,,,Verified
DMP.AX,19-OCT-2015,,End Of Day,,46.2,47.86,45.77,47.67,374527,,,Verified
DMP.AX,20-OCT-2015,,End Of Day,,47.86,48.9,47.65,47.65,550209,,,Verified
DMP.AX,21-OCT-2015,,End Of Day,,47.79,47.84,46.84,47.58,416844,,,Verified
DMP.AX,22-OCT-2015,,End Of Day,,47.11,47.11,46.09,46.3,380854,,,Verified
DMP.AX,23-OCT-2015,,End Of Day,,46.5,47.49,46.2,46.6,413326,,,Verified
DMP.AX,24-OCT-2015,,End Of Day,No Trades,,,,,,,,Verified
DMP.AX,25-OCT-2015,,End Of Day,No Trades,,,,,,,,Verified
DMP.AX,26-OCT-2015,,End Of Day,,46.71,47.62,46.66,47.32,166669,,,Verified
DMP.AX,27-OCT-2015,,End Of Day,,47.16,47.2,46.51,46.91,454161,,,Verified
DMP.AX,28-OCT-2015,,End Of Day,,47.04,47.29,46.75,46.88,171064,,,Verified
DMP.AX,29-OCT-2015,,End Of Day,,47.3,47.52,46.41,46.63,192390,,,Verified
DMP.AX,30-OCT-2015,,End Of Day,,46.41,47.04,46.23,46.75,153144,,,Verified
DMP.AX,31-OCT-2015,,End Of Day,No Trades,,,,,,,,Verified
DMP.AX,01-NOV-2015,,End Of Day,No Trades,,,,,,,,Verified
DMP.AX,02-NOV-2015,,End Of Day,,47,47.15,46.12,46.42,186803,,,Verified
DMP.AX,03-NOV-2015,,End Of Day,,47,47.95,46.81,47.89,402039,,,Verified
DMP.AX,04-NOV-2015,,End Of Day,,48,48.38,47.27,47.65,256166,,,Verified
DMP.AX,05-NOV-2015,,End Of Day,,47.86,48.18,46.19,47.26,459207,,,Verified
DMP.AX,06-NOV-2015,,End Of Day,,47.16,48.19,46.91,47.38,264734,,,Verified
DMP.AX,07-NOV-2015,,End Of Day,No Trades,,,,,,,,Verified
DMP.AX,08-NOV-2015,,End Of Day,No Trades,,,,,,,,Verified
DMP.AX,09-NOV-2015,,End Of Day,,47,47.8,46.28,46.35,315548,,,Verified
DMP.AX,10-NOV-2015,,End Of Day,,46.1,46.45,45.57,46.02,383562,,,Verified
DMP.AX,11-NOV-2015,,End Of Day,,46,46.39,45.78,46.21,263728,,,Verified
DMP.AX,12-NOV-2015,,End Of Day,,45.85,46.18,45.79,46.03,181713,,,Verified
DMP.AX,13-NOV-2015,,End Of Day,,45.53,46.18,44.76,45.79,338281,,,Verified
DMP.AX,14-NOV-2015,,End Of Day,No Trades,,,,,,,,Verified
DMP.AX,15-NOV-2015,,End Of Day,No Trades,,,,,,,,Verified
DMP.AX,16-NOV-2015,,End Of Day,,44.9,45.57,44.9,45.23,184322,,,Verified
DMP.AX,17-NOV-2015,,End Of Day,,45.91,47.11,45.43,47.11,234315,,,Verified
DMP.AX,18-NOV-2015,,End Of Day,,46.82,47.29,46.08,46.74,234457,,,Verified
DMP.AX,19-NOV-2015,,End Of Day,,47.14,48.62,46.8,48.62,312724,,,Verified
DMP.AX,20-NOV-2015,,End Of Day,,48.62,48.69,47.64,48.45,281999,,,Verified
DMP.AX,21-NOV-2015,,End Of Day,No Trades,,,,,,,,Verified
DMP.AX,22-NOV-2015,,End Of Day,No Trades,,,,,,,,Verified
DMP.AX,23-NOV-2015,,End Of Day,,48.2,49.34,48.2,49.34,262379,,,Verified
DMP.AX,24-NOV-2015,,End Of Day,,49.11,49.31,48.6,49.07,280109,,,Verified
DMP.AX,25-NOV-2015,,End Of Day,,49.25,49.61,48.93,49.32,195999,,,Verified
DMP.AX,26-NOV-2015,,End Of Day,,49.44,50.38,49.27,49.45,191615,,,Verified
DMP.AX,27-NOV-2015,,End Of Day,,50,50.62,49.41,49.62,183546,,,Verified
DMP.AX,28-NOV-2015,,End Of Day,No Trades,,,,,,,,Verified
DMP.AX,29-NOV-2015,,End Of Day,No Trades,,,,,,,,Verified
DMP.AX,30-NOV-2015,,End Of Day,,49.62,50.19,49.38,49.65,199948,,,Verified
DMP.AX,01-DEC-2015,,End Of Day,,49.97,51.02,49.67,50.81,375724,,,Verified
DMP.AX,02-DEC-2015,,End Of Day,,50.75,51.4,50.15,50.83,199858,,,Verified
DMP.AX,03-DEC-2015,,End Of Day,,50.5,51.04,50.27,50.45,265376,,,Verified
DMP.AX,04-DEC-2015,,End Of Day,,49.5,49.85,48.94,49.69,245268,,,Verified
DMP.AX,05-DEC-2015,,End Of Day,No Trades,,,,,,,,Verified
DMP.AX,06-DEC-2015,,End Of Day,No Trades,,,,,,,,Verified
DMP.AX,07-DEC-2015,,End Of Day,,50.64,50.99,49.33,49.64,246225,,,Verified
DMP.AX,08-DEC-2015,,End Of Day,,49.15,50.14,48.94,49.69,227659,,,Verified
DMP.AX,09-DEC-2015,,End Of Day,,49.39,50.63,49.19,49.77,212877,,,Verified
DMP.AX,10-DEC-2015,,End Of Day,,49.74,49.79,48.94,49.74,250301,,,Verified
DMP.AX,11-DEC-2015,,End Of Day,,49.69,51.5,49.61,50.37,205564,,,Verified
DMP.AX,12-DEC-2015,,End Of Day,No Trades,,,,,,,,Verified
DMP.AX,13-DEC-2015,,End Of Day,No Trades,,,,,,,,Verified
DMP.AX,14-DEC-2015,,End Of Day,,49.39,50.6,49.29,50.03,174750,,,Verified
DMP.AX,15-DEC-2015,,End Of Day,,50.26,51.07,49.32,49.36,229849,,,Verified
DMP.AX,16-DEC-2015,,End Of Day,,53,56.17,53,53.44,690319,,,Verified
DMP.AX,17-DEC-2015,,End Of Day,,53.43,55.46,53.43,53.99,839688,,,Verified
DMP.AX,18-DEC-2015,,End Of Day,,53.68,57.24,53.5,56.94,573244,,,Verified
DMP.AX,19-DEC-2015,,End Of Day,No Trades,,,,,,,,Verified
DMP.AX,20-DEC-2015,,End Of Day,No Trades,,,,,,,,Verified
DMP.AX,21-DEC-2015,,End Of Day,,56.19,57.7,56.19,56.67,272714,,,Verified
DMP.AX,22-DEC-2015,,End Of Day,,58.64,58.64,56.78,57.27,128165,,,Verified
DMP.AX,23-DEC-2015,,End Of Day,,58.98,59.3,57.03,57.43,120414,,,Verified
DMP.AX,24-DEC-2015,,End Of Day,,58,58,56.5,56.81,75368,,,Verified
DMP.AX,25-DEC-2015,,End Of Day,No Trades,,,,,,,,Verified
DMP.AX,26-DEC-2015,,End Of Day,No Trades,,,,,,,,Verified
DMP.AX,27-DEC-2015,,End Of Day,No Trades,,,,,,,,Verified
DMP.AX,28-DEC-2015,,End Of Day,No Trades,,,,,,,,Verified
DMP.AX,29-DEC-2015,,End Of Day,,56.9,59.48,56.9,59.34,162677,,,Verified
DMP.AX,30-DEC-2015,,End Of Day,,60.56,60.56,55.61,57.48,299611,,,Verified
DMP.AX,31-DEC-2015,,End Of Day,,57.5,59.89,57.5,57.75,187475,,,Verified
DMP.AX,01-JAN-2016,,End Of Day,No Trades,,,,,,,,Verified
DMP.AX,02-JAN-2016,,End Of Day,No Trades,,,,,,,,Verified
DMP.AX,03-JAN-2016,,End Of Day,No Trades,,,,,,,,Verified
DMP.AX,04-JAN-2016,,End Of Day,,57.8,59.25,57.21,57.67,305668,,,Verified
DMP.AX,05-JAN-2016,,End Of Day,,57.17,58.77,56.78,57.89,270032,,,Verified
DMP.AX,06-JAN-2016,,End Of Day,,57.65,58.47,57.02,58.15,247115,,,Verified
DMP.AX,07-JAN-2016,,End Of Day,,58.4,58.75,56.85,56.97,360620,,,Verified
DMP.AX,08-JAN-2016,,End Of Day,,56.44,57.99,55.81,56.77,201574,,,Verified
DMP.AX,09-JAN-2016,,End Of Day,No Trades,,,,,,,,Verified
DMP.AX,10-JAN-2016,,End Of Day,No Trades,,,,,,,,Verified
DMP.AX,11-JAN-2016,,End Of Day,,56,56.57,55.32,56.41,163620,,,Verified
DMP.AX,12-JAN-2016,,End Of Day,,56.72,57.3,55.83,56,241692,,,Verified
DMP.AX,13-JAN-2016,,End Of Day,,56.11,56.76,55.29,56.4,181664,,,Verified
DMP.AX,14-JAN-2016,,End Of Day,,55.08,56.52,54.6,56.09,203628,,,Verified
DMP.AX,15-JAN-2016,,End Of Day,,56.97,57.46,55.58,55.58,254630,,,Verified
DMP.AX,16-JAN-2016,,End Of Day,No Trades,,,,,,,,Verified
DMP.AX,17-JAN-2016,,End Of Day,No Trades,,,,,,,,Verified
DMP.AX,18-JAN-2016,,End Of Day,,54.69,56.49,54.69,56.42,167289,,,Verified
DMP.AX,19-JAN-2016,,End Of Day,,56.33,57.34,56.06,57.09,256290,,,Verified
DMP.AX,20-JAN-2016,,End Of Day,,56.89,58.6,56.89,57.93,263948,,,Verified
DMP.AX,21-JAN-2016,,End Of Day,,59,59.27,56.98,57.22,313542,,,Verified
DMP.AX,22-JAN-2016,,End Of Day,,57.9,58.74,57.27,58.4,213735,,,Verified
DMP.AX,23-JAN-2016,,End Of Day,No Trades,,,,,,,,Verified
DMP.AX,24-JAN-2016,,End Of Day,No Trades,,,,,,,,Verified
DMP.AX,25-JAN-2016,,End Of Day,,59.4,60.11,59.16,59.89,206398,,,Verified
DMP.AX,26-JAN-2016,,End Of Day,No Trades,,,,,,,,Verified
DMP.AX,27-JAN-2016,,End Of Day,,59.94,60.35,59.08,59.6,360964,,,Verified
DMP.AX,28-JAN-2016,,End Of Day,,59.5,60.94,58.69,60.09,340511,,,Verified
DMP.AX,29-JAN-2016,,End Of Day,,60.16,60.68,59.02,59.81,246526,,,Verified
DMP.AX,30-JAN-2016,,End Of Day,No Trades,,,,,,,,Verified
DMP.AX,31-JAN-2016,,End Of Day,No Trades,,,,,,,,Verified
DMP.AX,01-FEB-2016,,End Of Day,,60.77,61.03,59.83,60.6,253394,,,Verified
DMP.AX,02-FEB-2016,,End Of Day,,60.65,60.8,59.26,59.58,223035,,,Verified
DMP.AX,03-FEB-2016,,End Of Day,,58.75,59.68,57.24,57.35,304119,,,Verified
DMP.AX,04-FEB-2016,,End Of Day,,58.05,58.1,52.91,53.97,464123,,,Verified
DMP.AX,05-FEB-2016,,End Of Day,,53.66,53.9,48.54,52.35,888797,,,Verified
DMP.AX,06-FEB-2016,,End Of Day,No Trades,,,,,,,,Verified
DMP.AX,07-FEB-2016,,End Of Day,No Trades,,,,,,,,Verified
DMP.AX,08-FEB-2016,,End Of Day,,51.97,53.9,50.35,52.56,457168,,,Verified
DMP.AX,09-FEB-2016,,End Of Day,,51.55,52.28,50.86,51.31,553262,,,Verified
DMP.AX,10-FEB-2016,,End Of Day,,51.25,52.18,49.31,50.2,395091,,,Verified
DMP.AX,11-FEB-2016,,End Of Day,,50.37,51.04,49.5,50.8,397327,,,Verified
DMP.AX,12-FEB-2016,,End Of Day,,49.98,50.81,49.36,50.1,379121,,,Verified
DMP.AX,13-FEB-2016,,End Of Day,No Trades,,,,,,,,Verified
DMP.AX,14-FEB-2016,,End Of Day,No Trades,,,,,,,,Verified
DMP.AX,15-FEB-2016,,End Of Day,,50.82,51.51,50.3,51.32,381110,,,Verified
DMP.AX,16-FEB-2016,,End Of Day,,52,52.42,50.75,52.36,375719,,,Verified
DMP.AX,17-FEB-2016,,End Of Day,,61,61.99,54.485,55.52,854393,,,Verified
DMP.AX,18-FEB-2016,,End Of Day,,57.67,61.08,56.47,60.8,845184,,,Verified
DMP.AX,19-FEB-2016,,End Of Day,,60.74,60.74,58.77,59.63,380090,,,Verified
DMP.AX,20-FEB-2016,,End Of Day,No Trades,,,,,,,,Verified
DMP.AX,21-FEB-2016,,End Of Day,No Trades,,,,,,,,Verified
DMP.AX,22-FEB-2016,,End Of Day,,59.69,61.14,59.69,60.15,305199,,,Verified
DMP.AX,23-FEB-2016,,End Of Day,,60.4,61.25,59.84,60.25,343422,,,Verified
DMP.AX,24-FEB-2016,,End Of Day,,60.1,61.64,60.09,60.77,320502,,,Verified
DMP.AX,25-FEB-2016,,End Of Day,,61.03,61.25,57.64,58.26,368651,,,Verified
DMP.AX,26-FEB-2016,,End Of Day,,58.6,58.72,57.4,58.19,340457,,,Verified
DMP.AX,27-FEB-2016,,End Of Day,No Trades,,,,,,,,Verified
DMP.AX,28-FEB-2016,,End Of Day,No Trades,,,,,,,,Verified
DMP.AX,29-FEB-2016,,End Of Day,,58.65,59.88,58.41,58.76,292731,,,Verified
DMP.AX,01-MAR-2016,,End Of Day,,58.55,59.525,58.23,59.08,207459,,,Verified
DMP.AX,02-MAR-2016,,End Of Day,,60,60.27,58.72,59.82,238297,,,Verified
DMP.AX,03-MAR-2016,,End Of Day,,60.03,60.18,58.36,58.9,303553,,,Verified
DMP.AX,04-MAR-2016,,End Of Day,,58.68,58.86,54.6,55.25,626668,,,Verified
DMP.AX,05-MAR-2016,,End Of Day,No Trades,,,,,,,,Verified
DMP.AX,06-MAR-2016,,End Of Day,No Trades,,,,,,,,Verified
DMP.AX,07-MAR-2016,,End Of Day,,56.35,56.55,55.695,56.39,615628,,,Verified
DMP.AX,08-MAR-2016,,End Of Day,,56.86,56.92,55.41,55.81,247790,,,Verified
DMP.AX,09-MAR-2016,,End Of Day,,55.63,56.87,55.63,56.31,517166,,,Verified
DMP.AX,10-MAR-2016,,End Of Day,,56.92,58.2,56.89,57.61,320592,,,Verified
DMP.AX,11-MAR-2016,,End Of Day,,57.79,58.47,57.56,58.03,315289,,,Verified
DMP.AX,12-MAR-2016,,End Of Day,No Trades,,,,,,,,Verified
DMP.AX,13-MAR-2016,,End Of Day,No Trades,,,,,,,,Verified
DMP.AX,14-MAR-2016,,End Of Day,,58.82,58.93,57.96,58.57,206028,,,Verified
DMP.AX,15-MAR-2016,,End Of Day,,58.73,58.74,57.11,57.18,240416,,,Verified
DMP.AX,16-MAR-2016,,End Of Day,,57.51,58.1,56.15,56.33,248774,,,Verified
DMP.AX,17-MAR-2016,,End Of Day,,57.13,57.23,56.2,56.82,265875,,,Verified
DMP.AX,18-MAR-2016,,End Of Day,,57.45,57.84,56.7,56.7,1379427,,,Verified
DMP.AX,19-MAR-2016,,End Of Day,No Trades,,,,,,,,Verified
DMP.AX,20-MAR-2016,,End Of Day,No Trades,,,,,,,,Verified
DMP.AX,21-MAR-2016,,End Of Day,,57.14,57.66,56.5,56.53,235259,,,Verified
DMP.AX,22-MAR-2016,,End Of Day,,57.1,57.99,57.055,57.81,225374,,,Verified
DMP.AX,23-MAR-2016,,End Of Day,,57.79,57.79,56.09,56.13,314460,,,Verified
DMP.AX,24-MAR-2016,,End Of Day,,56.01,56.72,56.01,56.3,215163,,,Verified
DMP.AX,25-MAR-2016,,End Of Day,No Trades,,,,,,,,Verified
DMP.AX,26-MAR-2016,,End Of Day,No Trades,,,,,,,,Verified
DMP.AX,27-MAR-2016,,End Of Day,No Trades,,,,,,,,Verified
DMP.AX,28-MAR-2016,,End Of Day,No Trades,,,,,,,,Verified
DMP.AX,29-MAR-2016,,End Of Day,,56.33,57.3,56.33,57.04,287165,,,Verified
DMP.AX,30-MAR-2016,,End Of Day,,57.46,57.8,56.31,56.53,312697,,,Verified
DMP.AX,31-MAR-2016,,End Of Day,,57.32,58.17,56.86,57.48,324613,,,Verified
DMP.AX,01-APR-2016,,End Of Day,,56.84,57.46,56.75,56.97,195176,,,Verified
DMP.AX,02-APR-2016,,End Of Day,No Trades,,,,,,,,Verified
DMP.AX,03-APR-2016,,End Of Day,No Trades,,,,,,,,Verified
DMP.AX,04-APR-2016,,End Of Day,,57,57.42,56.41,56.41,184739,,,Verified
DMP.AX,05-APR-2016,,End Of Day,,56.23,57.18,55.76,55.97,325910,,,Verified
DMP.AX,06-APR-2016,,End Of Day,,55.95,56.39,55.03,55.94,283889,,,Verified
DMP.AX,07-APR-2016,,End Of Day,,56.16,56.34,55.29,55.81,224811,,,Verified
DMP.AX,08-APR-2016,,End Of Day,,55.24,56.07,55.24,55.85,224970,,,Verified
DMP.AX,09-APR-2016,,End Of Day,No Trades,,,,,,,,Verified
DMP.AX,10-APR-2016,,End Of Day,No Trades,,,,,,,,Verified
DMP.AX,11-APR-2016,,End Of Day,,56,56.46,55.37,56.44,311244,,,Verified
DMP.AX,12-APR-2016,,End Of Day,,56.36,57.89,55.84,57.56,409422,,,Verified
DMP.AX,13-APR-2016,,End Of Day,,57.85,60.47,57.8,59.81,493310,,,Verified
DMP.AX,14-APR-2016,,End Of Day,,59.99,60.08,58.91,59.48,347130,,,Verified
DMP.AX,15-APR-2016,,End Of Day,,59.8,60.61,59.49,60.53,311568,,,Verified
DMP.AX,16-APR-2016,,End Of Day,No Trades,,,,,,,,Verified
DMP.AX,17-APR-2016,,End Of Day,No Trades,,,,,,,,Verified
DMP.AX,18-APR-2016,,End Of Day,,60.7,63.01,60.7,62.55,324141,,,Verified
DMP.AX,19-APR-2016,,End Of Day,,63.6,63.6,60.61,63.06,544269,,,Verified
DMP.AX,20-APR-2016,,End Of Day,,63.66,65.03,63.55,63.84,460137,,,Verified
DMP.AX,21-APR-2016,,End Of Day,,64.16,64.41,63.03,63.38,296000,,,Verified
DMP.AX,22-APR-2016,,End Of Day,,62.94,62.94,61.3,61.97,323311,,,Verified
DMP.AX,23-APR-2016,,End Of Day,No Trades,,,,,,,,Verified
DMP.AX,24-APR-2016,,End Of Day,No Trades,,,,,,,,Verified
DMP.AX,25-APR-2016,,End Of Day,No Trades,,,,,,,,Verified
DMP.AX,26-APR-2016,,End Of Day,,61.1,62.45,60.65,61.25,316066,,,Verified
DMP.AX,27-APR-2016,,End Of Day,,61.85,62.54,61.03,61.76,308001,,,Verified
DMP.AX,28-APR-2016,,End Of Day,,62.26,62.42,61.15,62.05,214852,,,Verified
DMP.AX,29-APR-2016,,End Of Day,,61,62.32,60.69,62.01,183047,,,Verified
DMP.AX,30-APR-2016,,End Of Day,No Trades,,,,,,,,Verified
DMP.AX,01-MAY-2016,,End Of Day,No Trades,,,,,,,,Verified
DMP.AX,02-MAY-2016,,End Of Day,,62.28,63.16,62.195,62.8,260174,,,Verified
DMP.AX,03-MAY-2016,,End Of Day,,62.88,65.39,62.81,65.07,315079,,,Verified
DMP.AX,04-MAY-2016,,End Of Day,,64.75,66.33,64.59,64.69,341565,,,Verified
DMP.AX,05-MAY-2016,,End Of Day,,64.68,64.68,63.68,63.82,285949,,,Verified
DMP.AX,06-MAY-2016,,End Of Day,,63.27,64.51,62,64.38,363922,,,Verified
DMP.AX,07-MAY-2016,,End Of Day,No Trades,,,,,,,,Verified
DMP.AX,08-MAY-2016,,End Of Day,No Trades,,,,,,,,Verified
DMP.AX,09-MAY-2016,,End Of Day,,64.3,65.2,62.89,65.2,367450,,,Verified
DMP.AX,10-MAY-2016,,End Of Day,,65.26,66.07,64.78,65.22,255138,,,Verified
DMP.AX,11-MAY-2016,,End Of Day,,66.78,67.52,65.83,67.27,425843,,,Verified
