{
"Name": "Macquarie Atlas Roads Group (MQA.AX)",
"Market Cap (intraday)": "2.71B",
"Enterprise Value (28/05/2016)": "2.61B",
"Trailing P/E (ttm, intraday):": "31.70",
"Forward P/E (fye 31/12/2017)": "24.90",
"PEG Ratio (5 yr expected)": "1.00",
"Price/Sales (ttm):": "1,044.13",
"Price/Book (mrq):": "3.14",
"Enterprise Value/Revenue (ttm)": "1,005.01",
"Enterprise Value/EBITDA (ttm)": "N/A",
"Fiscal Year Ends:": "31 Dec",
"Most Recent Quarter (mrq):": "31/12/2015",
"Profit Margin (ttm):": "3,276.17%",
"Operating Margin (ttm):": "-1,072.20%",
"Return on Assets (ttm):": "-1.98%",
"Return on Equity (ttm):": "10.08%",
"Revenue (ttm):": "2.60M",
"Revenue Per Share (ttm):": "0.01",
"Qtrly Revenue Growth (yoy):": "-20.30%",
"Gross Profit (ttm):": "3.00M",
"EBITDA (ttm)": "N/A",
"Net Income Avl to Common (ttm):": "85.08M",
"Diluted EPS (ttm):": "0.17",
"Qtrly Earnings Growth (yoy):": "158.40%",
"Total Cash (mrq):": "65.38M",
"Total Cash Per Share (mrq):": "0.13",
"Total Debt (mrq):": "0.00",
"Total Debt/Equity (mrq):": "N/A",
"Current Ratio (mrq):": "2.95",
"Book Value Per Share (mrq):": "1.67",
"Operating Cash Flow (ttm):": "-41.72M",
"Levered Free Cash Flow (ttm):": "-32.26M",
"Beta:": "N/A",
"52-Week Change": "63.44%",
"S&P500 52-Week Change": "-0.60%",
"52-Week High (13/05/2016)": "5.36",
"52-Week Low (20/07/2015)": "3.12",
"50-Day Moving Average": "4.94",
"200-Day Moving Average": "4.45",
"Avg Vol (3 month)": "1,645,780",
"Avg Vol (10 day)": "1,151,300",
"Shares Outstanding": "517.48M",
"Float:": "517.30M",
"% Held by Insiders": "N/A",
"% Held by Institutions": "N/A",
"Shares Short ": "N/A",
"Short Ratio ": "N/A",
"Short % of Float ": "N/A",
"Shares Short (prior month)": "N/A",
"Forward Annual Dividend Rate": "N/A",
"Forward Annual Dividend Yield": "N/A",
"Trailing Annual Dividend Yield": "0.11",
"Trailing Annual Dividend Yield": "2.00%",
"5 Year Average Dividend Yield": "N/A",
"Payout Ratio": "N/A",
"Dividend Date": "N/A",
"Ex-Dividend Date": "N/A",
"Last Split Factor (new per old)": "N/A",
"Last Split Date": "N/A"
}
