{
"Name": "Dexus Property Group (DXS.AX)",
"Market Cap (intraday)": "8.43B",
"Enterprise Value (28/05/2016)": "11.66B",
"Trailing P/E (ttm, intraday):": "7.12",
"Forward P/E (fye 30/06/2017)": "15.02",
"PEG Ratio (5 yr expected)": "4.81",
"Price/Sales (ttm):": "5.87",
"Price/Book (mrq):": "1.14",
"Enterprise Value/Revenue (ttm)": "8.17",
"Enterprise Value/EBITDA (ttm)": "11.78",
"Fiscal Year Ends:": "30 Jun",
"Most Recent Quarter (mrq):": "31/12/2015",
"Profit Margin (ttm):": "81.21%",
"Operating Margin (ttm):": "69.22%",
"Return on Assets (ttm):": "5.85%",
"Return on Equity (ttm):": "17.20%",
"Revenue (ttm):": "1.43B",
"Revenue Per Share (ttm):": "1.51",
"Qtrly Revenue Growth (yoy):": "50.00%",
"Gross Profit (ttm):": "813.00M",
"EBITDA (ttm)": "990.10M",
"Net Income Avl to Common (ttm):": "1.16B",
"Diluted EPS (ttm):": "1.22",
"Qtrly Earnings Growth (yoy):": "209.30%",
"Total Cash (mrq):": "25.50M",
"Total Cash Per Share (mrq):": "0.03",
"Total Debt (mrq):": "3.27B",
"Total Debt/Equity (mrq):": "44.68",
"Current Ratio (mrq):": "0.38",
"Book Value Per Share (mrq):": "7.57",
"Operating Cash Flow (ttm):": "747.30M",
"Levered Free Cash Flow (ttm):": "699.82M",
"Beta:": "N/A",
"52-Week Change": "9.15%",
"S&P500 52-Week Change": "-0.60%",
"52-Week High (18/05/2016)": "8.96",
"52-Week Low (18/01/2016)": "6.92",
"50-Day Moving Average": "8.43",
"200-Day Moving Average": "7.78",
"Avg Vol (3 month)": "3,138,270",
"Avg Vol (10 day)": "4,696,670",
"Shares Outstanding": "967.95M",
"Float:": "963.88M",
"% Held by Insiders": "N/A",
"% Held by Institutions": "N/A",
"Shares Short ": "N/A",
"Short Ratio ": "N/A",
"Short % of Float ": "N/A",
"Shares Short (prior month)": "N/A",
"Forward Annual Dividend Rate": "N/A",
"Forward Annual Dividend Yield": "N/A",
"Trailing Annual Dividend Yield": "0.44",
"Trailing Annual Dividend Yield": "5.10%",
"5 Year Average Dividend Yield": "N/A",
"Payout Ratio": "N/A",
"Dividend Date": "N/A",
"Ex-Dividend Date": "N/A",
"Last Split Factor (new per old)": "1:6",
"Last Split Date": "05/11/2014"
}
