#RIC,Date[L],Time[L],Type,Qualifiers,Open,High,Low,Last,Volume,Open Interest,Settle,Data Source
BTT.AX,01-JAN-2014,,End Of Day,No Trades,,,,,,,,Verified
BTT.AX,02-JAN-2014,,End Of Day,,5.75,5.81,5.69,5.78,92490,,,Verified
BTT.AX,03-JAN-2014,,End Of Day,,5.72,5.75,5.63,5.7,66489,,,Verified
BTT.AX,04-JAN-2014,,End Of Day,No Trades,,,,,,,,Verified
BTT.AX,05-JAN-2014,,End Of Day,No Trades,,,,,,,,Verified
BTT.AX,06-JAN-2014,,End Of Day,,5.7,5.8,5.64,5.8,180896,,,Verified
BTT.AX,07-JAN-2014,,End Of Day,,5.75,5.76,5.69,5.73,111060,,,Verified
BTT.AX,08-JAN-2014,,End Of Day,,5.73,5.75,5.71,5.75,63089,,,Verified
BTT.AX,09-JAN-2014,,End Of Day,,5.75,5.8,5.72,5.8,156511,,,Verified
BTT.AX,10-JAN-2014,,End Of Day,,5.8,5.99,5.79,5.95,391715,,,Verified
BTT.AX,11-JAN-2014,,End Of Day,No Trades,,,,,,,,Verified
BTT.AX,12-JAN-2014,,End Of Day,No Trades,,,,,,,,Verified
BTT.AX,13-JAN-2014,,End Of Day,,6,6.25,5.99,6.05,256118,,,Verified
BTT.AX,14-JAN-2014,,End Of Day,,6.05,6.05,5.7,5.7,317571,,,Verified
BTT.AX,15-JAN-2014,,End Of Day,,5.75,5.85,5.72,5.8,283426,,,Verified
BTT.AX,16-JAN-2014,,End Of Day,,5.81,5.98,5.77,5.93,288595,,,Verified
BTT.AX,17-JAN-2014,,End Of Day,,6,6.07,5.95,5.98,299468,,,Verified
BTT.AX,18-JAN-2014,,End Of Day,No Trades,,,,,,,,Verified
BTT.AX,19-JAN-2014,,End Of Day,No Trades,,,,,,,,Verified
BTT.AX,20-JAN-2014,,End Of Day,,6.01,6.1,5.995,6.07,326691,,,Verified
BTT.AX,21-JAN-2014,,End Of Day,,6.1,6.36,6.09,6.14,659484,,,Verified
BTT.AX,22-JAN-2014,,End Of Day,,6.2,6.46,6.2,6.36,774351,,,Verified
BTT.AX,23-JAN-2014,,End Of Day,,6.31,6.57,6.28,6.47,907217,,,Verified
BTT.AX,24-JAN-2014,,End Of Day,,6.34,6.59,6.26,6.47,339156,,,Verified
BTT.AX,25-JAN-2014,,End Of Day,No Trades,,,,,,,,Verified
BTT.AX,26-JAN-2014,,End Of Day,No Trades,,,,,,,,Verified
BTT.AX,27-JAN-2014,,End Of Day,No Trades,,,,,,,,Verified
BTT.AX,28-JAN-2014,,End Of Day,,6.39,6.4,6.22,6.27,240175,,,Verified
BTT.AX,29-JAN-2014,,End Of Day,,6.3,6.3,6.01,6.2,320523,,,Verified
BTT.AX,30-JAN-2014,,End Of Day,,6.05,6.15,6.02,6.15,148103,,,Verified
BTT.AX,31-JAN-2014,,End Of Day,,6.15,6.16,5.82,6.12,272923,,,Verified
BTT.AX,01-FEB-2014,,End Of Day,No Trades,,,,,,,,Verified
BTT.AX,02-FEB-2014,,End Of Day,No Trades,,,,,,,,Verified
BTT.AX,03-FEB-2014,,End Of Day,,6.11,6.12,5.96,5.97,60748,,,Verified
BTT.AX,04-FEB-2014,,End Of Day,,5.9,5.9,5.77,5.88,314770,,,Verified
BTT.AX,05-FEB-2014,,End Of Day,,5.88,6,5.79,5.99,316448,,,Verified
BTT.AX,06-FEB-2014,,End Of Day,,5.97,6.1,5.94,5.96,165855,,,Verified
BTT.AX,07-FEB-2014,,End Of Day,,6.05,6.22,6.05,6.22,131153,,,Verified
BTT.AX,08-FEB-2014,,End Of Day,No Trades,,,,,,,,Verified
BTT.AX,09-FEB-2014,,End Of Day,No Trades,,,,,,,,Verified
BTT.AX,10-FEB-2014,,End Of Day,,6.25,6.32,6.25,6.25,195065,,,Verified
BTT.AX,11-FEB-2014,,End Of Day,,6.28,6.3,6.11,6.19,113523,,,Verified
BTT.AX,12-FEB-2014,,End Of Day,,6.2,6.25,6.1,6.2,418233,,,Verified
BTT.AX,13-FEB-2014,,End Of Day,,6.25,6.45,6.25,6.26,313784,,,Verified
BTT.AX,14-FEB-2014,,End Of Day,,6.26,6.41,6.23,6.3,303617,,,Verified
BTT.AX,15-FEB-2014,,End Of Day,No Trades,,,,,,,,Verified
BTT.AX,16-FEB-2014,,End Of Day,No Trades,,,,,,,,Verified
BTT.AX,17-FEB-2014,,End Of Day,,6.36,6.47,6.34,6.41,269338,,,Verified
BTT.AX,18-FEB-2014,,End Of Day,,6.45,6.48,6.35,6.4,268933,,,Verified
BTT.AX,19-FEB-2014,,End Of Day,,6.45,6.47,6.32,6.45,314538,,,Verified
BTT.AX,20-FEB-2014,,End Of Day,,6.45,6.45,6.32,6.4,192812,,,Verified
BTT.AX,21-FEB-2014,,End Of Day,,6.42,6.42,6.35,6.36,39723,,,Verified
BTT.AX,22-FEB-2014,,End Of Day,No Trades,,,,,,,,Verified
BTT.AX,23-FEB-2014,,End Of Day,No Trades,,,,,,,,Verified
BTT.AX,24-FEB-2014,,End Of Day,,6.34,6.38,6.32,6.38,70718,,,Verified
BTT.AX,25-FEB-2014,,End Of Day,,6.37,6.45,6.35,6.38,198290,,,Verified
BTT.AX,26-FEB-2014,,End Of Day,,6.38,6.41,6.36,6.39,182990,,,Verified
BTT.AX,27-FEB-2014,,End Of Day,,6.4,6.4,6.335,6.38,885237,,,Verified
BTT.AX,28-FEB-2014,,End Of Day,,6.4,6.4,6.22,6.28,125780,,,Verified
BTT.AX,01-MAR-2014,,End Of Day,No Trades,,,,,,,,Verified
BTT.AX,02-MAR-2014,,End Of Day,No Trades,,,,,,,,Verified
BTT.AX,03-MAR-2014,,End Of Day,,6.25,6.4,6.13,6.37,156146,,,Verified
BTT.AX,04-MAR-2014,,End Of Day,,6.38,6.38,6.31,6.36,167173,,,Verified
BTT.AX,05-MAR-2014,,End Of Day,,6.36,6.42,6.28,6.32,277592,,,Verified
BTT.AX,06-MAR-2014,,End Of Day,,6.3,6.43,6.28,6.4,274339,,,Verified
BTT.AX,07-MAR-2014,,End Of Day,,6.4,6.58,6.4,6.5,374603,,,Verified
BTT.AX,08-MAR-2014,,End Of Day,No Trades,,,,,,,,Verified
BTT.AX,09-MAR-2014,,End Of Day,No Trades,,,,,,,,Verified
BTT.AX,10-MAR-2014,,End Of Day,,6.51,6.8,6.5,6.58,551819,,,Verified
BTT.AX,11-MAR-2014,,End Of Day,,6.59,6.74,6.48,6.73,375770,,,Verified
BTT.AX,12-MAR-2014,,End Of Day,,6.69,6.9,6.67,6.9,303239,,,Verified
BTT.AX,13-MAR-2014,,End Of Day,,6.95,7.02,6.93,6.95,320435,,,Verified
BTT.AX,14-MAR-2014,,End Of Day,,6.95,6.95,6.68,6.76,198364,,,Verified
BTT.AX,15-MAR-2014,,End Of Day,No Trades,,,,,,,,Verified
BTT.AX,16-MAR-2014,,End Of Day,No Trades,,,,,,,,Verified
BTT.AX,17-MAR-2014,,End Of Day,,6.8,6.85,6.69,6.78,168096,,,Verified
BTT.AX,18-MAR-2014,,End Of Day,,6.85,6.85,6.74,6.76,136750,,,Verified
BTT.AX,19-MAR-2014,,End Of Day,,6.75,7.02,6.75,6.92,878633,,,Verified
BTT.AX,20-MAR-2014,,End Of Day,,6.93,7.15,6.93,7.11,417812,,,Verified
BTT.AX,21-MAR-2014,,End Of Day,,7.1,7.3,7.07,7.1,1073749,,,Verified
BTT.AX,22-MAR-2014,,End Of Day,No Trades,,,,,,,,Verified
BTT.AX,23-MAR-2014,,End Of Day,No Trades,,,,,,,,Verified
BTT.AX,24-MAR-2014,,End Of Day,,7.3,7.3,7.14,7.2,529002,,,Verified
BTT.AX,25-MAR-2014,,End Of Day,,7.17,7.22,7.14,7.22,263866,,,Verified
BTT.AX,26-MAR-2014,,End Of Day,,7.3,7.45,7.25,7.28,287313,,,Verified
BTT.AX,27-MAR-2014,,End Of Day,,7.3,7.35,7.25,7.3,135988,,,Verified
BTT.AX,28-MAR-2014,,End Of Day,,7.33,7.37,7.23,7.35,126666,,,Verified
BTT.AX,29-MAR-2014,,End Of Day,No Trades,,,,,,,,Verified
BTT.AX,30-MAR-2014,,End Of Day,No Trades,,,,,,,,Verified
BTT.AX,31-MAR-2014,,End Of Day,,7.37,7.385,7.2,7.3,194483,,,Verified
BTT.AX,01-APR-2014,,End Of Day,,7.33,7.33,7.22,7.28,173384,,,Verified
BTT.AX,02-APR-2014,,End Of Day,,7.27,7.32,7.15,7.21,264783,,,Verified
BTT.AX,03-APR-2014,,End Of Day,,7.21,7.25,7.06,7.15,332375,,,Verified
BTT.AX,04-APR-2014,,End Of Day,,7.23,7.25,7.05,7.25,96468,,,Verified
BTT.AX,05-APR-2014,,End Of Day,No Trades,,,,,,,,Verified
BTT.AX,06-APR-2014,,End Of Day,No Trades,,,,,,,,Verified
BTT.AX,07-APR-2014,,End Of Day,,7.24,7.3,7.12,7.13,165681,,,Verified
BTT.AX,08-APR-2014,,End Of Day,,7.06,7.06,6.54,6.75,506080,,,Verified
BTT.AX,09-APR-2014,,End Of Day,,6.75,6.86,6.67,6.73,340580,,,Verified
BTT.AX,10-APR-2014,,End Of Day,,6.73,7,6.73,6.92,382588,,,Verified
BTT.AX,11-APR-2014,,End Of Day,,6.85,6.85,6.59,6.62,384278,,,Verified
BTT.AX,12-APR-2014,,End Of Day,No Trades,,,,,,,,Verified
BTT.AX,13-APR-2014,,End Of Day,No Trades,,,,,,,,Verified
BTT.AX,14-APR-2014,,End Of Day,,6.5,6.52,6.22,6.27,530812,,,Verified
BTT.AX,15-APR-2014,,End Of Day,,6.32,6.47,6.285,6.35,566415,,,Verified
BTT.AX,16-APR-2014,,End Of Day,,6.33,6.5,6.33,6.45,255919,,,Verified
BTT.AX,17-APR-2014,,End Of Day,,6.55,6.67,6.38,6.4,484066,,,Verified
BTT.AX,18-APR-2014,,End Of Day,No Trades,,,,,,,,Verified
BTT.AX,19-APR-2014,,End Of Day,No Trades,,,,,,,,Verified
BTT.AX,20-APR-2014,,End Of Day,No Trades,,,,,,,,Verified
BTT.AX,21-APR-2014,,End Of Day,No Trades,,,,,,,,Verified
BTT.AX,22-APR-2014,,End Of Day,,6.37,6.4,6.28,6.37,230873,,,Verified
BTT.AX,23-APR-2014,,End Of Day,,6.37,6.58,6.36,6.5,289395,,,Verified
BTT.AX,24-APR-2014,,End Of Day,,6.5,6.65,6.45,6.62,179833,,,Verified
BTT.AX,25-APR-2014,,End Of Day,No Trades,,,,,,,,Verified
BTT.AX,26-APR-2014,,End Of Day,No Trades,,,,,,,,Verified
BTT.AX,27-APR-2014,,End Of Day,No Trades,,,,,,,,Verified
BTT.AX,28-APR-2014,,End Of Day,,6.48,6.59,6.44,6.55,144021,,,Verified
BTT.AX,29-APR-2014,,End Of Day,,6.54,6.68,6.41,6.5,278464,,,Verified
BTT.AX,30-APR-2014,,End Of Day,,6.73,6.8,6.59,6.7,288872,,,Verified
BTT.AX,01-MAY-2014,,End Of Day,,6.75,6.9,6.71,6.9,500623,,,Verified
BTT.AX,02-MAY-2014,,End Of Day,,6.89,7,6.84,7,210378,,,Verified
BTT.AX,03-MAY-2014,,End Of Day,No Trades,,,,,,,,Verified
BTT.AX,04-MAY-2014,,End Of Day,No Trades,,,,,,,,Verified
BTT.AX,05-MAY-2014,,End Of Day,,7,7,6.8,6.85,186775,,,Verified
BTT.AX,06-MAY-2014,,End Of Day,,6.9,6.98,6.81,6.89,117170,,,Verified
BTT.AX,07-MAY-2014,,End Of Day,,6.87,6.9,6.83,6.88,179608,,,Verified
BTT.AX,08-MAY-2014,,End Of Day,,6.88,6.88,6.76,6.8,373928,,,Verified
BTT.AX,09-MAY-2014,,End Of Day,,6.8,6.81,6.67,6.72,192761,,,Verified
BTT.AX,10-MAY-2014,,End Of Day,No Trades,,,,,,,,Verified
BTT.AX,11-MAY-2014,,End Of Day,No Trades,,,,,,,,Verified
BTT.AX,12-MAY-2014,,End Of Day,,6.67,6.78,6.66,6.7,134167,,,Verified
BTT.AX,13-MAY-2014,,End Of Day,,6.7,6.78,6.69,6.78,162477,,,Verified
BTT.AX,14-MAY-2014,,End Of Day,,6.77,6.8,6.64,6.75,157174,,,Verified
BTT.AX,15-MAY-2014,,End Of Day,,6.74,6.75,6.64,6.71,98719,,,Verified
BTT.AX,16-MAY-2014,,End Of Day,,6.7,6.7,6.51,6.57,175374,,,Verified
BTT.AX,17-MAY-2014,,End Of Day,No Trades,,,,,,,,Verified
BTT.AX,18-MAY-2014,,End Of Day,No Trades,,,,,,,,Verified
BTT.AX,19-MAY-2014,,End Of Day,,6.57,6.6,6.45,6.49,129087,,,Verified
BTT.AX,20-MAY-2014,,End Of Day,,6.49,6.5,6.26,6.41,235873,,,Verified
BTT.AX,21-MAY-2014,,End Of Day,,6.45,6.46,6.29,6.4,448162,,,Verified
BTT.AX,22-MAY-2014,,End Of Day,,6.4,6.6,6.4,6.54,319430,,,Verified
BTT.AX,23-MAY-2014,,End Of Day,,6.63,6.75,6.59,6.7,125212,,,Verified
BTT.AX,24-MAY-2014,,End Of Day,No Trades,,,,,,,,Verified
BTT.AX,25-MAY-2014,,End Of Day,No Trades,,,,,,,,Verified
BTT.AX,26-MAY-2014,,End Of Day,,6.69,6.74,6.65,6.74,42421,,,Verified
BTT.AX,27-MAY-2014,,End Of Day,,6.75,6.84,6.75,6.82,90561,,,Verified
BTT.AX,28-MAY-2014,,End Of Day,,6.83,6.84,6.76,6.84,87288,,,Verified
BTT.AX,29-MAY-2014,,End Of Day,,6.8,6.84,6.75,6.77,72972,,,Verified
BTT.AX,30-MAY-2014,,End Of Day,,6.75,6.78,6.56,6.56,228928,,,Verified
BTT.AX,31-MAY-2014,,End Of Day,No Trades,,,,,,,,Verified
BTT.AX,01-JUN-2014,,End Of Day,No Trades,,,,,,,,Verified
BTT.AX,02-JUN-2014,,End Of Day,,6.56,6.8,6.55,6.75,174065,,,Verified
BTT.AX,03-JUN-2014,,End Of Day,,6.7,6.78,6.62,6.68,115177,,,Verified
BTT.AX,04-JUN-2014,,End Of Day,,6.68,6.84,6.63,6.73,144479,,,Verified
BTT.AX,05-JUN-2014,,End Of Day,,6.75,6.94,6.75,6.84,361638,,,Verified
BTT.AX,06-JUN-2014,,End Of Day,,6.93,6.94,6.81,6.9,134005,,,Verified
BTT.AX,07-JUN-2014,,End Of Day,No Trades,,,,,,,,Verified
BTT.AX,08-JUN-2014,,End Of Day,No Trades,,,,,,,,Verified
BTT.AX,09-JUN-2014,,End Of Day,No Trades,,,,,,,,Verified
BTT.AX,10-JUN-2014,,End Of Day,,6.87,6.93,6.82,6.93,108000,,,Verified
BTT.AX,11-JUN-2014,,End Of Day,,6.77,6.88,6.77,6.84,100390,,,Verified
BTT.AX,12-JUN-2014,,End Of Day,,6.77,6.82,6.71,6.76,89381,,,Verified
BTT.AX,13-JUN-2014,,End Of Day,,6.7,6.72,6.58,6.62,88023,,,Verified
BTT.AX,14-JUN-2014,,End Of Day,No Trades,,,,,,,,Verified
BTT.AX,15-JUN-2014,,End Of Day,No Trades,,,,,,,,Verified
BTT.AX,16-JUN-2014,,End Of Day,,6.62,6.71,6.39,6.47,192186,,,Verified
BTT.AX,17-JUN-2014,,End Of Day,,6.51,6.51,6.27,6.33,180600,,,Verified
BTT.AX,18-JUN-2014,,End Of Day,,6.32,6.39,6.28,6.3,86187,,,Verified
BTT.AX,19-JUN-2014,,End Of Day,,6.25,6.47,6.14,6.23,277458,,,Verified
BTT.AX,20-JUN-2014,,End Of Day,,6.19,6.64,6.19,6.64,220776,,,Verified
BTT.AX,21-JUN-2014,,End Of Day,No Trades,,,,,,,,Verified
BTT.AX,22-JUN-2014,,End Of Day,No Trades,,,,,,,,Verified
BTT.AX,23-JUN-2014,,End Of Day,,6.54,6.54,6.35,6.42,124058,,,Verified
BTT.AX,24-JUN-2014,,End Of Day,,6.37,6.5,6.35,6.47,155898,,,Verified
BTT.AX,25-JUN-2014,,End Of Day,,6.5,6.54,6.37,6.54,113485,,,Verified
BTT.AX,26-JUN-2014,,End Of Day,,6.42,6.62,6.42,6.59,92168,,,Verified
BTT.AX,27-JUN-2014,,End Of Day,,6.65,6.72,6.56,6.6,194575,,,Verified
BTT.AX,28-JUN-2014,,End Of Day,No Trades,,,,,,,,Verified
BTT.AX,29-JUN-2014,,End Of Day,No Trades,,,,,,,,Verified
BTT.AX,30-JUN-2014,,End Of Day,,6.45,6.55,6.425,6.45,191649,,,Verified
BTT.AX,01-JUL-2014,,End Of Day,,6.54,6.54,6.42,6.5,209991,,,Verified
BTT.AX,02-JUL-2014,,End Of Day,,6.48,6.52,6.36,6.48,682146,,,Verified
BTT.AX,03-JUL-2014,,End Of Day,,6.36,6.61,6.36,6.58,198820,,,Verified
BTT.AX,04-JUL-2014,,End Of Day,,6.56,6.76,6.55,6.56,161259,,,Verified
BTT.AX,05-JUL-2014,,End Of Day,No Trades,,,,,,,,Verified
BTT.AX,06-JUL-2014,,End Of Day,No Trades,,,,,,,,Verified
BTT.AX,07-JUL-2014,,End Of Day,,6.59,6.79,6.55,6.73,376878,,,Verified
BTT.AX,08-JUL-2014,,End Of Day,,6.67,6.78,6.65,6.78,117778,,,Verified
BTT.AX,09-JUL-2014,,End Of Day,,6.74,6.77,6.65,6.67,230228,,,Verified
BTT.AX,10-JUL-2014,,End Of Day,,6.73,6.75,6.66,6.68,202494,,,Verified
BTT.AX,11-JUL-2014,,End Of Day,,6.68,6.68,6.55,6.64,126254,,,Verified
BTT.AX,12-JUL-2014,,End Of Day,No Trades,,,,,,,,Verified
BTT.AX,13-JUL-2014,,End Of Day,No Trades,,,,,,,,Verified
BTT.AX,14-JUL-2014,,End Of Day,,6.6,6.9,6.6,6.79,214357,,,Verified
BTT.AX,15-JUL-2014,,End Of Day,,6.85,7.05,6.85,7.02,214741,,,Verified
BTT.AX,16-JUL-2014,,End Of Day,,7.03,7.03,6.96,7.03,157158,,,Verified
BTT.AX,17-JUL-2014,,End Of Day,,7.01,7.03,6.89,6.97,136864,,,Verified
BTT.AX,18-JUL-2014,,End Of Day,,6.89,6.94,6.74,6.94,119479,,,Verified
BTT.AX,19-JUL-2014,,End Of Day,No Trades,,,,,,,,Verified
BTT.AX,20-JUL-2014,,End Of Day,No Trades,,,,,,,,Verified
BTT.AX,21-JUL-2014,,End Of Day,,6.94,6.98,6.83,6.86,125326,,,Verified
BTT.AX,22-JUL-2014,,End Of Day,,6.99,6.99,6.84,6.91,89214,,,Verified
BTT.AX,23-JUL-2014,,End Of Day,,6.95,6.96,6.87,6.87,142542,,,Verified
BTT.AX,24-JUL-2014,,End Of Day,,6.88,7,6.85,6.95,137979,,,Verified
BTT.AX,25-JUL-2014,,End Of Day,,7,7,6.83,6.9,57065,,,Verified
BTT.AX,26-JUL-2014,,End Of Day,No Trades,,,,,,,,Verified
BTT.AX,27-JUL-2014,,End Of Day,No Trades,,,,,,,,Verified
BTT.AX,28-JUL-2014,,End Of Day,,6.83,6.9,6.75,6.75,97654,,,Verified
BTT.AX,29-JUL-2014,,End Of Day,,6.75,6.77,6.67,6.76,77365,,,Verified
BTT.AX,30-JUL-2014,,End Of Day,,6.69,6.72,6.6,6.66,115323,,,Verified
BTT.AX,31-JUL-2014,,End Of Day,,6.69,6.8,6.69,6.72,94164,,,Verified
BTT.AX,01-AUG-2014,,End Of Day,,6.68,6.77,6.55,6.7,168596,,,Verified
BTT.AX,02-AUG-2014,,End Of Day,No Trades,,,,,,,,Verified
BTT.AX,03-AUG-2014,,End Of Day,No Trades,,,,,,,,Verified
BTT.AX,04-AUG-2014,,End Of Day,,6.6,6.64,6.48,6.52,94479,,,Verified
BTT.AX,05-AUG-2014,,End Of Day,,6.55,6.65,6.44,6.44,165376,,,Verified
BTT.AX,06-AUG-2014,,End Of Day,,6.4,6.45,6.35,6.39,256396,,,Verified
BTT.AX,07-AUG-2014,,End Of Day,,6.35,6.42,6.32,6.36,215483,,,Verified
BTT.AX,08-AUG-2014,,End Of Day,,6.35,6.45,6.2,6.25,297883,,,Verified
BTT.AX,09-AUG-2014,,End Of Day,No Trades,,,,,,,,Verified
BTT.AX,10-AUG-2014,,End Of Day,No Trades,,,,,,,,Verified
BTT.AX,11-AUG-2014,,End Of Day,,6.25,6.45,6.22,6.27,180977,,,Verified
BTT.AX,12-AUG-2014,,End Of Day,,6.3,6.37,6.28,6.33,95310,,,Verified
BTT.AX,13-AUG-2014,,End Of Day,,6.3,6.41,6.29,6.35,156150,,,Verified
BTT.AX,14-AUG-2014,,End Of Day,,6.36,6.51,6.36,6.45,168971,,,Verified
BTT.AX,15-AUG-2014,,End Of Day,,6.45,6.55,6.42,6.42,248363,,,Verified
BTT.AX,16-AUG-2014,,End Of Day,No Trades,,,,,,,,Verified
BTT.AX,17-AUG-2014,,End Of Day,No Trades,,,,,,,,Verified
BTT.AX,18-AUG-2014,,End Of Day,,6.42,6.5,6.42,6.44,97558,,,Verified
BTT.AX,19-AUG-2014,,End Of Day,,6.49,6.52,6.43,6.49,102273,,,Verified
BTT.AX,20-AUG-2014,,End Of Day,,6.42,6.51,6.41,6.46,600018,,,Verified
BTT.AX,21-AUG-2014,,End Of Day,,6.5,6.52,6.45,6.45,113653,,,Verified
BTT.AX,22-AUG-2014,,End Of Day,,6.48,6.49,6.4,6.4,79732,,,Verified
BTT.AX,23-AUG-2014,,End Of Day,No Trades,,,,,,,,Verified
BTT.AX,24-AUG-2014,,End Of Day,No Trades,,,,,,,,Verified
BTT.AX,25-AUG-2014,,End Of Day,,6.4,6.47,6.37,6.41,89783,,,Verified
BTT.AX,26-AUG-2014,,End Of Day,,6.41,6.49,6.38,6.44,113539,,,Verified
BTT.AX,27-AUG-2014,,End Of Day,,6.44,6.63,6.43,6.55,186726,,,Verified
BTT.AX,28-AUG-2014,,End Of Day,,6.5,6.57,6.47,6.54,96404,,,Verified
BTT.AX,29-AUG-2014,,End Of Day,,6.5,6.58,6.5,6.57,87851,,,Verified
BTT.AX,30-AUG-2014,,End Of Day,No Trades,,,,,,,,Verified
BTT.AX,31-AUG-2014,,End Of Day,No Trades,,,,,,,,Verified
BTT.AX,01-SEP-2014,,End Of Day,,6.54,6.55,6.46,6.51,76423,,,Verified
BTT.AX,02-SEP-2014,,End Of Day,,6.46,6.55,6.45,6.5,66723,,,Verified
BTT.AX,03-SEP-2014,,End Of Day,,6.5,6.53,6.45,6.49,74418,,,Verified
BTT.AX,04-SEP-2014,,End Of Day,,6.48,6.48,6.36,6.4,64119,,,Verified
BTT.AX,05-SEP-2014,,End Of Day,,6.39,6.39,6.22,6.31,142800,,,Verified
BTT.AX,06-SEP-2014,,End Of Day,No Trades,,,,,,,,Verified
BTT.AX,07-SEP-2014,,End Of Day,No Trades,,,,,,,,Verified
BTT.AX,08-SEP-2014,,End Of Day,,6.33,6.34,6.27,6.34,53334,,,Verified
BTT.AX,09-SEP-2014,,End Of Day,,6.4,6.4,6.32,6.35,326739,,,Verified
BTT.AX,10-SEP-2014,,End Of Day,,6.32,6.38,6.31,6.38,108228,,,Verified
BTT.AX,11-SEP-2014,,End Of Day,,6.36,6.42,6.35,6.38,171628,,,Verified
BTT.AX,12-SEP-2014,,End Of Day,,6.38,6.39,6.23,6.25,135846,,,Verified
BTT.AX,13-SEP-2014,,End Of Day,No Trades,,,,,,,,Verified
BTT.AX,14-SEP-2014,,End Of Day,No Trades,,,,,,,,Verified
BTT.AX,15-SEP-2014,,End Of Day,,6.25,6.28,6.14,6.2,81128,,,Verified
BTT.AX,16-SEP-2014,,End Of Day,,6.37,6.38,6.12,6.15,179890,,,Verified
BTT.AX,17-SEP-2014,,End Of Day,,6.15,6.16,5.91,6.06,230093,,,Verified
BTT.AX,18-SEP-2014,,End Of Day,,6,6.24,5.99,6.22,205302,,,Verified
BTT.AX,19-SEP-2014,,End Of Day,,6.25,6.5,6.25,6.48,203789,,,Verified
BTT.AX,20-SEP-2014,,End Of Day,No Trades,,,,,,,,Verified
BTT.AX,21-SEP-2014,,End Of Day,No Trades,,,,,,,,Verified
BTT.AX,22-SEP-2014,,End Of Day,,6.42,6.42,6.16,6.22,175803,,,Verified
BTT.AX,23-SEP-2014,,End Of Day,,6.23,6.38,6.18,6.27,76956,,,Verified
BTT.AX,24-SEP-2014,,End Of Day,,6.16,6.34,6.02,6.06,213981,,,Verified
BTT.AX,25-SEP-2014,,End Of Day,,6.1,6.18,6.07,6.13,73898,,,Verified
BTT.AX,26-SEP-2014,,End Of Day,,6.1,6.18,6.07,6.18,90344,,,Verified
BTT.AX,27-SEP-2014,,End Of Day,No Trades,,,,,,,,Verified
BTT.AX,28-SEP-2014,,End Of Day,No Trades,,,,,,,,Verified
BTT.AX,29-SEP-2014,,End Of Day,,6.18,6.18,6.02,6.14,149037,,,Verified
BTT.AX,30-SEP-2014,,End Of Day,,6.03,6.19,5.95,6.15,148496,,,Verified
BTT.AX,01-OCT-2014,,End Of Day,,6.01,6.08,6,6.05,88118,,,Verified
BTT.AX,02-OCT-2014,,End Of Day,,5.95,6,5.87,5.9,207499,,,Verified
BTT.AX,03-OCT-2014,,End Of Day,,5.87,6.03,5.85,5.93,48025,,,Verified
BTT.AX,04-OCT-2014,,End Of Day,No Trades,,,,,,,,Verified
BTT.AX,05-OCT-2014,,End Of Day,No Trades,,,,,,,,Verified
BTT.AX,06-OCT-2014,,End Of Day,,5.85,6.01,5.79,5.97,73611,,,Verified
BTT.AX,07-OCT-2014,,End Of Day,,6,6.15,5.79,5.9,154353,,,Verified
BTT.AX,08-OCT-2014,,End Of Day,,5.85,5.89,5.73,5.77,132362,,,Verified
BTT.AX,09-OCT-2014,,End Of Day,,5.81,5.95,5.8,5.81,119692,,,Verified
BTT.AX,10-OCT-2014,,End Of Day,,5.8,5.94,5.75,5.77,73839,,,Verified
BTT.AX,11-OCT-2014,,End Of Day,No Trades,,,,,,,,Verified
BTT.AX,12-OCT-2014,,End Of Day,No Trades,,,,,,,,Verified
BTT.AX,13-OCT-2014,,End Of Day,,5.75,5.92,5.73,5.73,101899,,,Verified
BTT.AX,14-OCT-2014,,End Of Day,,5.73,5.74,5.65,5.7,90876,,,Verified
BTT.AX,15-OCT-2014,,End Of Day,,5.74,5.92,5.7,5.84,94404,,,Verified
BTT.AX,16-OCT-2014,,End Of Day,,5.86,5.87,5.8,5.8,79016,,,Verified
BTT.AX,17-OCT-2014,,End Of Day,,5.82,5.86,5.76,5.86,212708,,,Verified
BTT.AX,18-OCT-2014,,End Of Day,No Trades,,,,,,,,Verified
BTT.AX,19-OCT-2014,,End Of Day,No Trades,,,,,,,,Verified
BTT.AX,20-OCT-2014,,End Of Day,,5.83,5.98,5.83,5.9,110556,,,Verified
BTT.AX,21-OCT-2014,,End Of Day,,5.9,5.92,5.87,5.9,125578,,,Verified
BTT.AX,22-OCT-2014,,End Of Day,,6,6.1,5.95,6.1,72940,,,Verified
BTT.AX,23-OCT-2014,,End Of Day,,6.1,6.14,5.99,6.05,51996,,,Verified
BTT.AX,24-OCT-2014,,End Of Day,,6.05,6.07,5.95,6.02,86649,,,Verified
BTT.AX,25-OCT-2014,,End Of Day,No Trades,,,,,,,,Verified
BTT.AX,26-OCT-2014,,End Of Day,No Trades,,,,,,,,Verified
BTT.AX,27-OCT-2014,,End Of Day,,6.02,6.2,6.02,6.13,129609,,,Verified
BTT.AX,28-OCT-2014,,End Of Day,,6.11,6.18,6.05,6.09,73225,,,Verified
BTT.AX,29-OCT-2014,,End Of Day,,6.1,6.25,6.06,6.15,152726,,,Verified
BTT.AX,30-OCT-2014,,End Of Day,,6.28,6.44,6.27,6.3,373130,,,Verified
BTT.AX,31-OCT-2014,,End Of Day,,6.3,6.35,6.21,6.25,166501,,,Verified
BTT.AX,01-NOV-2014,,End Of Day,No Trades,,,,,,,,Verified
BTT.AX,02-NOV-2014,,End Of Day,No Trades,,,,,,,,Verified
BTT.AX,03-NOV-2014,,End Of Day,,6.3,6.35,6.17,6.2,222604,,,Verified
BTT.AX,04-NOV-2014,,End Of Day,,6.18,6.21,6.1,6.15,100295,,,Verified
BTT.AX,05-NOV-2014,,End Of Day,,6.13,6.2,6.06,6.2,159970,,,Verified
BTT.AX,06-NOV-2014,,End Of Day,,6.29,6.35,6.15,6.28,186567,,,Verified
BTT.AX,07-NOV-2014,,End Of Day,,6.29,6.29,6.19,6.25,140280,,,Verified
BTT.AX,08-NOV-2014,,End Of Day,No Trades,,,,,,,,Verified
BTT.AX,09-NOV-2014,,End Of Day,No Trades,,,,,,,,Verified
BTT.AX,10-NOV-2014,,End Of Day,,6.21,6.47,6.17,6.47,337502,,,Verified
BTT.AX,11-NOV-2014,,End Of Day,,6.47,6.6,6.46,6.52,304619,,,Verified
BTT.AX,12-NOV-2014,,End Of Day,,6.58,6.69,6.55,6.69,343741,,,Verified
BTT.AX,13-NOV-2014,,End Of Day,,6.69,6.85,6.69,6.82,477093,,,Verified
BTT.AX,14-NOV-2014,,End Of Day,,6.82,7,6.79,6.85,550660,,,Verified
BTT.AX,15-NOV-2014,,End Of Day,No Trades,,,,,,,,Verified
BTT.AX,16-NOV-2014,,End Of Day,No Trades,,,,,,,,Verified
BTT.AX,17-NOV-2014,,End Of Day,,6.97,7,6.79,6.85,289083,,,Verified
BTT.AX,18-NOV-2014,,End Of Day,,6.91,6.95,6.85,6.95,175527,,,Verified
BTT.AX,19-NOV-2014,,End Of Day,,6.95,6.965,6.81,6.95,100803,,,Verified
BTT.AX,20-NOV-2014,,End Of Day,,6.95,6.95,6.71,6.71,145718,,,Verified
BTT.AX,21-NOV-2014,,End Of Day,,6.8,6.9,6.71,6.71,140782,,,Verified
BTT.AX,22-NOV-2014,,End Of Day,No Trades,,,,,,,,Verified
BTT.AX,23-NOV-2014,,End Of Day,No Trades,,,,,,,,Verified
BTT.AX,24-NOV-2014,,End Of Day,,6.77,6.93,6.71,6.76,110290,,,Verified
BTT.AX,25-NOV-2014,,End Of Day,,6.75,6.81,6.66,6.72,180503,,,Verified
BTT.AX,26-NOV-2014,,End Of Day,,6.71,6.81,6.7,6.72,101461,,,Verified
BTT.AX,27-NOV-2014,,End Of Day,,6.72,6.8,6.72,6.8,134502,,,Verified
BTT.AX,28-NOV-2014,,End Of Day,,6.75,6.85,6.73,6.77,55576,,,Verified
BTT.AX,29-NOV-2014,,End Of Day,No Trades,,,,,,,,Verified
BTT.AX,30-NOV-2014,,End Of Day,No Trades,,,,,,,,Verified
BTT.AX,01-DEC-2014,,End Of Day,,6.82,6.82,6.66,6.66,169836,,,Verified
BTT.AX,02-DEC-2014,,End Of Day,,6.67,6.77,6.67,6.71,258486,,,Verified
BTT.AX,03-DEC-2014,,End Of Day,,6.45,6.57,6.41,6.5,228376,,,Verified
BTT.AX,04-DEC-2014,,End Of Day,,6.41,6.78,6.41,6.78,1679676,,,Verified
BTT.AX,05-DEC-2014,,End Of Day,,6.75,6.94,6.665,6.94,277775,,,Verified
BTT.AX,06-DEC-2014,,End Of Day,No Trades,,,,,,,,Verified
BTT.AX,07-DEC-2014,,End Of Day,No Trades,,,,,,,,Verified
BTT.AX,08-DEC-2014,,End Of Day,,6.7,7,6.7,6.95,196415,,,Verified
BTT.AX,09-DEC-2014,,End Of Day,,6.95,6.98,6.74,6.81,197781,,,Verified
BTT.AX,10-DEC-2014,,End Of Day,,6.91,6.91,6.74,6.77,160111,,,Verified
BTT.AX,11-DEC-2014,,End Of Day,,6.75,6.75,6.54,6.59,140650,,,Verified
BTT.AX,12-DEC-2014,,End Of Day,,6.59,6.63,6.5,6.54,148509,,,Verified
BTT.AX,13-DEC-2014,,End Of Day,No Trades,,,,,,,,Verified
BTT.AX,14-DEC-2014,,End Of Day,No Trades,,,,,,,,Verified
BTT.AX,15-DEC-2014,,End Of Day,,6.53,6.55,6.45,6.5,88711,,,Verified
BTT.AX,16-DEC-2014,,End Of Day,,6.53,6.59,6.47,6.55,120356,,,Verified
BTT.AX,17-DEC-2014,,End Of Day,,6.68,6.68,6.46,6.55,133892,,,Verified
BTT.AX,18-DEC-2014,,End Of Day,,6.6,6.75,6.52,6.58,113524,,,Verified
BTT.AX,19-DEC-2014,,End Of Day,,6.61,6.79,6.61,6.79,120455,,,Verified
BTT.AX,20-DEC-2014,,End Of Day,No Trades,,,,,,,,Verified
BTT.AX,21-DEC-2014,,End Of Day,No Trades,,,,,,,,Verified
BTT.AX,22-DEC-2014,,End Of Day,,6.8,6.93,6.8,6.91,115111,,,Verified
BTT.AX,23-DEC-2014,,End Of Day,,6.9,6.92,6.86,6.92,38700,,,Verified
BTT.AX,24-DEC-2014,,End Of Day,,6.8,6.88,6.8,6.8,15048,,,Verified
BTT.AX,25-DEC-2014,,End Of Day,No Trades,,,,,,,,Verified
BTT.AX,26-DEC-2014,,End Of Day,No Trades,,,,,,,,Verified
BTT.AX,27-DEC-2014,,End Of Day,No Trades,,,,,,,,Verified
BTT.AX,28-DEC-2014,,End Of Day,No Trades,,,,,,,,Verified
BTT.AX,29-DEC-2014,,End Of Day,,6.8,6.91,6.73,6.84,94098,,,Verified
BTT.AX,30-DEC-2014,,End Of Day,,6.9,6.9,6.7,6.77,31362,,,Verified
BTT.AX,31-DEC-2014,,End Of Day,,6.7,6.79,6.7,6.71,10914,,,Verified
BTT.AX,01-JAN-2015,,End Of Day,No Trades,,,,,,,,Verified
BTT.AX,02-JAN-2015,,End Of Day,,6.71,6.9,6.69,6.87,44329,,,Verified
BTT.AX,03-JAN-2015,,End Of Day,No Trades,,,,,,,,Verified
BTT.AX,04-JAN-2015,,End Of Day,No Trades,,,,,,,,Verified
BTT.AX,05-JAN-2015,,End Of Day,,6.71,6.8,6.7,6.73,56626,,,Verified
BTT.AX,06-JAN-2015,,End Of Day,,6.72,6.89,6.65,6.84,1713208,,,Verified
BTT.AX,07-JAN-2015,,End Of Day,,6.77,6.9,6.75,6.89,108503,,,Verified
BTT.AX,08-JAN-2015,,End Of Day,,6.8,6.96,6.8,6.89,159716,,,Verified
BTT.AX,09-JAN-2015,,End Of Day,,6.96,7,6.91,6.96,133258,,,Verified
BTT.AX,10-JAN-2015,,End Of Day,No Trades,,,,,,,,Verified
BTT.AX,11-JAN-2015,,End Of Day,No Trades,,,,,,,,Verified
BTT.AX,12-JAN-2015,,End Of Day,,6.97,7,6.92,6.97,219388,,,Verified
BTT.AX,13-JAN-2015,,End Of Day,,6.83,6.92,6.71,6.9,126396,,,Verified
BTT.AX,14-JAN-2015,,End Of Day,,6.94,6.94,6.76,6.81,146451,,,Verified
BTT.AX,15-JAN-2015,,End Of Day,,6.84,6.9,6.77,6.9,102634,,,Verified
BTT.AX,16-JAN-2015,,End Of Day,,6.94,6.94,6.71,6.85,74594,,,Verified
BTT.AX,17-JAN-2015,,End Of Day,No Trades,,,,,,,,Verified
BTT.AX,18-JAN-2015,,End Of Day,No Trades,,,,,,,,Verified
BTT.AX,19-JAN-2015,,End Of Day,,6.85,6.96,6.75,6.88,49564,,,Verified
BTT.AX,20-JAN-2015,,End Of Day,,6.95,7.26,6.95,7.2,223957,,,Verified
BTT.AX,21-JAN-2015,,End Of Day,,7.2,7.27,7.05,7.06,114182,,,Verified
BTT.AX,22-JAN-2015,,End Of Day,,7.09,7.1,7.02,7.03,60669,,,Verified
BTT.AX,23-JAN-2015,,End Of Day,,7.02,7.11,6.92,7.11,78257,,,Verified
BTT.AX,24-JAN-2015,,End Of Day,No Trades,,,,,,,,Verified
BTT.AX,25-JAN-2015,,End Of Day,No Trades,,,,,,,,Verified
BTT.AX,26-JAN-2015,,End Of Day,No Trades,,,,,,,,Verified
BTT.AX,27-JAN-2015,,End Of Day,,7.11,7.28,7.09,7.28,94688,,,Verified
BTT.AX,28-JAN-2015,,End Of Day,,7.25,7.31,7.11,7.3,73422,,,Verified
BTT.AX,29-JAN-2015,,End Of Day,,7.28,7.3,7.12,7.15,43207,,,Verified
BTT.AX,30-JAN-2015,,End Of Day,,7.16,7.2,7.07,7.2,73560,,,Verified
BTT.AX,31-JAN-2015,,End Of Day,No Trades,,,,,,,,Verified
BTT.AX,01-FEB-2015,,End Of Day,No Trades,,,,,,,,Verified
BTT.AX,02-FEB-2015,,End Of Day,,7.2,7.2,7.09,7.13,51411,,,Verified
BTT.AX,03-FEB-2015,,End Of Day,,7.12,7.39,7.12,7.39,178866,,,Verified
BTT.AX,04-FEB-2015,,End Of Day,,7.39,7.57,7.38,7.45,236460,,,Verified
BTT.AX,05-FEB-2015,,End Of Day,,7.37,7.45,7.28,7.39,145469,,,Verified
BTT.AX,06-FEB-2015,,End Of Day,,7.37,7.53,7.37,7.46,124497,,,Verified
BTT.AX,07-FEB-2015,,End Of Day,No Trades,,,,,,,,Verified
BTT.AX,08-FEB-2015,,End Of Day,No Trades,,,,,,,,Verified
BTT.AX,09-FEB-2015,,End Of Day,,7.46,7.5,7.37,7.5,168000,,,Verified
BTT.AX,10-FEB-2015,,End Of Day,,7.5,7.54,7.48,7.52,56160,,,Verified
BTT.AX,11-FEB-2015,,End Of Day,,7.52,7.8,7.52,7.78,123473,,,Verified
BTT.AX,12-FEB-2015,,End Of Day,,7.8,7.97,7.77,7.86,171103,,,Verified
BTT.AX,13-FEB-2015,,End Of Day,,7.85,7.99,7.8,7.99,316193,,,Verified
BTT.AX,14-FEB-2015,,End Of Day,No Trades,,,,,,,,Verified
BTT.AX,15-FEB-2015,,End Of Day,No Trades,,,,,,,,Verified
BTT.AX,16-FEB-2015,,End Of Day,,8.02,8.29,7.99,8.2,186577,,,Verified
BTT.AX,17-FEB-2015,,End Of Day,,8.17,8.18,8.05,8.05,224208,,,Verified
BTT.AX,18-FEB-2015,,End Of Day,,8.09,8.09,7.95,7.96,99088,,,Verified
BTT.AX,19-FEB-2015,,End Of Day,,7.95,8.03,7.92,8,408445,,,Verified
BTT.AX,20-FEB-2015,,End Of Day,,7.92,8.06,7.8,7.97,240692,,,Verified
BTT.AX,21-FEB-2015,,End Of Day,No Trades,,,,,,,,Verified
BTT.AX,22-FEB-2015,,End Of Day,No Trades,,,,,,,,Verified
BTT.AX,23-FEB-2015,,End Of Day,,7.93,8.18,7.9,8.14,146537,,,Verified
BTT.AX,24-FEB-2015,,End Of Day,,8.14,8.42,8,8.36,104829,,,Verified
BTT.AX,25-FEB-2015,,End Of Day,,8.42,8.71,8.36,8.65,188029,,,Verified
BTT.AX,26-FEB-2015,,End Of Day,,8.61,8.61,8.35,8.55,197112,,,Verified
BTT.AX,27-FEB-2015,,End Of Day,,8.55,8.75,8.48,8.75,143713,,,Verified
BTT.AX,28-FEB-2015,,End Of Day,No Trades,,,,,,,,Verified
BTT.AX,01-MAR-2015,,End Of Day,No Trades,,,,,,,,Verified
BTT.AX,02-MAR-2015,,End Of Day,,8.7,8.78,8.45,8.45,113054,,,Verified
BTT.AX,03-MAR-2015,,End Of Day,,8.5,8.64,8.3,8.43,103714,,,Verified
BTT.AX,04-MAR-2015,,End Of Day,,8.38,8.4,8.2,8.2,86512,,,Verified
BTT.AX,05-MAR-2015,,End Of Day,,8.3,8.54,8.3,8.46,244195,,,Verified
BTT.AX,06-MAR-2015,,End Of Day,,8.59,8.72,8.35,8.64,158342,,,Verified
BTT.AX,07-MAR-2015,,End Of Day,No Trades,,,,,,,,Verified
BTT.AX,08-MAR-2015,,End Of Day,No Trades,,,,,,,,Verified
BTT.AX,09-MAR-2015,,End Of Day,,8.56,8.65,8.5,8.55,105784,,,Verified
BTT.AX,10-MAR-2015,,End Of Day,,8.64,8.94,8.54,8.9,150285,,,Verified
BTT.AX,11-MAR-2015,,End Of Day,,8.85,8.92,8.74,8.9,82968,,,Verified
BTT.AX,12-MAR-2015,,End Of Day,,8.91,9.42,8.91,9.04,131038,,,Verified
BTT.AX,13-MAR-2015,,End Of Day,,9.1,9.2,8.91,8.98,64030,,,Verified
BTT.AX,14-MAR-2015,,End Of Day,No Trades,,,,,,,,Verified
BTT.AX,15-MAR-2015,,End Of Day,No Trades,,,,,,,,Verified
BTT.AX,16-MAR-2015,,End Of Day,,9.06,9.06,8.87,8.96,64919,,,Verified
BTT.AX,17-MAR-2015,,End Of Day,,9.12,9.38,8.95,8.95,144094,,,Verified
BTT.AX,18-MAR-2015,,End Of Day,,8.96,9.05,8.94,9,156604,,,Verified
BTT.AX,19-MAR-2015,,End Of Day,,9.21,9.3,9.15,9.3,269169,,,Verified
BTT.AX,20-MAR-2015,,End Of Day,,9.2,9.3,9.17,9.2,264184,,,Verified
BTT.AX,21-MAR-2015,,End Of Day,No Trades,,,,,,,,Verified
BTT.AX,22-MAR-2015,,End Of Day,No Trades,,,,,,,,Verified
BTT.AX,23-MAR-2015,,End Of Day,,9.29,9.39,9.2,9.39,75492,,,Verified
BTT.AX,24-MAR-2015,,End Of Day,,9.36,9.39,9.2,9.26,71316,,,Verified
BTT.AX,25-MAR-2015,,End Of Day,,9.28,9.37,9.2,9.35,103550,,,Verified
BTT.AX,26-MAR-2015,,End Of Day,,9.29,9.38,9.2,9.27,159406,,,Verified
BTT.AX,27-MAR-2015,,End Of Day,,9.26,9.35,9.15,9.29,77059,,,Verified
BTT.AX,28-MAR-2015,,End Of Day,No Trades,,,,,,,,Verified
BTT.AX,29-MAR-2015,,End Of Day,No Trades,,,,,,,,Verified
BTT.AX,30-MAR-2015,,End Of Day,,9.36,9.36,9.08,9.19,114991,,,Verified
BTT.AX,31-MAR-2015,,End Of Day,,9.2,9.38,9.15,9.17,74958,,,Verified
BTT.AX,01-APR-2015,,End Of Day,,9.15,9.35,9.15,9.32,132229,,,Verified
BTT.AX,02-APR-2015,,End Of Day,,9.4,9.73,9.39,9.6,249953,,,Verified
BTT.AX,03-APR-2015,,End Of Day,No Trades,,,,,,,,Verified
BTT.AX,04-APR-2015,,End Of Day,No Trades,,,,,,,,Verified
BTT.AX,05-APR-2015,,End Of Day,No Trades,,,,,,,,Verified
BTT.AX,06-APR-2015,,End Of Day,No Trades,,,,,,,,Verified
BTT.AX,07-APR-2015,,End Of Day,,9.68,9.7,9.48,9.53,87041,,,Verified
BTT.AX,08-APR-2015,,End Of Day,,9.65,9.94,9.59,9.87,286195,,,Verified
BTT.AX,09-APR-2015,,End Of Day,,9.86,9.95,9.7,9.7,122516,,,Verified
BTT.AX,10-APR-2015,,End Of Day,,9.9,10.44,9.9,10.38,645195,,,Verified
BTT.AX,11-APR-2015,,End Of Day,No Trades,,,,,,,,Verified
BTT.AX,12-APR-2015,,End Of Day,No Trades,,,,,,,,Verified
BTT.AX,13-APR-2015,,End Of Day,,10.55,10.97,10.07,10.2,485878,,,Verified
BTT.AX,14-APR-2015,,End Of Day,,10.19,10.5,10.1,10.19,275753,,,Verified
BTT.AX,15-APR-2015,,End Of Day,,10.19,10.2,10.05,10.07,257938,,,Verified
BTT.AX,16-APR-2015,,End Of Day,,10.09,10.27,10.02,10.08,150940,,,Verified
BTT.AX,17-APR-2015,,End Of Day,,10.02,10.08,9.63,9.67,163120,,,Verified
BTT.AX,18-APR-2015,,End Of Day,No Trades,,,,,,,,Verified
BTT.AX,19-APR-2015,,End Of Day,No Trades,,,,,,,,Verified
BTT.AX,20-APR-2015,,End Of Day,,9.55,9.55,9.15,9.25,479827,,,Verified
BTT.AX,21-APR-2015,,End Of Day,,9.24,9.45,9.2,9.35,477085,,,Verified
BTT.AX,22-APR-2015,,End Of Day,,9.35,9.39,9.2,9.26,220710,,,Verified
BTT.AX,23-APR-2015,,End Of Day,,9.34,9.54,9.34,9.44,233321,,,Verified
BTT.AX,24-APR-2015,,End Of Day,,9.44,9.74,9.43,9.74,454204,,,Verified
BTT.AX,25-APR-2015,,End Of Day,No Trades,,,,,,,,Verified
BTT.AX,26-APR-2015,,End Of Day,No Trades,,,,,,,,Verified
BTT.AX,27-APR-2015,,End Of Day,,9.76,9.99,9.76,9.85,291229,,,Verified
BTT.AX,28-APR-2015,,End Of Day,,9.85,9.85,9.44,9.46,198266,,,Verified
BTT.AX,29-APR-2015,,End Of Day,,9.52,9.9,9.47,9.55,202638,,,Verified
BTT.AX,30-APR-2015,,End Of Day,,9.55,9.78,9.44,9.55,297049,,,Verified
BTT.AX,01-MAY-2015,,End Of Day,,9.62,9.63,9.43,9.46,161521,,,Verified
BTT.AX,02-MAY-2015,,End Of Day,No Trades,,,,,,,,Verified
BTT.AX,03-MAY-2015,,End Of Day,No Trades,,,,,,,,Verified
BTT.AX,04-MAY-2015,,End Of Day,,9.45,9.5,9.25,9.3,348007,,,Verified
BTT.AX,05-MAY-2015,,End Of Day,,9.48,9.74,9.47,9.65,237157,,,Verified
BTT.AX,06-MAY-2015,,End Of Day,,9.5,9.58,9.36,9.52,204687,,,Verified
BTT.AX,07-MAY-2015,,End Of Day,,9.46,9.67,9.41,9.56,296835,,,Verified
BTT.AX,08-MAY-2015,,End Of Day,,9.63,9.94,9.54,9.9,312739,,,Verified
BTT.AX,09-MAY-2015,,End Of Day,No Trades,,,,,,,,Verified
BTT.AX,10-MAY-2015,,End Of Day,No Trades,,,,,,,,Verified
BTT.AX,11-MAY-2015,,End Of Day,,9.97,10.01,9.66,9.71,142005,,,Verified
BTT.AX,12-MAY-2015,,End Of Day,,9.71,9.88,9.68,9.75,171621,,,Verified
BTT.AX,13-MAY-2015,,End Of Day,,9.62,9.62,9.41,9.47,173885,,,Verified
BTT.AX,14-MAY-2015,,End Of Day,,9.47,9.54,9.38,9.41,141000,,,Verified
BTT.AX,15-MAY-2015,,End Of Day,,9.43,9.49,9.42,9.46,138101,,,Verified
BTT.AX,16-MAY-2015,,End Of Day,No Trades,,,,,,,,Verified
BTT.AX,17-MAY-2015,,End Of Day,No Trades,,,,,,,,Verified
BTT.AX,18-MAY-2015,,End Of Day,,9.43,9.49,9.35,9.38,215677,,,Verified
BTT.AX,19-MAY-2015,,End Of Day,,9.48,9.48,9.13,9.21,157055,,,Verified
BTT.AX,20-MAY-2015,,End Of Day,,9.21,9.39,9.2,9.32,88973,,,Verified
BTT.AX,21-MAY-2015,,End Of Day,,9.36,9.44,9.32,9.4,90713,,,Verified
BTT.AX,22-MAY-2015,,End Of Day,,9.36,9.49,9.35,9.36,163135,,,Verified
BTT.AX,23-MAY-2015,,End Of Day,No Trades,,,,,,,,Verified
BTT.AX,24-MAY-2015,,End Of Day,No Trades,,,,,,,,Verified
BTT.AX,25-MAY-2015,,End Of Day,,9.4,9.49,9.35,9.35,84267,,,Verified
BTT.AX,26-MAY-2015,,End Of Day,,9.43,9.66,9.36,9.6,196636,,,Verified
BTT.AX,27-MAY-2015,,End Of Day,,9.6,9.62,9.5,9.57,84674,,,Verified
BTT.AX,28-MAY-2015,,End Of Day,,9.62,9.62,9.5,9.6,57061,,,Verified
BTT.AX,29-MAY-2015,,End Of Day,,9.62,9.69,9.54,9.69,173245,,,Verified
BTT.AX,30-MAY-2015,,End Of Day,No Trades,,,,,,,,Verified
BTT.AX,31-MAY-2015,,End Of Day,No Trades,,,,,,,,Verified
BTT.AX,01-JUN-2015,,End Of Day,,9.65,9.74,9.42,9.65,59399,,,Verified
BTT.AX,02-JUN-2015,,End Of Day,,9.64,9.655,9.37,9.4,611352,,,Verified
BTT.AX,03-JUN-2015,,End Of Day,,9.6,9.65,9.3,9.3,61783,,,Verified
BTT.AX,04-JUN-2015,,End Of Day,,9.36,9.54,9.2,9.39,99706,,,Verified
BTT.AX,05-JUN-2015,,End Of Day,,9.39,9.39,8.86,8.93,187849,,,Verified
BTT.AX,06-JUN-2015,,End Of Day,No Trades,,,,,,,,Verified
BTT.AX,07-JUN-2015,,End Of Day,No Trades,,,,,,,,Verified
BTT.AX,08-JUN-2015,,End Of Day,No Trades,,,,,,,,Verified
BTT.AX,09-JUN-2015,,End Of Day,,9.01,9.05,8.7,8.86,199413,,,Verified
BTT.AX,10-JUN-2015,,End Of Day,,8.87,8.92,8.59,8.82,177814,,,Verified
BTT.AX,11-JUN-2015,,End Of Day,,9.05,9.15,8.91,9.04,326803,,,Verified
BTT.AX,12-JUN-2015,,End Of Day,,9,9.1,8.95,8.99,111689,,,Verified
BTT.AX,13-JUN-2015,,End Of Day,No Trades,,,,,,,,Verified
BTT.AX,14-JUN-2015,,End Of Day,No Trades,,,,,,,,Verified
BTT.AX,15-JUN-2015,,End Of Day,,8.96,9.05,8.74,8.76,108372,,,Verified
BTT.AX,18-JUN-2015,,End Of Day,,8.3,8.49,8.24,8.49,4087641,,,Verified
BTT.AX,19-JUN-2015,,End Of Day,,8.55,8.72,8.5,8.65,1412002,,,Verified
BTT.AX,20-JUN-2015,,End Of Day,No Trades,,,,,,,,Verified
BTT.AX,21-JUN-2015,,End Of Day,No Trades,,,,,,,,Verified
BTT.AX,22-JUN-2015,,End Of Day,,8.65,8.73,8.62,8.7,434362,,,Verified
BTT.AX,23-JUN-2015,,End Of Day,,8.7,8.83,8.7,8.76,663609,,,Verified
BTT.AX,24-JUN-2015,,End Of Day,,8.8,8.83,8.48,8.55,554934,,,Verified
BTT.AX,25-JUN-2015,,End Of Day,,8.52,8.8,8.4,8.79,846630,,,Verified
BTT.AX,26-JUN-2015,,End Of Day,,8.8,8.8,8.65,8.74,869290,,,Verified
BTT.AX,27-JUN-2015,,End Of Day,No Trades,,,,,,,,Verified
BTT.AX,28-JUN-2015,,End Of Day,No Trades,,,,,,,,Verified
BTT.AX,29-JUN-2015,,End Of Day,,8.53,8.68,8.41,8.6,704047,,,Verified
BTT.AX,30-JUN-2015,,End Of Day,,8.55,8.55,8.38,8.45,473128,,,Verified
BTT.AX,01-JUL-2015,,End Of Day,,8.49,8.65,8.49,8.57,448031,,,Verified
BTT.AX,02-JUL-2015,,End Of Day,,8.64,8.8,8.62,8.74,1169808,,,Verified
BTT.AX,03-JUL-2015,,End Of Day,,8.8,8.81,8.68,8.7,432613,,,Verified
BTT.AX,04-JUL-2015,,End Of Day,No Trades,,,,,,,,Verified
BTT.AX,05-JUL-2015,,End Of Day,No Trades,,,,,,,,Verified
BTT.AX,06-JUL-2015,,End Of Day,,8.65,8.65,8.46,8.51,229540,,,Verified
BTT.AX,07-JUL-2015,,End Of Day,,8.67,8.8,8.62,8.75,557071,,,Verified
BTT.AX,08-JUL-2015,,End Of Day,,8.8,8.865,8.67,8.68,458044,,,Verified
BTT.AX,09-JUL-2015,,End Of Day,,8.7,9.08,8.53,9.05,508465,,,Verified
BTT.AX,10-JUL-2015,,End Of Day,,9.12,9.33,9.08,9.2,853525,,,Verified
BTT.AX,11-JUL-2015,,End Of Day,No Trades,,,,,,,,Verified
BTT.AX,12-JUL-2015,,End Of Day,No Trades,,,,,,,,Verified
BTT.AX,13-JUL-2015,,End Of Day,,9.22,9.56,9.2,9.51,887868,,,Verified
BTT.AX,14-JUL-2015,,End Of Day,,9.6,9.72,9.54,9.68,529207,,,Verified
BTT.AX,15-JUL-2015,,End Of Day,,9.73,10.05,9.55,9.96,1493794,,,Verified
BTT.AX,16-JUL-2015,,End Of Day,,9.79,9.79,9.36,9.62,2151102,,,Verified
BTT.AX,17-JUL-2015,,End Of Day,,9.49,9.7,9.38,9.7,1164141,,,Verified
BTT.AX,18-JUL-2015,,End Of Day,No Trades,,,,,,,,Verified
BTT.AX,19-JUL-2015,,End Of Day,No Trades,,,,,,,,Verified
BTT.AX,20-JUL-2015,,End Of Day,,9.52,9.73,9.52,9.73,695478,,,Verified
BTT.AX,21-JUL-2015,,End Of Day,,9.64,9.87,9.61,9.87,573450,,,Verified
BTT.AX,22-JUL-2015,,End Of Day,,9.7,9.9,9.68,9.83,451249,,,Verified
BTT.AX,23-JUL-2015,,End Of Day,,9.8,9.98,9.77,9.89,1218970,,,Verified
BTT.AX,24-JUL-2015,,End Of Day,,9.84,9.87,9.77,9.86,617796,,,Verified
BTT.AX,25-JUL-2015,,End Of Day,No Trades,,,,,,,,Verified
BTT.AX,26-JUL-2015,,End Of Day,No Trades,,,,,,,,Verified
BTT.AX,27-JUL-2015,,End Of Day,,9.84,9.94,9.75,9.94,885505,,,Verified
BTT.AX,28-JUL-2015,,End Of Day,,9.81,9.89,9.63,9.79,1070686,,,Verified
BTT.AX,29-JUL-2015,,End Of Day,,9.8,9.83,9.66,9.71,430233,,,Verified
BTT.AX,30-JUL-2015,,End Of Day,,9.65,9.68,9.55,9.61,727693,,,Verified
BTT.AX,31-JUL-2015,,End Of Day,,9.61,9.72,9.58,9.72,643067,,,Verified
BTT.AX,01-AUG-2015,,End Of Day,No Trades,,,,,,,,Verified
BTT.AX,02-AUG-2015,,End Of Day,No Trades,,,,,,,,Verified
BTT.AX,03-AUG-2015,,End Of Day,,9.7,9.88,9.65,9.87,429353,,,Verified
BTT.AX,04-AUG-2015,,End Of Day,,9.9,9.96,9.81,9.86,424426,,,Verified
BTT.AX,05-AUG-2015,,End Of Day,,9.81,9.83,9.69,9.69,434433,,,Verified
BTT.AX,06-AUG-2015,,End Of Day,,9.69,9.78,9.62,9.66,257983,,,Verified
BTT.AX,07-AUG-2015,,End Of Day,,9.61,9.68,9.39,9.42,508403,,,Verified
BTT.AX,08-AUG-2015,,End Of Day,No Trades,,,,,,,,Verified
BTT.AX,09-AUG-2015,,End Of Day,No Trades,,,,,,,,Verified
BTT.AX,10-AUG-2015,,End Of Day,,9.39,9.5,9.3,9.45,342266,,,Verified
BTT.AX,11-AUG-2015,,End Of Day,,9.5,9.75,9.45,9.75,562774,,,Verified
BTT.AX,12-AUG-2015,,End Of Day,,9.69,9.74,9.48,9.51,781317,,,Verified
BTT.AX,13-AUG-2015,,End Of Day,,9.52,9.56,9.17,9.38,1158951,,,Verified
BTT.AX,14-AUG-2015,,End Of Day,,9.3,9.55,9.3,9.53,348927,,,Verified
BTT.AX,15-AUG-2015,,End Of Day,No Trades,,,,,,,,Verified
BTT.AX,16-AUG-2015,,End Of Day,No Trades,,,,,,,,Verified
BTT.AX,17-AUG-2015,,End Of Day,,9.55,9.66,9.47,9.55,247863,,,Verified
BTT.AX,18-AUG-2015,,End Of Day,,9.55,9.57,9.45,9.53,339326,,,Verified
BTT.AX,19-AUG-2015,,End Of Day,,9.57,9.76,9.52,9.66,604339,,,Verified
BTT.AX,20-AUG-2015,,End Of Day,,9.63,9.82,9.57,9.78,756895,,,Verified
BTT.AX,21-AUG-2015,,End Of Day,,9.69,9.84,9.555,9.78,2583443,,,Verified
BTT.AX,22-AUG-2015,,End Of Day,No Trades,,,,,,,,Verified
BTT.AX,23-AUG-2015,,End Of Day,No Trades,,,,,,,,Verified
BTT.AX,24-AUG-2015,,End Of Day,,9.5,9.5,8.85,9.12,7289878,,,Verified
BTT.AX,25-AUG-2015,,End Of Day,,8.58,9.26,8.56,9.22,2615363,,,Verified
BTT.AX,26-AUG-2015,,End Of Day,,8.95,9.45,8.91,9.4,3745255,,,Verified
BTT.AX,27-AUG-2015,,End Of Day,,9.51,9.72,9.22,9.44,2612395,,,Verified
BTT.AX,28-AUG-2015,,End Of Day,,9.74,9.9,9.46,9.69,2513652,,,Verified
BTT.AX,29-AUG-2015,,End Of Day,No Trades,,,,,,,,Verified
BTT.AX,30-AUG-2015,,End Of Day,No Trades,,,,,,,,Verified
BTT.AX,31-AUG-2015,,End Of Day,,9.59,9.65,9.44,9.62,3039072,,,Verified
BTT.AX,01-SEP-2015,,End Of Day,,9.55,9.7,9.45,9.49,1246512,,,Verified
BTT.AX,02-SEP-2015,,End Of Day,,9.3,9.43,9.25,9.37,1458700,,,Verified
BTT.AX,03-SEP-2015,,End Of Day,,9.56,9.59,9.07,9.08,1297128,,,Verified
BTT.AX,04-SEP-2015,,End Of Day,,9.11,9.24,9,9.18,910744,,,Verified
BTT.AX,05-SEP-2015,,End Of Day,No Trades,,,,,,,,Verified
BTT.AX,06-SEP-2015,,End Of Day,No Trades,,,,,,,,Verified
BTT.AX,07-SEP-2015,,End Of Day,,9.12,9.28,8.97,9.22,446204,,,Verified
BTT.AX,08-SEP-2015,,End Of Day,,9.24,9.5,9.2,9.5,513063,,,Verified
BTT.AX,09-SEP-2015,,End Of Day,,9.54,9.82,9.5,9.82,996061,,,Verified
BTT.AX,10-SEP-2015,,End Of Day,,9.63,9.85,9.4,9.76,980527,,,Verified
BTT.AX,11-SEP-2015,,End Of Day,,9.79,9.85,9.58,9.78,1028041,,,Verified
BTT.AX,12-SEP-2015,,End Of Day,No Trades,,,,,,,,Verified
BTT.AX,13-SEP-2015,,End Of Day,No Trades,,,,,,,,Verified
BTT.AX,14-SEP-2015,,End Of Day,,9.8,9.85,9.68,9.82,871073,,,Verified
BTT.AX,15-SEP-2015,,End Of Day,,9.8,9.85,9.51,9.56,700433,,,Verified
BTT.AX,16-SEP-2015,,End Of Day,,9.65,9.84,9.65,9.75,725279,,,Verified
BTT.AX,17-SEP-2015,,End Of Day,,9.83,9.94,9.75,9.9,1052858,,,Verified
BTT.AX,18-SEP-2015,,End Of Day,,9.85,10.18,9.7,10.15,956702,,,Verified
BTT.AX,19-SEP-2015,,End Of Day,No Trades,,,,,,,,Verified
BTT.AX,20-SEP-2015,,End Of Day,No Trades,,,,,,,,Verified
BTT.AX,21-SEP-2015,,End Of Day,,9.88,9.895,9.56,9.68,600690,,,Verified
BTT.AX,22-SEP-2015,,End Of Day,,9.77,9.86,9.65,9.79,380358,,,Verified
BTT.AX,23-SEP-2015,,End Of Day,,9.7,9.7,9.45,9.55,422245,,,Verified
BTT.AX,24-SEP-2015,,End Of Day,,9.55,9.76,9.5,9.72,627927,,,Verified
BTT.AX,25-SEP-2015,,End Of Day,,9.78,9.79,9.58,9.66,488631,,,Verified
BTT.AX,26-SEP-2015,,End Of Day,No Trades,,,,,,,,Verified
BTT.AX,27-SEP-2015,,End Of Day,No Trades,,,,,,,,Verified
BTT.AX,28-SEP-2015,,End Of Day,,9.65,9.85,9.61,9.83,415097,,,Verified
BTT.AX,29-SEP-2015,,End Of Day,,9.66,9.77,9.44,9.44,948241,,,Verified
BTT.AX,30-SEP-2015,,End Of Day,,9.4,9.57,9.34,9.56,1127036,,,Verified
BTT.AX,01-OCT-2015,,End Of Day,,9.66,9.83,9.59,9.73,472292,,,Verified
BTT.AX,02-OCT-2015,,End Of Day,,9.62,9.94,9.61,9.83,372204,,,Verified
BTT.AX,03-OCT-2015,,End Of Day,No Trades,,,,,,,,Verified
BTT.AX,04-OCT-2015,,End Of Day,No Trades,,,,,,,,Verified
BTT.AX,05-OCT-2015,,End Of Day,,9.95,9.96,9.83,9.84,202477,,,Verified
BTT.AX,06-OCT-2015,,End Of Day,,9.9,9.91,9.84,9.87,204558,,,Verified
BTT.AX,07-OCT-2015,,End Of Day,,9.89,9.89,9.59,9.63,872200,,,Verified
BTT.AX,08-OCT-2015,,End Of Day,,9.69,9.73,9.38,9.46,848260,,,Verified
BTT.AX,09-OCT-2015,,End Of Day,,9.55,9.8,9.55,9.78,791761,,,Verified
BTT.AX,10-OCT-2015,,End Of Day,No Trades,,,,,,,,Verified
BTT.AX,11-OCT-2015,,End Of Day,No Trades,,,,,,,,Verified
BTT.AX,12-OCT-2015,,End Of Day,,9.75,9.8,9.66,9.68,396685,,,Verified
BTT.AX,13-OCT-2015,,End Of Day,,9.66,9.68,9.56,9.64,610532,,,Verified
BTT.AX,14-OCT-2015,,End Of Day,,9.54,9.7,9.51,9.68,355747,,,Verified
BTT.AX,15-OCT-2015,,End Of Day,,9.75,9.77,9.67,9.76,257394,,,Verified
BTT.AX,16-OCT-2015,,End Of Day,,9.81,9.92,9.71,9.8,648520,,,Verified
BTT.AX,17-OCT-2015,,End Of Day,No Trades,,,,,,,,Verified
BTT.AX,18-OCT-2015,,End Of Day,No Trades,,,,,,,,Verified
BTT.AX,19-OCT-2015,,End Of Day,,9.8,9.97,9.8,9.93,508950,,,Verified
BTT.AX,20-OCT-2015,,End Of Day,,9.89,9.93,9.84,9.87,626040,,,Verified
BTT.AX,21-OCT-2015,,End Of Day,,9.82,9.91,9.77,9.89,368549,,,Verified
BTT.AX,22-OCT-2015,,End Of Day,,9.89,9.92,9.8,9.9,650659,,,Verified
BTT.AX,23-OCT-2015,,End Of Day,,9.98,10.7,9.96,10.66,1007938,,,Verified
BTT.AX,24-OCT-2015,,End Of Day,No Trades,,,,,,,,Verified
BTT.AX,25-OCT-2015,,End Of Day,No Trades,,,,,,,,Verified
BTT.AX,26-OCT-2015,,End Of Day,,10.8,10.89,10.3,10.31,647636,,,Verified
BTT.AX,27-OCT-2015,,End Of Day,,10.37,10.49,10.34,10.47,1542884,,,Verified
BTT.AX,28-OCT-2015,,End Of Day,,10.47,10.59,10.44,10.57,486800,,,Verified
BTT.AX,29-OCT-2015,,End Of Day,,10.9,11.41,10.9,11.35,1039518,,,Verified
BTT.AX,30-OCT-2015,,End Of Day,,11.29,11.46,10.79,11.41,1641221,,,Verified
BTT.AX,31-OCT-2015,,End Of Day,No Trades,,,,,,,,Verified
BTT.AX,01-NOV-2015,,End Of Day,No Trades,,,,,,,,Verified
BTT.AX,02-NOV-2015,,End Of Day,,11.4,11.96,11.4,11.8,1171580,,,Verified
BTT.AX,03-NOV-2015,,End Of Day,,11.84,12.06,11.73,12.05,650186,,,Verified
BTT.AX,04-NOV-2015,,End Of Day,,12.13,12.37,12,12.26,937396,,,Verified
BTT.AX,05-NOV-2015,,End Of Day,,12.16,12.165,11.96,12.07,701851,,,Verified
BTT.AX,06-NOV-2015,,End Of Day,,12,12.22,11.92,12.22,697347,,,Verified
BTT.AX,07-NOV-2015,,End Of Day,No Trades,,,,,,,,Verified
BTT.AX,08-NOV-2015,,End Of Day,No Trades,,,,,,,,Verified
BTT.AX,09-NOV-2015,,End Of Day,,12.2,12.37,12.09,12.15,727312,,,Verified
BTT.AX,10-NOV-2015,,End Of Day,,12.06,12.1,11.77,12,811616,,,Verified
BTT.AX,11-NOV-2015,,End Of Day,,12.01,12.19,11.84,12.07,590985,,,Verified
BTT.AX,12-NOV-2015,,End Of Day,,12.05,12.13,11.82,12.06,432116,,,Verified
BTT.AX,13-NOV-2015,,End Of Day,,11.84,12.2,11.66,12.13,516974,,,Verified
BTT.AX,14-NOV-2015,,End Of Day,No Trades,,,,,,,,Verified
BTT.AX,15-NOV-2015,,End Of Day,No Trades,,,,,,,,Verified
BTT.AX,16-NOV-2015,,End Of Day,,11.92,12.1,11.77,11.91,577716,,,Verified
BTT.AX,17-NOV-2015,,End Of Day,,12.03,12.63,12.02,12.63,692143,,,Verified
BTT.AX,18-NOV-2015,,End Of Day,,12.5,12.71,12.23,12.44,755381,,,Verified
BTT.AX,19-NOV-2015,,End Of Day,,12.6,12.74,12.46,12.74,900824,,,Verified
BTT.AX,20-NOV-2015,,End Of Day,,12.74,12.95,12.49,12.63,701905,,,Verified
BTT.AX,21-NOV-2015,,End Of Day,No Trades,,,,,,,,Verified
BTT.AX,22-NOV-2015,,End Of Day,No Trades,,,,,,,,Verified
BTT.AX,23-NOV-2015,,End Of Day,,12.56,12.85,12.56,12.82,602587,,,Verified
BTT.AX,24-NOV-2015,,End Of Day,,12.85,13,12.7,12.95,689128,,,Verified
BTT.AX,25-NOV-2015,,End Of Day,,12.94,12.94,12.51,12.77,587005,,,Verified
BTT.AX,26-NOV-2015,,End Of Day,,12.76,12.91,12.71,12.76,435904,,,Verified
BTT.AX,27-NOV-2015,,End Of Day,,12.83,12.91,12.69,12.8,363850,,,Verified
BTT.AX,28-NOV-2015,,End Of Day,No Trades,,,,,,,,Verified
BTT.AX,29-NOV-2015,,End Of Day,No Trades,,,,,,,,Verified
BTT.AX,30-NOV-2015,,End Of Day,,12.73,12.88,12.69,12.82,754506,,,Verified
BTT.AX,01-DEC-2015,,End Of Day,,12.69,13.2,12.65,13.15,495846,,,Verified
BTT.AX,02-DEC-2015,,End Of Day,,12.85,12.91,12.66,12.79,456997,,,Verified
BTT.AX,03-DEC-2015,,End Of Day,,12.67,13.05,12.67,13.01,432443,,,Verified
BTT.AX,04-DEC-2015,,End Of Day,,12.7,12.79,12.51,12.65,558885,,,Verified
BTT.AX,05-DEC-2015,,End Of Day,No Trades,,,,,,,,Verified
BTT.AX,06-DEC-2015,,End Of Day,No Trades,,,,,,,,Verified
BTT.AX,07-DEC-2015,,End Of Day,,12.8,12.98,12.69,12.78,290496,,,Verified
BTT.AX,08-DEC-2015,,End Of Day,,12.67,12.83,12.64,12.78,394224,,,Verified
BTT.AX,09-DEC-2015,,End Of Day,,12.71,12.92,12.67,12.7,959693,,,Verified
BTT.AX,10-DEC-2015,,End Of Day,,12.64,12.78,12.64,12.72,548579,,,Verified
BTT.AX,11-DEC-2015,,End Of Day,,12.69,12.83,12.56,12.6,899924,,,Verified
BTT.AX,12-DEC-2015,,End Of Day,No Trades,,,,,,,,Verified
BTT.AX,13-DEC-2015,,End Of Day,No Trades,,,,,,,,Verified
BTT.AX,14-DEC-2015,,End Of Day,,12.5,12.5,12.24,12.24,828277,,,Verified
BTT.AX,15-DEC-2015,,End Of Day,,12.32,12.49,12.32,12.32,575883,,,Verified
BTT.AX,16-DEC-2015,,End Of Day,,12.4,12.71,12.36,12.61,474910,,,Verified
BTT.AX,17-DEC-2015,,End Of Day,,12.86,12.98,12.49,12.72,1147726,,,Verified
BTT.AX,18-DEC-2015,,End Of Day,,12.45,12.74,12.31,12.57,1040469,,,Verified
BTT.AX,19-DEC-2015,,End Of Day,No Trades,,,,,,,,Verified
BTT.AX,20-DEC-2015,,End Of Day,No Trades,,,,,,,,Verified
BTT.AX,21-DEC-2015,,End Of Day,,12.41,12.78,12.41,12.51,299482,,,Verified
BTT.AX,22-DEC-2015,,End Of Day,,12.68,12.84,12.4,12.5,446977,,,Verified
BTT.AX,23-DEC-2015,,End Of Day,,12.6,12.77,12.6,12.67,279736,,,Verified
BTT.AX,24-DEC-2015,,End Of Day,,12.66,12.79,12.46,12.51,186102,,,Verified
BTT.AX,25-DEC-2015,,End Of Day,No Trades,,,,,,,,Verified
BTT.AX,26-DEC-2015,,End Of Day,No Trades,,,,,,,,Verified
BTT.AX,27-DEC-2015,,End Of Day,No Trades,,,,,,,,Verified
BTT.AX,28-DEC-2015,,End Of Day,No Trades,,,,,,,,Verified
BTT.AX,29-DEC-2015,,End Of Day,,12.5,12.84,12.42,12.84,228900,,,Verified
BTT.AX,30-DEC-2015,,End Of Day,,12.95,12.98,12.77,12.8,238352,,,Verified
BTT.AX,31-DEC-2015,,End Of Day,,12.75,12.89,12.63,12.86,215330,,,Verified
BTT.AX,01-JAN-2016,,End Of Day,No Trades,,,,,,,,Verified
BTT.AX,02-JAN-2016,,End Of Day,No Trades,,,,,,,,Verified
BTT.AX,03-JAN-2016,,End Of Day,No Trades,,,,,,,,Verified
BTT.AX,04-JAN-2016,,End Of Day,,12.87,12.95,12.6,12.63,320145,,,Verified
BTT.AX,05-JAN-2016,,End Of Day,,12.38,12.39,11.64,11.83,767543,,,Verified
BTT.AX,06-JAN-2016,,End Of Day,,11.87,12,11.51,11.61,445978,,,Verified
BTT.AX,07-JAN-2016,,End Of Day,,11.5,11.55,11.13,11.13,557953,,,Verified
BTT.AX,08-JAN-2016,,End Of Day,,10.71,11.34,10.65,11.2,1015348,,,Verified
BTT.AX,09-JAN-2016,,End Of Day,No Trades,,,,,,,,Verified
BTT.AX,10-JAN-2016,,End Of Day,No Trades,,,,,,,,Verified
BTT.AX,11-JAN-2016,,End Of Day,,10.94,11.05,10.82,11.05,665656,,,Verified
BTT.AX,12-JAN-2016,,End Of Day,,11.1,11.35,10.95,11.05,581902,,,Verified
BTT.AX,13-JAN-2016,,End Of Day,,11.28,11.45,11.16,11.2,914069,,,Verified
BTT.AX,14-JAN-2016,,End Of Day,,10.97,11,10.55,10.81,649521,,,Verified
BTT.AX,15-JAN-2016,,End Of Day,,10.81,11.03,10.53,10.57,706022,,,Verified
BTT.AX,16-JAN-2016,,End Of Day,No Trades,,,,,,,,Verified
BTT.AX,17-JAN-2016,,End Of Day,No Trades,,,,,,,,Verified
BTT.AX,18-JAN-2016,,End Of Day,,10.39,10.49,10.12,10.45,585486,,,Verified
BTT.AX,19-JAN-2016,,End Of Day,,10.3,10.56,10.08,10.51,811014,,,Verified
BTT.AX,20-JAN-2016,,End Of Day,,10.41,10.62,10.32,10.36,872514,,,Verified
BTT.AX,21-JAN-2016,,End Of Day,,10.49,10.58,10.29,10.31,637177,,,Verified
BTT.AX,22-JAN-2016,,End Of Day,,10.38,10.61,10.32,10.56,560402,,,Verified
BTT.AX,23-JAN-2016,,End Of Day,No Trades,,,,,,,,Verified
BTT.AX,24-JAN-2016,,End Of Day,No Trades,,,,,,,,Verified
BTT.AX,25-JAN-2016,,End Of Day,,10.77,10.94,10.72,10.78,577402,,,Verified
BTT.AX,26-JAN-2016,,End Of Day,No Trades,,,,,,,,Verified
BTT.AX,27-JAN-2016,,End Of Day,,10.78,10.8,10.53,10.61,432705,,,Verified
BTT.AX,28-JAN-2016,,End Of Day,,10.6,10.66,10.45,10.57,626963,,,Verified
BTT.AX,29-JAN-2016,,End Of Day,,10.52,10.79,10.3,10.64,887243,,,Verified
BTT.AX,30-JAN-2016,,End Of Day,No Trades,,,,,,,,Verified
BTT.AX,31-JAN-2016,,End Of Day,No Trades,,,,,,,,Verified
BTT.AX,01-FEB-2016,,End Of Day,,10.8,10.99,10.5,10.9,969846,,,Verified
BTT.AX,02-FEB-2016,,End Of Day,,10.95,10.95,10.29,10.34,724838,,,Verified
BTT.AX,03-FEB-2016,,End Of Day,,10,10.24,9.85,9.86,815896,,,Verified
BTT.AX,04-FEB-2016,,End Of Day,,9.95,10.02,9.68,9.92,958053,,,Verified
BTT.AX,05-FEB-2016,,End Of Day,,10,10,9.73,9.94,674689,,,Verified
BTT.AX,06-FEB-2016,,End Of Day,No Trades,,,,,,,,Verified
BTT.AX,07-FEB-2016,,End Of Day,No Trades,,,,,,,,Verified
BTT.AX,08-FEB-2016,,End Of Day,,9.8,9.86,9.61,9.74,313483,,,Verified
BTT.AX,09-FEB-2016,,End Of Day,,9.65,9.65,9.12,9.13,712487,,,Verified
BTT.AX,10-FEB-2016,,End Of Day,,9.1,9.15,8.7,8.74,1022922,,,Verified
BTT.AX,11-FEB-2016,,End Of Day,,8.8,8.89,8.77,8.82,1037074,,,Verified
BTT.AX,12-FEB-2016,,End Of Day,,8.66,8.7,8.09,8.3,1732291,,,Verified
BTT.AX,13-FEB-2016,,End Of Day,No Trades,,,,,,,,Verified
BTT.AX,14-FEB-2016,,End Of Day,No Trades,,,,,,,,Verified
BTT.AX,15-FEB-2016,,End Of Day,,8.65,8.85,8.5,8.82,1279590,,,Verified
BTT.AX,16-FEB-2016,,End Of Day,,9.01,9.12,8.83,9.05,823614,,,Verified
BTT.AX,17-FEB-2016,,End Of Day,,9.09,9.15,8.91,9.02,572661,,,Verified
BTT.AX,18-FEB-2016,,End Of Day,,9.22,9.47,9.17,9.47,876876,,,Verified
BTT.AX,19-FEB-2016,,End Of Day,,9.4,9.4,9.1,9.22,757772,,,Verified
BTT.AX,20-FEB-2016,,End Of Day,No Trades,,,,,,,,Verified
BTT.AX,21-FEB-2016,,End Of Day,No Trades,,,,,,,,Verified
BTT.AX,22-FEB-2016,,End Of Day,,9.22,9.37,9.16,9.29,583399,,,Verified
BTT.AX,23-FEB-2016,,End Of Day,,9.33,9.42,9.13,9.2,561355,,,Verified
BTT.AX,24-FEB-2016,,End Of Day,,9.21,9.345,9.14,9.2,539496,,,Verified
BTT.AX,25-FEB-2016,,End Of Day,,9.3,9.32,9.03,9.07,396084,,,Verified
BTT.AX,26-FEB-2016,,End Of Day,,9.1,9.13,8.9,8.93,353386,,,Verified
BTT.AX,27-FEB-2016,,End Of Day,No Trades,,,,,,,,Verified
BTT.AX,28-FEB-2016,,End Of Day,No Trades,,,,,,,,Verified
BTT.AX,29-FEB-2016,,End Of Day,,8.94,9.18,8.94,9.14,665875,,,Verified
BTT.AX,01-MAR-2016,,End Of Day,,9.06,9.27,8.98,9.07,574617,,,Verified
BTT.AX,02-MAR-2016,,End Of Day,,9.16,9.39,9.13,9.3,1292011,,,Verified
BTT.AX,03-MAR-2016,,End Of Day,,9.35,9.5,9.24,9.29,1753093,,,Verified
BTT.AX,04-MAR-2016,,End Of Day,,9.35,9.44,9.2,9.41,845460,,,Verified
BTT.AX,05-MAR-2016,,End Of Day,No Trades,,,,,,,,Verified
BTT.AX,06-MAR-2016,,End Of Day,No Trades,,,,,,,,Verified
BTT.AX,07-MAR-2016,,End Of Day,,9.51,9.68,9.51,9.53,657099,,,Verified
BTT.AX,08-MAR-2016,,End Of Day,,9.6,9.64,9.24,9.29,1368441,,,Verified
BTT.AX,09-MAR-2016,,End Of Day,,9.29,9.41,9.19,9.37,357296,,,Verified
BTT.AX,10-MAR-2016,,End Of Day,,9.49,9.49,9.22,9.24,497378,,,Verified
BTT.AX,11-MAR-2016,,End Of Day,,9.25,9.3,8.95,9.24,460889,,,Verified
BTT.AX,12-MAR-2016,,End Of Day,No Trades,,,,,,,,Verified
BTT.AX,13-MAR-2016,,End Of Day,No Trades,,,,,,,,Verified
BTT.AX,14-MAR-2016,,End Of Day,,9.24,9.46,9.17,9.24,444904,,,Verified
BTT.AX,15-MAR-2016,,End Of Day,,9.33,9.55,9.24,9.39,857283,,,Verified
BTT.AX,16-MAR-2016,,End Of Day,,9.45,9.51,9.315,9.38,483718,,,Verified
BTT.AX,17-MAR-2016,,End Of Day,,9.4,9.69,9.4,9.62,854116,,,Verified
BTT.AX,18-MAR-2016,,End Of Day,,9.77,9.94,9.75,9.85,854966,,,Verified
BTT.AX,19-MAR-2016,,End Of Day,No Trades,,,,,,,,Verified
BTT.AX,20-MAR-2016,,End Of Day,No Trades,,,,,,,,Verified
BTT.AX,21-MAR-2016,,End Of Day,,9.88,9.94,9.8,9.86,423514,,,Verified
BTT.AX,22-MAR-2016,,End Of Day,,9.91,10.04,9.87,10.03,512926,,,Verified
BTT.AX,23-MAR-2016,,End Of Day,,10.04,10.07,9.96,10.03,656899,,,Verified
BTT.AX,24-MAR-2016,,End Of Day,,9.96,10.07,9.93,9.98,702031,,,Verified
BTT.AX,25-MAR-2016,,End Of Day,No Trades,,,,,,,,Verified
BTT.AX,26-MAR-2016,,End Of Day,No Trades,,,,,,,,Verified
BTT.AX,27-MAR-2016,,End Of Day,No Trades,,,,,,,,Verified
BTT.AX,28-MAR-2016,,End Of Day,No Trades,,,,,,,,Verified
BTT.AX,29-MAR-2016,,End Of Day,,10.01,10.02,9.62,9.73,663655,,,Verified
BTT.AX,30-MAR-2016,,End Of Day,,9.65,9.78,9.32,9.45,1269774,,,Verified
BTT.AX,31-MAR-2016,,End Of Day,,9.55,9.73,9.53,9.7,412968,,,Verified
BTT.AX,01-APR-2016,,End Of Day,,9.61,9.65,9.53,9.58,506461,,,Verified
BTT.AX,02-APR-2016,,End Of Day,No Trades,,,,,,,,Verified
BTT.AX,03-APR-2016,,End Of Day,No Trades,,,,,,,,Verified
BTT.AX,04-APR-2016,,End Of Day,,9.65,9.69,9.56,9.6,342778,,,Verified
BTT.AX,05-APR-2016,,End Of Day,,9.56,9.67,9.28,9.31,692660,,,Verified
BTT.AX,06-APR-2016,,End Of Day,,9.27,9.48,9.18,9.31,1056986,,,Verified
BTT.AX,07-APR-2016,,End Of Day,,9.33,9.44,9.26,9.33,458707,,,Verified
BTT.AX,08-APR-2016,,End Of Day,,9.19,9.38,9.12,9.27,569319,,,Verified
BTT.AX,09-APR-2016,,End Of Day,No Trades,,,,,,,,Verified
BTT.AX,10-APR-2016,,End Of Day,No Trades,,,,,,,,Verified
BTT.AX,11-APR-2016,,End Of Day,,9.31,9.5,9.14,9.41,799528,,,Verified
BTT.AX,12-APR-2016,,End Of Day,,9.5,9.82,9.45,9.58,757483,,,Verified
BTT.AX,13-APR-2016,,End Of Day,,9.69,9.8,9.66,9.69,822435,,,Verified
BTT.AX,14-APR-2016,,End Of Day,,9.74,9.985,9.7,9.85,800125,,,Verified
BTT.AX,15-APR-2016,,End Of Day,,9.9,10.08,9.88,10.04,523432,,,Verified
BTT.AX,16-APR-2016,,End Of Day,No Trades,,,,,,,,Verified
BTT.AX,17-APR-2016,,End Of Day,No Trades,,,,,,,,Verified
BTT.AX,18-APR-2016,,End Of Day,,10.01,10.08,9.94,9.95,393688,,,Verified
BTT.AX,19-APR-2016,,End Of Day,,10.08,10.09,9.79,9.84,707953,,,Verified
BTT.AX,20-APR-2016,,End Of Day,,9.85,10.03,9.82,9.87,490699,,,Verified
BTT.AX,21-APR-2016,,End Of Day,,10.06,10.27,9.99,10.08,693411,,,Verified
BTT.AX,22-APR-2016,,End Of Day,,10.05,10.18,9.98,10.06,546550,,,Verified
BTT.AX,23-APR-2016,,End Of Day,No Trades,,,,,,,,Verified
BTT.AX,24-APR-2016,,End Of Day,No Trades,,,,,,,,Verified
BTT.AX,25-APR-2016,,End Of Day,No Trades,,,,,,,,Verified
BTT.AX,26-APR-2016,,End Of Day,,10.15,10.23,9.85,9.89,479072,,,Verified
BTT.AX,27-APR-2016,,End Of Day,,9.89,10.19,9.86,9.96,302690,,,Verified
BTT.AX,28-APR-2016,,End Of Day,,10.09,10.24,9.93,10.06,704581,,,Verified
BTT.AX,29-APR-2016,,End Of Day,,10.09,10.17,9.79,9.89,537833,,,Verified
BTT.AX,30-APR-2016,,End Of Day,No Trades,,,,,,,,Verified
BTT.AX,01-MAY-2016,,End Of Day,No Trades,,,,,,,,Verified
BTT.AX,02-MAY-2016,,End Of Day,,9.82,9.86,9.51,9.81,527692,,,Verified
BTT.AX,03-MAY-2016,,End Of Day,,9.84,10.22,9.81,10.17,812394,,,Verified
BTT.AX,04-MAY-2016,,End Of Day,,10.08,10.34,10.08,10.19,900907,,,Verified
BTT.AX,05-MAY-2016,,End Of Day,,10.15,10.44,10.02,10.14,1039817,,,Verified
BTT.AX,06-MAY-2016,,End Of Day,,9.89,9.92,9.29,9.33,2464822,,,Verified
BTT.AX,07-MAY-2016,,End Of Day,No Trades,,,,,,,,Verified
BTT.AX,08-MAY-2016,,End Of Day,No Trades,,,,,,,,Verified
BTT.AX,09-MAY-2016,,End Of Day,,9.33,9.45,9.2,9.38,1349552,,,Verified
BTT.AX,10-MAY-2016,,End Of Day,,9.39,9.635,9.29,9.33,1365373,,,Verified
BTT.AX,11-MAY-2016,,End Of Day,,9.46,9.57,9.37,9.42,1064531,,,Verified
