{
"Name": "Virtus Health Ltd (VRT.AX)",
"Market Cap (intraday)": "574.74M",
"Enterprise Value (28/05/2016)": "709.07M",
"Trailing P/E (ttm, intraday):": "18.92",
"Forward P/E (fye 30/06/2017)": "15.98",
"PEG Ratio (5 yr expected)": "1.21",
"Price/Sales (ttm):": "2.24",
"Price/Book (mrq):": "2.40",
"Enterprise Value/Revenue (ttm)": "2.81",
"Enterprise Value/EBITDA (ttm)": "11.08",
"Fiscal Year Ends:": "30 Jun",
"Most Recent Quarter (mrq):": "31/12/2015",
"Profit Margin (ttm):": "12.12%",
"Operating Margin (ttm):": "21.18%",
"Return on Assets (ttm):": "7.23%",
"Return on Equity (ttm):": "12.80%",
"Revenue (ttm):": "252.54M",
"Revenue Per Share (ttm):": "3.16",
"Qtrly Revenue Growth (yoy):": "15.50%",
"Gross Profit (ttm):": "93.00M",
"EBITDA (ttm)": "64.00M",
"Net Income Avl to Common (ttm):": "30.60M",
"Diluted EPS (ttm):": "0.38",
"Qtrly Earnings Growth (yoy):": "7.00%",
"Total Cash (mrq):": "19.08M",
"Total Cash Per Share (mrq):": "0.24",
"Total Debt (mrq):": "153.42M",
"Total Debt/Equity (mrq):": "60.24",
"Current Ratio (mrq):": "1.18",
"Book Value Per Share (mrq):": "2.94",
"Operating Cash Flow (ttm):": "39.35M",
"Levered Free Cash Flow (ttm):": "23.64M",
"Beta:": "N/A",
"52-Week Change": "-5.77%",
"S&P500 52-Week Change": "-0.60%",
"52-Week High (01/06/2015)": "7.76",
"52-Week Low (24/08/2015)": "4.55",
"50-Day Moving Average": "6.71",
"200-Day Moving Average": "6.28",
"Avg Vol (3 month)": "299,669",
"Avg Vol (10 day)": "236,751",
"Shares Outstanding": "79.94M",
"Float:": "75.28M",
"% Held by Insiders": "N/A",
"% Held by Institutions": "N/A",
"Shares Short ": "N/A",
"Short Ratio ": "N/A",
"Short % of Float ": "N/A",
"Shares Short (prior month)": "N/A",
"Forward Annual Dividend Rate": "N/A",
"Forward Annual Dividend Yield": "N/A",
"Trailing Annual Dividend Yield": "0.20",
"Trailing Annual Dividend Yield": "2.80%",
"5 Year Average Dividend Yield": "N/A",
"Payout Ratio": "N/A",
"Dividend Date": "N/A",
"Ex-Dividend Date": "N/A",
"Last Split Factor (new per old)": "N/A",
"Last Split Date": "N/A"
}
