{
"Name": "ARB Corp Ltd (ARB.AX)",
"Market Cap (intraday)": "1.30B",
"Enterprise Value (28/05/2016)": "1.26B",
"Trailing P/E (ttm, intraday):": "27.76",
"Forward P/E (fye 30/06/2017)": "24.21",
"PEG Ratio (5 yr expected)": "3.11",
"Price/Sales (ttm):": "3.77",
"Price/Book (mrq):": "5.45",
"Enterprise Value/Revenue (ttm)": "3.67",
"Enterprise Value/EBITDA (ttm)": "18.13",
"Fiscal Year Ends:": "30 Jun",
"Most Recent Quarter (mrq):": "31/12/2015",
"Profit Margin (ttm):": "13.69%",
"Operating Margin (ttm):": "17.76%",
"Return on Assets (ttm):": "13.85%",
"Return on Equity (ttm):": "20.98%",
"Revenue (ttm):": "342.96M",
"Revenue Per Share (ttm):": "4.33",
"Qtrly Revenue Growth (yoy):": "8.10%",
"Gross Profit (ttm):": "180.00M",
"EBITDA (ttm)": "69.39M",
"Net Income Avl to Common (ttm):": "46.96M",
"Diluted EPS (ttm):": "0.59",
"Qtrly Earnings Growth (yoy):": "14.00%",
"Total Cash (mrq):": "8.26M",
"Total Cash Per Share (mrq):": "0.10",
"Total Debt (mrq):": "6.00M",
"Total Debt/Equity (mrq):": "2.53",
"Current Ratio (mrq):": "3.03",
"Book Value Per Share (mrq):": "2.99",
"Operating Cash Flow (ttm):": "40.28M",
"Levered Free Cash Flow (ttm):": "12.42M",
"Beta:": "N/A",
"52-Week Change": "16.16%",
"S&P500 52-Week Change": "-0.60%",
"52-Week High (04/05/2016)": "16.75",
"52-Week Low (09/07/2015)": "12.52",
"50-Day Moving Average": "15.95",
"200-Day Moving Average": "15.40",
"Avg Vol (3 month)": "138,913",
"Avg Vol (10 day)": "102,753",
"Shares Outstanding": "79.17M",
"Float:": "66.99M",
"% Held by Insiders": "N/A",
"% Held by Institutions": "N/A",
"Shares Short ": "N/A",
"Short Ratio ": "N/A",
"Short % of Float ": "N/A",
"Shares Short (prior month)": "N/A",
"Forward Annual Dividend Rate": "N/A",
"Forward Annual Dividend Yield": "N/A",
"Trailing Annual Dividend Yield": "0.23",
"Trailing Annual Dividend Yield": "1.40%",
"5 Year Average Dividend Yield": "N/A",
"Payout Ratio": "N/A",
"Dividend Date": "N/A",
"Ex-Dividend Date": "N/A",
"Last Split Factor (new per old)": "5:1",
"Last Split Date": "18/10/2002"
}
