{
"Name": "Mayne Pharma Group ltd (MYX.AX)",
"Market Cap (intraday)": "1.28B",
"Enterprise Value (28/05/2016)": "1.20B",
"Trailing P/E (ttm, intraday):": "52.50",
"Forward P/E (fye 30/06/2017)": "22.50",
"PEG Ratio (5 yr expected)": "1.99",
"Price/Sales (ttm):": "6.02",
"Price/Book (mrq):": "3.69",
"Enterprise Value/Revenue (ttm)": "5.74",
"Enterprise Value/EBITDA (ttm)": "21.66",
"Fiscal Year Ends:": "30 Jun",
"Most Recent Quarter (mrq):": "31/12/2015",
"Profit Margin (ttm):": "11.00%",
"Operating Margin (ttm):": "17.53%",
"Return on Assets (ttm):": "4.98%",
"Return on Equity (ttm):": "8.06%",
"Revenue (ttm):": "209.13M",
"Revenue Per Share (ttm):": "0.28",
"Qtrly Revenue Growth (yoy):": "113.70%",
"Gross Profit (ttm):": "80.00M",
"EBITDA (ttm)": "55.39M",
"Net Income Avl to Common (ttm):": "23.00M",
"Diluted EPS (ttm):": "0.03",
"Qtrly Earnings Growth (yoy):": "381.90%",
"Total Cash (mrq):": "51.39M",
"Total Cash Per Share (mrq):": "0.06",
"Total Debt (mrq):": "64.80M",
"Total Debt/Equity (mrq):": "18.40",
"Current Ratio (mrq):": "1.45",
"Book Value Per Share (mrq):": "0.42",
"Operating Cash Flow (ttm):": "44.48M",
"Levered Free Cash Flow (ttm):": "-56.12M",
"Beta:": "N/A",
"52-Week Change": "41.89%",
"S&P500 52-Week Change": "-0.60%",
"52-Week High (27/05/2016)": "1.59",
"52-Week Low (25/08/2015)": "0.93",
"50-Day Moving Average": "1.42",
"200-Day Moving Average": "1.34",
"Avg Vol (3 month)": "2,134,550",
"Avg Vol (10 day)": "3,795,270",
"Shares Outstanding": "810.05M",
"Float:": "662.78M",
"% Held by Insiders": "N/A",
"% Held by Institutions": "N/A",
"Shares Short ": "N/A",
"Short Ratio ": "N/A",
"Short % of Float ": "N/A",
"Shares Short (prior month)": "N/A",
"Forward Annual Dividend Rate": "N/A",
"Forward Annual Dividend Yield": "N/A",
"Trailing Annual Dividend Yield": "N/A",
"Trailing Annual Dividend Yield": "N/A",
"5 Year Average Dividend Yield": "N/A",
"Payout Ratio": "N/A",
"Dividend Date": "N/A",
"Ex-Dividend Date": "N/A",
"Last Split Factor (new per old)": "N/A",
"Last Split Date": "N/A"
}
