#RIC,Date[L],Time[L],Type,Qualifiers,Open,High,Low,Last,Volume,Open Interest,Settle,Data Source
MGR.AX,01-JAN-2014,,End Of Day,No Trades,,,,,,,,Verified
MGR.AX,02-JAN-2014,,End Of Day,,1.685,1.71,1.685,1.695,7653374,,,Verified
MGR.AX,03-JAN-2014,,End Of Day,,1.69,1.71,1.685,1.705,6870335,,,Verified
MGR.AX,04-JAN-2014,,End Of Day,No Trades,,,,,,,,Verified
MGR.AX,05-JAN-2014,,End Of Day,No Trades,,,,,,,,Verified
MGR.AX,06-JAN-2014,,End Of Day,,1.715,1.735,1.71,1.72,9533334,,,Verified
MGR.AX,07-JAN-2014,,End Of Day,,1.735,1.75,1.722,1.725,7840365,,,Verified
MGR.AX,08-JAN-2014,,End Of Day,,1.735,1.745,1.7,1.705,13698716,,,Verified
MGR.AX,09-JAN-2014,,End Of Day,,1.72,1.732,1.71,1.72,6999834,,,Verified
MGR.AX,10-JAN-2014,,End Of Day,,1.71,1.762,1.71,1.75,9436134,,,Verified
MGR.AX,11-JAN-2014,,End Of Day,No Trades,,,,,,,,Verified
MGR.AX,12-JAN-2014,,End Of Day,No Trades,,,,,,,,Verified
MGR.AX,13-JAN-2014,,End Of Day,,1.74,1.755,1.722,1.725,10672078,,,Verified
MGR.AX,14-JAN-2014,,End Of Day,,1.715,1.72,1.682,1.69,25037300,,,Verified
MGR.AX,15-JAN-2014,,End Of Day,,1.7,1.742,1.7,1.725,14712871,,,Verified
MGR.AX,16-JAN-2014,,End Of Day,,1.75,1.755,1.735,1.745,10386507,,,Verified
MGR.AX,17-JAN-2014,,End Of Day,,1.725,1.745,1.717,1.745,6008621,,,Verified
MGR.AX,18-JAN-2014,,End Of Day,No Trades,,,,,,,,Verified
MGR.AX,19-JAN-2014,,End Of Day,No Trades,,,,,,,,Verified
MGR.AX,20-JAN-2014,,End Of Day,,1.745,1.745,1.71,1.725,6593887,,,Verified
MGR.AX,21-JAN-2014,,End Of Day,,1.73,1.75,1.717,1.75,7060098,,,Verified
MGR.AX,22-JAN-2014,,End Of Day,,1.76,1.76,1.71,1.73,9051143,,,Verified
MGR.AX,23-JAN-2014,,End Of Day,,1.735,1.735,1.692,1.715,15211432,,,Verified
MGR.AX,24-JAN-2014,,End Of Day,,1.695,1.72,1.695,1.7,14193315,,,Verified
MGR.AX,25-JAN-2014,,End Of Day,No Trades,,,,,,,,Verified
MGR.AX,26-JAN-2014,,End Of Day,No Trades,,,,,,,,Verified
MGR.AX,27-JAN-2014,,End Of Day,No Trades,,,,,,,,Verified
MGR.AX,28-JAN-2014,,End Of Day,,1.69,1.705,1.675,1.695,15749278,,,Verified
MGR.AX,29-JAN-2014,,End Of Day,,1.705,1.71,1.695,1.695,13755055,,,Verified
MGR.AX,30-JAN-2014,,End Of Day,,1.685,1.695,1.665,1.68,10635728,,,Verified
MGR.AX,31-JAN-2014,,End Of Day,,1.675,1.687,1.665,1.67,5222148,,,Verified
MGR.AX,01-FEB-2014,,End Of Day,No Trades,,,,,,,,Verified
MGR.AX,02-FEB-2014,,End Of Day,No Trades,,,,,,,,Verified
MGR.AX,03-FEB-2014,,End Of Day,,1.675,1.69,1.66,1.675,8630331,,,Verified
MGR.AX,04-FEB-2014,,End Of Day,,1.65,1.675,1.645,1.66,12363815,,,Verified
MGR.AX,05-FEB-2014,,End Of Day,,1.67,1.675,1.65,1.655,14554802,,,Verified
MGR.AX,06-FEB-2014,,End Of Day,,1.65,1.665,1.63,1.655,11927285,,,Verified
MGR.AX,07-FEB-2014,,End Of Day,,1.655,1.695,1.65,1.685,11889671,,,Verified
MGR.AX,08-FEB-2014,,End Of Day,No Trades,,,,,,,,Verified
MGR.AX,09-FEB-2014,,End Of Day,No Trades,,,,,,,,Verified
MGR.AX,10-FEB-2014,,End Of Day,,1.69,1.692,1.652,1.68,7007084,,,Verified
MGR.AX,11-FEB-2014,,End Of Day,,1.68,1.7,1.672,1.68,6880188,,,Verified
MGR.AX,12-FEB-2014,,End Of Day,,1.685,1.735,1.685,1.725,10121817,,,Verified
MGR.AX,13-FEB-2014,,End Of Day,,1.72,1.74,1.72,1.72,4517557,,,Verified
MGR.AX,14-FEB-2014,,End Of Day,,1.735,1.74,1.727,1.74,5329701,,,Verified
MGR.AX,15-FEB-2014,,End Of Day,No Trades,,,,,,,,Verified
MGR.AX,16-FEB-2014,,End Of Day,No Trades,,,,,,,,Verified
MGR.AX,17-FEB-2014,,End Of Day,,1.75,1.75,1.72,1.74,5694776,,,Verified
MGR.AX,18-FEB-2014,,End Of Day,,1.745,1.745,1.72,1.745,9416667,,,Verified
MGR.AX,19-FEB-2014,,End Of Day,,1.745,1.755,1.74,1.755,11749332,,,Verified
MGR.AX,20-FEB-2014,,End Of Day,,1.75,1.765,1.73,1.75,13864917,,,Verified
MGR.AX,21-FEB-2014,,End Of Day,,1.76,1.78,1.755,1.765,10573713,,,Verified
MGR.AX,22-FEB-2014,,End Of Day,No Trades,,,,,,,,Verified
MGR.AX,23-FEB-2014,,End Of Day,No Trades,,,,,,,,Verified
MGR.AX,24-FEB-2014,,End Of Day,,1.775,1.78,1.73,1.755,12507957,,,Verified
MGR.AX,25-FEB-2014,,End Of Day,,1.765,1.78,1.755,1.775,7210823,,,Verified
MGR.AX,26-FEB-2014,,End Of Day,,1.775,1.775,1.745,1.76,8544465,,,Verified
MGR.AX,27-FEB-2014,,End Of Day,,1.76,1.765,1.75,1.765,5797722,,,Verified
MGR.AX,28-FEB-2014,,End Of Day,,1.77,1.775,1.755,1.765,12501120,,,Verified
MGR.AX,01-MAR-2014,,End Of Day,No Trades,,,,,,,,Verified
MGR.AX,02-MAR-2014,,End Of Day,No Trades,,,,,,,,Verified
MGR.AX,03-MAR-2014,,End Of Day,,1.77,1.782,1.725,1.73,18053309,,,Verified
MGR.AX,04-MAR-2014,,End Of Day,,1.73,1.755,1.72,1.73,15663502,,,Verified
MGR.AX,05-MAR-2014,,End Of Day,,1.735,1.755,1.735,1.735,15247718,,,Verified
MGR.AX,06-MAR-2014,,End Of Day,,1.735,1.75,1.735,1.74,8074320,,,Verified
MGR.AX,07-MAR-2014,,End Of Day,,1.745,1.752,1.73,1.745,7240235,,,Verified
MGR.AX,08-MAR-2014,,End Of Day,No Trades,,,,,,,,Verified
MGR.AX,09-MAR-2014,,End Of Day,No Trades,,,,,,,,Verified
MGR.AX,10-MAR-2014,,End Of Day,,1.755,1.757,1.7,1.705,13131504,,,Verified
MGR.AX,11-MAR-2014,,End Of Day,,1.725,1.73,1.7,1.71,10710190,,,Verified
MGR.AX,12-MAR-2014,,End Of Day,,1.705,1.732,1.695,1.725,9387823,,,Verified
MGR.AX,13-MAR-2014,,End Of Day,,1.73,1.755,1.722,1.74,11854381,,,Verified
MGR.AX,14-MAR-2014,,End Of Day,,1.735,1.737,1.702,1.725,8550282,,,Verified
MGR.AX,15-MAR-2014,,End Of Day,No Trades,,,,,,,,Verified
MGR.AX,16-MAR-2014,,End Of Day,No Trades,,,,,,,,Verified
MGR.AX,17-MAR-2014,,End Of Day,,1.71,1.725,1.705,1.705,8791518,,,Verified
MGR.AX,18-MAR-2014,,End Of Day,,1.72,1.75,1.717,1.75,15726237,,,Verified
MGR.AX,19-MAR-2014,,End Of Day,,1.76,1.765,1.7,1.705,32201101,,,Verified
MGR.AX,20-MAR-2014,,End Of Day,,1.715,1.722,1.702,1.71,27690498,,,Verified
MGR.AX,21-MAR-2014,,End Of Day,,1.71,1.72,1.7,1.715,15000071,,,Verified
MGR.AX,22-MAR-2014,,End Of Day,No Trades,,,,,,,,Verified
MGR.AX,23-MAR-2014,,End Of Day,No Trades,,,,,,,,Verified
MGR.AX,24-MAR-2014,,End Of Day,,1.71,1.72,1.695,1.715,10938597,,,Verified
MGR.AX,25-MAR-2014,,End Of Day,,1.695,1.71,1.685,1.69,9136230,,,Verified
MGR.AX,26-MAR-2014,,End Of Day,,1.695,1.71,1.687,1.69,11868275,,,Verified
MGR.AX,27-MAR-2014,,End Of Day,,1.685,1.687,1.67,1.68,7692020,,,Verified
MGR.AX,28-MAR-2014,,End Of Day,,1.68,1.69,1.657,1.67,16769002,,,Verified
MGR.AX,29-MAR-2014,,End Of Day,No Trades,,,,,,,,Verified
MGR.AX,30-MAR-2014,,End Of Day,No Trades,,,,,,,,Verified
MGR.AX,31-MAR-2014,,End Of Day,,1.685,1.72,1.68,1.7,15839274,,,Verified
MGR.AX,01-APR-2014,,End Of Day,,1.7,1.715,1.685,1.71,8047235,,,Verified
MGR.AX,02-APR-2014,,End Of Day,,1.715,1.715,1.69,1.695,8468198,,,Verified
MGR.AX,03-APR-2014,,End Of Day,,1.705,1.715,1.69,1.69,19960325,,,Verified
MGR.AX,04-APR-2014,,End Of Day,,1.685,1.71,1.685,1.7,11516863,,,Verified
MGR.AX,05-APR-2014,,End Of Day,No Trades,,,,,,,,Verified
MGR.AX,06-APR-2014,,End Of Day,No Trades,,,,,,,,Verified
MGR.AX,07-APR-2014,,End Of Day,,1.68,1.72,1.68,1.71,6833237,,,Verified
MGR.AX,08-APR-2014,,End Of Day,,1.7,1.727,1.7,1.715,7789364,,,Verified
MGR.AX,09-APR-2014,,End Of Day,,1.715,1.755,1.715,1.74,9616192,,,Verified
MGR.AX,10-APR-2014,,End Of Day,,1.76,1.785,1.755,1.755,20425013,,,Verified
MGR.AX,11-APR-2014,,End Of Day,,1.73,1.765,1.73,1.745,14086170,,,Verified
MGR.AX,12-APR-2014,,End Of Day,No Trades,,,,,,,,Verified
MGR.AX,13-APR-2014,,End Of Day,No Trades,,,,,,,,Verified
MGR.AX,14-APR-2014,,End Of Day,,1.75,1.75,1.717,1.72,9669999,,,Verified
MGR.AX,15-APR-2014,,End Of Day,,1.735,1.76,1.727,1.735,14192638,,,Verified
MGR.AX,16-APR-2014,,End Of Day,,1.745,1.765,1.74,1.745,9214254,,,Verified
MGR.AX,17-APR-2014,,End Of Day,,1.77,1.785,1.755,1.76,17902366,,,Verified
MGR.AX,18-APR-2014,,End Of Day,No Trades,,,,,,,,Verified
MGR.AX,19-APR-2014,,End Of Day,No Trades,,,,,,,,Verified
MGR.AX,20-APR-2014,,End Of Day,No Trades,,,,,,,,Verified
MGR.AX,21-APR-2014,,End Of Day,No Trades,,,,,,,,Verified
MGR.AX,22-APR-2014,,End Of Day,,1.775,1.79,1.757,1.76,13592810,,,Verified
MGR.AX,23-APR-2014,,End Of Day,,1.785,1.8,1.725,1.73,27550338,,,Verified
MGR.AX,24-APR-2014,,End Of Day,,1.735,1.755,1.73,1.75,15251514,,,Verified
MGR.AX,25-APR-2014,,End Of Day,No Trades,,,,,,,,Verified
MGR.AX,26-APR-2014,,End Of Day,No Trades,,,,,,,,Verified
MGR.AX,27-APR-2014,,End Of Day,No Trades,,,,,,,,Verified
MGR.AX,28-APR-2014,,End Of Day,,1.745,1.775,1.742,1.77,11879069,,,Verified
MGR.AX,29-APR-2014,,End Of Day,,1.78,1.785,1.75,1.75,14968457,,,Verified
MGR.AX,30-APR-2014,,End Of Day,,1.76,1.762,1.732,1.75,16627710,,,Verified
MGR.AX,01-MAY-2014,,End Of Day,,1.785,1.785,1.74,1.765,11905832,,,Verified
MGR.AX,02-MAY-2014,,End Of Day,,1.765,1.765,1.735,1.75,9882761,,,Verified
MGR.AX,03-MAY-2014,,End Of Day,No Trades,,,,,,,,Verified
MGR.AX,04-MAY-2014,,End Of Day,No Trades,,,,,,,,Verified
MGR.AX,05-MAY-2014,,End Of Day,,1.75,1.765,1.74,1.765,6709966,,,Verified
MGR.AX,06-MAY-2014,,End Of Day,,1.77,1.77,1.745,1.765,5996682,,,Verified
MGR.AX,07-MAY-2014,,End Of Day,,1.755,1.76,1.73,1.74,13545171,,,Verified
MGR.AX,08-MAY-2014,,End Of Day,,1.745,1.777,1.74,1.76,13743621,,,Verified
MGR.AX,09-MAY-2014,,End Of Day,,1.755,1.77,1.732,1.74,11425855,,,Verified
MGR.AX,10-MAY-2014,,End Of Day,No Trades,,,,,,,,Verified
MGR.AX,11-MAY-2014,,End Of Day,No Trades,,,,,,,,Verified
MGR.AX,12-MAY-2014,,End Of Day,,1.75,1.75,1.73,1.745,13454075,,,Verified
MGR.AX,13-MAY-2014,,End Of Day,,1.75,1.75,1.72,1.745,13727325,,,Verified
MGR.AX,14-MAY-2014,,End Of Day,,1.745,1.765,1.735,1.76,6025738,,,Verified
MGR.AX,15-MAY-2014,,End Of Day,,1.745,1.765,1.737,1.765,7066760,,,Verified
MGR.AX,16-MAY-2014,,End Of Day,,1.76,1.775,1.75,1.765,8428426,,,Verified
MGR.AX,17-MAY-2014,,End Of Day,No Trades,,,,,,,,Verified
MGR.AX,18-MAY-2014,,End Of Day,No Trades,,,,,,,,Verified
MGR.AX,19-MAY-2014,,End Of Day,,1.75,1.757,1.735,1.735,4259222,,,Verified
MGR.AX,20-MAY-2014,,End Of Day,,1.745,1.745,1.717,1.73,7248680,,,Verified
MGR.AX,21-MAY-2014,,End Of Day,,1.72,1.735,1.715,1.72,7463011,,,Verified
MGR.AX,22-MAY-2014,,End Of Day,,1.735,1.755,1.73,1.75,7702884,,,Verified
MGR.AX,23-MAY-2014,,End Of Day,,1.75,1.765,1.745,1.765,4571709,,,Verified
MGR.AX,24-MAY-2014,,End Of Day,No Trades,,,,,,,,Verified
MGR.AX,25-MAY-2014,,End Of Day,No Trades,,,,,,,,Verified
MGR.AX,26-MAY-2014,,End Of Day,,1.77,1.78,1.765,1.78,4226665,,,Verified
MGR.AX,27-MAY-2014,,End Of Day,,1.79,1.795,1.775,1.775,6225041,,,Verified
MGR.AX,28-MAY-2014,,End Of Day,,1.78,1.797,1.78,1.785,3478989,,,Verified
MGR.AX,29-MAY-2014,,End Of Day,,1.78,1.785,1.765,1.77,3958585,,,Verified
MGR.AX,30-MAY-2014,,End Of Day,,1.785,1.81,1.777,1.81,21053140,,,Verified
MGR.AX,31-MAY-2014,,End Of Day,No Trades,,,,,,,,Verified
MGR.AX,01-JUN-2014,,End Of Day,No Trades,,,,,,,,Verified
MGR.AX,02-JUN-2014,,End Of Day,,1.815,1.822,1.807,1.815,6457326,,,Verified
MGR.AX,03-JUN-2014,,End Of Day,,1.82,1.835,1.805,1.815,12584240,,,Verified
MGR.AX,04-JUN-2014,,End Of Day,,1.825,1.855,1.825,1.84,21627837,,,Verified
MGR.AX,05-JUN-2014,,End Of Day,,1.845,1.85,1.822,1.835,8925312,,,Verified
MGR.AX,06-JUN-2014,,End Of Day,,1.82,1.86,1.82,1.855,6928888,,,Verified
MGR.AX,07-JUN-2014,,End Of Day,No Trades,,,,,,,,Verified
MGR.AX,08-JUN-2014,,End Of Day,No Trades,,,,,,,,Verified
MGR.AX,09-JUN-2014,,End Of Day,No Trades,,,,,,,,Verified
MGR.AX,10-JUN-2014,,End Of Day,,1.875,1.88,1.825,1.825,9633014,,,Verified
MGR.AX,11-JUN-2014,,End Of Day,,1.82,1.847,1.82,1.835,7248683,,,Verified
MGR.AX,12-JUN-2014,,End Of Day,,1.825,1.855,1.82,1.845,12166617,,,Verified
MGR.AX,13-JUN-2014,,End Of Day,,1.825,1.84,1.807,1.835,10635043,,,Verified
MGR.AX,14-JUN-2014,,End Of Day,No Trades,,,,,,,,Verified
MGR.AX,15-JUN-2014,,End Of Day,No Trades,,,,,,,,Verified
MGR.AX,16-JUN-2014,,End Of Day,,1.82,1.83,1.805,1.82,10621613,,,Verified
MGR.AX,17-JUN-2014,,End Of Day,,1.795,1.842,1.792,1.835,12641951,,,Verified
MGR.AX,18-JUN-2014,,End Of Day,,1.83,1.85,1.815,1.82,7479357,,,Verified
MGR.AX,19-JUN-2014,,End Of Day,,1.81,1.825,1.81,1.815,17685172,,,Verified
MGR.AX,20-JUN-2014,,End Of Day,,1.82,1.84,1.815,1.825,19841480,,,Verified
MGR.AX,21-JUN-2014,,End Of Day,No Trades,,,,,,,,Verified
MGR.AX,22-JUN-2014,,End Of Day,No Trades,,,,,,,,Verified
MGR.AX,23-JUN-2014,,End Of Day,,1.84,1.845,1.815,1.83,10758246,,,Verified
MGR.AX,24-JUN-2014,,End Of Day,,1.82,1.842,1.815,1.82,8613422,,,Verified
MGR.AX,25-JUN-2014,,End Of Day,,1.815,1.83,1.79,1.825,11568374,,,Verified
MGR.AX,26-JUN-2014,,End Of Day,,1.81,1.83,1.79,1.83,16662971,,,Verified
MGR.AX,27-JUN-2014,,End Of Day,,1.83,1.835,1.805,1.81,12297256,,,Verified
MGR.AX,28-JUN-2014,,End Of Day,No Trades,,,,,,,,Verified
MGR.AX,29-JUN-2014,,End Of Day,No Trades,,,,,,,,Verified
MGR.AX,30-JUN-2014,,End Of Day,,1.81,1.82,1.785,1.785,13014775,,,Verified
MGR.AX,01-JUL-2014,,End Of Day,,1.775,1.785,1.755,1.76,15867492,,,Verified
MGR.AX,02-JUL-2014,,End Of Day,,1.775,1.78,1.762,1.77,11641232,,,Verified
MGR.AX,03-JUL-2014,,End Of Day,,1.775,1.79,1.77,1.775,7367443,,,Verified
MGR.AX,04-JUL-2014,,End Of Day,,1.78,1.79,1.757,1.77,10667959,,,Verified
MGR.AX,05-JUL-2014,,End Of Day,No Trades,,,,,,,,Verified
MGR.AX,06-JUL-2014,,End Of Day,No Trades,,,,,,,,Verified
MGR.AX,07-JUL-2014,,End Of Day,,1.78,1.805,1.775,1.79,10794545,,,Verified
MGR.AX,08-JUL-2014,,End Of Day,,1.79,1.805,1.78,1.8,8310748,,,Verified
MGR.AX,09-JUL-2014,,End Of Day,,1.8,1.8,1.77,1.78,6943644,,,Verified
MGR.AX,10-JUL-2014,,End Of Day,,1.78,1.795,1.765,1.785,6020498,,,Verified
MGR.AX,11-JUL-2014,,End Of Day,,1.77,1.785,1.765,1.775,6158914,,,Verified
MGR.AX,12-JUL-2014,,End Of Day,No Trades,,,,,,,,Verified
MGR.AX,13-JUL-2014,,End Of Day,No Trades,,,,,,,,Verified
MGR.AX,14-JUL-2014,,End Of Day,,1.785,1.795,1.78,1.795,6763458,,,Verified
MGR.AX,15-JUL-2014,,End Of Day,,1.8,1.815,1.8,1.81,9696626,,,Verified
MGR.AX,16-JUL-2014,,End Of Day,,1.81,1.817,1.795,1.81,6791583,,,Verified
MGR.AX,17-JUL-2014,,End Of Day,,1.81,1.815,1.805,1.805,12276088,,,Verified
MGR.AX,18-JUL-2014,,End Of Day,,1.8,1.81,1.79,1.81,9027008,,,Verified
MGR.AX,19-JUL-2014,,End Of Day,No Trades,,,,,,,,Verified
MGR.AX,20-JUL-2014,,End Of Day,No Trades,,,,,,,,Verified
MGR.AX,21-JUL-2014,,End Of Day,,1.815,1.82,1.802,1.805,6145257,,,Verified
MGR.AX,22-JUL-2014,,End Of Day,,1.81,1.81,1.8,1.8,7255508,,,Verified
MGR.AX,23-JUL-2014,,End Of Day,,1.805,1.825,1.795,1.82,6951130,,,Verified
MGR.AX,24-JUL-2014,,End Of Day,,1.81,1.825,1.81,1.815,6653923,,,Verified
MGR.AX,25-JUL-2014,,End Of Day,,1.81,1.812,1.787,1.8,11506199,,,Verified
MGR.AX,26-JUL-2014,,End Of Day,No Trades,,,,,,,,Verified
MGR.AX,27-JUL-2014,,End Of Day,No Trades,,,,,,,,Verified
MGR.AX,28-JUL-2014,,End Of Day,,1.8,1.805,1.792,1.795,9687834,,,Verified
MGR.AX,29-JUL-2014,,End Of Day,,1.795,1.8,1.78,1.79,6625794,,,Verified
MGR.AX,30-JUL-2014,,End Of Day,,1.79,1.815,1.78,1.81,10098300,,,Verified
MGR.AX,31-JUL-2014,,End Of Day,,1.805,1.82,1.8,1.815,9568679,,,Verified
MGR.AX,01-AUG-2014,,End Of Day,,1.805,1.805,1.78,1.795,16900603,,,Verified
MGR.AX,02-AUG-2014,,End Of Day,No Trades,,,,,,,,Verified
MGR.AX,03-AUG-2014,,End Of Day,No Trades,,,,,,,,Verified
MGR.AX,04-AUG-2014,,End Of Day,,1.79,1.795,1.78,1.79,6874693,,,Verified
MGR.AX,05-AUG-2014,,End Of Day,,1.795,1.805,1.775,1.78,16050940,,,Verified
MGR.AX,06-AUG-2014,,End Of Day,,1.78,1.785,1.765,1.775,18908621,,,Verified
MGR.AX,07-AUG-2014,,End Of Day,,1.77,1.775,1.765,1.775,7861757,,,Verified
MGR.AX,08-AUG-2014,,End Of Day,,1.765,1.77,1.735,1.75,18155597,,,Verified
MGR.AX,09-AUG-2014,,End Of Day,No Trades,,,,,,,,Verified
MGR.AX,10-AUG-2014,,End Of Day,No Trades,,,,,,,,Verified
MGR.AX,11-AUG-2014,,End Of Day,,1.765,1.785,1.76,1.78,10213715,,,Verified
MGR.AX,12-AUG-2014,,End Of Day,,1.785,1.825,1.78,1.81,12031299,,,Verified
MGR.AX,13-AUG-2014,,End Of Day,,1.81,1.847,1.805,1.84,12514523,,,Verified
MGR.AX,14-AUG-2014,,End Of Day,,1.845,1.865,1.837,1.85,14127758,,,Verified
MGR.AX,15-AUG-2014,,End Of Day,,1.86,1.865,1.85,1.85,7531473,,,Verified
MGR.AX,16-AUG-2014,,End Of Day,No Trades,,,,,,,,Verified
MGR.AX,17-AUG-2014,,End Of Day,No Trades,,,,,,,,Verified
MGR.AX,18-AUG-2014,,End Of Day,,1.85,1.875,1.85,1.87,7654070,,,Verified
MGR.AX,19-AUG-2014,,End Of Day,,1.885,1.9,1.875,1.88,11425957,,,Verified
MGR.AX,20-AUG-2014,,End Of Day,,1.89,1.91,1.88,1.905,10197123,,,Verified
MGR.AX,21-AUG-2014,,End Of Day,,1.89,1.9,1.86,1.89,26394822,,,Verified
MGR.AX,22-AUG-2014,,End Of Day,,1.865,1.87,1.83,1.855,17414458,,,Verified
MGR.AX,23-AUG-2014,,End Of Day,No Trades,,,,,,,,Verified
MGR.AX,24-AUG-2014,,End Of Day,No Trades,,,,,,,,Verified
MGR.AX,25-AUG-2014,,End Of Day,,1.855,1.87,1.85,1.865,12343628,,,Verified
MGR.AX,26-AUG-2014,,End Of Day,,1.855,1.86,1.83,1.85,12225532,,,Verified
MGR.AX,27-AUG-2014,,End Of Day,,1.845,1.85,1.83,1.85,11999922,,,Verified
MGR.AX,28-AUG-2014,,End Of Day,,1.845,1.85,1.822,1.835,5992806,,,Verified
MGR.AX,29-AUG-2014,,End Of Day,,1.84,1.842,1.815,1.835,14485616,,,Verified
MGR.AX,30-AUG-2014,,End Of Day,No Trades,,,,,,,,Verified
MGR.AX,31-AUG-2014,,End Of Day,No Trades,,,,,,,,Verified
MGR.AX,01-SEP-2014,,End Of Day,,1.835,1.862,1.83,1.835,10754899,,,Verified
MGR.AX,02-SEP-2014,,End Of Day,,1.835,1.85,1.83,1.85,8575133,,,Verified
MGR.AX,03-SEP-2014,,End Of Day,,1.85,1.865,1.845,1.85,11908647,,,Verified
MGR.AX,04-SEP-2014,,End Of Day,,1.85,1.855,1.835,1.84,9230976,,,Verified
MGR.AX,05-SEP-2014,,End Of Day,,1.835,1.867,1.825,1.835,7341564,,,Verified
MGR.AX,06-SEP-2014,,End Of Day,No Trades,,,,,,,,Verified
MGR.AX,07-SEP-2014,,End Of Day,No Trades,,,,,,,,Verified
MGR.AX,08-SEP-2014,,End Of Day,,1.84,1.85,1.805,1.805,6129864,,,Verified
MGR.AX,09-SEP-2014,,End Of Day,,1.81,1.825,1.8,1.815,15268565,,,Verified
MGR.AX,10-SEP-2014,,End Of Day,,1.8,1.805,1.78,1.785,9204425,,,Verified
MGR.AX,11-SEP-2014,,End Of Day,,1.79,1.795,1.772,1.785,7788872,,,Verified
MGR.AX,12-SEP-2014,,End Of Day,,1.77,1.777,1.75,1.765,15701123,,,Verified
MGR.AX,13-SEP-2014,,End Of Day,No Trades,,,,,,,,Verified
MGR.AX,14-SEP-2014,,End Of Day,No Trades,,,,,,,,Verified
MGR.AX,15-SEP-2014,,End Of Day,,1.745,1.75,1.707,1.71,18937525,,,Verified
MGR.AX,16-SEP-2014,,End Of Day,,1.6975,1.705,1.69,1.7,22639959,,,Verified
MGR.AX,17-SEP-2014,,End Of Day,,1.71,1.717,1.685,1.695,13158679,,,Verified
MGR.AX,18-SEP-2014,,End Of Day,,1.73,1.75,1.707,1.75,27651535,,,Verified
MGR.AX,19-SEP-2014,,End Of Day,,1.76,1.77,1.725,1.725,15265460,,,Verified
MGR.AX,20-SEP-2014,,End Of Day,No Trades,,,,,,,,Verified
MGR.AX,21-SEP-2014,,End Of Day,No Trades,,,,,,,,Verified
MGR.AX,22-SEP-2014,,End Of Day,,1.72,1.755,1.71,1.745,16330207,,,Verified
MGR.AX,23-SEP-2014,,End Of Day,,1.75,1.755,1.732,1.75,8476263,,,Verified
MGR.AX,24-SEP-2014,,End Of Day,,1.74,1.742,1.72,1.72,11673212,,,Verified
MGR.AX,25-SEP-2014,,End Of Day,,1.73,1.735,1.7,1.715,13327196,,,Verified
MGR.AX,26-SEP-2014,,End Of Day,,1.685,1.71,1.685,1.695,13525212,,,Verified
MGR.AX,27-SEP-2014,,End Of Day,No Trades,,,,,,,,Verified
MGR.AX,28-SEP-2014,,End Of Day,No Trades,,,,,,,,Verified
MGR.AX,29-SEP-2014,,End Of Day,,1.69,1.72,1.68,1.705,9242716,,,Verified
MGR.AX,30-SEP-2014,,End Of Day,,1.7,1.725,1.685,1.72,13446069,,,Verified
MGR.AX,01-OCT-2014,,End Of Day,,1.7,1.725,1.685,1.72,12181812,,,Verified
MGR.AX,02-OCT-2014,,End Of Day,,1.7,1.707,1.687,1.7,15783880,,,Verified
MGR.AX,03-OCT-2014,,End Of Day,,1.695,1.7,1.68,1.685,10934187,,,Verified
MGR.AX,04-OCT-2014,,End Of Day,No Trades,,,,,,,,Verified
MGR.AX,05-OCT-2014,,End Of Day,No Trades,,,,,,,,Verified
MGR.AX,06-OCT-2014,,End Of Day,,1.67,1.677,1.645,1.665,20838530,,,Verified
MGR.AX,07-OCT-2014,,End Of Day,,1.67,1.68,1.635,1.675,17486734,,,Verified
MGR.AX,08-OCT-2014,,End Of Day,,1.645,1.695,1.645,1.695,13269431,,,Verified
MGR.AX,09-OCT-2014,,End Of Day,,1.725,1.755,1.717,1.735,20179065,,,Verified
MGR.AX,10-OCT-2014,,End Of Day,,1.735,1.74,1.697,1.7,22653258,,,Verified
MGR.AX,11-OCT-2014,,End Of Day,No Trades,,,,,,,,Verified
MGR.AX,12-OCT-2014,,End Of Day,No Trades,,,,,,,,Verified
MGR.AX,13-OCT-2014,,End Of Day,,1.69,1.707,1.67,1.68,13860374,,,Verified
MGR.AX,14-OCT-2014,,End Of Day,,1.65,1.68,1.65,1.665,18152948,,,Verified
MGR.AX,15-OCT-2014,,End Of Day,,1.675,1.695,1.675,1.69,10102802,,,Verified
MGR.AX,16-OCT-2014,,End Of Day,,1.665,1.69,1.66,1.68,23388769,,,Verified
MGR.AX,17-OCT-2014,,End Of Day,,1.685,1.717,1.682,1.705,15505862,,,Verified
MGR.AX,18-OCT-2014,,End Of Day,No Trades,,,,,,,,Verified
MGR.AX,19-OCT-2014,,End Of Day,No Trades,,,,,,,,Verified
MGR.AX,20-OCT-2014,,End Of Day,,1.735,1.735,1.695,1.705,10782426,,,Verified
MGR.AX,21-OCT-2014,,End Of Day,,1.715,1.74,1.71,1.74,17292779,,,Verified
MGR.AX,22-OCT-2014,,End Of Day,,1.75,1.75,1.725,1.735,7042585,,,Verified
MGR.AX,23-OCT-2014,,End Of Day,,1.74,1.755,1.73,1.74,9331350,,,Verified
MGR.AX,24-OCT-2014,,End Of Day,,1.74,1.767,1.727,1.73,20607306,,,Verified
MGR.AX,25-OCT-2014,,End Of Day,No Trades,,,,,,,,Verified
MGR.AX,26-OCT-2014,,End Of Day,No Trades,,,,,,,,Verified
MGR.AX,27-OCT-2014,,End Of Day,,1.75,1.757,1.74,1.755,14798662,,,Verified
MGR.AX,28-OCT-2014,,End Of Day,,1.755,1.77,1.745,1.76,16098743,,,Verified
MGR.AX,29-OCT-2014,,End Of Day,,1.77,1.78,1.76,1.77,13814504,,,Verified
MGR.AX,30-OCT-2014,,End Of Day,,1.77,1.775,1.745,1.75,11282042,,,Verified
MGR.AX,31-OCT-2014,,End Of Day,,1.76,1.795,1.755,1.795,16099248,,,Verified
MGR.AX,01-NOV-2014,,End Of Day,No Trades,,,,,,,,Verified
MGR.AX,02-NOV-2014,,End Of Day,No Trades,,,,,,,,Verified
MGR.AX,03-NOV-2014,,End Of Day,,1.795,1.81,1.78,1.8,15108009,,,Verified
MGR.AX,04-NOV-2014,,End Of Day,,1.78,1.8,1.77,1.775,11515367,,,Verified
MGR.AX,05-NOV-2014,,End Of Day,,1.76,1.787,1.745,1.78,27948056,,,Verified
MGR.AX,06-NOV-2014,,End Of Day,,1.77,1.785,1.76,1.765,16516367,,,Verified
MGR.AX,07-NOV-2014,,End Of Day,,1.76,1.775,1.755,1.77,15501412,,,Verified
MGR.AX,08-NOV-2014,,End Of Day,No Trades,,,,,,,,Verified
MGR.AX,09-NOV-2014,,End Of Day,No Trades,,,,,,,,Verified
MGR.AX,10-NOV-2014,,End Of Day,,1.77,1.78,1.765,1.78,9718110,,,Verified
MGR.AX,11-NOV-2014,,End Of Day,,1.79,1.812,1.775,1.795,22881240,,,Verified
MGR.AX,12-NOV-2014,,End Of Day,,1.815,1.815,1.785,1.79,7239487,,,Verified
MGR.AX,13-NOV-2014,,End Of Day,,1.805,1.805,1.77,1.775,10249261,,,Verified
MGR.AX,14-NOV-2014,,End Of Day,,1.775,1.78,1.765,1.77,8690634,,,Verified
MGR.AX,15-NOV-2014,,End Of Day,No Trades,,,,,,,,Verified
MGR.AX,16-NOV-2014,,End Of Day,No Trades,,,,,,,,Verified
MGR.AX,17-NOV-2014,,End Of Day,,1.765,1.775,1.76,1.76,12652815,,,Verified
MGR.AX,18-NOV-2014,,End Of Day,,1.765,1.77,1.745,1.76,10963411,,,Verified
MGR.AX,19-NOV-2014,,End Of Day,,1.76,1.77,1.75,1.755,14894875,,,Verified
MGR.AX,20-NOV-2014,,End Of Day,,1.75,1.772,1.745,1.745,13428218,,,Verified
MGR.AX,21-NOV-2014,,End Of Day,,1.74,1.75,1.712,1.73,17955807,,,Verified
MGR.AX,22-NOV-2014,,End Of Day,No Trades,,,,,,,,Verified
MGR.AX,23-NOV-2014,,End Of Day,No Trades,,,,,,,,Verified
MGR.AX,24-NOV-2014,,End Of Day,,1.74,1.74,1.725,1.735,17504012,,,Verified
MGR.AX,25-NOV-2014,,End Of Day,,1.74,1.745,1.735,1.74,21019007,,,Verified
MGR.AX,26-NOV-2014,,End Of Day,,1.745,1.765,1.74,1.76,16187822,,,Verified
MGR.AX,27-NOV-2014,,End Of Day,,1.76,1.78,1.755,1.77,18202048,,,Verified
MGR.AX,28-NOV-2014,,End Of Day,,1.77,1.78,1.755,1.755,11851159,,,Verified
MGR.AX,29-NOV-2014,,End Of Day,No Trades,,,,,,,,Verified
MGR.AX,30-NOV-2014,,End Of Day,No Trades,,,,,,,,Verified
MGR.AX,01-DEC-2014,,End Of Day,,1.76,1.77,1.74,1.76,9224679,,,Verified
MGR.AX,02-DEC-2014,,End Of Day,,1.765,1.8,1.752,1.78,19783616,,,Verified
MGR.AX,03-DEC-2014,,End Of Day,,1.78,1.805,1.775,1.8,13555429,,,Verified
MGR.AX,04-DEC-2014,,End Of Day,,1.82,1.835,1.785,1.825,24143686,,,Verified
MGR.AX,05-DEC-2014,,End Of Day,,1.83,1.845,1.805,1.805,14599192,,,Verified
MGR.AX,06-DEC-2014,,End Of Day,No Trades,,,,,,,,Verified
MGR.AX,07-DEC-2014,,End Of Day,No Trades,,,,,,,,Verified
MGR.AX,08-DEC-2014,,End Of Day,,1.825,1.835,1.805,1.825,9744924,,,Verified
MGR.AX,09-DEC-2014,,End Of Day,,1.82,1.825,1.795,1.8,12636006,,,Verified
MGR.AX,10-DEC-2014,,End Of Day,,1.795,1.835,1.785,1.83,12504641,,,Verified
MGR.AX,11-DEC-2014,,End Of Day,,1.81,1.845,1.79,1.83,20883556,,,Verified
MGR.AX,12-DEC-2014,,End Of Day,,1.835,1.855,1.82,1.825,14287482,,,Verified
MGR.AX,13-DEC-2014,,End Of Day,No Trades,,,,,,,,Verified
MGR.AX,14-DEC-2014,,End Of Day,No Trades,,,,,,,,Verified
MGR.AX,15-DEC-2014,,End Of Day,,1.81,1.815,1.77,1.8,10469588,,,Verified
MGR.AX,16-DEC-2014,,End Of Day,,1.795,1.81,1.79,1.795,8449844,,,Verified
MGR.AX,17-DEC-2014,,End Of Day,,1.795,1.81,1.79,1.795,10562317,,,Verified
MGR.AX,18-DEC-2014,,End Of Day,,1.795,1.815,1.795,1.81,17532642,,,Verified
MGR.AX,19-DEC-2014,,End Of Day,,1.82,1.85,1.81,1.83,16909680,,,Verified
MGR.AX,20-DEC-2014,,End Of Day,No Trades,,,,,,,,Verified
MGR.AX,21-DEC-2014,,End Of Day,No Trades,,,,,,,,Verified
MGR.AX,22-DEC-2014,,End Of Day,,1.85,1.88,1.84,1.875,7602105,,,Verified
MGR.AX,23-DEC-2014,,End Of Day,,1.88,1.895,1.845,1.85,7507415,,,Verified
MGR.AX,24-DEC-2014,,End Of Day,,1.855,1.882,1.835,1.875,5896900,,,Verified
MGR.AX,25-DEC-2014,,End Of Day,No Trades,,,,,,,,Verified
MGR.AX,26-DEC-2014,,End Of Day,No Trades,,,,,,,,Verified
MGR.AX,27-DEC-2014,,End Of Day,No Trades,,,,,,,,Verified
MGR.AX,28-DEC-2014,,End Of Day,No Trades,,,,,,,,Verified
MGR.AX,29-DEC-2014,,End Of Day,,1.85,1.885,1.82,1.86,9193310,,,Verified
MGR.AX,30-DEC-2014,,End Of Day,,1.875,1.88,1.81,1.82,12452924,,,Verified
MGR.AX,31-DEC-2014,,End Of Day,,1.815,1.825,1.775,1.78,5944308,,,Verified
MGR.AX,01-JAN-2015,,End Of Day,No Trades,,,,,,,,Verified
MGR.AX,02-JAN-2015,,End Of Day,,1.795,1.81,1.785,1.81,2984860,,,Verified
MGR.AX,03-JAN-2015,,End Of Day,No Trades,,,,,,,,Verified
MGR.AX,04-JAN-2015,,End Of Day,No Trades,,,,,,,,Verified
MGR.AX,05-JAN-2015,,End Of Day,,1.8,1.84,1.8,1.83,7073471,,,Verified
MGR.AX,06-JAN-2015,,End Of Day,,1.825,1.835,1.8,1.815,11218096,,,Verified
MGR.AX,07-JAN-2015,,End Of Day,,1.815,1.845,1.807,1.835,10146210,,,Verified
MGR.AX,08-JAN-2015,,End Of Day,,1.855,1.867,1.845,1.86,7618067,,,Verified
MGR.AX,09-JAN-2015,,End Of Day,,1.865,1.88,1.86,1.88,7143325,,,Verified
MGR.AX,10-JAN-2015,,End Of Day,No Trades,,,,,,,,Verified
MGR.AX,11-JAN-2015,,End Of Day,No Trades,,,,,,,,Verified
MGR.AX,12-JAN-2015,,End Of Day,,1.865,1.87,1.84,1.845,7795675,,,Verified
MGR.AX,13-JAN-2015,,End Of Day,,1.835,1.845,1.82,1.835,9331645,,,Verified
MGR.AX,14-JAN-2015,,End Of Day,,1.835,1.855,1.83,1.85,11861155,,,Verified
MGR.AX,15-JAN-2015,,End Of Day,,1.845,1.86,1.835,1.835,11168332,,,Verified
MGR.AX,16-JAN-2015,,End Of Day,,1.82,1.845,1.82,1.835,7430712,,,Verified
MGR.AX,17-JAN-2015,,End Of Day,No Trades,,,,,,,,Verified
MGR.AX,18-JAN-2015,,End Of Day,No Trades,,,,,,,,Verified
MGR.AX,19-JAN-2015,,End Of Day,,1.845,1.85,1.815,1.825,17445118,,,Verified
MGR.AX,20-JAN-2015,,End Of Day,,1.82,1.84,1.82,1.83,8266510,,,Verified
MGR.AX,21-JAN-2015,,End Of Day,,1.84,1.87,1.835,1.865,10501550,,,Verified
MGR.AX,22-JAN-2015,,End Of Day,,1.875,1.877,1.85,1.865,7709239,,,Verified
MGR.AX,23-JAN-2015,,End Of Day,,1.88,1.915,1.875,1.915,7360438,,,Verified
MGR.AX,24-JAN-2015,,End Of Day,No Trades,,,,,,,,Verified
MGR.AX,25-JAN-2015,,End Of Day,No Trades,,,,,,,,Verified
MGR.AX,26-JAN-2015,,End Of Day,No Trades,,,,,,,,Verified
MGR.AX,27-JAN-2015,,End Of Day,,1.925,1.945,1.905,1.94,10026832,,,Verified
MGR.AX,28-JAN-2015,,End Of Day,,1.935,1.947,1.93,1.94,11472951,,,Verified
MGR.AX,29-JAN-2015,,End Of Day,,1.96,1.96,1.925,1.935,7805307,,,Verified
MGR.AX,30-JAN-2015,,End Of Day,,1.94,1.955,1.93,1.93,13118228,,,Verified
MGR.AX,31-JAN-2015,,End Of Day,No Trades,,,,,,,,Verified
MGR.AX,01-FEB-2015,,End Of Day,No Trades,,,,,,,,Verified
MGR.AX,02-FEB-2015,,End Of Day,,1.94,1.975,1.935,1.955,11504618,,,Verified
MGR.AX,03-FEB-2015,,End Of Day,,1.955,2.05,1.93,2.04,22152411,,,Verified
MGR.AX,04-FEB-2015,,End Of Day,,2.07,2.1,1.992,2.03,27897361,,,Verified
MGR.AX,05-FEB-2015,,End Of Day,,2.05,2.08,2.04,2.07,11531284,,,Verified
MGR.AX,06-FEB-2015,,End Of Day,,2.11,2.12,2.065,2.08,17250842,,,Verified
MGR.AX,07-FEB-2015,,End Of Day,No Trades,,,,,,,,Verified
MGR.AX,08-FEB-2015,,End Of Day,No Trades,,,,,,,,Verified
MGR.AX,09-FEB-2015,,End Of Day,,2.05,2.06,2.02,2.06,9774793,,,Verified
MGR.AX,10-FEB-2015,,End Of Day,,2.07,2.105,2.02,2.09,17235876,,,Verified
MGR.AX,11-FEB-2015,,End Of Day,,2.12,2.15,2.09,2.11,13075346,,,Verified
MGR.AX,12-FEB-2015,,End Of Day,,2.18,2.19,2.08,2.11,18695298,,,Verified
MGR.AX,13-FEB-2015,,End Of Day,,2.15,2.16,2.11,2.16,11022760,,,Verified
MGR.AX,14-FEB-2015,,End Of Day,No Trades,,,,,,,,Verified
MGR.AX,15-FEB-2015,,End Of Day,No Trades,,,,,,,,Verified
MGR.AX,16-FEB-2015,,End Of Day,,2.12,2.14,2.08,2.09,16547676,,,Verified
MGR.AX,17-FEB-2015,,End Of Day,,2.09,2.11,2.05,2.07,10896281,,,Verified
MGR.AX,18-FEB-2015,,End Of Day,,2.08,2.09,2.06,2.07,16395324,,,Verified
MGR.AX,19-FEB-2015,,End Of Day,,2.08,2.09,2.06,2.08,20642719,,,Verified
MGR.AX,20-FEB-2015,,End Of Day,,2.08,2.09,2.04,2.06,6613571,,,Verified
MGR.AX,21-FEB-2015,,End Of Day,No Trades,,,,,,,,Verified
MGR.AX,22-FEB-2015,,End Of Day,No Trades,,,,,,,,Verified
MGR.AX,23-FEB-2015,,End Of Day,,2.06,2.09,2.04,2.07,10161012,,,Verified
MGR.AX,24-FEB-2015,,End Of Day,,2.09,2.1,2.04,2.05,10975818,,,Verified
MGR.AX,25-FEB-2015,,End Of Day,,2.06,2.11,2.05,2.1,13332045,,,Verified
MGR.AX,26-FEB-2015,,End Of Day,,2.11,2.12,2.05,2.06,15101572,,,Verified
MGR.AX,27-FEB-2015,,End Of Day,,2.07,2.08,2.04,2.08,8740370,,,Verified
MGR.AX,28-FEB-2015,,End Of Day,No Trades,,,,,,,,Verified
MGR.AX,01-MAR-2015,,End Of Day,No Trades,,,,,,,,Verified
MGR.AX,02-MAR-2015,,End Of Day,,2.06,2.13,2.06,2.11,10624659,,,Verified
MGR.AX,03-MAR-2015,,End Of Day,,2.17,2.18,2.11,2.14,18027637,,,Verified
MGR.AX,04-MAR-2015,,End Of Day,,2.14,2.14,2.1,2.12,12533608,,,Verified
MGR.AX,05-MAR-2015,,End Of Day,,2.12,2.12,2.05,2.09,29643695,,,Verified
MGR.AX,06-MAR-2015,,End Of Day,,2.07,2.11,2.06,2.07,24032204,,,Verified
MGR.AX,07-MAR-2015,,End Of Day,No Trades,,,,,,,,Verified
MGR.AX,08-MAR-2015,,End Of Day,No Trades,,,,,,,,Verified
MGR.AX,09-MAR-2015,,End Of Day,,2.05,2.05,1.985,2,16335257,,,Verified
MGR.AX,10-MAR-2015,,End Of Day,,2,2.02,1.97,1.99,13643336,,,Verified
MGR.AX,11-MAR-2015,,End Of Day,,1.985,2.01,1.975,2,14922821,,,Verified
MGR.AX,12-MAR-2015,,End Of Day,,2,2.02,2,2.01,8827932,,,Verified
MGR.AX,13-MAR-2015,,End Of Day,,2.02,2.03,1.997,2,13553878,,,Verified
MGR.AX,14-MAR-2015,,End Of Day,No Trades,,,,,,,,Verified
MGR.AX,15-MAR-2015,,End Of Day,No Trades,,,,,,,,Verified
MGR.AX,16-MAR-2015,,End Of Day,,2,2.01,1.985,1.995,6696253,,,Verified
MGR.AX,17-MAR-2015,,End Of Day,,2.01,2.03,2,2,10492098,,,Verified
MGR.AX,18-MAR-2015,,End Of Day,,2,2.01,1.955,1.975,14370574,,,Verified
MGR.AX,19-MAR-2015,,End Of Day,,2,2.04,2,2.03,34133220,,,Verified
MGR.AX,20-MAR-2015,,End Of Day,,2.01,2.04,2,2.04,22639308,,,Verified
MGR.AX,21-MAR-2015,,End Of Day,No Trades,,,,,,,,Verified
MGR.AX,22-MAR-2015,,End Of Day,No Trades,,,,,,,,Verified
MGR.AX,23-MAR-2015,,End Of Day,,2.04,2.06,2.01,2.03,6943678,,,Verified
MGR.AX,24-MAR-2015,,End Of Day,,2.02,2.04,2.02,2.03,8560762,,,Verified
MGR.AX,25-MAR-2015,,End Of Day,,2.05,2.06,2.02,2.04,16565007,,,Verified
MGR.AX,26-MAR-2015,,End Of Day,,2,2.04,1.99,2.02,15532593,,,Verified
MGR.AX,27-MAR-2015,,End Of Day,,2.02,2.03,2.01,2.03,7180246,,,Verified
MGR.AX,28-MAR-2015,,End Of Day,No Trades,,,,,,,,Verified
MGR.AX,29-MAR-2015,,End Of Day,No Trades,,,,,,,,Verified
MGR.AX,30-MAR-2015,,End Of Day,,2.03,2.05,2,2.03,13247084,,,Verified
MGR.AX,31-MAR-2015,,End Of Day,,2.05,2.08,2.01,2.01,20186248,,,Verified
MGR.AX,01-APR-2015,,End Of Day,,2,2.04,1.99,1.995,10279168,,,Verified
MGR.AX,02-APR-2015,,End Of Day,,2.01,2.03,2,2.02,7831337,,,Verified
MGR.AX,03-APR-2015,,End Of Day,No Trades,,,,,,,,Verified
MGR.AX,04-APR-2015,,End Of Day,No Trades,,,,,,,,Verified
MGR.AX,05-APR-2015,,End Of Day,No Trades,,,,,,,,Verified
MGR.AX,06-APR-2015,,End Of Day,No Trades,,,,,,,,Verified
MGR.AX,07-APR-2015,,End Of Day,,2.04,2.05,1.995,2,11359189,,,Verified
MGR.AX,08-APR-2015,,End Of Day,,2.01,2.03,2,2.03,5555597,,,Verified
MGR.AX,09-APR-2015,,End Of Day,,2.02,2.03,2.01,2.02,5324690,,,Verified
MGR.AX,10-APR-2015,,End Of Day,,2.03,2.05,2.02,2.04,12295307,,,Verified
MGR.AX,11-APR-2015,,End Of Day,No Trades,,,,,,,,Verified
MGR.AX,12-APR-2015,,End Of Day,No Trades,,,,,,,,Verified
MGR.AX,13-APR-2015,,End Of Day,,2.05,2.06,2.02,2.02,9128401,,,Verified
MGR.AX,14-APR-2015,,End Of Day,,2.02,2.03,2.01,2.03,9895284,,,Verified
MGR.AX,15-APR-2015,,End Of Day,,2.03,2.04,2,2.02,15345161,,,Verified
MGR.AX,16-APR-2015,,End Of Day,,2.02,2.06,2.01,2.04,10201893,,,Verified
MGR.AX,17-APR-2015,,End Of Day,,2.05,2.06,1.97,1.995,10349136,,,Verified
MGR.AX,18-APR-2015,,End Of Day,No Trades,,,,,,,,Verified
MGR.AX,19-APR-2015,,End Of Day,No Trades,,,,,,,,Verified
MGR.AX,20-APR-2015,,End Of Day,,1.975,2,1.95,1.99,6603694,,,Verified
MGR.AX,21-APR-2015,,End Of Day,,2.03,2.03,1.972,1.985,10951856,,,Verified
MGR.AX,22-APR-2015,,End Of Day,,1.98,2.02,1.972,2,9743483,,,Verified
MGR.AX,23-APR-2015,,End Of Day,,2.01,2.03,2,2.02,9591118,,,Verified
MGR.AX,24-APR-2015,,End Of Day,,2.06,2.1,2.04,2.08,11570727,,,Verified
MGR.AX,25-APR-2015,,End Of Day,No Trades,,,,,,,,Verified
MGR.AX,26-APR-2015,,End Of Day,No Trades,,,,,,,,Verified
MGR.AX,27-APR-2015,,End Of Day,,2.08,2.12,2.07,2.07,8511559,,,Verified
MGR.AX,28-APR-2015,,End Of Day,,2.07,2.09,2.06,2.07,8438811,,,Verified
MGR.AX,29-APR-2015,,End Of Day,,2.06,2.08,2.03,2.04,8613457,,,Verified
MGR.AX,30-APR-2015,,End Of Day,,2.02,2.04,1.99,2.01,11263219,,,Verified
MGR.AX,01-MAY-2015,,End Of Day,,2.02,2.055,2.01,2.03,9782939,,,Verified
MGR.AX,02-MAY-2015,,End Of Day,No Trades,,,,,,,,Verified
MGR.AX,03-MAY-2015,,End Of Day,No Trades,,,,,,,,Verified
MGR.AX,04-MAY-2015,,End Of Day,,2.05,2.06,2.02,2.04,4338929,,,Verified
MGR.AX,05-MAY-2015,,End Of Day,,2.07,2.08,2,2.03,10408645,,,Verified
MGR.AX,06-MAY-2015,,End Of Day,,2.01,2.02,1.96,1.97,11169808,,,Verified
MGR.AX,07-MAY-2015,,End Of Day,,1.945,1.965,1.93,1.94,10658632,,,Verified
MGR.AX,08-MAY-2015,,End Of Day,,1.96,1.98,1.945,1.95,8915440,,,Verified
MGR.AX,09-MAY-2015,,End Of Day,No Trades,,,,,,,,Verified
MGR.AX,10-MAY-2015,,End Of Day,No Trades,,,,,,,,Verified
MGR.AX,11-MAY-2015,,End Of Day,,1.965,1.982,1.945,1.945,10690203,,,Verified
MGR.AX,12-MAY-2015,,End Of Day,,1.94,1.98,1.93,1.98,11200000,,,Verified
MGR.AX,13-MAY-2015,,End Of Day,,1.965,1.992,1.94,1.945,13926574,,,Verified
MGR.AX,14-MAY-2015,,End Of Day,,1.94,1.96,1.93,1.96,28109558,,,Verified
MGR.AX,15-MAY-2015,,End Of Day,,1.995,1.995,1.965,1.985,8922121,,,Verified
MGR.AX,16-MAY-2015,,End Of Day,No Trades,,,,,,,,Verified
MGR.AX,17-MAY-2015,,End Of Day,No Trades,,,,,,,,Verified
MGR.AX,18-MAY-2015,,End Of Day,,1.985,1.995,1.965,1.965,15775805,,,Verified
MGR.AX,19-MAY-2015,,End Of Day,,1.96,1.97,1.935,1.945,10079568,,,Verified
MGR.AX,20-MAY-2015,,End Of Day,,1.95,1.98,1.95,1.97,10451113,,,Verified
MGR.AX,21-MAY-2015,,End Of Day,,1.965,1.99,1.96,1.965,9876808,,,Verified
MGR.AX,22-MAY-2015,,End Of Day,,1.99,1.99,1.965,1.975,6710572,,,Verified
MGR.AX,23-MAY-2015,,End Of Day,No Trades,,,,,,,,Verified
MGR.AX,24-MAY-2015,,End Of Day,No Trades,,,,,,,,Verified
MGR.AX,25-MAY-2015,,End Of Day,,1.985,1.987,1.96,1.97,9833065,,,Verified
MGR.AX,26-MAY-2015,,End Of Day,,1.96,1.99,1.96,1.99,9475146,,,Verified
MGR.AX,27-MAY-2015,,End Of Day,,1.99,2.01,1.975,2.01,13687998,,,Verified
MGR.AX,28-MAY-2015,,End Of Day,,2.01,2.02,1.975,2.01,11631619,,,Verified
MGR.AX,29-MAY-2015,,End Of Day,,2,2.04,1.997,2.01,19989724,,,Verified
MGR.AX,30-MAY-2015,,End Of Day,No Trades,,,,,,,,Verified
MGR.AX,31-MAY-2015,,End Of Day,No Trades,,,,,,,,Verified
MGR.AX,01-JUN-2015,,End Of Day,,2.01,2.02,1.975,2.01,9272287,,,Verified
MGR.AX,02-JUN-2015,,End Of Day,,2.01,2.02,1.97,1.975,12970551,,,Verified
MGR.AX,03-JUN-2015,,End Of Day,,1.96,1.97,1.94,1.96,14478953,,,Verified
MGR.AX,04-JUN-2015,,End Of Day,,1.95,1.96,1.915,1.93,16734838,,,Verified
MGR.AX,05-JUN-2015,,End Of Day,,1.915,1.93,1.885,1.895,15993474,,,Verified
MGR.AX,06-JUN-2015,,End Of Day,No Trades,,,,,,,,Verified
MGR.AX,07-JUN-2015,,End Of Day,No Trades,,,,,,,,Verified
MGR.AX,08-JUN-2015,,End Of Day,No Trades,,,,,,,,Verified
MGR.AX,09-JUN-2015,,End Of Day,,1.89,1.912,1.87,1.89,15962135,,,Verified
MGR.AX,10-JUN-2015,,End Of Day,,1.885,1.915,1.855,1.915,16709468,,,Verified
MGR.AX,11-JUN-2015,,End Of Day,,1.92,1.925,1.9,1.91,8690735,,,Verified
MGR.AX,12-JUN-2015,,End Of Day,,1.9,1.922,1.87,1.91,9389210,,,Verified
MGR.AX,13-JUN-2015,,End Of Day,No Trades,,,,,,,,Verified
MGR.AX,14-JUN-2015,,End Of Day,No Trades,,,,,,,,Verified
MGR.AX,15-JUN-2015,,End Of Day,,1.89,1.92,1.885,1.92,10041525,,,Verified
MGR.AX,16-JUN-2015,,End Of Day,,1.91,1.925,1.882,1.885,12055811,,,Verified
MGR.AX,17-JUN-2015,,End Of Day,,1.92,1.92,1.875,1.905,17384806,,,Verified
MGR.AX,18-JUN-2015,,End Of Day,,1.88,1.89,1.83,1.845,37349967,,,Verified
MGR.AX,19-JUN-2015,,End Of Day,,1.86,1.91,1.86,1.895,35047198,,,Verified
MGR.AX,20-JUN-2015,,End Of Day,No Trades,,,,,,,,Verified
MGR.AX,21-JUN-2015,,End Of Day,No Trades,,,,,,,,Verified
MGR.AX,22-JUN-2015,,End Of Day,,1.9,1.94,1.9,1.925,31625948,,,Verified
MGR.AX,23-JUN-2015,,End Of Day,,1.95,1.96,1.925,1.96,17547315,,,Verified
MGR.AX,24-JUN-2015,,End Of Day,,1.96,1.965,1.925,1.96,16888324,,,Verified
MGR.AX,25-JUN-2015,,End Of Day,,1.945,1.945,1.915,1.935,13773744,,,Verified
MGR.AX,26-JUN-2015,,End Of Day,,1.86,1.87,1.825,1.845,27942317,,,Verified
MGR.AX,27-JUN-2015,,End Of Day,No Trades,,,,,,,,Verified
MGR.AX,28-JUN-2015,,End Of Day,No Trades,,,,,,,,Verified
MGR.AX,29-JUN-2015,,End Of Day,,1.8,1.855,1.79,1.82,17862522,,,Verified
MGR.AX,30-JUN-2015,,End Of Day,,1.805,1.86,1.8,1.85,27413600,,,Verified
MGR.AX,01-JUL-2015,,End Of Day,,1.86,1.865,1.84,1.855,15334426,,,Verified
MGR.AX,02-JUL-2015,,End Of Day,,1.87,1.905,1.865,1.885,12712224,,,Verified
MGR.AX,03-JUL-2015,,End Of Day,,1.87,1.875,1.837,1.87,9620032,,,Verified
MGR.AX,04-JUL-2015,,End Of Day,No Trades,,,,,,,,Verified
MGR.AX,05-JUL-2015,,End Of Day,No Trades,,,,,,,,Verified
MGR.AX,06-JUL-2015,,End Of Day,,1.855,1.855,1.83,1.845,6955961,,,Verified
MGR.AX,07-JUL-2015,,End Of Day,,1.85,1.905,1.845,1.88,13239830,,,Verified
MGR.AX,08-JUL-2015,,End Of Day,,1.865,1.91,1.865,1.88,13617018,,,Verified
MGR.AX,09-JUL-2015,,End Of Day,,1.87,1.885,1.86,1.875,11674919,,,Verified
MGR.AX,10-JUL-2015,,End Of Day,,1.9,1.91,1.865,1.875,10263951,,,Verified
MGR.AX,11-JUL-2015,,End Of Day,No Trades,,,,,,,,Verified
MGR.AX,12-JUL-2015,,End Of Day,No Trades,,,,,,,,Verified
MGR.AX,13-JUL-2015,,End Of Day,,1.865,1.895,1.865,1.87,13577344,,,Verified
MGR.AX,14-JUL-2015,,End Of Day,,1.905,1.91,1.885,1.89,14390735,,,Verified
MGR.AX,15-JUL-2015,,End Of Day,,1.89,1.93,1.885,1.9,13731971,,,Verified
MGR.AX,16-JUL-2015,,End Of Day,,1.94,1.95,1.92,1.945,9903660,,,Verified
MGR.AX,17-JUL-2015,,End Of Day,,1.95,1.96,1.92,1.925,5577726,,,Verified
MGR.AX,18-JUL-2015,,End Of Day,No Trades,,,,,,,,Verified
MGR.AX,19-JUL-2015,,End Of Day,No Trades,,,,,,,,Verified
MGR.AX,20-JUL-2015,,End Of Day,,1.93,1.935,1.91,1.92,7637165,,,Verified
MGR.AX,21-JUL-2015,,End Of Day,,1.925,1.925,1.895,1.9,12949904,,,Verified
MGR.AX,22-JUL-2015,,End Of Day,,1.89,1.89,1.855,1.865,19147397,,,Verified
MGR.AX,23-JUL-2015,,End Of Day,,1.865,1.88,1.85,1.855,12937448,,,Verified
MGR.AX,24-JUL-2015,,End Of Day,,1.86,1.88,1.827,1.845,10285945,,,Verified
MGR.AX,25-JUL-2015,,End Of Day,No Trades,,,,,,,,Verified
MGR.AX,26-JUL-2015,,End Of Day,No Trades,,,,,,,,Verified
MGR.AX,27-JUL-2015,,End Of Day,,1.835,1.88,1.825,1.875,9552282,,,Verified
MGR.AX,28-JUL-2015,,End Of Day,,1.85,1.88,1.842,1.875,17297783,,,Verified
MGR.AX,29-JUL-2015,,End Of Day,,1.89,1.9,1.875,1.885,11895321,,,Verified
MGR.AX,30-JUL-2015,,End Of Day,,1.88,1.895,1.85,1.88,12750468,,,Verified
MGR.AX,31-JUL-2015,,End Of Day,,1.885,1.9,1.88,1.89,12739358,,,Verified
MGR.AX,01-AUG-2015,,End Of Day,No Trades,,,,,,,,Verified
MGR.AX,02-AUG-2015,,End Of Day,No Trades,,,,,,,,Verified
MGR.AX,03-AUG-2015,,End Of Day,,1.9,1.92,1.885,1.9,5850674,,,Verified
MGR.AX,04-AUG-2015,,End Of Day,,1.9,1.92,1.892,1.905,7279612,,,Verified
MGR.AX,05-AUG-2015,,End Of Day,,1.91,1.915,1.88,1.91,13950571,,,Verified
MGR.AX,06-AUG-2015,,End Of Day,,1.9,1.905,1.865,1.875,8628402,,,Verified
MGR.AX,07-AUG-2015,,End Of Day,,1.85,1.86,1.84,1.845,14685966,,,Verified
MGR.AX,08-AUG-2015,,End Of Day,No Trades,,,,,,,,Verified
MGR.AX,09-AUG-2015,,End Of Day,No Trades,,,,,,,,Verified
MGR.AX,10-AUG-2015,,End Of Day,,1.84,1.852,1.83,1.845,12506407,,,Verified
MGR.AX,11-AUG-2015,,End Of Day,,1.85,1.857,1.815,1.825,9636217,,,Verified
MGR.AX,12-AUG-2015,,End Of Day,,1.83,1.857,1.805,1.835,15759920,,,Verified
MGR.AX,13-AUG-2015,,End Of Day,,1.83,1.84,1.82,1.83,12215612,,,Verified
MGR.AX,14-AUG-2015,,End Of Day,,1.83,1.895,1.83,1.855,15229624,,,Verified
MGR.AX,15-AUG-2015,,End Of Day,No Trades,,,,,,,,Verified
MGR.AX,16-AUG-2015,,End Of Day,No Trades,,,,,,,,Verified
MGR.AX,17-AUG-2015,,End Of Day,,1.855,1.88,1.845,1.845,7831952,,,Verified
MGR.AX,18-AUG-2015,,End Of Day,,1.85,1.87,1.82,1.82,9560823,,,Verified
MGR.AX,19-AUG-2015,,End Of Day,,1.825,1.867,1.825,1.855,8272075,,,Verified
MGR.AX,20-AUG-2015,,End Of Day,,1.85,1.855,1.82,1.83,12461584,,,Verified
MGR.AX,21-AUG-2015,,End Of Day,,1.81,1.817,1.775,1.8,17874773,,,Verified
MGR.AX,22-AUG-2015,,End Of Day,No Trades,,,,,,,,Verified
MGR.AX,23-AUG-2015,,End Of Day,No Trades,,,,,,,,Verified
MGR.AX,24-AUG-2015,,End Of Day,,1.76,1.78,1.735,1.74,12715305,,,Verified
MGR.AX,25-AUG-2015,,End Of Day,,1.7,1.8,1.7,1.79,24891102,,,Verified
MGR.AX,26-AUG-2015,,End Of Day,,1.74,1.782,1.73,1.76,25425826,,,Verified
MGR.AX,27-AUG-2015,,End Of Day,,1.77,1.79,1.765,1.775,10599305,,,Verified
MGR.AX,28-AUG-2015,,End Of Day,,1.81,1.815,1.735,1.765,18349386,,,Verified
MGR.AX,29-AUG-2015,,End Of Day,No Trades,,,,,,,,Verified
MGR.AX,30-AUG-2015,,End Of Day,No Trades,,,,,,,,Verified
MGR.AX,31-AUG-2015,,End Of Day,,1.745,1.76,1.727,1.75,12053466,,,Verified
MGR.AX,01-SEP-2015,,End Of Day,,1.73,1.745,1.715,1.725,14750158,,,Verified
MGR.AX,02-SEP-2015,,End Of Day,,1.71,1.74,1.71,1.735,13255026,,,Verified
MGR.AX,03-SEP-2015,,End Of Day,,1.775,1.775,1.72,1.725,14180095,,,Verified
MGR.AX,04-SEP-2015,,End Of Day,,1.725,1.735,1.705,1.71,32477218,,,Verified
MGR.AX,05-SEP-2015,,End Of Day,No Trades,,,,,,,,Verified
MGR.AX,06-SEP-2015,,End Of Day,No Trades,,,,,,,,Verified
MGR.AX,07-SEP-2015,,End Of Day,,1.725,1.75,1.71,1.73,12353386,,,Verified
MGR.AX,08-SEP-2015,,End Of Day,,1.76,1.762,1.737,1.76,7270657,,,Verified
MGR.AX,09-SEP-2015,,End Of Day,,1.78,1.785,1.76,1.78,14957249,,,Verified
MGR.AX,10-SEP-2015,,End Of Day,,1.73,1.75,1.725,1.73,8996917,,,Verified
MGR.AX,11-SEP-2015,,End Of Day,,1.73,1.745,1.72,1.725,6874533,,,Verified
MGR.AX,12-SEP-2015,,End Of Day,No Trades,,,,,,,,Verified
MGR.AX,13-SEP-2015,,End Of Day,No Trades,,,,,,,,Verified
MGR.AX,14-SEP-2015,,End Of Day,,1.745,1.75,1.715,1.72,11269646,,,Verified
MGR.AX,15-SEP-2015,,End Of Day,,1.715,1.73,1.66,1.67,18984742,,,Verified
MGR.AX,16-SEP-2015,,End Of Day,,1.695,1.7,1.665,1.675,17112895,,,Verified
MGR.AX,17-SEP-2015,,End Of Day,,1.7,1.735,1.685,1.695,16336323,,,Verified
MGR.AX,18-SEP-2015,,End Of Day,,1.685,1.712,1.675,1.705,17636830,,,Verified
MGR.AX,19-SEP-2015,,End Of Day,No Trades,,,,,,,,Verified
MGR.AX,20-SEP-2015,,End Of Day,No Trades,,,,,,,,Verified
MGR.AX,21-SEP-2015,,End Of Day,,1.66,1.685,1.66,1.68,7775999,,,Verified
MGR.AX,22-SEP-2015,,End Of Day,,1.69,1.705,1.68,1.705,8111291,,,Verified
MGR.AX,23-SEP-2015,,End Of Day,,1.7,1.705,1.665,1.67,11126614,,,Verified
MGR.AX,24-SEP-2015,,End Of Day,,1.685,1.73,1.68,1.73,17433265,,,Verified
MGR.AX,25-SEP-2015,,End Of Day,,1.745,1.765,1.72,1.745,14211855,,,Verified
MGR.AX,26-SEP-2015,,End Of Day,No Trades,,,,,,,,Verified
MGR.AX,27-SEP-2015,,End Of Day,No Trades,,,,,,,,Verified
MGR.AX,28-SEP-2015,,End Of Day,,1.735,1.78,1.73,1.775,9333074,,,Verified
MGR.AX,29-SEP-2015,,End Of Day,,1.735,1.74,1.695,1.695,13922616,,,Verified
MGR.AX,30-SEP-2015,,End Of Day,,1.71,1.74,1.69,1.72,23019173,,,Verified
MGR.AX,01-OCT-2015,,End Of Day,,1.735,1.77,1.725,1.76,11696833,,,Verified
MGR.AX,02-OCT-2015,,End Of Day,,1.74,1.76,1.725,1.73,8576547,,,Verified
MGR.AX,03-OCT-2015,,End Of Day,No Trades,,,,,,,,Verified
MGR.AX,04-OCT-2015,,End Of Day,No Trades,,,,,,,,Verified
MGR.AX,05-OCT-2015,,End Of Day,,1.745,1.775,1.74,1.77,5650659,,,Verified
MGR.AX,06-OCT-2015,,End Of Day,,1.785,1.785,1.745,1.755,8951642,,,Verified
MGR.AX,07-OCT-2015,,End Of Day,,1.76,1.765,1.735,1.745,5931805,,,Verified
MGR.AX,08-OCT-2015,,End Of Day,,1.755,1.76,1.715,1.72,10654947,,,Verified
MGR.AX,09-OCT-2015,,End Of Day,,1.73,1.745,1.725,1.73,8465209,,,Verified
MGR.AX,10-OCT-2015,,End Of Day,No Trades,,,,,,,,Verified
MGR.AX,11-OCT-2015,,End Of Day,No Trades,,,,,,,,Verified
MGR.AX,12-OCT-2015,,End Of Day,,1.72,1.735,1.715,1.725,6418028,,,Verified
MGR.AX,13-OCT-2015,,End Of Day,,1.73,1.73,1.685,1.69,13600084,,,Verified
MGR.AX,14-OCT-2015,,End Of Day,,1.67,1.69,1.665,1.675,12840522,,,Verified
MGR.AX,15-OCT-2015,,End Of Day,,1.685,1.705,1.675,1.695,14927149,,,Verified
MGR.AX,16-OCT-2015,,End Of Day,,1.715,1.75,1.7,1.75,11789656,,,Verified
MGR.AX,17-OCT-2015,,End Of Day,No Trades,,,,,,,,Verified
MGR.AX,18-OCT-2015,,End Of Day,No Trades,,,,,,,,Verified
MGR.AX,19-OCT-2015,,End Of Day,,1.75,1.755,1.72,1.75,12371634,,,Verified
MGR.AX,20-OCT-2015,,End Of Day,,1.75,1.77,1.735,1.745,8717691,,,Verified
MGR.AX,21-OCT-2015,,End Of Day,,1.74,1.76,1.73,1.745,9809151,,,Verified
MGR.AX,22-OCT-2015,,End Of Day,,1.745,1.78,1.74,1.77,10465217,,,Verified
MGR.AX,23-OCT-2015,,End Of Day,,1.795,1.81,1.785,1.79,9871561,,,Verified
MGR.AX,24-OCT-2015,,End Of Day,No Trades,,,,,,,,Verified
MGR.AX,25-OCT-2015,,End Of Day,No Trades,,,,,,,,Verified
MGR.AX,26-OCT-2015,,End Of Day,,1.8,1.815,1.79,1.805,5579016,,,Verified
MGR.AX,27-OCT-2015,,End Of Day,,1.81,1.815,1.8,1.81,7332960,,,Verified
MGR.AX,28-OCT-2015,,End Of Day,,1.815,1.825,1.805,1.81,7239209,,,Verified
MGR.AX,29-OCT-2015,,End Of Day,,1.82,1.83,1.805,1.81,6386165,,,Verified
MGR.AX,30-OCT-2015,,End Of Day,,1.8,1.815,1.795,1.805,10749941,,,Verified
MGR.AX,31-OCT-2015,,End Of Day,No Trades,,,,,,,,Verified
MGR.AX,01-NOV-2015,,End Of Day,No Trades,,,,,,,,Verified
MGR.AX,02-NOV-2015,,End Of Day,,1.8,1.81,1.78,1.795,12154072,,,Verified
MGR.AX,03-NOV-2015,,End Of Day,,1.8,1.83,1.79,1.81,8699215,,,Verified
MGR.AX,04-NOV-2015,,End Of Day,,1.83,1.845,1.8,1.805,11879669,,,Verified
MGR.AX,05-NOV-2015,,End Of Day,,1.8,1.805,1.775,1.805,13593978,,,Verified
MGR.AX,06-NOV-2015,,End Of Day,,1.8,1.81,1.785,1.805,10573616,,,Verified
MGR.AX,07-NOV-2015,,End Of Day,No Trades,,,,,,,,Verified
MGR.AX,08-NOV-2015,,End Of Day,No Trades,,,,,,,,Verified
MGR.AX,09-NOV-2015,,End Of Day,,1.79,1.795,1.755,1.78,12262617,,,Verified
MGR.AX,10-NOV-2015,,End Of Day,,1.755,1.76,1.72,1.745,20838684,,,Verified
MGR.AX,11-NOV-2015,,End Of Day,,1.745,1.755,1.725,1.745,15998559,,,Verified
MGR.AX,12-NOV-2015,,End Of Day,,1.735,1.772,1.72,1.765,21041191,,,Verified
MGR.AX,13-NOV-2015,,End Of Day,,1.735,1.805,1.735,1.79,28959718,,,Verified
MGR.AX,14-NOV-2015,,End Of Day,No Trades,,,,,,,,Verified
MGR.AX,15-NOV-2015,,End Of Day,No Trades,,,,,,,,Verified
MGR.AX,16-NOV-2015,,End Of Day,,1.77,1.795,1.767,1.785,32880879,,,Verified
MGR.AX,17-NOV-2015,,End Of Day,,1.81,1.815,1.78,1.815,31675080,,,Verified
MGR.AX,18-NOV-2015,,End Of Day,,1.815,1.845,1.805,1.84,15960116,,,Verified
MGR.AX,19-NOV-2015,,End Of Day,,1.86,1.887,1.845,1.885,20266915,,,Verified
MGR.AX,20-NOV-2015,,End Of Day,,1.88,1.895,1.87,1.88,24840641,,,Verified
MGR.AX,21-NOV-2015,,End Of Day,No Trades,,,,,,,,Verified
MGR.AX,22-NOV-2015,,End Of Day,No Trades,,,,,,,,Verified
MGR.AX,23-NOV-2015,,End Of Day,,1.885,1.902,1.885,1.89,7971170,,,Verified
MGR.AX,24-NOV-2015,,End Of Day,,1.91,1.935,1.91,1.93,19974724,,,Verified
MGR.AX,25-NOV-2015,,End Of Day,,1.92,1.925,1.9,1.905,19782239,,,Verified
MGR.AX,26-NOV-2015,,End Of Day,,1.92,1.932,1.895,1.9,14600349,,,Verified
MGR.AX,27-NOV-2015,,End Of Day,,1.915,1.922,1.88,1.885,9737849,,,Verified
MGR.AX,28-NOV-2015,,End Of Day,No Trades,,,,,,,,Verified
MGR.AX,29-NOV-2015,,End Of Day,No Trades,,,,,,,,Verified
MGR.AX,30-NOV-2015,,End Of Day,,1.895,1.91,1.865,1.865,14099217,,,Verified
MGR.AX,01-DEC-2015,,End Of Day,,1.865,1.915,1.865,1.895,20381492,,,Verified
MGR.AX,02-DEC-2015,,End Of Day,,1.9,1.905,1.87,1.87,17622528,,,Verified
MGR.AX,03-DEC-2015,,End Of Day,,1.855,1.885,1.845,1.87,9814783,,,Verified
MGR.AX,04-DEC-2015,,End Of Day,,1.83,1.85,1.83,1.85,9844935,,,Verified
MGR.AX,05-DEC-2015,,End Of Day,No Trades,,,,,,,,Verified
MGR.AX,06-DEC-2015,,End Of Day,No Trades,,,,,,,,Verified
MGR.AX,07-DEC-2015,,End Of Day,,1.89,1.895,1.87,1.87,9872921,,,Verified
MGR.AX,08-DEC-2015,,End Of Day,,1.87,1.935,1.87,1.92,20167042,,,Verified
MGR.AX,09-DEC-2015,,End Of Day,,1.915,1.962,1.905,1.925,20441344,,,Verified
MGR.AX,10-DEC-2015,,End Of Day,,1.925,1.937,1.882,1.905,19669809,,,Verified
MGR.AX,11-DEC-2015,,End Of Day,,1.89,1.94,1.875,1.92,18629099,,,Verified
MGR.AX,12-DEC-2015,,End Of Day,No Trades,,,,,,,,Verified
MGR.AX,13-DEC-2015,,End Of Day,No Trades,,,,,,,,Verified
MGR.AX,14-DEC-2015,,End Of Day,,1.9,1.935,1.89,1.92,18279898,,,Verified
MGR.AX,15-DEC-2015,,End Of Day,,1.915,1.925,1.895,1.9,12525712,,,Verified
MGR.AX,16-DEC-2015,,End Of Day,,1.935,1.985,1.93,1.98,46521941,,,Verified
MGR.AX,17-DEC-2015,,End Of Day,,1.98,2.01,1.972,1.99,23233829,,,Verified
MGR.AX,18-DEC-2015,,End Of Day,,1.97,1.99,1.95,1.98,14417208,,,Verified
MGR.AX,19-DEC-2015,,End Of Day,No Trades,,,,,,,,Verified
MGR.AX,20-DEC-2015,,End Of Day,No Trades,,,,,,,,Verified
MGR.AX,21-DEC-2015,,End Of Day,,1.98,2,1.97,1.99,14378969,,,Verified
MGR.AX,22-DEC-2015,,End Of Day,,2.04,2.04,2,2.01,23003504,,,Verified
MGR.AX,23-DEC-2015,,End Of Day,,2.03,2.03,2,2.01,10105963,,,Verified
MGR.AX,24-DEC-2015,,End Of Day,,2.01,2.02,1.997,2.02,2875343,,,Verified
MGR.AX,25-DEC-2015,,End Of Day,No Trades,,,,,,,,Verified
MGR.AX,26-DEC-2015,,End Of Day,No Trades,,,,,,,,Verified
MGR.AX,27-DEC-2015,,End Of Day,No Trades,,,,,,,,Verified
MGR.AX,28-DEC-2015,,End Of Day,No Trades,,,,,,,,Verified
MGR.AX,29-DEC-2015,,End Of Day,,1.99,2.02,1.965,1.985,10807505,,,Verified
MGR.AX,30-DEC-2015,,End Of Day,,1.995,2.01,1.982,1.995,6854788,,,Verified
MGR.AX,31-DEC-2015,,End Of Day,,1.995,2.02,1.98,1.98,5807662,,,Verified
MGR.AX,01-JAN-2016,,End Of Day,No Trades,,,,,,,,Verified
MGR.AX,02-JAN-2016,,End Of Day,No Trades,,,,,,,,Verified
MGR.AX,03-JAN-2016,,End Of Day,No Trades,,,,,,,,Verified
MGR.AX,04-JAN-2016,,End Of Day,,1.985,2.01,1.965,1.985,9358828,,,Verified
MGR.AX,05-JAN-2016,,End Of Day,,1.97,2.01,1.96,1.98,11856739,,,Verified
MGR.AX,06-JAN-2016,,End Of Day,,1.98,2,1.92,1.935,12752681,,,Verified
MGR.AX,07-JAN-2016,,End Of Day,,1.935,1.95,1.907,1.91,11129643,,,Verified
MGR.AX,08-JAN-2016,,End Of Day,,1.89,1.925,1.88,1.905,15725332,,,Verified
MGR.AX,09-JAN-2016,,End Of Day,No Trades,,,,,,,,Verified
MGR.AX,10-JAN-2016,,End Of Day,No Trades,,,,,,,,Verified
MGR.AX,11-JAN-2016,,End Of Day,,1.865,1.9,1.86,1.885,14453755,,,Verified
MGR.AX,12-JAN-2016,,End Of Day,,1.9,1.902,1.87,1.875,13977182,,,Verified
MGR.AX,13-JAN-2016,,End Of Day,,1.865,1.89,1.86,1.885,17184758,,,Verified
MGR.AX,14-JAN-2016,,End Of Day,,1.85,1.885,1.845,1.88,14533796,,,Verified
MGR.AX,15-JAN-2016,,End Of Day,,1.895,1.905,1.842,1.86,14107212,,,Verified
MGR.AX,16-JAN-2016,,End Of Day,No Trades,,,,,,,,Verified
MGR.AX,17-JAN-2016,,End Of Day,No Trades,,,,,,,,Verified
MGR.AX,18-JAN-2016,,End Of Day,,1.83,1.865,1.825,1.855,14918207,,,Verified
MGR.AX,19-JAN-2016,,End Of Day,,1.865,1.89,1.855,1.875,8616483,,,Verified
MGR.AX,20-JAN-2016,,End Of Day,,1.885,1.91,1.87,1.895,22115882,,,Verified
MGR.AX,21-JAN-2016,,End Of Day,,1.895,1.9,1.87,1.875,20216006,,,Verified
MGR.AX,22-JAN-2016,,End Of Day,,1.89,1.9,1.835,1.835,24666735,,,Verified
MGR.AX,23-JAN-2016,,End Of Day,No Trades,,,,,,,,Verified
MGR.AX,24-JAN-2016,,End Of Day,No Trades,,,,,,,,Verified
MGR.AX,25-JAN-2016,,End Of Day,,1.87,1.87,1.84,1.865,12617812,,,Verified
MGR.AX,26-JAN-2016,,End Of Day,No Trades,,,,,,,,Verified
MGR.AX,27-JAN-2016,,End Of Day,,1.88,1.895,1.865,1.875,17037485,,,Verified
MGR.AX,28-JAN-2016,,End Of Day,,1.865,1.915,1.862,1.91,16676957,,,Verified
MGR.AX,29-JAN-2016,,End Of Day,,1.895,1.905,1.88,1.9,9798819,,,Verified
MGR.AX,30-JAN-2016,,End Of Day,No Trades,,,,,,,,Verified
MGR.AX,31-JAN-2016,,End Of Day,No Trades,,,,,,,,Verified
MGR.AX,01-FEB-2016,,End Of Day,,1.91,1.945,1.9,1.91,21606920,,,Verified
MGR.AX,02-FEB-2016,,End Of Day,,1.91,1.935,1.9,1.92,18370593,,,Verified
MGR.AX,03-FEB-2016,,End Of Day,,1.885,1.9,1.87,1.88,15248067,,,Verified
MGR.AX,04-FEB-2016,,End Of Day,,1.885,1.91,1.88,1.895,14255589,,,Verified
MGR.AX,05-FEB-2016,,End Of Day,,1.89,1.905,1.88,1.895,8488511,,,Verified
MGR.AX,06-FEB-2016,,End Of Day,No Trades,,,,,,,,Verified
MGR.AX,07-FEB-2016,,End Of Day,No Trades,,,,,,,,Verified
MGR.AX,08-FEB-2016,,End Of Day,,1.885,1.917,1.875,1.91,10651171,,,Verified
MGR.AX,09-FEB-2016,,End Of Day,,1.87,1.897,1.85,1.85,14971514,,,Verified
MGR.AX,10-FEB-2016,,End Of Day,,1.865,1.865,1.792,1.8,27034875,,,Verified
MGR.AX,11-FEB-2016,,End Of Day,,1.78,1.85,1.78,1.85,15362895,,,Verified
MGR.AX,12-FEB-2016,,End Of Day,,1.85,1.855,1.815,1.835,20586680,,,Verified
MGR.AX,13-FEB-2016,,End Of Day,No Trades,,,,,,,,Verified
MGR.AX,14-FEB-2016,,End Of Day,No Trades,,,,,,,,Verified
MGR.AX,15-FEB-2016,,End Of Day,,1.84,1.84,1.81,1.82,15570114,,,Verified
MGR.AX,16-FEB-2016,,End Of Day,,1.83,1.855,1.805,1.855,15405965,,,Verified
MGR.AX,17-FEB-2016,,End Of Day,,1.86,1.875,1.835,1.85,21059924,,,Verified
MGR.AX,18-FEB-2016,,End Of Day,,1.865,1.885,1.84,1.845,14897739,,,Verified
MGR.AX,19-FEB-2016,,End Of Day,,1.835,1.87,1.835,1.865,13714357,,,Verified
MGR.AX,20-FEB-2016,,End Of Day,No Trades,,,,,,,,Verified
MGR.AX,21-FEB-2016,,End Of Day,No Trades,,,,,,,,Verified
MGR.AX,22-FEB-2016,,End Of Day,,1.865,1.885,1.857,1.88,15350526,,,Verified
MGR.AX,23-FEB-2016,,End Of Day,,1.88,1.887,1.87,1.88,10340814,,,Verified
MGR.AX,24-FEB-2016,,End Of Day,,1.865,1.865,1.83,1.84,15983654,,,Verified
MGR.AX,25-FEB-2016,,End Of Day,,1.855,1.855,1.83,1.835,8962173,,,Verified
MGR.AX,26-FEB-2016,,End Of Day,,1.84,1.842,1.825,1.835,17483891,,,Verified
MGR.AX,27-FEB-2016,,End Of Day,No Trades,,,,,,,,Verified
MGR.AX,28-FEB-2016,,End Of Day,No Trades,,,,,,,,Verified
MGR.AX,29-FEB-2016,,End Of Day,,1.835,1.85,1.822,1.83,12811914,,,Verified
MGR.AX,01-MAR-2016,,End Of Day,,1.825,1.85,1.822,1.84,12146956,,,Verified
MGR.AX,02-MAR-2016,,End Of Day,,1.85,1.86,1.835,1.855,14044707,,,Verified
MGR.AX,03-MAR-2016,,End Of Day,,1.855,1.895,1.855,1.895,31058136,,,Verified
MGR.AX,04-MAR-2016,,End Of Day,,1.88,1.89,1.855,1.855,19920589,,,Verified
MGR.AX,05-MAR-2016,,End Of Day,No Trades,,,,,,,,Verified
MGR.AX,06-MAR-2016,,End Of Day,No Trades,,,,,,,,Verified
MGR.AX,07-MAR-2016,,End Of Day,,1.865,1.87,1.83,1.85,15742651,,,Verified
MGR.AX,08-MAR-2016,,End Of Day,,1.85,1.88,1.84,1.85,26371082,,,Verified
MGR.AX,09-MAR-2016,,End Of Day,,1.855,1.86,1.845,1.855,12930120,,,Verified
MGR.AX,10-MAR-2016,,End Of Day,,1.86,1.885,1.857,1.86,12356107,,,Verified
MGR.AX,11-MAR-2016,,End Of Day,,1.87,1.885,1.86,1.865,8154362,,,Verified
MGR.AX,12-MAR-2016,,End Of Day,No Trades,,,,,,,,Verified
MGR.AX,13-MAR-2016,,End Of Day,No Trades,,,,,,,,Verified
MGR.AX,14-MAR-2016,,End Of Day,,1.87,1.877,1.85,1.86,10117458,,,Verified
MGR.AX,15-MAR-2016,,End Of Day,,1.87,1.88,1.845,1.86,21343069,,,Verified
MGR.AX,16-MAR-2016,,End Of Day,,1.865,1.885,1.86,1.875,9509533,,,Verified
MGR.AX,17-MAR-2016,,End Of Day,,1.88,1.9,1.87,1.885,18549958,,,Verified
MGR.AX,18-MAR-2016,,End Of Day,,1.895,1.9,1.865,1.885,21709808,,,Verified
MGR.AX,19-MAR-2016,,End Of Day,No Trades,,,,,,,,Verified
MGR.AX,20-MAR-2016,,End Of Day,No Trades,,,,,,,,Verified
MGR.AX,21-MAR-2016,,End Of Day,,1.885,1.91,1.88,1.895,9867737,,,Verified
MGR.AX,22-MAR-2016,,End Of Day,,1.885,1.9,1.865,1.87,23364658,,,Verified
MGR.AX,23-MAR-2016,,End Of Day,,1.875,1.895,1.86,1.895,11867411,,,Verified
MGR.AX,24-MAR-2016,,End Of Day,,1.905,1.905,1.88,1.885,8363605,,,Verified
MGR.AX,25-MAR-2016,,End Of Day,No Trades,,,,,,,,Verified
MGR.AX,26-MAR-2016,,End Of Day,No Trades,,,,,,,,Verified
MGR.AX,27-MAR-2016,,End Of Day,No Trades,,,,,,,,Verified
MGR.AX,28-MAR-2016,,End Of Day,No Trades,,,,,,,,Verified
MGR.AX,29-MAR-2016,,End Of Day,,1.885,1.915,1.88,1.89,8997793,,,Verified
MGR.AX,30-MAR-2016,,End Of Day,,1.905,1.905,1.875,1.895,14905727,,,Verified
MGR.AX,31-MAR-2016,,End Of Day,,1.925,1.935,1.905,1.935,16239128,,,Verified
MGR.AX,01-APR-2016,,End Of Day,,1.91,1.915,1.87,1.87,11111081,,,Verified
MGR.AX,02-APR-2016,,End Of Day,No Trades,,,,,,,,Verified
MGR.AX,03-APR-2016,,End Of Day,No Trades,,,,,,,,Verified
MGR.AX,04-APR-2016,,End Of Day,,1.88,1.89,1.865,1.88,6150632,,,Verified
MGR.AX,05-APR-2016,,End Of Day,,1.875,1.88,1.85,1.865,13204198,,,Verified
MGR.AX,06-APR-2016,,End Of Day,,1.855,1.88,1.85,1.88,9050925,,,Verified
MGR.AX,07-APR-2016,,End Of Day,,1.885,1.915,1.885,1.915,8707714,,,Verified
MGR.AX,08-APR-2016,,End Of Day,,1.895,1.925,1.885,1.92,10501810,,,Verified
MGR.AX,09-APR-2016,,End Of Day,No Trades,,,,,,,,Verified
MGR.AX,10-APR-2016,,End Of Day,No Trades,,,,,,,,Verified
MGR.AX,11-APR-2016,,End Of Day,,1.91,1.92,1.89,1.9,5691162,,,Verified
MGR.AX,12-APR-2016,,End Of Day,,1.9,1.92,1.895,1.92,5983664,,,Verified
MGR.AX,13-APR-2016,,End Of Day,,1.92,1.93,1.905,1.915,6512269,,,Verified
MGR.AX,14-APR-2016,,End Of Day,,1.915,1.942,1.91,1.91,11374451,,,Verified
MGR.AX,15-APR-2016,,End Of Day,,1.915,1.95,1.915,1.935,8938060,,,Verified
MGR.AX,16-APR-2016,,End Of Day,No Trades,,,,,,,,Verified
MGR.AX,17-APR-2016,,End Of Day,No Trades,,,,,,,,Verified
MGR.AX,18-APR-2016,,End Of Day,,1.94,1.965,1.935,1.96,8555647,,,Verified
MGR.AX,19-APR-2016,,End Of Day,,2,2,1.945,1.955,13685890,,,Verified
MGR.AX,20-APR-2016,,End Of Day,,1.97,1.98,1.955,1.975,9379117,,,Verified
MGR.AX,21-APR-2016,,End Of Day,,2,2,1.9,1.91,18125453,,,Verified
MGR.AX,22-APR-2016,,End Of Day,,1.91,1.925,1.875,1.88,15915187,,,Verified
MGR.AX,23-APR-2016,,End Of Day,No Trades,,,,,,,,Verified
MGR.AX,24-APR-2016,,End Of Day,No Trades,,,,,,,,Verified
MGR.AX,25-APR-2016,,End Of Day,No Trades,,,,,,,,Verified
MGR.AX,26-APR-2016,,End Of Day,,1.895,1.905,1.885,1.89,17083075,,,Verified
MGR.AX,27-APR-2016,,End Of Day,,1.905,1.91,1.857,1.875,32659274,,,Verified
MGR.AX,28-APR-2016,,End Of Day,,1.87,1.875,1.835,1.86,22723310,,,Verified
MGR.AX,29-APR-2016,,End Of Day,,1.865,1.87,1.85,1.87,13869159,,,Verified
MGR.AX,30-APR-2016,,End Of Day,No Trades,,,,,,,,Verified
MGR.AX,01-MAY-2016,,End Of Day,No Trades,,,,,,,,Verified
MGR.AX,02-MAY-2016,,End Of Day,,1.865,1.88,1.855,1.86,12115507,,,Verified
MGR.AX,03-MAY-2016,,End Of Day,,1.895,1.935,1.885,1.925,19117062,,,Verified
MGR.AX,04-MAY-2016,,End Of Day,,1.93,1.97,1.925,1.95,13951058,,,Verified
MGR.AX,05-MAY-2016,,End Of Day,,1.965,1.972,1.94,1.97,18511851,,,Verified
MGR.AX,06-MAY-2016,,End Of Day,,1.945,1.955,1.93,1.945,15996235,,,Verified
MGR.AX,07-MAY-2016,,End Of Day,No Trades,,,,,,,,Verified
MGR.AX,08-MAY-2016,,End Of Day,No Trades,,,,,,,,Verified
MGR.AX,09-MAY-2016,,End Of Day,,1.94,1.95,1.93,1.95,10408652,,,Verified
MGR.AX,10-MAY-2016,,End Of Day,,1.935,1.98,1.93,1.97,21339290,,,Verified
MGR.AX,11-MAY-2016,,End Of Day,,1.99,2.01,1.955,1.955,15299564,,,Verified
