#RIC,Date[L],Time[L],Type,Qualifiers,Open,High,Low,Last,Volume,Open Interest,Settle,Data Source
GEM.AX,01-JAN-2014,,End Of Day,No Trades,,,,,,,,Verified
GEM.AX,02-JAN-2014,,End Of Day,,3.18,3.22,3.17,3.18,323589,,,Verified
GEM.AX,03-JAN-2014,,End Of Day,,3.17,3.17,3.09,3.09,765173,,,Verified
GEM.AX,04-JAN-2014,,End Of Day,No Trades,,,,,,,,Verified
GEM.AX,05-JAN-2014,,End Of Day,No Trades,,,,,,,,Verified
GEM.AX,06-JAN-2014,,End Of Day,,3.09,3.11,3,3.01,1220563,,,Verified
GEM.AX,07-JAN-2014,,End Of Day,,3.01,3.02,2.97,3.01,1120414,,,Verified
GEM.AX,08-JAN-2014,,End Of Day,,3.05,3.09,3.01,3.04,1003731,,,Verified
GEM.AX,09-JAN-2014,,End Of Day,,3.06,3.1,3.045,3.1,663054,,,Verified
GEM.AX,10-JAN-2014,,End Of Day,,3.1,3.14,3.09,3.14,614837,,,Verified
GEM.AX,11-JAN-2014,,End Of Day,No Trades,,,,,,,,Verified
GEM.AX,12-JAN-2014,,End Of Day,No Trades,,,,,,,,Verified
GEM.AX,13-JAN-2014,,End Of Day,,3.12,3.13,3.05,3.06,424691,,,Verified
GEM.AX,14-JAN-2014,,End Of Day,,3.03,3.06,3.02,3.04,1054601,,,Verified
GEM.AX,15-JAN-2014,,End Of Day,,3.07,3.18,3.07,3.16,1072466,,,Verified
GEM.AX,16-JAN-2014,,End Of Day,,3.2,3.21,3.1,3.14,1059822,,,Verified
GEM.AX,17-JAN-2014,,End Of Day,,3.15,3.15,3.07,3.13,432703,,,Verified
GEM.AX,18-JAN-2014,,End Of Day,No Trades,,,,,,,,Verified
GEM.AX,19-JAN-2014,,End Of Day,No Trades,,,,,,,,Verified
GEM.AX,20-JAN-2014,,End Of Day,,3.13,3.17,3.11,3.15,756342,,,Verified
GEM.AX,21-JAN-2014,,End Of Day,,3.17,3.29,3.17,3.28,2006977,,,Verified
GEM.AX,22-JAN-2014,,End Of Day,,3.3,3.36,3.24,3.3,1134189,,,Verified
GEM.AX,23-JAN-2014,,End Of Day,,3.26,3.29,3.24,3.25,979242,,,Verified
GEM.AX,24-JAN-2014,,End Of Day,,3.25,3.31,3.225,3.3,951197,,,Verified
GEM.AX,25-JAN-2014,,End Of Day,No Trades,,,,,,,,Verified
GEM.AX,26-JAN-2014,,End Of Day,No Trades,,,,,,,,Verified
GEM.AX,27-JAN-2014,,End Of Day,No Trades,,,,,,,,Verified
GEM.AX,28-JAN-2014,,End Of Day,,3.21,3.32,3.2,3.32,1149309,,,Verified
GEM.AX,29-JAN-2014,,End Of Day,,3.32,3.34,3.27,3.3,538715,,,Verified
GEM.AX,30-JAN-2014,,End Of Day,,3.25,3.28,3.24,3.25,530925,,,Verified
GEM.AX,31-JAN-2014,,End Of Day,,3.28,3.3,3.25,3.25,683619,,,Verified
GEM.AX,01-FEB-2014,,End Of Day,No Trades,,,,,,,,Verified
GEM.AX,02-FEB-2014,,End Of Day,No Trades,,,,,,,,Verified
GEM.AX,03-FEB-2014,,End Of Day,,3.25,3.29,3.25,3.28,1120057,,,Verified
GEM.AX,04-FEB-2014,,End Of Day,,3.2,3.23,3.13,3.16,1112606,,,Verified
GEM.AX,05-FEB-2014,,End Of Day,,3.15,3.19,3.12,3.15,807296,,,Verified
GEM.AX,06-FEB-2014,,End Of Day,,3.16,3.29,3.15,3.25,1140503,,,Verified
GEM.AX,07-FEB-2014,,End Of Day,,3.26,3.3,3.25,3.29,785594,,,Verified
GEM.AX,08-FEB-2014,,End Of Day,No Trades,,,,,,,,Verified
GEM.AX,09-FEB-2014,,End Of Day,No Trades,,,,,,,,Verified
GEM.AX,10-FEB-2014,,End Of Day,,3.45,3.54,3.44,3.5,3673752,,,Verified
GEM.AX,11-FEB-2014,,End Of Day,,3.51,3.65,3.5,3.65,3892980,,,Verified
GEM.AX,12-FEB-2014,,End Of Day,,3.69,3.7,3.61,3.63,2277016,,,Verified
GEM.AX,13-FEB-2014,,End Of Day,,3.6,3.65,3.5,3.65,2208028,,,Verified
GEM.AX,14-FEB-2014,,End Of Day,,3.66,3.71,3.63,3.7,1468945,,,Verified
GEM.AX,15-FEB-2014,,End Of Day,No Trades,,,,,,,,Verified
GEM.AX,16-FEB-2014,,End Of Day,No Trades,,,,,,,,Verified
GEM.AX,17-FEB-2014,,End Of Day,,3.63,3.82,3.57,3.82,1622435,,,Verified
GEM.AX,18-FEB-2014,,End Of Day,,3.9,3.985,3.85,3.95,1766395,,,Verified
GEM.AX,19-FEB-2014,,End Of Day,,3.97,4.14,3.95,4.1,5268451,,,Verified
GEM.AX,20-FEB-2014,,End Of Day,,4.07,4.17,4.06,4.17,3920907,,,Verified
GEM.AX,21-FEB-2014,,End Of Day,,4.17,4.185,4.12,4.17,2543603,,,Verified
GEM.AX,22-FEB-2014,,End Of Day,No Trades,,,,,,,,Verified
GEM.AX,23-FEB-2014,,End Of Day,No Trades,,,,,,,,Verified
GEM.AX,24-FEB-2014,,End Of Day,,4.18,4.28,4.15,4.23,2447104,,,Verified
GEM.AX,25-FEB-2014,,End Of Day,,4.27,4.27,4.12,4.12,1662474,,,Verified
GEM.AX,26-FEB-2014,,End Of Day,,4.12,4.19,4.12,4.19,1059851,,,Verified
GEM.AX,27-FEB-2014,,End Of Day,,4.13,4.17,4.03,4.16,789207,,,Verified
GEM.AX,28-FEB-2014,,End Of Day,,4.17,4.2,4.09,4.15,1406977,,,Verified
GEM.AX,01-MAR-2014,,End Of Day,No Trades,,,,,,,,Verified
GEM.AX,02-MAR-2014,,End Of Day,No Trades,,,,,,,,Verified
GEM.AX,03-MAR-2014,,End Of Day,,4.15,4.15,3.93,3.99,2579648,,,Verified
GEM.AX,04-MAR-2014,,End Of Day,,3.97,4.07,3.95,4.07,1889408,,,Verified
GEM.AX,05-MAR-2014,,End Of Day,,4.14,4.28,4.13,4.24,2210555,,,Verified
GEM.AX,06-MAR-2014,,End Of Day,,4.25,4.29,4.18,4.2,1608310,,,Verified
GEM.AX,07-MAR-2014,,End Of Day,,4.23,4.29,4.19,4.2,1437139,,,Verified
GEM.AX,08-MAR-2014,,End Of Day,No Trades,,,,,,,,Verified
GEM.AX,09-MAR-2014,,End Of Day,No Trades,,,,,,,,Verified
GEM.AX,10-MAR-2014,,End Of Day,,4.2,4.22,4.17,4.2,752737,,,Verified
GEM.AX,11-MAR-2014,,End Of Day,,4.18,4.195,4.16,4.18,1082695,,,Verified
GEM.AX,12-MAR-2014,,End Of Day,,4.17,4.17,4.13,4.14,809718,,,Verified
GEM.AX,13-MAR-2014,,End Of Day,,4.15,4.165,4.09,4.12,974377,,,Verified
GEM.AX,14-MAR-2014,,End Of Day,,4.1,4.12,4.02,4.06,742137,,,Verified
GEM.AX,15-MAR-2014,,End Of Day,No Trades,,,,,,,,Verified
GEM.AX,16-MAR-2014,,End Of Day,No Trades,,,,,,,,Verified
GEM.AX,17-MAR-2014,,End Of Day,,4.06,4.3,4.04,4.29,1930924,,,Verified
GEM.AX,18-MAR-2014,,End Of Day,,4.33,4.43,4.33,4.37,1868263,,,Verified
GEM.AX,19-MAR-2014,,End Of Day,,4.45,4.48,4.365,4.48,1575030,,,Verified
GEM.AX,20-MAR-2014,,End Of Day,,4.55,4.59,4.51,4.54,2521042,,,Verified
GEM.AX,21-MAR-2014,,End Of Day,,4.56,4.76,4.51,4.76,4773341,,,Verified
GEM.AX,22-MAR-2014,,End Of Day,No Trades,,,,,,,,Verified
GEM.AX,23-MAR-2014,,End Of Day,No Trades,,,,,,,,Verified
GEM.AX,24-MAR-2014,,End Of Day,,,,,,923459,,,Verified
GEM.AX,26-MAR-2014,,End Of Day,,4.9,5.08,4.9,4.95,6775087,,,Verified
GEM.AX,27-MAR-2014,,End Of Day,,4.93,5.04,4.74,5.01,4786409,,,Verified
GEM.AX,28-MAR-2014,,End Of Day,,5.02,5.07,4.98,5.05,2923649,,,Verified
GEM.AX,29-MAR-2014,,End Of Day,No Trades,,,,,,,,Verified
GEM.AX,30-MAR-2014,,End Of Day,No Trades,,,,,,,,Verified
GEM.AX,31-MAR-2014,,End Of Day,,5.06,5.1,5.04,5.07,2452875,,,Verified
GEM.AX,01-APR-2014,,End Of Day,,5.07,5.09,5.02,5.03,3151263,,,Verified
GEM.AX,02-APR-2014,,End Of Day,,5.05,5.055,4.93,5.02,1259069,,,Verified
GEM.AX,03-APR-2014,,End Of Day,,5.02,5.02,4.795,4.82,3650199,,,Verified
GEM.AX,04-APR-2014,,End Of Day,,4.8,4.81,4.66,4.66,3072088,,,Verified
GEM.AX,05-APR-2014,,End Of Day,No Trades,,,,,,,,Verified
GEM.AX,06-APR-2014,,End Of Day,No Trades,,,,,,,,Verified
GEM.AX,07-APR-2014,,End Of Day,,4.58,4.69,4.45,4.65,4167989,,,Verified
GEM.AX,08-APR-2014,,End Of Day,,4.65,4.68,4.565,4.63,2215192,,,Verified
GEM.AX,09-APR-2014,,End Of Day,,4.65,4.66,4.56,4.63,2064660,,,Verified
GEM.AX,10-APR-2014,,End Of Day,,4.67,4.72,4.49,4.49,3483665,,,Verified
GEM.AX,11-APR-2014,,End Of Day,,4.42,4.61,4.35,4.55,2153886,,,Verified
GEM.AX,12-APR-2014,,End Of Day,No Trades,,,,,,,,Verified
GEM.AX,13-APR-2014,,End Of Day,No Trades,,,,,,,,Verified
GEM.AX,14-APR-2014,,End Of Day,,4.54,4.54,4.35,4.35,2973292,,,Verified
GEM.AX,15-APR-2014,,End Of Day,,4.38,4.45,4.37,4.43,3051845,,,Verified
GEM.AX,16-APR-2014,,End Of Day,,4.48,4.52,4.455,4.5,1040371,,,Verified
GEM.AX,17-APR-2014,,End Of Day,,4.54,4.6,4.49,4.59,1320047,,,Verified
GEM.AX,18-APR-2014,,End Of Day,No Trades,,,,,,,,Verified
GEM.AX,19-APR-2014,,End Of Day,No Trades,,,,,,,,Verified
GEM.AX,20-APR-2014,,End Of Day,No Trades,,,,,,,,Verified
GEM.AX,21-APR-2014,,End Of Day,No Trades,,,,,,,,Verified
GEM.AX,22-APR-2014,,End Of Day,,4.57,4.57,4.48,4.51,837739,,,Verified
GEM.AX,23-APR-2014,,End Of Day,,4.55,4.58,4.51,4.56,873223,,,Verified
GEM.AX,24-APR-2014,,End Of Day,,4.58,4.85,4.57,4.82,3567456,,,Verified
GEM.AX,25-APR-2014,,End Of Day,No Trades,,,,,,,,Verified
GEM.AX,26-APR-2014,,End Of Day,No Trades,,,,,,,,Verified
GEM.AX,27-APR-2014,,End Of Day,No Trades,,,,,,,,Verified
GEM.AX,28-APR-2014,,End Of Day,,4.8,4.81,4.7,4.73,1265038,,,Verified
GEM.AX,29-APR-2014,,End Of Day,,4.77,4.79,4.595,4.62,1702737,,,Verified
GEM.AX,30-APR-2014,,End Of Day,,4.61,4.68,4.61,4.67,1549215,,,Verified
GEM.AX,01-MAY-2014,,End Of Day,,4.73,4.75,4.63,4.64,779055,,,Verified
GEM.AX,02-MAY-2014,,End Of Day,,4.65,4.68,4.54,4.6,696379,,,Verified
GEM.AX,03-MAY-2014,,End Of Day,No Trades,,,,,,,,Verified
GEM.AX,04-MAY-2014,,End Of Day,No Trades,,,,,,,,Verified
GEM.AX,05-MAY-2014,,End Of Day,,4.6,4.64,4.56,4.61,1284599,,,Verified
GEM.AX,06-MAY-2014,,End Of Day,,4.62,4.64,4.51,4.53,1114171,,,Verified
GEM.AX,07-MAY-2014,,End Of Day,,4.5,4.5,4.41,4.45,1764985,,,Verified
GEM.AX,08-MAY-2014,,End Of Day,,4.44,4.44,4.18,4.22,1373080,,,Verified
GEM.AX,10-MAY-2014,,End Of Day,No Trades,,,,,,,,Verified
GEM.AX,11-MAY-2014,,End Of Day,No Trades,,,,,,,,Verified
GEM.AX,12-MAY-2014,,End Of Day,,4.37,4.48,4.3,4.47,4319362,,,Verified
GEM.AX,13-MAY-2014,,End Of Day,,4.53,4.57,4.33,4.38,2504563,,,Verified
GEM.AX,14-MAY-2014,,End Of Day,,4.41,4.5,4.4,4.41,877272,,,Verified
GEM.AX,15-MAY-2014,,End Of Day,,4.39,4.43,4.36,4.43,877385,,,Verified
GEM.AX,16-MAY-2014,,End Of Day,,4.38,4.4,4.32,4.4,1914457,,,Verified
GEM.AX,17-MAY-2014,,End Of Day,No Trades,,,,,,,,Verified
GEM.AX,18-MAY-2014,,End Of Day,No Trades,,,,,,,,Verified
GEM.AX,19-MAY-2014,,End Of Day,,4.35,4.39,4.33,4.38,1975448,,,Verified
GEM.AX,20-MAY-2014,,End Of Day,,4.36,4.425,4.34,4.38,1411333,,,Verified
GEM.AX,21-MAY-2014,,End Of Day,,4.34,4.4,4.33,4.4,736330,,,Verified
GEM.AX,22-MAY-2014,,End Of Day,,4.4,4.48,4.36,4.44,1440985,,,Verified
GEM.AX,23-MAY-2014,,End Of Day,,4.47,4.55,4.39,4.54,1709017,,,Verified
GEM.AX,24-MAY-2014,,End Of Day,No Trades,,,,,,,,Verified
GEM.AX,25-MAY-2014,,End Of Day,No Trades,,,,,,,,Verified
GEM.AX,26-MAY-2014,,End Of Day,,4.58,4.65,4.56,4.62,2086105,,,Verified
GEM.AX,27-MAY-2014,,End Of Day,,4.65,4.66,4.54,4.58,938944,,,Verified
GEM.AX,28-MAY-2014,,End Of Day,,4.58,4.68,4.57,4.65,1080223,,,Verified
GEM.AX,29-MAY-2014,,End Of Day,,4.63,4.63,4.49,4.56,1266382,,,Verified
GEM.AX,30-MAY-2014,,End Of Day,,4.56,4.585,4.51,4.53,1180016,,,Verified
GEM.AX,31-MAY-2014,,End Of Day,No Trades,,,,,,,,Verified
GEM.AX,01-JUN-2014,,End Of Day,No Trades,,,,,,,,Verified
GEM.AX,02-JUN-2014,,End Of Day,,4.55,4.64,4.55,4.62,810970,,,Verified
GEM.AX,03-JUN-2014,,End Of Day,,4.61,4.61,4.53,4.6,942595,,,Verified
GEM.AX,04-JUN-2014,,End Of Day,,4.6,4.635,4.535,4.58,1101043,,,Verified
GEM.AX,05-JUN-2014,,End Of Day,,4.57,4.67,4.54,4.66,1976836,,,Verified
GEM.AX,06-JUN-2014,,End Of Day,,4.66,4.81,4.64,4.67,2370753,,,Verified
GEM.AX,07-JUN-2014,,End Of Day,No Trades,,,,,,,,Verified
GEM.AX,08-JUN-2014,,End Of Day,No Trades,,,,,,,,Verified
GEM.AX,09-JUN-2014,,End Of Day,No Trades,,,,,,,,Verified
GEM.AX,10-JUN-2014,,End Of Day,,4.7,4.71,4.585,4.62,776498,,,Verified
GEM.AX,11-JUN-2014,,End Of Day,,4.6,4.63,4.56,4.62,661836,,,Verified
GEM.AX,12-JUN-2014,,End Of Day,,4.62,4.62,4.56,4.57,685100,,,Verified
GEM.AX,13-JUN-2014,,End Of Day,,4.54,4.55,4.44,4.55,1389860,,,Verified
GEM.AX,14-JUN-2014,,End Of Day,No Trades,,,,,,,,Verified
GEM.AX,15-JUN-2014,,End Of Day,No Trades,,,,,,,,Verified
GEM.AX,16-JUN-2014,,End Of Day,,4.52,4.52,4.45,4.49,765044,,,Verified
GEM.AX,17-JUN-2014,,End Of Day,,4.45,4.5,4.39,4.5,1310575,,,Verified
GEM.AX,18-JUN-2014,,End Of Day,,4.56,4.65,4.55,4.56,1216610,,,Verified
GEM.AX,19-JUN-2014,,End Of Day,,4.64,4.72,4.615,4.72,1895568,,,Verified
GEM.AX,20-JUN-2014,,End Of Day,,4.7,4.77,4.69,4.72,2833109,,,Verified
GEM.AX,21-JUN-2014,,End Of Day,No Trades,,,,,,,,Verified
GEM.AX,22-JUN-2014,,End Of Day,No Trades,,,,,,,,Verified
GEM.AX,23-JUN-2014,,End Of Day,,4.73,4.78,4.71,4.73,920128,,,Verified
GEM.AX,24-JUN-2014,,End Of Day,,4.73,4.82,4.71,4.75,1568675,,,Verified
GEM.AX,25-JUN-2014,,End Of Day,,4.7,4.73,4.605,4.71,1791823,,,Verified
GEM.AX,26-JUN-2014,,End Of Day,,4.69,4.79,4.68,4.75,901580,,,Verified
GEM.AX,27-JUN-2014,,End Of Day,,4.75,4.76,4.56,4.62,1562801,,,Verified
GEM.AX,28-JUN-2014,,End Of Day,No Trades,,,,,,,,Verified
GEM.AX,29-JUN-2014,,End Of Day,No Trades,,,,,,,,Verified
GEM.AX,30-JUN-2014,,End Of Day,,4.61,4.65,4.53,4.6,1348684,,,Verified
GEM.AX,01-JUL-2014,,End Of Day,,4.6,4.63,4.52,4.54,1202945,,,Verified
GEM.AX,02-JUL-2014,,End Of Day,,4.5,4.58,4.455,4.58,2052937,,,Verified
GEM.AX,03-JUL-2014,,End Of Day,,4.71,4.72,4.61,4.66,1156487,,,Verified
GEM.AX,04-JUL-2014,,End Of Day,,4.69,4.7,4.6,4.62,1201896,,,Verified
GEM.AX,05-JUL-2014,,End Of Day,No Trades,,,,,,,,Verified
GEM.AX,06-JUL-2014,,End Of Day,No Trades,,,,,,,,Verified
GEM.AX,07-JUL-2014,,End Of Day,,4.6,4.65,4.59,4.6,417802,,,Verified
GEM.AX,08-JUL-2014,,End Of Day,,4.68,4.73,4.59,4.64,1305402,,,Verified
GEM.AX,09-JUL-2014,,End Of Day,,4.62,4.62,4.51,4.6,1582919,,,Verified
GEM.AX,10-JUL-2014,,End Of Day,,4.59,4.61,4.51,4.54,2331789,,,Verified
GEM.AX,11-JUL-2014,,End Of Day,,4.5,4.51,4.41,4.46,2133373,,,Verified
GEM.AX,12-JUL-2014,,End Of Day,No Trades,,,,,,,,Verified
GEM.AX,13-JUL-2014,,End Of Day,No Trades,,,,,,,,Verified
GEM.AX,14-JUL-2014,,End Of Day,,4.45,4.5,4.43,4.43,1742166,,,Verified
GEM.AX,15-JUL-2014,,End Of Day,,4.48,4.5,4.46,4.46,1210659,,,Verified
GEM.AX,16-JUL-2014,,End Of Day,,4.49,4.5,4.46,4.46,1474577,,,Verified
GEM.AX,17-JUL-2014,,End Of Day,,4.55,4.55,4.42,4.43,2167601,,,Verified
GEM.AX,18-JUL-2014,,End Of Day,,4.4,4.42,4.38,4.42,1099304,,,Verified
GEM.AX,19-JUL-2014,,End Of Day,No Trades,,,,,,,,Verified
GEM.AX,20-JUL-2014,,End Of Day,No Trades,,,,,,,,Verified
GEM.AX,21-JUL-2014,,End Of Day,,4.45,4.52,4.43,4.43,1514727,,,Verified
GEM.AX,22-JUL-2014,,End Of Day,,4.42,4.69,4.42,4.68,2377527,,,Verified
GEM.AX,23-JUL-2014,,End Of Day,,4.68,4.82,4.68,4.76,3540415,,,Verified
GEM.AX,24-JUL-2014,,End Of Day,,4.8,4.84,4.77,4.8,1433583,,,Verified
GEM.AX,25-JUL-2014,,End Of Day,,4.77,4.83,4.75,4.83,1152157,,,Verified
GEM.AX,26-JUL-2014,,End Of Day,No Trades,,,,,,,,Verified
GEM.AX,27-JUL-2014,,End Of Day,No Trades,,,,,,,,Verified
GEM.AX,28-JUL-2014,,End Of Day,,4.8,4.89,4.78,4.89,2410299,,,Verified
GEM.AX,29-JUL-2014,,End Of Day,,4.95,4.98,4.92,4.93,2214009,,,Verified
GEM.AX,30-JUL-2014,,End Of Day,,4.92,5.005,4.92,4.97,1362465,,,Verified
GEM.AX,31-JUL-2014,,End Of Day,,4.97,5.01,4.96,4.99,1237742,,,Verified
GEM.AX,01-AUG-2014,,End Of Day,,4.92,4.92,4.88,4.92,1653772,,,Verified
GEM.AX,02-AUG-2014,,End Of Day,No Trades,,,,,,,,Verified
GEM.AX,03-AUG-2014,,End Of Day,No Trades,,,,,,,,Verified
GEM.AX,04-AUG-2014,,End Of Day,,4.89,4.94,4.88,4.9,839095,,,Verified
GEM.AX,05-AUG-2014,,End Of Day,,4.89,4.93,4.81,4.82,1287344,,,Verified
GEM.AX,06-AUG-2014,,End Of Day,,4.81,4.87,4.81,4.85,972388,,,Verified
GEM.AX,07-AUG-2014,,End Of Day,,4.85,4.88,4.84,4.85,1147256,,,Verified
GEM.AX,08-AUG-2014,,End Of Day,,4.85,4.86,4.73,4.78,1467251,,,Verified
GEM.AX,09-AUG-2014,,End Of Day,No Trades,,,,,,,,Verified
GEM.AX,10-AUG-2014,,End Of Day,No Trades,,,,,,,,Verified
GEM.AX,11-AUG-2014,,End Of Day,,4.86,5.07,4.86,4.91,4143368,,,Verified
GEM.AX,12-AUG-2014,,End Of Day,,4.98,5.2,4.98,5.18,6294638,,,Verified
GEM.AX,13-AUG-2014,,End Of Day,,5.15,5.29,5.1,5.15,3069769,,,Verified
GEM.AX,14-AUG-2014,,End Of Day,,5.17,5.28,5.16,5.24,2184775,,,Verified
GEM.AX,15-AUG-2014,,End Of Day,,5.27,5.29,5.19,5.25,1267797,,,Verified
GEM.AX,16-AUG-2014,,End Of Day,No Trades,,,,,,,,Verified
GEM.AX,17-AUG-2014,,End Of Day,No Trades,,,,,,,,Verified
GEM.AX,18-AUG-2014,,End Of Day,,5.27,5.29,5.19,5.21,1945268,,,Verified
GEM.AX,19-AUG-2014,,End Of Day,,5.23,5.27,5.2,5.25,1131410,,,Verified
GEM.AX,20-AUG-2014,,End Of Day,,5.27,5.27,5.23,5.25,1282221,,,Verified
GEM.AX,21-AUG-2014,,End Of Day,,5.28,5.3,5.25,5.26,1085149,,,Verified
GEM.AX,22-AUG-2014,,End Of Day,,5.28,5.38,5.25,5.35,1941749,,,Verified
GEM.AX,23-AUG-2014,,End Of Day,No Trades,,,,,,,,Verified
GEM.AX,24-AUG-2014,,End Of Day,No Trades,,,,,,,,Verified
GEM.AX,25-AUG-2014,,End Of Day,,5.37,5.46,5.365,5.38,2518047,,,Verified
GEM.AX,26-AUG-2014,,End Of Day,,5.39,5.44,5.35,5.39,1500839,,,Verified
GEM.AX,27-AUG-2014,,End Of Day,,5.42,5.45,5.39,5.42,891944,,,Verified
GEM.AX,28-AUG-2014,,End Of Day,,5.4,5.41,5.28,5.29,1326148,,,Verified
GEM.AX,29-AUG-2014,,End Of Day,,5.31,5.38,5.3,5.38,1509668,,,Verified
GEM.AX,30-AUG-2014,,End Of Day,No Trades,,,,,,,,Verified
GEM.AX,31-AUG-2014,,End Of Day,No Trades,,,,,,,,Verified
GEM.AX,01-SEP-2014,,End Of Day,,5.38,5.45,5.37,5.37,832506,,,Verified
GEM.AX,02-SEP-2014,,End Of Day,,5.38,5.38,5.33,5.35,1250003,,,Verified
GEM.AX,03-SEP-2014,,End Of Day,,5.36,5.45,5.36,5.41,1998008,,,Verified
GEM.AX,04-SEP-2014,,End Of Day,,5.43,5.465,5.405,5.42,1581769,,,Verified
GEM.AX,05-SEP-2014,,End Of Day,,5.52,5.62,5.46,5.58,3961910,,,Verified
GEM.AX,06-SEP-2014,,End Of Day,No Trades,,,,,,,,Verified
GEM.AX,07-SEP-2014,,End Of Day,No Trades,,,,,,,,Verified
GEM.AX,08-SEP-2014,,End Of Day,,5.58,5.63,5.53,5.59,1548872,,,Verified
GEM.AX,09-SEP-2014,,End Of Day,,5.59,5.63,5.51,5.54,1077463,,,Verified
GEM.AX,10-SEP-2014,,End Of Day,,5.52,5.56,5.46,5.49,1195796,,,Verified
GEM.AX,11-SEP-2014,,End Of Day,,5.47,5.51,5.39,5.39,1728457,,,Verified
GEM.AX,12-SEP-2014,,End Of Day,,5.38,5.4,5.29,5.34,1636676,,,Verified
GEM.AX,13-SEP-2014,,End Of Day,No Trades,,,,,,,,Verified
GEM.AX,14-SEP-2014,,End Of Day,No Trades,,,,,,,,Verified
GEM.AX,15-SEP-2014,,End Of Day,,5.32,5.34,5.26,5.31,1486433,,,Verified
GEM.AX,16-SEP-2014,,End Of Day,,5.35,5.35,5.19,5.22,2414729,,,Verified
GEM.AX,17-SEP-2014,,End Of Day,,5.25,5.29,5.18,5.27,2395720,,,Verified
GEM.AX,18-SEP-2014,,End Of Day,,5.33,5.38,5.3,5.34,2825458,,,Verified
GEM.AX,19-SEP-2014,,End Of Day,,5.39,5.4,5.34,5.4,3293686,,,Verified
GEM.AX,20-SEP-2014,,End Of Day,No Trades,,,,,,,,Verified
GEM.AX,21-SEP-2014,,End Of Day,No Trades,,,,,,,,Verified
GEM.AX,22-SEP-2014,,End Of Day,,5.41,5.44,5.29,5.34,1397398,,,Verified
GEM.AX,23-SEP-2014,,End Of Day,,5.33,5.385,5.28,5.35,3512925,,,Verified
GEM.AX,24-SEP-2014,,End Of Day,,5.35,5.38,5.3,5.36,1213485,,,Verified
GEM.AX,25-SEP-2014,,End Of Day,,5.35,5.38,5.25,5.25,1220099,,,Verified
GEM.AX,26-SEP-2014,,End Of Day,,5.12,5.14,5.08,5.13,968519,,,Verified
GEM.AX,27-SEP-2014,,End Of Day,No Trades,,,,,,,,Verified
GEM.AX,28-SEP-2014,,End Of Day,No Trades,,,,,,,,Verified
GEM.AX,29-SEP-2014,,End Of Day,,5.05,5.1,4.96,5.06,1604432,,,Verified
GEM.AX,30-SEP-2014,,End Of Day,,5.05,5.17,5.03,5.12,945012,,,Verified
GEM.AX,01-OCT-2014,,End Of Day,,5.09,5.18,5.06,5.16,1573287,,,Verified
GEM.AX,02-OCT-2014,,End Of Day,,5.09,5.16,5.07,5.13,876877,,,Verified
GEM.AX,03-OCT-2014,,End Of Day,,5.14,5.245,5.12,5.24,1128446,,,Verified
GEM.AX,04-OCT-2014,,End Of Day,No Trades,,,,,,,,Verified
GEM.AX,05-OCT-2014,,End Of Day,No Trades,,,,,,,,Verified
GEM.AX,06-OCT-2014,,End Of Day,,5.24,5.24,5.14,5.2,466480,,,Verified
GEM.AX,07-OCT-2014,,End Of Day,,5.2,5.2,5.05,5.13,818636,,,Verified
GEM.AX,08-OCT-2014,,End Of Day,,5.05,5.06,4.96,5.06,1338180,,,Verified
GEM.AX,09-OCT-2014,,End Of Day,,5.07,5.15,5.07,5.11,1060953,,,Verified
GEM.AX,10-OCT-2014,,End Of Day,,4.96,5.05,4.86,5.01,2137852,,,Verified
GEM.AX,11-OCT-2014,,End Of Day,No Trades,,,,,,,,Verified
GEM.AX,12-OCT-2014,,End Of Day,No Trades,,,,,,,,Verified
GEM.AX,13-OCT-2014,,End Of Day,,4.99,5,4.96,4.98,920632,,,Verified
GEM.AX,14-OCT-2014,,End Of Day,,4.94,4.95,4.86,4.91,1310861,,,Verified
GEM.AX,15-OCT-2014,,End Of Day,,4.86,4.95,4.86,4.91,895159,,,Verified
GEM.AX,16-OCT-2014,,End Of Day,,4.87,4.87,4.73,4.82,1341187,,,Verified
GEM.AX,17-OCT-2014,,End Of Day,,4.83,5.07,4.83,5.06,2565682,,,Verified
GEM.AX,18-OCT-2014,,End Of Day,No Trades,,,,,,,,Verified
GEM.AX,19-OCT-2014,,End Of Day,No Trades,,,,,,,,Verified
GEM.AX,20-OCT-2014,,End Of Day,,5.13,5.2,5.12,5.17,1379089,,,Verified
GEM.AX,21-OCT-2014,,End Of Day,,5.18,5.2,5.11,5.14,903850,,,Verified
GEM.AX,23-OCT-2014,,End Of Day,,5.1,5.14,4.99,5.02,4589589,,,Verified
GEM.AX,24-OCT-2014,,End Of Day,,5.09,5.17,5.04,5.1,4086312,,,Verified
GEM.AX,25-OCT-2014,,End Of Day,No Trades,,,,,,,,Verified
GEM.AX,26-OCT-2014,,End Of Day,No Trades,,,,,,,,Verified
GEM.AX,27-OCT-2014,,End Of Day,,5.14,5.18,5.07,5.12,2297077,,,Verified
GEM.AX,28-OCT-2014,,End Of Day,,5.1,5.19,5.07,5.1,3061104,,,Verified
GEM.AX,29-OCT-2014,,End Of Day,,5.1,5.1,4.98,5.02,2717332,,,Verified
GEM.AX,30-OCT-2014,,End Of Day,,5.06,5.08,5.01,5.03,2114644,,,Verified
GEM.AX,31-OCT-2014,,End Of Day,,5.02,5.03,4.91,4.99,3073746,,,Verified
GEM.AX,01-NOV-2014,,End Of Day,No Trades,,,,,,,,Verified
GEM.AX,02-NOV-2014,,End Of Day,No Trades,,,,,,,,Verified
GEM.AX,03-NOV-2014,,End Of Day,,4.99,5.06,4.94,4.97,1724858,,,Verified
GEM.AX,04-NOV-2014,,End Of Day,,4.96,5.02,4.9,4.91,1412977,,,Verified
GEM.AX,05-NOV-2014,,End Of Day,,4.9,4.92,4.83,4.88,2292278,,,Verified
GEM.AX,06-NOV-2014,,End Of Day,,4.89,4.93,4.84,4.86,961605,,,Verified
GEM.AX,07-NOV-2014,,End Of Day,,4.93,4.99,4.82,4.82,1574945,,,Verified
GEM.AX,08-NOV-2014,,End Of Day,No Trades,,,,,,,,Verified
GEM.AX,09-NOV-2014,,End Of Day,No Trades,,,,,,,,Verified
GEM.AX,10-NOV-2014,,End Of Day,,4.8,4.82,4.585,4.6,4118665,,,Verified
GEM.AX,11-NOV-2014,,End Of Day,,4.6,4.67,4.6,4.66,4201466,,,Verified
GEM.AX,12-NOV-2014,,End Of Day,,4.71,4.84,4.71,4.78,2532612,,,Verified
GEM.AX,13-NOV-2014,,End Of Day,,4.8,4.84,4.71,4.71,2008063,,,Verified
GEM.AX,14-NOV-2014,,End Of Day,,4.76,4.78,4.72,4.77,1072788,,,Verified
GEM.AX,15-NOV-2014,,End Of Day,No Trades,,,,,,,,Verified
GEM.AX,16-NOV-2014,,End Of Day,No Trades,,,,,,,,Verified
GEM.AX,17-NOV-2014,,End Of Day,,4.74,4.76,4.68,4.69,953635,,,Verified
GEM.AX,18-NOV-2014,,End Of Day,,4.7,4.74,4.68,4.7,2244087,,,Verified
GEM.AX,19-NOV-2014,,End Of Day,,4.68,4.68,4.54,4.62,1475509,,,Verified
GEM.AX,20-NOV-2014,,End Of Day,,4.62,4.63,4.33,4.47,4541573,,,Verified
GEM.AX,21-NOV-2014,,End Of Day,,4.48,4.65,4.48,4.6,1887730,,,Verified
GEM.AX,22-NOV-2014,,End Of Day,No Trades,,,,,,,,Verified
GEM.AX,23-NOV-2014,,End Of Day,No Trades,,,,,,,,Verified
GEM.AX,24-NOV-2014,,End Of Day,,4.62,4.71,4.57,4.59,1302735,,,Verified
GEM.AX,25-NOV-2014,,End Of Day,,4.6,4.61,4.38,4.45,3601309,,,Verified
GEM.AX,26-NOV-2014,,End Of Day,,4.38,4.53,4.36,4.48,2556625,,,Verified
GEM.AX,27-NOV-2014,,End Of Day,,4.51,4.57,4.48,4.51,714712,,,Verified
GEM.AX,28-NOV-2014,,End Of Day,,4.5,4.5,4.4,4.45,1703583,,,Verified
GEM.AX,29-NOV-2014,,End Of Day,No Trades,,,,,,,,Verified
GEM.AX,30-NOV-2014,,End Of Day,No Trades,,,,,,,,Verified
GEM.AX,01-DEC-2014,,End Of Day,,4.44,4.45,4.04,4.13,5493753,,,Verified
GEM.AX,02-DEC-2014,,End Of Day,,4.16,4.28,4.16,4.26,1302067,,,Verified
GEM.AX,04-DEC-2014,,End Of Day,,4.45,4.54,4.39,4.51,4168476,,,Verified
GEM.AX,05-DEC-2014,,End Of Day,,4.6,4.71,4.58,4.7,4685966,,,Verified
GEM.AX,06-DEC-2014,,End Of Day,No Trades,,,,,,,,Verified
GEM.AX,07-DEC-2014,,End Of Day,No Trades,,,,,,,,Verified
GEM.AX,08-DEC-2014,,End Of Day,,4.81,4.83,4.695,4.79,2761591,,,Verified
GEM.AX,09-DEC-2014,,End Of Day,,4.75,4.76,4.53,4.56,3004623,,,Verified
GEM.AX,10-DEC-2014,,End Of Day,,4.52,4.54,4.39,4.45,1999656,,,Verified
GEM.AX,11-DEC-2014,,End Of Day,,4.42,4.47,4.35,4.41,2584784,,,Verified
GEM.AX,12-DEC-2014,,End Of Day,,4.43,4.43,4.15,4.26,3296569,,,Verified
GEM.AX,13-DEC-2014,,End Of Day,No Trades,,,,,,,,Verified
GEM.AX,14-DEC-2014,,End Of Day,No Trades,,,,,,,,Verified
GEM.AX,15-DEC-2014,,End Of Day,,4.19,4.31,4.15,4.27,1442925,,,Verified
GEM.AX,16-DEC-2014,,End Of Day,,4.27,4.33,4.22,4.3,1938342,,,Verified
GEM.AX,17-DEC-2014,,End Of Day,,4.22,4.42,4.2,4.34,1450901,,,Verified
GEM.AX,18-DEC-2014,,End Of Day,,4.32,4.34,4.06,4.17,3997655,,,Verified
GEM.AX,19-DEC-2014,,End Of Day,,4.19,4.24,4.13,4.17,2678286,,,Verified
GEM.AX,20-DEC-2014,,End Of Day,No Trades,,,,,,,,Verified
GEM.AX,21-DEC-2014,,End Of Day,No Trades,,,,,,,,Verified
GEM.AX,22-DEC-2014,,End Of Day,,4.22,4.46,4.21,4.46,2001106,,,Verified
GEM.AX,23-DEC-2014,,End Of Day,,4.4,4.42,4.245,4.3,1942003,,,Verified
GEM.AX,24-DEC-2014,,End Of Day,,4.31,4.32,4.15,4.17,922001,,,Verified
GEM.AX,25-DEC-2014,,End Of Day,No Trades,,,,,,,,Verified
GEM.AX,26-DEC-2014,,End Of Day,No Trades,,,,,,,,Verified
GEM.AX,27-DEC-2014,,End Of Day,No Trades,,,,,,,,Verified
GEM.AX,28-DEC-2014,,End Of Day,No Trades,,,,,,,,Verified
GEM.AX,29-DEC-2014,,End Of Day,,4.2,4.3,4.17,4.26,606599,,,Verified
GEM.AX,30-DEC-2014,,End Of Day,,4.27,4.28,4.19,4.19,640490,,,Verified
GEM.AX,31-DEC-2014,,End Of Day,,4.23,4.23,4.12,4.17,534115,,,Verified
GEM.AX,01-JAN-2015,,End Of Day,No Trades,,,,,,,,Verified
GEM.AX,02-JAN-2015,,End Of Day,,4.18,4.29,4.13,4.26,1182084,,,Verified
GEM.AX,03-JAN-2015,,End Of Day,No Trades,,,,,,,,Verified
GEM.AX,04-JAN-2015,,End Of Day,No Trades,,,,,,,,Verified
GEM.AX,05-JAN-2015,,End Of Day,,4.25,4.31,4.22,4.26,1832998,,,Verified
GEM.AX,06-JAN-2015,,End Of Day,,4.21,4.22,4.12,4.15,1606629,,,Verified
GEM.AX,07-JAN-2015,,End Of Day,,4.11,4.13,4.04,4.07,2180761,,,Verified
GEM.AX,08-JAN-2015,,End Of Day,,4.1,4.13,3.96,3.98,2812399,,,Verified
GEM.AX,09-JAN-2015,,End Of Day,,3.98,4.12,3.54,4.08,5183800,,,Verified
GEM.AX,10-JAN-2015,,End Of Day,No Trades,,,,,,,,Verified
GEM.AX,11-JAN-2015,,End Of Day,No Trades,,,,,,,,Verified
GEM.AX,12-JAN-2015,,End Of Day,,4.03,4.07,3.91,4,2125921,,,Verified
GEM.AX,13-JAN-2015,,End Of Day,,3.97,3.99,3.78,3.8,4191900,,,Verified
GEM.AX,14-JAN-2015,,End Of Day,,3.81,3.9,3.81,3.87,5238238,,,Verified
GEM.AX,15-JAN-2015,,End Of Day,,3.84,3.96,3.84,3.9,3247206,,,Verified
GEM.AX,16-JAN-2015,,End Of Day,,3.85,3.88,3.82,3.86,2447554,,,Verified
GEM.AX,17-JAN-2015,,End Of Day,No Trades,,,,,,,,Verified
GEM.AX,18-JAN-2015,,End Of Day,No Trades,,,,,,,,Verified
GEM.AX,19-JAN-2015,,End Of Day,,3.89,3.99,3.88,3.93,1993187,,,Verified
GEM.AX,20-JAN-2015,,End Of Day,,3.95,3.96,3.84,3.91,1629385,,,Verified
GEM.AX,21-JAN-2015,,End Of Day,,3.85,3.9,3.83,3.88,1379211,,,Verified
GEM.AX,22-JAN-2015,,End Of Day,,3.94,3.98,3.83,3.85,1375361,,,Verified
GEM.AX,23-JAN-2015,,End Of Day,,3.9,4.01,3.87,3.96,1476094,,,Verified
GEM.AX,24-JAN-2015,,End Of Day,No Trades,,,,,,,,Verified
GEM.AX,25-JAN-2015,,End Of Day,No Trades,,,,,,,,Verified
GEM.AX,26-JAN-2015,,End Of Day,No Trades,,,,,,,,Verified
GEM.AX,27-JAN-2015,,End Of Day,,3.99,4.12,3.98,4.08,1723476,,,Verified
GEM.AX,28-JAN-2015,,End Of Day,,4.07,4.18,4.01,4.16,2245071,,,Verified
GEM.AX,29-JAN-2015,,End Of Day,,4.13,4.18,4.06,4.14,1628196,,,Verified
GEM.AX,30-JAN-2015,,End Of Day,,4.17,4.24,4.15,4.2,1913163,,,Verified
GEM.AX,31-JAN-2015,,End Of Day,No Trades,,,,,,,,Verified
GEM.AX,01-FEB-2015,,End Of Day,No Trades,,,,,,,,Verified
GEM.AX,02-FEB-2015,,End Of Day,,4.23,4.34,4.22,4.29,3651296,,,Verified
GEM.AX,03-FEB-2015,,End Of Day,,4.37,4.51,4.35,4.44,5647572,,,Verified
GEM.AX,04-FEB-2015,,End Of Day,,4.55,4.58,4.47,4.51,2807600,,,Verified
GEM.AX,05-FEB-2015,,End Of Day,,4.54,4.66,4.54,4.65,2488709,,,Verified
GEM.AX,06-FEB-2015,,End Of Day,,4.68,4.72,4.56,4.58,1881521,,,Verified
GEM.AX,07-FEB-2015,,End Of Day,No Trades,,,,,,,,Verified
GEM.AX,08-FEB-2015,,End Of Day,No Trades,,,,,,,,Verified
GEM.AX,09-FEB-2015,,End Of Day,,4.57,4.58,4.47,4.51,1508899,,,Verified
GEM.AX,10-FEB-2015,,End Of Day,,4.5,4.54,4.49,4.5,1238239,,,Verified
GEM.AX,11-FEB-2015,,End Of Day,,4.49,4.53,4.43,4.51,1875783,,,Verified
GEM.AX,12-FEB-2015,,End Of Day,,4.56,4.75,4.56,4.75,3130681,,,Verified
GEM.AX,13-FEB-2015,,End Of Day,,4.84,4.87,4.75,4.78,3882276,,,Verified
GEM.AX,14-FEB-2015,,End Of Day,No Trades,,,,,,,,Verified
GEM.AX,15-FEB-2015,,End Of Day,No Trades,,,,,,,,Verified
GEM.AX,16-FEB-2015,,End Of Day,,4.7,4.7,4.28,4.3,7637750,,,Verified
GEM.AX,17-FEB-2015,,End Of Day,,4.33,4.37,3.92,4.28,11571753,,,Verified
GEM.AX,18-FEB-2015,,End Of Day,,4.33,4.58,4.27,4.32,5855538,,,Verified
GEM.AX,19-FEB-2015,,End Of Day,,4.38,4.535,4.365,4.48,3715628,,,Verified
GEM.AX,20-FEB-2015,,End Of Day,,4.46,4.47,4.23,4.33,4390838,,,Verified
GEM.AX,21-FEB-2015,,End Of Day,No Trades,,,,,,,,Verified
GEM.AX,22-FEB-2015,,End Of Day,No Trades,,,,,,,,Verified
GEM.AX,23-FEB-2015,,End Of Day,,4.33,4.375,4.26,4.28,2572532,,,Verified
GEM.AX,24-FEB-2015,,End Of Day,,4.25,4.45,4.25,4.44,2808861,,,Verified
GEM.AX,25-FEB-2015,,End Of Day,,4.45,4.48,4.3,4.38,3019047,,,Verified
GEM.AX,26-FEB-2015,,End Of Day,,4.4,4.4,4.31,4.38,2838348,,,Verified
GEM.AX,27-FEB-2015,,End Of Day,,4.37,4.39,4.28,4.36,3096066,,,Verified
GEM.AX,28-FEB-2015,,End Of Day,No Trades,,,,,,,,Verified
GEM.AX,01-MAR-2015,,End Of Day,No Trades,,,,,,,,Verified
GEM.AX,02-MAR-2015,,End Of Day,,4.34,4.37,4.18,4.18,3276434,,,Verified
GEM.AX,03-MAR-2015,,End Of Day,,4.19,4.26,4.06,4.11,3181434,,,Verified
GEM.AX,04-MAR-2015,,End Of Day,,4.1,4.16,4.04,4.04,3374535,,,Verified
GEM.AX,05-MAR-2015,,End Of Day,,4.05,4.06,3.92,3.98,8825858,,,Verified
GEM.AX,06-MAR-2015,,End Of Day,,4,4.04,3.915,3.93,4172548,,,Verified
GEM.AX,07-MAR-2015,,End Of Day,No Trades,,,,,,,,Verified
GEM.AX,08-MAR-2015,,End Of Day,No Trades,,,,,,,,Verified
GEM.AX,09-MAR-2015,,End Of Day,,3.91,3.94,3.83,3.84,3352909,,,Verified
GEM.AX,10-MAR-2015,,End Of Day,,3.87,3.91,3.69,3.7,7159591,,,Verified
GEM.AX,11-MAR-2015,,End Of Day,,3.62,3.675,3.59,3.63,8131656,,,Verified
GEM.AX,12-MAR-2015,,End Of Day,,3.65,3.82,3.64,3.8,2794412,,,Verified
GEM.AX,13-MAR-2015,,End Of Day,,3.83,3.87,3.75,3.75,2050511,,,Verified
GEM.AX,14-MAR-2015,,End Of Day,No Trades,,,,,,,,Verified
GEM.AX,15-MAR-2015,,End Of Day,No Trades,,,,,,,,Verified
GEM.AX,16-MAR-2015,,End Of Day,,3.76,3.79,3.69,3.69,1289838,,,Verified
GEM.AX,17-MAR-2015,,End Of Day,,3.72,3.72,3.53,3.55,10967506,,,Verified
GEM.AX,18-MAR-2015,,End Of Day,,3.52,3.56,3.45,3.47,7462991,,,Verified
GEM.AX,19-MAR-2015,,End Of Day,,3.59,3.64,3.51,3.56,5900288,,,Verified
GEM.AX,20-MAR-2015,,End Of Day,,3.57,3.62,3.525,3.61,4721349,,,Verified
GEM.AX,21-MAR-2015,,End Of Day,No Trades,,,,,,,,Verified
GEM.AX,22-MAR-2015,,End Of Day,No Trades,,,,,,,,Verified
GEM.AX,23-MAR-2015,,End Of Day,,3.64,3.7,3.58,3.62,2504251,,,Verified
GEM.AX,24-MAR-2015,,End Of Day,,3.69,3.75,3.61,3.68,3327009,,,Verified
GEM.AX,25-MAR-2015,,End Of Day,,3.7,3.74,3.65,3.7,2583283,,,Verified
GEM.AX,26-MAR-2015,,End Of Day,,3.7,3.7,3.61,3.64,2532583,,,Verified
GEM.AX,27-MAR-2015,,End Of Day,,3.56,3.66,3.55,3.62,1615902,,,Verified
GEM.AX,28-MAR-2015,,End Of Day,No Trades,,,,,,,,Verified
GEM.AX,29-MAR-2015,,End Of Day,No Trades,,,,,,,,Verified
GEM.AX,30-MAR-2015,,End Of Day,,3.6,3.61,3.53,3.55,1691145,,,Verified
GEM.AX,31-MAR-2015,,End Of Day,,3.63,3.63,3.25,3.36,10809315,,,Verified
GEM.AX,01-APR-2015,,End Of Day,,3.42,3.43,3.21,3.22,7903365,,,Verified
GEM.AX,02-APR-2015,,End Of Day,,3.25,3.285,3.21,3.22,4718034,,,Verified
GEM.AX,03-APR-2015,,End Of Day,No Trades,,,,,,,,Verified
GEM.AX,04-APR-2015,,End Of Day,No Trades,,,,,,,,Verified
GEM.AX,05-APR-2015,,End Of Day,No Trades,,,,,,,,Verified
GEM.AX,06-APR-2015,,End Of Day,No Trades,,,,,,,,Verified
GEM.AX,07-APR-2015,,End Of Day,,3.26,3.32,3.21,3.22,3778626,,,Verified
GEM.AX,08-APR-2015,,End Of Day,,3.25,3.41,3.25,3.4,4920944,,,Verified
GEM.AX,09-APR-2015,,End Of Day,,3.42,3.57,3.4,3.51,6175214,,,Verified
GEM.AX,10-APR-2015,,End Of Day,,3.56,3.72,3.54,3.71,7263783,,,Verified
GEM.AX,11-APR-2015,,End Of Day,No Trades,,,,,,,,Verified
GEM.AX,12-APR-2015,,End Of Day,No Trades,,,,,,,,Verified
GEM.AX,13-APR-2015,,End Of Day,,3.75,3.78,3.68,3.76,5173833,,,Verified
GEM.AX,14-APR-2015,,End Of Day,,3.76,3.77,3.66,3.72,2278295,,,Verified
GEM.AX,15-APR-2015,,End Of Day,,3.7,3.7,3.63,3.65,1935438,,,Verified
GEM.AX,16-APR-2015,,End Of Day,,3.67,3.73,3.66,3.69,1070791,,,Verified
GEM.AX,17-APR-2015,,End Of Day,,3.69,3.69,3.5,3.58,2843629,,,Verified
GEM.AX,18-APR-2015,,End Of Day,No Trades,,,,,,,,Verified
GEM.AX,19-APR-2015,,End Of Day,No Trades,,,,,,,,Verified
GEM.AX,20-APR-2015,,End Of Day,,3.56,3.59,3.49,3.56,2432064,,,Verified
GEM.AX,21-APR-2015,,End Of Day,,3.55,3.55,3.3,3.33,9609275,,,Verified
GEM.AX,22-APR-2015,,End Of Day,,3.39,3.47,3.35,3.41,3337633,,,Verified
GEM.AX,23-APR-2015,,End Of Day,,3.44,3.52,3.42,3.5,3297645,,,Verified
GEM.AX,24-APR-2015,,End Of Day,,3.53,3.685,3.52,3.63,3887778,,,Verified
GEM.AX,25-APR-2015,,End Of Day,No Trades,,,,,,,,Verified
GEM.AX,26-APR-2015,,End Of Day,No Trades,,,,,,,,Verified
GEM.AX,27-APR-2015,,End Of Day,,3.68,3.79,3.66,3.79,3514716,,,Verified
GEM.AX,28-APR-2015,,End Of Day,,3.78,3.78,3.65,3.74,1985548,,,Verified
GEM.AX,29-APR-2015,,End Of Day,,3.73,3.74,3.64,3.69,1930572,,,Verified
GEM.AX,30-APR-2015,,End Of Day,,3.67,3.67,3.58,3.61,3084202,,,Verified
GEM.AX,01-MAY-2015,,End Of Day,,3.6,3.62,3.55,3.6,1900612,,,Verified
GEM.AX,02-MAY-2015,,End Of Day,No Trades,,,,,,,,Verified
GEM.AX,03-MAY-2015,,End Of Day,No Trades,,,,,,,,Verified
GEM.AX,04-MAY-2015,,End Of Day,,3.58,3.71,3.58,3.68,2525985,,,Verified
GEM.AX,05-MAY-2015,,End Of Day,,3.71,3.8,3.7,3.73,3017110,,,Verified
GEM.AX,06-MAY-2015,,End Of Day,,3.71,3.84,3.68,3.8,4432543,,,Verified
GEM.AX,07-MAY-2015,,End Of Day,,3.71,3.74,3.57,3.66,3231962,,,Verified
GEM.AX,08-MAY-2015,,End Of Day,,3.64,3.84,3.64,3.78,3665173,,,Verified
GEM.AX,09-MAY-2015,,End Of Day,No Trades,,,,,,,,Verified
GEM.AX,10-MAY-2015,,End Of Day,No Trades,,,,,,,,Verified
GEM.AX,11-MAY-2015,,End Of Day,,3.95,4.12,3.92,4.01,9969661,,,Verified
GEM.AX,12-MAY-2015,,End Of Day,,4.07,4.09,3.955,4.03,4843269,,,Verified
GEM.AX,13-MAY-2015,,End Of Day,,4.09,4.12,3.98,4.01,4743124,,,Verified
GEM.AX,14-MAY-2015,,End Of Day,,4,4.135,3.97,4.11,3257959,,,Verified
GEM.AX,15-MAY-2015,,End Of Day,,4.14,4.15,4.06,4.12,2919765,,,Verified
GEM.AX,16-MAY-2015,,End Of Day,No Trades,,,,,,,,Verified
GEM.AX,17-MAY-2015,,End Of Day,No Trades,,,,,,,,Verified
GEM.AX,18-MAY-2015,,End Of Day,,4.1,4.13,4.01,4.03,1580378,,,Verified
GEM.AX,19-MAY-2015,,End Of Day,,4.07,4.07,3.985,3.99,2642600,,,Verified
GEM.AX,20-MAY-2015,,End Of Day,,4,4.01,3.91,3.98,2830113,,,Verified
GEM.AX,21-MAY-2015,,End Of Day,,3.96,3.98,3.88,3.89,3554136,,,Verified
GEM.AX,22-MAY-2015,,End Of Day,,3.88,3.88,3.65,3.77,6274447,,,Verified
GEM.AX,23-MAY-2015,,End Of Day,No Trades,,,,,,,,Verified
GEM.AX,24-MAY-2015,,End Of Day,No Trades,,,,,,,,Verified
GEM.AX,25-MAY-2015,,End Of Day,,3.77,3.85,3.72,3.76,2815029,,,Verified
GEM.AX,26-MAY-2015,,End Of Day,,3.75,3.85,3.72,3.77,3508866,,,Verified
GEM.AX,27-MAY-2015,,End Of Day,,3.76,3.83,3.76,3.77,1660690,,,Verified
GEM.AX,28-MAY-2015,,End Of Day,,3.78,3.79,3.74,3.75,1935123,,,Verified
GEM.AX,29-MAY-2015,,End Of Day,,3.75,3.77,3.7,3.75,2554907,,,Verified
GEM.AX,30-MAY-2015,,End Of Day,No Trades,,,,,,,,Verified
GEM.AX,31-MAY-2015,,End Of Day,No Trades,,,,,,,,Verified
GEM.AX,01-JUN-2015,,End Of Day,,3.75,3.76,3.72,3.75,1894094,,,Verified
GEM.AX,02-JUN-2015,,End Of Day,,3.77,3.81,3.72,3.77,2700355,,,Verified
GEM.AX,03-JUN-2015,,End Of Day,,3.76,3.8,3.62,3.73,3043546,,,Verified
GEM.AX,04-JUN-2015,,End Of Day,,3.74,3.78,3.665,3.7,2397753,,,Verified
GEM.AX,05-JUN-2015,,End Of Day,,3.69,3.79,3.69,3.75,1731866,,,Verified
GEM.AX,06-JUN-2015,,End Of Day,No Trades,,,,,,,,Verified
GEM.AX,07-JUN-2015,,End Of Day,No Trades,,,,,,,,Verified
GEM.AX,08-JUN-2015,,End Of Day,No Trades,,,,,,,,Verified
GEM.AX,09-JUN-2015,,End Of Day,,3.74,3.76,3.7,3.71,2465785,,,Verified
GEM.AX,10-JUN-2015,,End Of Day,,3.71,3.76,3.66,3.71,1580038,,,Verified
GEM.AX,11-JUN-2015,,End Of Day,,3.74,3.78,3.74,3.76,1236458,,,Verified
GEM.AX,12-JUN-2015,,End Of Day,,3.78,3.86,3.75,3.8,2440185,,,Verified
GEM.AX,13-JUN-2015,,End Of Day,No Trades,,,,,,,,Verified
GEM.AX,14-JUN-2015,,End Of Day,No Trades,,,,,,,,Verified
GEM.AX,15-JUN-2015,,End Of Day,,3.81,3.82,3.74,3.75,1595064,,,Verified
GEM.AX,16-JUN-2015,,End Of Day,,3.75,3.76,3.61,3.62,3325897,,,Verified
GEM.AX,17-JUN-2015,,End Of Day,,3.63,3.65,3.55,3.6,2768243,,,Verified
GEM.AX,18-JUN-2015,,End Of Day,,3.55,3.56,3.43,3.44,5343334,,,Verified
GEM.AX,19-JUN-2015,,End Of Day,,3.46,3.5,3.44,3.48,4628244,,,Verified
GEM.AX,20-JUN-2015,,End Of Day,No Trades,,,,,,,,Verified
GEM.AX,21-JUN-2015,,End Of Day,No Trades,,,,,,,,Verified
GEM.AX,22-JUN-2015,,End Of Day,,3.47,3.48,3.39,3.4,3178863,,,Verified
GEM.AX,23-JUN-2015,,End Of Day,,3.45,3.46,3.35,3.38,4016198,,,Verified
GEM.AX,24-JUN-2015,,End Of Day,,3.34,3.39,3.25,3.36,1987669,,,Verified
GEM.AX,25-JUN-2015,,End Of Day,,3.36,3.43,3.33,3.36,2816204,,,Verified
GEM.AX,26-JUN-2015,,End Of Day,,3.33,3.35,3.21,3.3,3582120,,,Verified
GEM.AX,27-JUN-2015,,End Of Day,No Trades,,,,,,,,Verified
GEM.AX,28-JUN-2015,,End Of Day,No Trades,,,,,,,,Verified
GEM.AX,29-JUN-2015,,End Of Day,,3.28,3.34,3.23,3.32,3170353,,,Verified
GEM.AX,30-JUN-2015,,End Of Day,,3.28,3.31,3.23,3.26,3163150,,,Verified
GEM.AX,01-JUL-2015,,End Of Day,,3.24,3.27,3.16,3.24,2013129,,,Verified
GEM.AX,02-JUL-2015,,End Of Day,,3.14,3.25,3.09,3.25,3992925,,,Verified
GEM.AX,03-JUL-2015,,End Of Day,,3.25,3.26,3.1,3.18,6044229,,,Verified
GEM.AX,04-JUL-2015,,End Of Day,No Trades,,,,,,,,Verified
GEM.AX,05-JUL-2015,,End Of Day,No Trades,,,,,,,,Verified
GEM.AX,06-JUL-2015,,End Of Day,,3.13,3.13,3.03,3.05,3218499,,,Verified
GEM.AX,07-JUL-2015,,End Of Day,,3.05,3.09,3.04,3.06,2749692,,,Verified
GEM.AX,08-JUL-2015,,End Of Day,,3.05,3.06,2.93,2.95,3825730,,,Verified
GEM.AX,09-JUL-2015,,End Of Day,,2.95,3.02,2.86,2.93,3084053,,,Verified
GEM.AX,10-JUL-2015,,End Of Day,,3,3.05,3,3.02,1590330,,,Verified
GEM.AX,11-JUL-2015,,End Of Day,No Trades,,,,,,,,Verified
GEM.AX,12-JUL-2015,,End Of Day,No Trades,,,,,,,,Verified
GEM.AX,13-JUL-2015,,End Of Day,,3.04,3.06,3,3,2232078,,,Verified
GEM.AX,14-JUL-2015,,End Of Day,,3.06,3.09,3.05,3.06,1570265,,,Verified
GEM.AX,15-JUL-2015,,End Of Day,,3.15,3.34,3.13,3.3,4090464,,,Verified
GEM.AX,16-JUL-2015,,End Of Day,,3.4,3.49,3.34,3.46,4011137,,,Verified
GEM.AX,17-JUL-2015,,End Of Day,,3.51,3.54,3.41,3.43,2051653,,,Verified
GEM.AX,18-JUL-2015,,End Of Day,No Trades,,,,,,,,Verified
GEM.AX,19-JUL-2015,,End Of Day,No Trades,,,,,,,,Verified
GEM.AX,20-JUL-2015,,End Of Day,,3.46,3.49,3.43,3.46,1222146,,,Verified
GEM.AX,21-JUL-2015,,End Of Day,,3.48,3.5,3.36,3.44,2718478,,,Verified
GEM.AX,22-JUL-2015,,End Of Day,,3.43,3.48,3.31,3.33,2163823,,,Verified
GEM.AX,23-JUL-2015,,End Of Day,,3.34,3.4,3.32,3.33,1515472,,,Verified
GEM.AX,24-JUL-2015,,End Of Day,,3.31,3.36,3.2,3.2,2444052,,,Verified
GEM.AX,25-JUL-2015,,End Of Day,No Trades,,,,,,,,Verified
GEM.AX,26-JUL-2015,,End Of Day,No Trades,,,,,,,,Verified
GEM.AX,27-JUL-2015,,End Of Day,,3.18,3.25,3.13,3.22,1322835,,,Verified
GEM.AX,28-JUL-2015,,End Of Day,,3.19,3.32,3.15,3.32,1854937,,,Verified
GEM.AX,29-JUL-2015,,End Of Day,,3.37,3.37,3.29,3.29,954802,,,Verified
GEM.AX,30-JUL-2015,,End Of Day,,3.37,3.39,3.32,3.36,1058718,,,Verified
GEM.AX,31-JUL-2015,,End Of Day,,3.39,3.41,3.36,3.4,1305067,,,Verified
GEM.AX,01-AUG-2015,,End Of Day,No Trades,,,,,,,,Verified
GEM.AX,02-AUG-2015,,End Of Day,No Trades,,,,,,,,Verified
GEM.AX,03-AUG-2015,,End Of Day,,3.5,3.64,3.46,3.5,4053498,,,Verified
GEM.AX,04-AUG-2015,,End Of Day,,3.5,3.54,3.33,3.37,2164766,,,Verified
GEM.AX,05-AUG-2015,,End Of Day,,3.37,3.37,3.18,3.23,3957678,,,Verified
GEM.AX,06-AUG-2015,,End Of Day,,3.25,3.27,3.15,3.16,2618991,,,Verified
GEM.AX,07-AUG-2015,,End Of Day,,3.16,3.2,3.11,3.13,1598708,,,Verified
GEM.AX,08-AUG-2015,,End Of Day,No Trades,,,,,,,,Verified
GEM.AX,09-AUG-2015,,End Of Day,No Trades,,,,,,,,Verified
GEM.AX,10-AUG-2015,,End Of Day,,3.22,3.31,3.09,3.09,7311703,,,Verified
GEM.AX,11-AUG-2015,,End Of Day,,3.16,3.19,3.09,3.11,3344283,,,Verified
GEM.AX,12-AUG-2015,,End Of Day,,3.12,3.25,3.11,3.14,2796635,,,Verified
GEM.AX,13-AUG-2015,,End Of Day,,3.14,3.19,3.11,3.14,2512157,,,Verified
GEM.AX,14-AUG-2015,,End Of Day,,3.17,3.21,3.15,3.19,1925749,,,Verified
GEM.AX,15-AUG-2015,,End Of Day,No Trades,,,,,,,,Verified
GEM.AX,16-AUG-2015,,End Of Day,No Trades,,,,,,,,Verified
GEM.AX,17-AUG-2015,,End Of Day,,3.25,3.25,3.16,3.19,1770476,,,Verified
GEM.AX,18-AUG-2015,,End Of Day,,3.19,3.23,3.05,3.08,2536247,,,Verified
GEM.AX,19-AUG-2015,,End Of Day,,3.08,3.12,3.05,3.12,1559155,,,Verified
GEM.AX,20-AUG-2015,,End Of Day,,3.1,3.345,3.09,3.32,3738935,,,Verified
GEM.AX,21-AUG-2015,,End Of Day,,3.28,3.37,3.21,3.32,1789171,,,Verified
GEM.AX,22-AUG-2015,,End Of Day,No Trades,,,,,,,,Verified
GEM.AX,23-AUG-2015,,End Of Day,No Trades,,,,,,,,Verified
GEM.AX,24-AUG-2015,,End Of Day,,3.26,3.3,3.16,3.2,2760268,,,Verified
GEM.AX,25-AUG-2015,,End Of Day,,3.09,3.16,3.01,3.1,3332034,,,Verified
GEM.AX,26-AUG-2015,,End Of Day,,3.1,3.15,3.08,3.13,1380248,,,Verified
GEM.AX,27-AUG-2015,,End Of Day,,3.17,3.25,3.15,3.21,981450,,,Verified
GEM.AX,28-AUG-2015,,End Of Day,,3.23,3.27,3.12,3.13,1162606,,,Verified
GEM.AX,29-AUG-2015,,End Of Day,No Trades,,,,,,,,Verified
GEM.AX,30-AUG-2015,,End Of Day,No Trades,,,,,,,,Verified
GEM.AX,31-AUG-2015,,End Of Day,,3.13,3.195,3.11,3.12,903914,,,Verified
GEM.AX,01-SEP-2015,,End Of Day,,3.1,3.11,3.07,3.08,1249460,,,Verified
GEM.AX,02-SEP-2015,,End Of Day,,3.04,3.08,3.02,3.08,1240180,,,Verified
GEM.AX,03-SEP-2015,,End Of Day,,3.1,3.13,3.04,3.04,3412704,,,Verified
GEM.AX,04-SEP-2015,,End Of Day,,3.04,3.07,3.01,3.01,2515938,,,Verified
GEM.AX,05-SEP-2015,,End Of Day,No Trades,,,,,,,,Verified
GEM.AX,06-SEP-2015,,End Of Day,No Trades,,,,,,,,Verified
GEM.AX,07-SEP-2015,,End Of Day,,3.03,3.08,3.01,3.02,1208559,,,Verified
GEM.AX,08-SEP-2015,,End Of Day,,3.05,3.19,3.05,3.17,1486270,,,Verified
GEM.AX,09-SEP-2015,,End Of Day,,3.2,3.33,3.2,3.27,1840504,,,Verified
GEM.AX,10-SEP-2015,,End Of Day,,3.25,3.3,3.22,3.27,798424,,,Verified
GEM.AX,11-SEP-2015,,End Of Day,,3.31,3.33,3.27,3.3,1387075,,,Verified
GEM.AX,12-SEP-2015,,End Of Day,No Trades,,,,,,,,Verified
GEM.AX,13-SEP-2015,,End Of Day,No Trades,,,,,,,,Verified
GEM.AX,14-SEP-2015,,End Of Day,,3.35,3.35,3.3,3.33,1038815,,,Verified
GEM.AX,15-SEP-2015,,End Of Day,,3.35,3.39,3.3,3.32,1544731,,,Verified
GEM.AX,16-SEP-2015,,End Of Day,,3.29,3.31,3.18,3.25,1732714,,,Verified
GEM.AX,17-SEP-2015,,End Of Day,,3.28,3.29,3.11,3.13,2933963,,,Verified
GEM.AX,18-SEP-2015,,End Of Day,,3.16,3.21,3.13,3.19,2806120,,,Verified
GEM.AX,19-SEP-2015,,End Of Day,No Trades,,,,,,,,Verified
GEM.AX,20-SEP-2015,,End Of Day,No Trades,,,,,,,,Verified
GEM.AX,21-SEP-2015,,End Of Day,,3.15,3.185,3.13,3.15,1039545,,,Verified
GEM.AX,22-SEP-2015,,End Of Day,,3.21,3.225,3.11,3.13,1448046,,,Verified
GEM.AX,23-SEP-2015,,End Of Day,,3.14,3.155,3.08,3.09,1619885,,,Verified
GEM.AX,24-SEP-2015,,End Of Day,,3.09,3.09,2.95,2.99,5136628,,,Verified
GEM.AX,25-SEP-2015,,End Of Day,,3.04,3.08,2.97,2.98,1437403,,,Verified
GEM.AX,26-SEP-2015,,End Of Day,No Trades,,,,,,,,Verified
GEM.AX,27-SEP-2015,,End Of Day,No Trades,,,,,,,,Verified
GEM.AX,28-SEP-2015,,End Of Day,,2.98,2.99,2.92,2.99,4747903,,,Verified
GEM.AX,29-SEP-2015,,End Of Day,,2.95,2.97,2.9,2.9,2694414,,,Verified
GEM.AX,30-SEP-2015,,End Of Day,,2.9,2.95,2.87,2.92,2620334,,,Verified
GEM.AX,01-OCT-2015,,End Of Day,,2.93,2.96,2.91,2.94,1531745,,,Verified
GEM.AX,02-OCT-2015,,End Of Day,,2.95,3.01,2.93,2.97,1062531,,,Verified
GEM.AX,03-OCT-2015,,End Of Day,No Trades,,,,,,,,Verified
GEM.AX,04-OCT-2015,,End Of Day,No Trades,,,,,,,,Verified
GEM.AX,05-OCT-2015,,End Of Day,,2.98,3.04,2.97,3.03,941125,,,Verified
GEM.AX,06-OCT-2015,,End Of Day,,3.05,3.08,2.92,2.93,1940522,,,Verified
GEM.AX,07-OCT-2015,,End Of Day,,2.93,2.93,2.88,2.92,1336565,,,Verified
GEM.AX,08-OCT-2015,,End Of Day,,2.95,2.99,2.94,2.94,1659183,,,Verified
GEM.AX,09-OCT-2015,,End Of Day,,2.99,3.02,2.95,3,2128861,,,Verified
GEM.AX,10-OCT-2015,,End Of Day,No Trades,,,,,,,,Verified
GEM.AX,11-OCT-2015,,End Of Day,No Trades,,,,,,,,Verified
GEM.AX,12-OCT-2015,,End Of Day,,3.01,3.03,2.98,2.99,1511059,,,Verified
GEM.AX,13-OCT-2015,,End Of Day,,3.01,3.02,2.96,2.98,1675528,,,Verified
GEM.AX,14-OCT-2015,,End Of Day,,3,3.01,2.92,2.93,1443657,,,Verified
GEM.AX,15-OCT-2015,,End Of Day,,2.97,2.99,2.93,2.95,1397650,,,Verified
GEM.AX,16-OCT-2015,,End Of Day,,2.98,3.02,2.95,2.95,1167937,,,Verified
GEM.AX,17-OCT-2015,,End Of Day,No Trades,,,,,,,,Verified
GEM.AX,18-OCT-2015,,End Of Day,No Trades,,,,,,,,Verified
GEM.AX,19-OCT-2015,,End Of Day,,2.99,3,2.96,2.99,1694879,,,Verified
GEM.AX,20-OCT-2015,,End Of Day,,3,3.01,2.96,2.96,948186,,,Verified
GEM.AX,21-OCT-2015,,End Of Day,,2.96,2.98,2.93,2.97,1299260,,,Verified
GEM.AX,22-OCT-2015,,End Of Day,,2.96,2.97,2.89,2.95,2380532,,,Verified
GEM.AX,23-OCT-2015,,End Of Day,,2.98,3.04,2.97,3.03,2071171,,,Verified
GEM.AX,24-OCT-2015,,End Of Day,No Trades,,,,,,,,Verified
GEM.AX,25-OCT-2015,,End Of Day,No Trades,,,,,,,,Verified
GEM.AX,26-OCT-2015,,End Of Day,,3.04,3.07,3.02,3.04,1593687,,,Verified
GEM.AX,27-OCT-2015,,End Of Day,,3.05,3.06,3.01,3.02,1107448,,,Verified
GEM.AX,28-OCT-2015,,End Of Day,,3.02,3.02,2.93,2.95,1499976,,,Verified
GEM.AX,29-OCT-2015,,End Of Day,,2.98,2.99,2.93,2.97,3396048,,,Verified
GEM.AX,30-OCT-2015,,End Of Day,,2.97,3.02,2.96,3,977776,,,Verified
GEM.AX,31-OCT-2015,,End Of Day,No Trades,,,,,,,,Verified
GEM.AX,01-NOV-2015,,End Of Day,No Trades,,,,,,,,Verified
GEM.AX,02-NOV-2015,,End Of Day,,3.03,3.21,3.015,3.11,3180456,,,Verified
GEM.AX,03-NOV-2015,,End Of Day,,3.18,3.2,3.08,3.18,2769980,,,Verified
GEM.AX,04-NOV-2015,,End Of Day,,3.2,3.3,3.2,3.29,2311081,,,Verified
GEM.AX,05-NOV-2015,,End Of Day,,3.29,3.315,3.26,3.29,2319898,,,Verified
GEM.AX,06-NOV-2015,,End Of Day,,3.31,3.44,3.31,3.39,2708995,,,Verified
GEM.AX,07-NOV-2015,,End Of Day,No Trades,,,,,,,,Verified
GEM.AX,08-NOV-2015,,End Of Day,No Trades,,,,,,,,Verified
GEM.AX,09-NOV-2015,,End Of Day,,3.41,3.43,3.305,3.33,2495553,,,Verified
GEM.AX,10-NOV-2015,,End Of Day,,3.33,3.34,3.27,3.33,1496776,,,Verified
GEM.AX,11-NOV-2015,,End Of Day,,3.34,3.34,3.28,3.3,776057,,,Verified
GEM.AX,12-NOV-2015,,End Of Day,,3.29,3.43,3.26,3.41,2204730,,,Verified
GEM.AX,13-NOV-2015,,End Of Day,,3.37,3.57,3.34,3.57,6228961,,,Verified
GEM.AX,14-NOV-2015,,End Of Day,No Trades,,,,,,,,Verified
GEM.AX,15-NOV-2015,,End Of Day,No Trades,,,,,,,,Verified
GEM.AX,16-NOV-2015,,End Of Day,,3.56,3.68,3.53,3.64,3479407,,,Verified
GEM.AX,17-NOV-2015,,End Of Day,,3.64,3.68,3.62,3.67,2288522,,,Verified
GEM.AX,18-NOV-2015,,End Of Day,,3.66,3.7,3.6,3.67,2040641,,,Verified
GEM.AX,19-NOV-2015,,End Of Day,,3.7,3.71,3.64,3.69,2340089,,,Verified
GEM.AX,20-NOV-2015,,End Of Day,,3.71,3.71,3.605,3.61,1453495,,,Verified
GEM.AX,21-NOV-2015,,End Of Day,No Trades,,,,,,,,Verified
GEM.AX,22-NOV-2015,,End Of Day,No Trades,,,,,,,,Verified
GEM.AX,23-NOV-2015,,End Of Day,,3.62,3.69,3.62,3.66,1109382,,,Verified
GEM.AX,24-NOV-2015,,End Of Day,,3.66,3.69,3.61,3.66,1925229,,,Verified
GEM.AX,25-NOV-2015,,End Of Day,,3.68,3.69,3.62,3.66,2392118,,,Verified
GEM.AX,26-NOV-2015,,End Of Day,,3.68,3.68,3.53,3.54,1684137,,,Verified
GEM.AX,27-NOV-2015,,End Of Day,,3.55,3.585,3.47,3.58,1736961,,,Verified
GEM.AX,28-NOV-2015,,End Of Day,No Trades,,,,,,,,Verified
GEM.AX,29-NOV-2015,,End Of Day,No Trades,,,,,,,,Verified
GEM.AX,30-NOV-2015,,End Of Day,,3.54,3.54,3.47,3.48,1238576,,,Verified
GEM.AX,01-DEC-2015,,End Of Day,,3.48,3.67,3.46,3.64,1599602,,,Verified
GEM.AX,02-DEC-2015,,End Of Day,,3.62,3.63,3.52,3.52,1247639,,,Verified
GEM.AX,03-DEC-2015,,End Of Day,,3.48,3.58,3.48,3.55,1141173,,,Verified
GEM.AX,04-DEC-2015,,End Of Day,,3.46,3.47,3.38,3.44,2434138,,,Verified
GEM.AX,05-DEC-2015,,End Of Day,No Trades,,,,,,,,Verified
GEM.AX,06-DEC-2015,,End Of Day,No Trades,,,,,,,,Verified
GEM.AX,07-DEC-2015,,End Of Day,,3.48,3.52,3.43,3.44,1100786,,,Verified
GEM.AX,08-DEC-2015,,End Of Day,,3.44,3.45,3.36,3.36,1280787,,,Verified
GEM.AX,09-DEC-2015,,End Of Day,,3.34,3.34,3.23,3.28,3112712,,,Verified
GEM.AX,10-DEC-2015,,End Of Day,,3.28,3.33,3.24,3.28,1630968,,,Verified
GEM.AX,11-DEC-2015,,End Of Day,,3.28,3.365,3.27,3.3,1119363,,,Verified
GEM.AX,12-DEC-2015,,End Of Day,No Trades,,,,,,,,Verified
GEM.AX,13-DEC-2015,,End Of Day,No Trades,,,,,,,,Verified
GEM.AX,14-DEC-2015,,End Of Day,,3.29,3.44,3.26,3.26,2337151,,,Verified
GEM.AX,15-DEC-2015,,End Of Day,,3.26,3.34,3.26,3.3,1208581,,,Verified
GEM.AX,16-DEC-2015,,End Of Day,,3.26,3.32,3.17,3.32,1653890,,,Verified
GEM.AX,17-DEC-2015,,End Of Day,,3.38,3.42,3.34,3.35,1720241,,,Verified
GEM.AX,18-DEC-2015,,End Of Day,,3.32,3.4,3.31,3.34,1884372,,,Verified
GEM.AX,19-DEC-2015,,End Of Day,No Trades,,,,,,,,Verified
GEM.AX,20-DEC-2015,,End Of Day,No Trades,,,,,,,,Verified
GEM.AX,21-DEC-2015,,End Of Day,,3.33,3.385,3.31,3.34,706637,,,Verified
GEM.AX,22-DEC-2015,,End Of Day,,3.38,3.45,3.35,3.44,995628,,,Verified
GEM.AX,23-DEC-2015,,End Of Day,,3.45,3.47,3.41,3.42,789028,,,Verified
GEM.AX,24-DEC-2015,,End Of Day,,3.46,3.46,3.42,3.44,298768,,,Verified
GEM.AX,25-DEC-2015,,End Of Day,No Trades,,,,,,,,Verified
GEM.AX,26-DEC-2015,,End Of Day,No Trades,,,,,,,,Verified
GEM.AX,27-DEC-2015,,End Of Day,No Trades,,,,,,,,Verified
GEM.AX,28-DEC-2015,,End Of Day,No Trades,,,,,,,,Verified
GEM.AX,29-DEC-2015,,End Of Day,,3.47,3.54,3.46,3.53,1114513,,,Verified
GEM.AX,30-DEC-2015,,End Of Day,,3.57,3.63,3.56,3.59,1137026,,,Verified
GEM.AX,31-DEC-2015,,End Of Day,,3.59,3.59,3.55,3.57,393147,,,Verified
GEM.AX,01-JAN-2016,,End Of Day,No Trades,,,,,,,,Verified
GEM.AX,02-JAN-2016,,End Of Day,No Trades,,,,,,,,Verified
GEM.AX,03-JAN-2016,,End Of Day,No Trades,,,,,,,,Verified
GEM.AX,04-JAN-2016,,End Of Day,,3.57,3.605,3.48,3.5,1243957,,,Verified
GEM.AX,05-JAN-2016,,End Of Day,,3.49,3.49,3.41,3.43,1739751,,,Verified
GEM.AX,06-JAN-2016,,End Of Day,,3.47,3.48,3.295,3.36,2104099,,,Verified
GEM.AX,07-JAN-2016,,End Of Day,,3.34,3.38,3.25,3.27,2109259,,,Verified
GEM.AX,08-JAN-2016,,End Of Day,,3.25,3.29,3.21,3.26,1757175,,,Verified
GEM.AX,09-JAN-2016,,End Of Day,No Trades,,,,,,,,Verified
GEM.AX,10-JAN-2016,,End Of Day,No Trades,,,,,,,,Verified
GEM.AX,11-JAN-2016,,End Of Day,,3.25,3.3,3.16,3.28,2809685,,,Verified
GEM.AX,12-JAN-2016,,End Of Day,,3.28,3.31,3.145,3.16,2024670,,,Verified
GEM.AX,13-JAN-2016,,End Of Day,,3.19,3.28,3.19,3.26,1328819,,,Verified
GEM.AX,14-JAN-2016,,End Of Day,,3.21,3.23,3.13,3.17,1456479,,,Verified
GEM.AX,15-JAN-2016,,End Of Day,,3.25,3.26,3.16,3.16,971846,,,Verified
GEM.AX,16-JAN-2016,,End Of Day,No Trades,,,,,,,,Verified
GEM.AX,17-JAN-2016,,End Of Day,No Trades,,,,,,,,Verified
GEM.AX,18-JAN-2016,,End Of Day,,3.13,3.23,3.1,3.21,964340,,,Verified
GEM.AX,19-JAN-2016,,End Of Day,,3.22,3.34,3.19,3.34,3418028,,,Verified
GEM.AX,20-JAN-2016,,End Of Day,,3.35,3.42,3.34,3.4,1855076,,,Verified
GEM.AX,21-JAN-2016,,End Of Day,,3.45,3.45,3.26,3.3,1935404,,,Verified
GEM.AX,22-JAN-2016,,End Of Day,,3.33,3.38,3.3,3.33,1332560,,,Verified
GEM.AX,23-JAN-2016,,End Of Day,No Trades,,,,,,,,Verified
GEM.AX,24-JAN-2016,,End Of Day,No Trades,,,,,,,,Verified
GEM.AX,25-JAN-2016,,End Of Day,,3.37,3.42,3.37,3.38,1341083,,,Verified
GEM.AX,26-JAN-2016,,End Of Day,No Trades,,,,,,,,Verified
GEM.AX,27-JAN-2016,,End Of Day,,3.42,3.47,3.38,3.42,1573597,,,Verified
GEM.AX,28-JAN-2016,,End Of Day,,3.42,3.61,3.39,3.59,3052036,,,Verified
GEM.AX,29-JAN-2016,,End Of Day,,3.63,3.635,3.56,3.6,2814371,,,Verified
GEM.AX,30-JAN-2016,,End Of Day,No Trades,,,,,,,,Verified
GEM.AX,31-JAN-2016,,End Of Day,No Trades,,,,,,,,Verified
GEM.AX,01-FEB-2016,,End Of Day,,3.64,3.65,3.545,3.56,1658430,,,Verified
GEM.AX,02-FEB-2016,,End Of Day,,3.54,3.56,3.37,3.4,3881200,,,Verified
GEM.AX,03-FEB-2016,,End Of Day,,3.33,3.36,3.305,3.31,1936769,,,Verified
GEM.AX,04-FEB-2016,,End Of Day,,3.34,3.4,3.31,3.32,1024496,,,Verified
GEM.AX,05-FEB-2016,,End Of Day,,3.32,3.33,3.3,3.32,847139,,,Verified
GEM.AX,06-FEB-2016,,End Of Day,No Trades,,,,,,,,Verified
GEM.AX,07-FEB-2016,,End Of Day,No Trades,,,,,,,,Verified
GEM.AX,08-FEB-2016,,End Of Day,,3.3,3.36,3.3,3.34,613439,,,Verified
GEM.AX,09-FEB-2016,,End Of Day,,3.34,3.34,3.23,3.23,1158451,,,Verified
GEM.AX,10-FEB-2016,,End Of Day,,3.29,3.29,3.16,3.19,1602426,,,Verified
GEM.AX,11-FEB-2016,,End Of Day,,3.22,3.25,3.19,3.22,748608,,,Verified
GEM.AX,12-FEB-2016,,End Of Day,,3.19,3.2,3.15,3.16,809112,,,Verified
GEM.AX,13-FEB-2016,,End Of Day,No Trades,,,,,,,,Verified
GEM.AX,14-FEB-2016,,End Of Day,No Trades,,,,,,,,Verified
GEM.AX,15-FEB-2016,,End Of Day,,3.22,3.32,3.22,3.31,943298,,,Verified
GEM.AX,16-FEB-2016,,End Of Day,,3.35,3.48,3.33,3.44,941810,,,Verified
GEM.AX,17-FEB-2016,,End Of Day,,3.46,3.47,3.35,3.35,921920,,,Verified
GEM.AX,18-FEB-2016,,End Of Day,,3.4,3.44,3.39,3.42,1386366,,,Verified
GEM.AX,19-FEB-2016,,End Of Day,,3.42,3.44,3.39,3.41,621600,,,Verified
GEM.AX,20-FEB-2016,,End Of Day,No Trades,,,,,,,,Verified
GEM.AX,21-FEB-2016,,End Of Day,No Trades,,,,,,,,Verified
GEM.AX,22-FEB-2016,,End Of Day,,3.2,3.32,3.11,3.3,8954194,,,Verified
GEM.AX,23-FEB-2016,,End Of Day,,3.31,3.32,3.25,3.32,3987499,,,Verified
GEM.AX,24-FEB-2016,,End Of Day,,3.32,3.4,3.32,3.33,4794024,,,Verified
GEM.AX,25-FEB-2016,,End Of Day,,3.36,3.39,3.34,3.36,1882773,,,Verified
GEM.AX,26-FEB-2016,,End Of Day,,3.36,3.4,3.31,3.38,2549312,,,Verified
GEM.AX,27-FEB-2016,,End Of Day,No Trades,,,,,,,,Verified
GEM.AX,28-FEB-2016,,End Of Day,No Trades,,,,,,,,Verified
GEM.AX,29-FEB-2016,,End Of Day,,3.39,3.45,3.38,3.41,1999383,,,Verified
GEM.AX,01-MAR-2016,,End Of Day,,3.43,3.48,3.41,3.46,1153579,,,Verified
GEM.AX,02-MAR-2016,,End Of Day,,3.49,3.51,3.43,3.49,1999012,,,Verified
GEM.AX,03-MAR-2016,,End Of Day,,3.5,3.57,3.475,3.57,1916631,,,Verified
GEM.AX,04-MAR-2016,,End Of Day,,3.56,3.64,3.52,3.63,1710335,,,Verified
GEM.AX,05-MAR-2016,,End Of Day,No Trades,,,,,,,,Verified
GEM.AX,06-MAR-2016,,End Of Day,No Trades,,,,,,,,Verified
GEM.AX,07-MAR-2016,,End Of Day,,3.66,3.69,3.55,3.62,1238478,,,Verified
GEM.AX,08-MAR-2016,,End Of Day,,3.66,3.7,3.61,3.61,3622074,,,Verified
GEM.AX,09-MAR-2016,,End Of Day,,3.63,3.69,3.61,3.64,2466554,,,Verified
GEM.AX,10-MAR-2016,,End Of Day,,3.63,3.73,3.63,3.7,1928213,,,Verified
GEM.AX,11-MAR-2016,,End Of Day,,3.72,3.77,3.71,3.73,1259161,,,Verified
GEM.AX,12-MAR-2016,,End Of Day,No Trades,,,,,,,,Verified
GEM.AX,13-MAR-2016,,End Of Day,No Trades,,,,,,,,Verified
GEM.AX,14-MAR-2016,,End Of Day,,3.77,3.78,3.59,3.62,1721324,,,Verified
GEM.AX,15-MAR-2016,,End Of Day,,3.65,3.73,3.63,3.65,1890170,,,Verified
GEM.AX,16-MAR-2016,,End Of Day,,3.7,3.74,3.67,3.67,1313863,,,Verified
GEM.AX,17-MAR-2016,,End Of Day,,3.66,3.75,3.66,3.72,1735552,,,Verified
GEM.AX,18-MAR-2016,,End Of Day,,3.75,3.8,3.735,3.79,1494101,,,Verified
GEM.AX,19-MAR-2016,,End Of Day,No Trades,,,,,,,,Verified
GEM.AX,20-MAR-2016,,End Of Day,No Trades,,,,,,,,Verified
GEM.AX,21-MAR-2016,,End Of Day,,3.82,3.83,3.78,3.8,2476730,,,Verified
GEM.AX,22-MAR-2016,,End Of Day,,3.82,3.97,3.8,3.91,2406710,,,Verified
GEM.AX,23-MAR-2016,,End Of Day,,3.78,3.86,3.75,3.8,1071409,,,Verified
GEM.AX,24-MAR-2016,,End Of Day,,3.79,3.81,3.72,3.78,965348,,,Verified
GEM.AX,25-MAR-2016,,End Of Day,No Trades,,,,,,,,Verified
GEM.AX,26-MAR-2016,,End Of Day,No Trades,,,,,,,,Verified
GEM.AX,27-MAR-2016,,End Of Day,No Trades,,,,,,,,Verified
GEM.AX,28-MAR-2016,,End Of Day,No Trades,,,,,,,,Verified
GEM.AX,29-MAR-2016,,End Of Day,,3.79,3.8,3.61,3.63,1168988,,,Verified
GEM.AX,30-MAR-2016,,End Of Day,,3.65,3.72,3.65,3.7,1380692,,,Verified
GEM.AX,31-MAR-2016,,End Of Day,,3.72,3.77,3.72,3.77,816515,,,Verified
GEM.AX,01-APR-2016,,End Of Day,,3.74,3.745,3.67,3.74,1378001,,,Verified
GEM.AX,02-APR-2016,,End Of Day,No Trades,,,,,,,,Verified
GEM.AX,03-APR-2016,,End Of Day,No Trades,,,,,,,,Verified
GEM.AX,04-APR-2016,,End Of Day,,3.7,3.82,3.7,3.79,941788,,,Verified
GEM.AX,05-APR-2016,,End Of Day,,3.77,3.8,3.68,3.69,920645,,,Verified
GEM.AX,06-APR-2016,,End Of Day,,3.72,3.83,3.71,3.83,1285154,,,Verified
GEM.AX,07-APR-2016,,End Of Day,,3.85,3.87,3.78,3.83,1024799,,,Verified
GEM.AX,08-APR-2016,,End Of Day,,3.8,3.81,3.745,3.77,1033617,,,Verified
GEM.AX,09-APR-2016,,End Of Day,No Trades,,,,,,,,Verified
GEM.AX,10-APR-2016,,End Of Day,No Trades,,,,,,,,Verified
GEM.AX,11-APR-2016,,End Of Day,,3.75,3.76,3.71,3.74,760959,,,Verified
GEM.AX,12-APR-2016,,End Of Day,,3.73,3.76,3.7,3.75,1232808,,,Verified
GEM.AX,13-APR-2016,,End Of Day,,3.79,3.81,3.74,3.76,711419,,,Verified
GEM.AX,14-APR-2016,,End Of Day,,3.75,3.77,3.72,3.75,1590176,,,Verified
GEM.AX,15-APR-2016,,End Of Day,,3.77,3.81,3.75,3.76,1293412,,,Verified
GEM.AX,16-APR-2016,,End Of Day,No Trades,,,,,,,,Verified
GEM.AX,17-APR-2016,,End Of Day,No Trades,,,,,,,,Verified
GEM.AX,18-APR-2016,,End Of Day,,3.76,3.86,3.76,3.84,1467160,,,Verified
GEM.AX,19-APR-2016,,End Of Day,,3.88,3.95,3.86,3.95,1547931,,,Verified
GEM.AX,20-APR-2016,,End Of Day,,3.95,3.955,3.85,3.86,1612926,,,Verified
GEM.AX,21-APR-2016,,End Of Day,,3.9,3.925,3.85,3.89,1579187,,,Verified
GEM.AX,22-APR-2016,,End Of Day,,3.89,3.91,3.83,3.85,1288328,,,Verified
GEM.AX,23-APR-2016,,End Of Day,No Trades,,,,,,,,Verified
GEM.AX,24-APR-2016,,End Of Day,No Trades,,,,,,,,Verified
GEM.AX,25-APR-2016,,End Of Day,No Trades,,,,,,,,Verified
GEM.AX,26-APR-2016,,End Of Day,,3.87,3.89,3.81,3.82,1104549,,,Verified
GEM.AX,27-APR-2016,,End Of Day,,3.85,3.95,3.84,3.95,2234979,,,Verified
GEM.AX,28-APR-2016,,End Of Day,,3.99,4.05,3.99,4.01,3160431,,,Verified
GEM.AX,29-APR-2016,,End Of Day,,4,4.01,3.92,3.93,1686256,,,Verified
GEM.AX,30-APR-2016,,End Of Day,No Trades,,,,,,,,Verified
GEM.AX,01-MAY-2016,,End Of Day,No Trades,,,,,,,,Verified
GEM.AX,02-MAY-2016,,End Of Day,,3.94,4.01,3.93,3.99,1187855,,,Verified
GEM.AX,03-MAY-2016,,End Of Day,,4,4.13,3.99,4.11,2628386,,,Verified
GEM.AX,04-MAY-2016,,End Of Day,,3.99,4.12,3.98,4.05,3294987,,,Verified
GEM.AX,05-MAY-2016,,End Of Day,,4.1,4.1,4.02,4.04,1725477,,,Verified
GEM.AX,06-MAY-2016,,End Of Day,,4.02,4.035,3.96,4,1660865,,,Verified
GEM.AX,07-MAY-2016,,End Of Day,No Trades,,,,,,,,Verified
GEM.AX,08-MAY-2016,,End Of Day,No Trades,,,,,,,,Verified
GEM.AX,09-MAY-2016,,End Of Day,,4,4.03,3.96,4.03,1017415,,,Verified
GEM.AX,10-MAY-2016,,End Of Day,,4.04,4.09,3.98,4,1633232,,,Verified
GEM.AX,11-MAY-2016,,End Of Day,,4.06,4.09,4.02,4.06,1942122,,,Verified
