#RIC,Date[L],Time[L],Type,Qualifiers,Open,High,Low,Last,Volume,Open Interest,Settle,Data Source
WBC.AX,01-JAN-2014,,End Of Day,No Trades,,,,,,,,Verified
WBC.AX,02-JAN-2014,,End Of Day,,32.45,32.49,32.185,32.34,2265182,,,Verified
WBC.AX,03-JAN-2014,,End Of Day,,32.2,32.37,32.055,32.34,2020377,,,Verified
WBC.AX,04-JAN-2014,,End Of Day,No Trades,,,,,,,,Verified
WBC.AX,05-JAN-2014,,End Of Day,No Trades,,,,,,,,Verified
WBC.AX,06-JAN-2014,,End Of Day,,32.35,32.4,32.08,32.12,2520911,,,Verified
WBC.AX,07-JAN-2014,,End Of Day,,32.22,32.39,32.05,32.08,4144723,,,Verified
WBC.AX,08-JAN-2014,,End Of Day,,32.36,32.47,32.01,32.04,3772379,,,Verified
WBC.AX,09-JAN-2014,,End Of Day,,32,32.03,31.7,31.94,3705289,,,Verified
WBC.AX,10-JAN-2014,,End Of Day,,31.95,32.3,31.9,32.22,3518169,,,Verified
WBC.AX,11-JAN-2014,,End Of Day,No Trades,,,,,,,,Verified
WBC.AX,12-JAN-2014,,End Of Day,No Trades,,,,,,,,Verified
WBC.AX,13-JAN-2014,,End Of Day,,32.22,32.25,31.955,32.01,3495788,,,Verified
WBC.AX,14-JAN-2014,,End Of Day,,31.87,31.9,31.465,31.51,5804474,,,Verified
WBC.AX,15-JAN-2014,,End Of Day,,31.8,31.85,31.45,31.71,4122102,,,Verified
WBC.AX,16-JAN-2014,,End Of Day,,31.84,31.85,31.5,31.83,7016167,,,Verified
WBC.AX,17-JAN-2014,,End Of Day,,31.6,31.7,31.465,31.6,4096244,,,Verified
WBC.AX,18-JAN-2014,,End Of Day,No Trades,,,,,,,,Verified
WBC.AX,19-JAN-2014,,End Of Day,No Trades,,,,,,,,Verified
WBC.AX,20-JAN-2014,,End Of Day,,31.43,31.59,31.26,31.53,3679538,,,Verified
WBC.AX,21-JAN-2014,,End Of Day,,31.36,31.87,31.31,31.79,3260353,,,Verified
WBC.AX,22-JAN-2014,,End Of Day,,31.75,31.95,31.6,31.95,4700858,,,Verified
WBC.AX,23-JAN-2014,,End Of Day,,31.8,31.89,31.32,31.44,5765424,,,Verified
WBC.AX,24-JAN-2014,,End Of Day,,31.32,31.46,31.12,31.12,4046578,,,Verified
WBC.AX,25-JAN-2014,,End Of Day,No Trades,,,,,,,,Verified
WBC.AX,26-JAN-2014,,End Of Day,No Trades,,,,,,,,Verified
WBC.AX,27-JAN-2014,,End Of Day,No Trades,,,,,,,,Verified
WBC.AX,28-JAN-2014,,End Of Day,,30.76,31.065,30.54,30.78,7203623,,,Verified
WBC.AX,29-JAN-2014,,End Of Day,,30.91,31.21,30.66,31.2,5734104,,,Verified
WBC.AX,30-JAN-2014,,End Of Day,,30.78,30.98,30.71,30.89,5691415,,,Verified
WBC.AX,31-JAN-2014,,End Of Day,,30.93,31,30.63,30.87,7759243,,,Verified
WBC.AX,01-FEB-2014,,End Of Day,No Trades,,,,,,,,Verified
WBC.AX,02-FEB-2014,,End Of Day,No Trades,,,,,,,,Verified
WBC.AX,03-FEB-2014,,End Of Day,,30.71,31.04,30.63,30.99,4378176,,,Verified
WBC.AX,04-FEB-2014,,End Of Day,,30.57,30.61,30.32,30.4,8446076,,,Verified
WBC.AX,05-FEB-2014,,End Of Day,,30.38,30.51,30,30.31,8184518,,,Verified
WBC.AX,06-FEB-2014,,End Of Day,,30.5,30.86,30.4,30.83,7055377,,,Verified
WBC.AX,07-FEB-2014,,End Of Day,,31.27,31.5,31.14,31.25,9697591,,,Verified
WBC.AX,08-FEB-2014,,End Of Day,No Trades,,,,,,,,Verified
WBC.AX,09-FEB-2014,,End Of Day,No Trades,,,,,,,,Verified
WBC.AX,10-FEB-2014,,End Of Day,,31.59,31.77,31.5,31.77,6741254,,,Verified
WBC.AX,11-FEB-2014,,End Of Day,,31.76,32.27,31.55,32.23,7157149,,,Verified
WBC.AX,12-FEB-2014,,End Of Day,,32.42,32.5,32.175,32.5,5687691,,,Verified
WBC.AX,13-FEB-2014,,End Of Day,,32.5,32.64,32.3,32.44,4362698,,,Verified
WBC.AX,14-FEB-2014,,End Of Day,,32.63,32.75,32.48,32.75,5385144,,,Verified
WBC.AX,15-FEB-2014,,End Of Day,No Trades,,,,,,,,Verified
WBC.AX,16-FEB-2014,,End Of Day,No Trades,,,,,,,,Verified
WBC.AX,17-FEB-2014,,End Of Day,,32.95,33,32.83,32.91,6054989,,,Verified
WBC.AX,18-FEB-2014,,End Of Day,,32.93,32.99,32.735,32.86,3697004,,,Verified
WBC.AX,19-FEB-2014,,End Of Day,,32.99,33.37,32.95,33.24,8555589,,,Verified
WBC.AX,20-FEB-2014,,End Of Day,,33.12,33.34,32.97,33.1,6166748,,,Verified
WBC.AX,21-FEB-2014,,End Of Day,,33.4,33.4,33.22,33.31,4375308,,,Verified
WBC.AX,22-FEB-2014,,End Of Day,No Trades,,,,,,,,Verified
WBC.AX,23-FEB-2014,,End Of Day,No Trades,,,,,,,,Verified
WBC.AX,24-FEB-2014,,End Of Day,,33.31,33.57,33.3,33.57,5524737,,,Verified
WBC.AX,25-FEB-2014,,End Of Day,,33.7,33.74,33.29,33.42,4684863,,,Verified
WBC.AX,26-FEB-2014,,End Of Day,,33.48,33.72,33.46,33.56,5513090,,,Verified
WBC.AX,27-FEB-2014,,End Of Day,,33.52,33.63,33.45,33.54,2697741,,,Verified
WBC.AX,28-FEB-2014,,End Of Day,,33.77,33.8,33.375,33.47,8474190,,,Verified
WBC.AX,01-MAR-2014,,End Of Day,No Trades,,,,,,,,Verified
WBC.AX,02-MAR-2014,,End Of Day,No Trades,,,,,,,,Verified
WBC.AX,03-MAR-2014,,End Of Day,,33.5,33.5,33.03,33.31,4318767,,,Verified
WBC.AX,04-MAR-2014,,End Of Day,,33.23,33.7,33.16,33.65,5222650,,,Verified
WBC.AX,05-MAR-2014,,End Of Day,,33.94,34.23,33.85,34.23,9122490,,,Verified
WBC.AX,06-MAR-2014,,End Of Day,,34.23,34.31,34.04,34.31,6320985,,,Verified
WBC.AX,07-MAR-2014,,End Of Day,,34.26,34.3,33.84,33.9,4827050,,,Verified
WBC.AX,08-MAR-2014,,End Of Day,No Trades,,,,,,,,Verified
WBC.AX,09-MAR-2014,,End Of Day,No Trades,,,,,,,,Verified
WBC.AX,10-MAR-2014,,End Of Day,,33.8,33.965,33.67,33.77,3320166,,,Verified
WBC.AX,11-MAR-2014,,End Of Day,,33.94,34.385,33.795,34.29,6081112,,,Verified
WBC.AX,12-MAR-2014,,End Of Day,,34,34.02,33.71,33.94,5630933,,,Verified
WBC.AX,13-MAR-2014,,End Of Day,,34.02,34.265,33.815,34.25,5682362,,,Verified
WBC.AX,14-MAR-2014,,End Of Day,,33.8,33.91,33.65,33.65,4629277,,,Verified
WBC.AX,15-MAR-2014,,End Of Day,No Trades,,,,,,,,Verified
WBC.AX,16-MAR-2014,,End Of Day,No Trades,,,,,,,,Verified
WBC.AX,17-MAR-2014,,End Of Day,,33.65,33.67,33.445,33.54,4663828,,,Verified
WBC.AX,18-MAR-2014,,End Of Day,,33.8,33.85,33.59,33.59,5316074,,,Verified
WBC.AX,19-MAR-2014,,End Of Day,,33.5,33.82,33.43,33.75,7788403,,,Verified
WBC.AX,20-MAR-2014,,End Of Day,,33.65,33.82,33.24,33.24,13800838,,,Verified
WBC.AX,21-MAR-2014,,End Of Day,,33.36,33.6,33.3,33.6,5375939,,,Verified
WBC.AX,22-MAR-2014,,End Of Day,No Trades,,,,,,,,Verified
WBC.AX,23-MAR-2014,,End Of Day,No Trades,,,,,,,,Verified
WBC.AX,24-MAR-2014,,End Of Day,,33.33,33.7,33.28,33.62,3020057,,,Verified
WBC.AX,25-MAR-2014,,End Of Day,,33.5,33.9,33.47,33.86,5983851,,,Verified
WBC.AX,26-MAR-2014,,End Of Day,,34,34.4,33.93,34.28,6991405,,,Verified
WBC.AX,27-MAR-2014,,End Of Day,,33.98,34.29,33.96,34.22,4464824,,,Verified
WBC.AX,28-MAR-2014,,End Of Day,,34.22,34.49,34.15,34.43,10948043,,,Verified
WBC.AX,29-MAR-2014,,End Of Day,No Trades,,,,,,,,Verified
WBC.AX,30-MAR-2014,,End Of Day,No Trades,,,,,,,,Verified
WBC.AX,31-MAR-2014,,End Of Day,,34.55,34.82,34.52,34.56,4759587,,,Verified
WBC.AX,01-APR-2014,,End Of Day,,34.55,34.63,34.27,34.59,5019895,,,Verified
WBC.AX,02-APR-2014,,End Of Day,,34.65,34.7,34.44,34.62,3894362,,,Verified
WBC.AX,03-APR-2014,,End Of Day,,34.64,34.64,34.4,34.47,3787530,,,Verified
WBC.AX,04-APR-2014,,End Of Day,,34.37,34.6,34.27,34.6,5028368,,,Verified
WBC.AX,05-APR-2014,,End Of Day,No Trades,,,,,,,,Verified
WBC.AX,06-APR-2014,,End Of Day,No Trades,,,,,,,,Verified
WBC.AX,07-APR-2014,,End Of Day,,34.32,34.56,34.32,34.48,2306460,,,Verified
WBC.AX,08-APR-2014,,End Of Day,,34.41,34.58,34.345,34.46,2769573,,,Verified
WBC.AX,09-APR-2014,,End Of Day,,34.65,34.84,34.6,34.7,4626727,,,Verified
WBC.AX,10-APR-2014,,End Of Day,,34.92,34.99,34.8,34.86,4236767,,,Verified
WBC.AX,11-APR-2014,,End Of Day,,34.6,34.77,34.53,34.66,3737439,,,Verified
WBC.AX,12-APR-2014,,End Of Day,No Trades,,,,,,,,Verified
WBC.AX,13-APR-2014,,End Of Day,No Trades,,,,,,,,Verified
WBC.AX,14-APR-2014,,End Of Day,,34.61,34.61,34.15,34.15,4581774,,,Verified
WBC.AX,15-APR-2014,,End Of Day,,34.27,34.53,34.23,34.37,3214880,,,Verified
WBC.AX,16-APR-2014,,End Of Day,,34.41,34.72,34.41,34.59,3742549,,,Verified
WBC.AX,17-APR-2014,,End Of Day,,34.75,34.95,34.72,34.94,5214960,,,Verified
WBC.AX,18-APR-2014,,End Of Day,No Trades,,,,,,,,Verified
WBC.AX,19-APR-2014,,End Of Day,No Trades,,,,,,,,Verified
WBC.AX,20-APR-2014,,End Of Day,No Trades,,,,,,,,Verified
WBC.AX,21-APR-2014,,End Of Day,No Trades,,,,,,,,Verified
WBC.AX,22-APR-2014,,End Of Day,,35,35.3,34.98,35.29,4294222,,,Verified
WBC.AX,23-APR-2014,,End Of Day,,35.58,35.71,35.51,35.62,5720648,,,Verified
WBC.AX,24-APR-2014,,End Of Day,,35.8,35.84,35.5,35.78,9316464,,,Verified
WBC.AX,25-APR-2014,,End Of Day,No Trades,,,,,,,,Verified
WBC.AX,26-APR-2014,,End Of Day,No Trades,,,,,,,,Verified
WBC.AX,27-APR-2014,,End Of Day,No Trades,,,,,,,,Verified
WBC.AX,28-APR-2014,,End Of Day,,35.68,35.95,35.62,35.86,4042153,,,Verified
WBC.AX,29-APR-2014,,End Of Day,,35.99,35.99,35.28,35.39,6553549,,,Verified
WBC.AX,30-APR-2014,,End Of Day,,35.51,35.53,34.935,35.12,5381390,,,Verified
WBC.AX,01-MAY-2014,,End Of Day,,35.12,35.14,34.61,34.7,6872697,,,Verified
WBC.AX,02-MAY-2014,,End Of Day,,34.78,34.89,34.5,34.87,4893574,,,Verified
WBC.AX,03-MAY-2014,,End Of Day,No Trades,,,,,,,,Verified
WBC.AX,04-MAY-2014,,End Of Day,No Trades,,,,,,,,Verified
WBC.AX,05-MAY-2014,,End Of Day,,35.03,35.14,34.27,34.45,5775981,,,Verified
WBC.AX,06-MAY-2014,,End Of Day,,34.68,34.92,34.61,34.69,4573710,,,Verified
WBC.AX,07-MAY-2014,,End Of Day,,34.5,34.68,34.3,34.5,5204683,,,Verified
WBC.AX,08-MAY-2014,,End Of Day,,34.7,34.91,34.55,34.9,5025481,,,Verified
WBC.AX,09-MAY-2014,,End Of Day,,34.79,35.09,34.57,34.94,4057373,,,Verified
WBC.AX,10-MAY-2014,,End Of Day,No Trades,,,,,,,,Verified
WBC.AX,11-MAY-2014,,End Of Day,No Trades,,,,,,,,Verified
WBC.AX,12-MAY-2014,,End Of Day,,35.11,35.21,34.7,34.9,3672745,,,Verified
WBC.AX,13-MAY-2014,,End Of Day,,35.2,35.29,34.99,35.14,8518467,,,Verified
WBC.AX,14-MAY-2014,,End Of Day,,34.11,34.4,34.1,34.2,12048754,,,Verified
WBC.AX,15-MAY-2014,,End Of Day,,34.06,34.48,33.93,34.48,5738728,,,Verified
WBC.AX,16-MAY-2014,,End Of Day,,34.3,34.37,34.2,34.28,3238235,,,Verified
WBC.AX,17-MAY-2014,,End Of Day,No Trades,,,,,,,,Verified
WBC.AX,18-MAY-2014,,End Of Day,No Trades,,,,,,,,Verified
WBC.AX,19-MAY-2014,,End Of Day,,34.15,34.16,33.78,33.78,4380221,,,Verified
WBC.AX,20-MAY-2014,,End Of Day,,33.8,33.86,33.525,33.68,3423733,,,Verified
WBC.AX,21-MAY-2014,,End Of Day,,33.6,33.705,33.39,33.67,5673212,,,Verified
WBC.AX,22-MAY-2014,,End Of Day,,33.76,34.085,33.76,33.86,6429491,,,Verified
WBC.AX,23-MAY-2014,,End Of Day,,33.95,34.27,33.92,34.19,6207725,,,Verified
WBC.AX,24-MAY-2014,,End Of Day,No Trades,,,,,,,,Verified
WBC.AX,25-MAY-2014,,End Of Day,No Trades,,,,,,,,Verified
WBC.AX,26-MAY-2014,,End Of Day,,34.39,34.39,34.105,34.16,3204471,,,Verified
WBC.AX,27-MAY-2014,,End Of Day,,34.36,34.42,34.235,34.32,3295954,,,Verified
WBC.AX,28-MAY-2014,,End Of Day,,34.5,34.64,34.37,34.5,3554015,,,Verified
WBC.AX,29-MAY-2014,,End Of Day,,34.36,34.59,34.36,34.52,2712968,,,Verified
WBC.AX,30-MAY-2014,,End Of Day,,34.57,34.57,34.25,34.42,8440484,,,Verified
WBC.AX,31-MAY-2014,,End Of Day,No Trades,,,,,,,,Verified
WBC.AX,01-JUN-2014,,End Of Day,No Trades,,,,,,,,Verified
WBC.AX,02-JUN-2014,,End Of Day,,34.49,34.7,34.42,34.6,3282673,,,Verified
WBC.AX,03-JUN-2014,,End Of Day,,34.65,34.69,34.42,34.45,5047551,,,Verified
WBC.AX,04-JUN-2014,,End Of Day,,34.41,34.48,34.24,34.34,4284538,,,Verified
WBC.AX,05-JUN-2014,,End Of Day,,34.44,34.44,34.015,34.2,4471527,,,Verified
WBC.AX,06-JUN-2014,,End Of Day,,34.32,34.64,34.24,34.55,4663371,,,Verified
WBC.AX,07-JUN-2014,,End Of Day,No Trades,,,,,,,,Verified
WBC.AX,08-JUN-2014,,End Of Day,No Trades,,,,,,,,Verified
WBC.AX,09-JUN-2014,,End Of Day,No Trades,,,,,,,,Verified
WBC.AX,10-JUN-2014,,End Of Day,,34.79,34.82,34.54,34.63,3448802,,,Verified
WBC.AX,11-JUN-2014,,End Of Day,,34.65,34.91,34.58,34.75,4088150,,,Verified
WBC.AX,12-JUN-2014,,End Of Day,,34.69,34.76,34.56,34.58,4630716,,,Verified
WBC.AX,13-JUN-2014,,End Of Day,,34.31,34.49,34.04,34.26,5930619,,,Verified
WBC.AX,14-JUN-2014,,End Of Day,No Trades,,,,,,,,Verified
WBC.AX,15-JUN-2014,,End Of Day,No Trades,,,,,,,,Verified
WBC.AX,16-JUN-2014,,End Of Day,,34.15,34.31,34.015,34.3,4836500,,,Verified
WBC.AX,17-JUN-2014,,End Of Day,,34.08,34.345,34.06,34.14,3716465,,,Verified
WBC.AX,18-JUN-2014,,End Of Day,,34.13,34.2,33.825,33.84,4028838,,,Verified
WBC.AX,19-JUN-2014,,End Of Day,,34.1,34.48,33.99,34.45,8711402,,,Verified
WBC.AX,20-JUN-2014,,End Of Day,,34.26,34.42,34.13,34.15,4587597,,,Verified
WBC.AX,21-JUN-2014,,End Of Day,No Trades,,,,,,,,Verified
WBC.AX,22-JUN-2014,,End Of Day,No Trades,,,,,,,,Verified
WBC.AX,23-JUN-2014,,End Of Day,,34.26,34.45,34.2,34.37,4308131,,,Verified
WBC.AX,24-JUN-2014,,End Of Day,,34.21,34.33,34.015,34.15,4083272,,,Verified
WBC.AX,25-JUN-2014,,End Of Day,,33.93,34.08,33.83,33.83,5462118,,,Verified
WBC.AX,26-JUN-2014,,End Of Day,,34.04,34.43,34,34.43,5305873,,,Verified
WBC.AX,27-JUN-2014,,End Of Day,,34.36,34.46,34.13,34.17,10518541,,,Verified
WBC.AX,28-JUN-2014,,End Of Day,No Trades,,,,,,,,Verified
WBC.AX,29-JUN-2014,,End Of Day,No Trades,,,,,,,,Verified
WBC.AX,30-JUN-2014,,End Of Day,,34.03,34.17,33.88,33.88,5505909,,,Verified
WBC.AX,01-JUL-2014,,End Of Day,,33.88,33.93,33.31,33.38,6424187,,,Verified
WBC.AX,02-JUL-2014,,End Of Day,,33.73,33.92,33.61,33.87,3970102,,,Verified
WBC.AX,03-JUL-2014,,End Of Day,,33.95,34.28,33.9,34.19,3612397,,,Verified
WBC.AX,04-JUL-2014,,End Of Day,,34.37,34.47,34.33,34.4,3038031,,,Verified
WBC.AX,05-JUL-2014,,End Of Day,No Trades,,,,,,,,Verified
WBC.AX,06-JUL-2014,,End Of Day,No Trades,,,,,,,,Verified
WBC.AX,07-JUL-2014,,End Of Day,,34.4,34.48,34.25,34.34,2846149,,,Verified
WBC.AX,08-JUL-2014,,End Of Day,,34.4,34.4,34.13,34.22,2998255,,,Verified
WBC.AX,09-JUL-2014,,End Of Day,,34.11,34.12,33.705,33.85,4407117,,,Verified
WBC.AX,10-JUL-2014,,End Of Day,,33.86,33.94,33.66,33.75,3138176,,,Verified
WBC.AX,11-JUL-2014,,End Of Day,,33.61,34.15,33.6,33.95,3525292,,,Verified
WBC.AX,12-JUL-2014,,End Of Day,No Trades,,,,,,,,Verified
WBC.AX,13-JUL-2014,,End Of Day,No Trades,,,,,,,,Verified
WBC.AX,14-JUL-2014,,End Of Day,,34.15,34.25,34.1,34.14,2339784,,,Verified
WBC.AX,15-JUL-2014,,End Of Day,,34.15,34.31,33.83,34.07,3842765,,,Verified
WBC.AX,16-JUL-2014,,End Of Day,,34.13,34.16,33.74,33.89,3783576,,,Verified
WBC.AX,17-JUL-2014,,End Of Day,,33.99,34.03,33.63,33.64,7108846,,,Verified
WBC.AX,18-JUL-2014,,End Of Day,,33.5,33.91,33.44,33.9,4520744,,,Verified
WBC.AX,19-JUL-2014,,End Of Day,No Trades,,,,,,,,Verified
WBC.AX,20-JUL-2014,,End Of Day,No Trades,,,,,,,,Verified
WBC.AX,21-JUL-2014,,End Of Day,,34.04,34.12,33.81,33.9,2295379,,,Verified
WBC.AX,22-JUL-2014,,End Of Day,,34.07,34.09,33.77,33.94,4511105,,,Verified
WBC.AX,23-JUL-2014,,End Of Day,,34.08,34.23,33.925,34.09,6277846,,,Verified
WBC.AX,24-JUL-2014,,End Of Day,,34.1,34.2,33.96,34.13,3805331,,,Verified
WBC.AX,25-JUL-2014,,End Of Day,,34.34,34.34,34.16,34.28,7226064,,,Verified
WBC.AX,26-JUL-2014,,End Of Day,No Trades,,,,,,,,Verified
WBC.AX,27-JUL-2014,,End Of Day,No Trades,,,,,,,,Verified
WBC.AX,28-JUL-2014,,End Of Day,,34.09,34.26,34.04,34.18,4190822,,,Verified
WBC.AX,29-JUL-2014,,End Of Day,,34.04,34.36,34.04,34.27,4278665,,,Verified
WBC.AX,30-JUL-2014,,End Of Day,,34.2,34.43,34.11,34.36,3955159,,,Verified
WBC.AX,31-JUL-2014,,End Of Day,,34.45,34.67,34.43,34.61,4815629,,,Verified
WBC.AX,01-AUG-2014,,End Of Day,,34.17,34.32,33.945,34.05,5604909,,,Verified
WBC.AX,02-AUG-2014,,End Of Day,No Trades,,,,,,,,Verified
WBC.AX,03-AUG-2014,,End Of Day,No Trades,,,,,,,,Verified
WBC.AX,04-AUG-2014,,End Of Day,,34,34,33.75,33.85,3309129,,,Verified
WBC.AX,05-AUG-2014,,End Of Day,,33.86,33.9,33.6,33.67,4612734,,,Verified
WBC.AX,06-AUG-2014,,End Of Day,,33.55,33.67,33.36,33.67,4699273,,,Verified
WBC.AX,07-AUG-2014,,End Of Day,,33.65,33.75,33.45,33.65,4434310,,,Verified
WBC.AX,08-AUG-2014,,End Of Day,,33.46,33.56,32.96,33.03,5627354,,,Verified
WBC.AX,09-AUG-2014,,End Of Day,No Trades,,,,,,,,Verified
WBC.AX,10-AUG-2014,,End Of Day,No Trades,,,,,,,,Verified
WBC.AX,11-AUG-2014,,End Of Day,,33.14,33.22,32.96,32.97,4359475,,,Verified
WBC.AX,12-AUG-2014,,End Of Day,,33.05,33.62,33.05,33.58,6490804,,,Verified
WBC.AX,13-AUG-2014,,End Of Day,,33.5,33.85,33.39,33.72,4374302,,,Verified
WBC.AX,14-AUG-2014,,End Of Day,,33.98,33.99,33.79,33.95,6922251,,,Verified
WBC.AX,15-AUG-2014,,End Of Day,,34.08,34.295,34.05,34.09,4165482,,,Verified
WBC.AX,16-AUG-2014,,End Of Day,No Trades,,,,,,,,Verified
WBC.AX,17-AUG-2014,,End Of Day,No Trades,,,,,,,,Verified
WBC.AX,18-AUG-2014,,End Of Day,,34.19,34.26,33.8,34.25,3563356,,,Verified
WBC.AX,19-AUG-2014,,End Of Day,,34.56,34.83,34.45,34.78,8545256,,,Verified
WBC.AX,20-AUG-2014,,End Of Day,,34.89,35.14,34.66,34.88,5823317,,,Verified
WBC.AX,21-AUG-2014,,End Of Day,,35.23,35.23,34.91,34.94,5974033,,,Verified
WBC.AX,22-AUG-2014,,End Of Day,,35.18,35.19,34.8,34.89,3767258,,,Verified
WBC.AX,23-AUG-2014,,End Of Day,No Trades,,,,,,,,Verified
WBC.AX,24-AUG-2014,,End Of Day,No Trades,,,,,,,,Verified
WBC.AX,25-AUG-2014,,End Of Day,,34.92,35.08,34.64,34.8,3629253,,,Verified
WBC.AX,26-AUG-2014,,End Of Day,,34.93,35,34.79,34.91,4264687,,,Verified
WBC.AX,27-AUG-2014,,End Of Day,,35,35.17,34.99,35.12,3478988,,,Verified
WBC.AX,28-AUG-2014,,End Of Day,,35.03,35.165,34.92,35.01,3458554,,,Verified
WBC.AX,29-AUG-2014,,End Of Day,,35.14,35.28,34.83,35.04,8665714,,,Verified
WBC.AX,30-AUG-2014,,End Of Day,No Trades,,,,,,,,Verified
WBC.AX,31-AUG-2014,,End Of Day,No Trades,,,,,,,,Verified
WBC.AX,01-SEP-2014,,End Of Day,,35.18,35.25,35.035,35.14,2372097,,,Verified
WBC.AX,02-SEP-2014,,End Of Day,,35.1,35.2,34.99,35.17,3367883,,,Verified
WBC.AX,03-SEP-2014,,End Of Day,,35.2,35.37,35.15,35.22,3305787,,,Verified
WBC.AX,04-SEP-2014,,End Of Day,,35.15,35.21,34.8,34.93,3016305,,,Verified
WBC.AX,05-SEP-2014,,End Of Day,,34.93,34.97,34.71,34.76,2958167,,,Verified
WBC.AX,06-SEP-2014,,End Of Day,No Trades,,,,,,,,Verified
WBC.AX,07-SEP-2014,,End Of Day,No Trades,,,,,,,,Verified
WBC.AX,08-SEP-2014,,End Of Day,,34.7,34.75,34.43,34.58,3433924,,,Verified
WBC.AX,09-SEP-2014,,End Of Day,,34.58,34.82,34.47,34.61,2755095,,,Verified
WBC.AX,10-SEP-2014,,End Of Day,,34.43,34.78,34.41,34.76,5836763,,,Verified
WBC.AX,11-SEP-2014,,End Of Day,,34.9,34.92,34.545,34.62,4559237,,,Verified
WBC.AX,12-SEP-2014,,End Of Day,,34.64,34.64,34.09,34.25,4475481,,,Verified
WBC.AX,13-SEP-2014,,End Of Day,No Trades,,,,,,,,Verified
WBC.AX,14-SEP-2014,,End Of Day,No Trades,,,,,,,,Verified
WBC.AX,15-SEP-2014,,End Of Day,,34.01,34.08,33.77,33.77,5759290,,,Verified
WBC.AX,16-SEP-2014,,End Of Day,,33.68,33.75,33.42,33.5,6026151,,,Verified
WBC.AX,17-SEP-2014,,End Of Day,,33.41,33.46,32.785,32.9,10557436,,,Verified
WBC.AX,18-SEP-2014,,End Of Day,,33.1,33.41,32.68,33.05,8495125,,,Verified
WBC.AX,19-SEP-2014,,End Of Day,,33.06,33.38,32.98,33.17,7135100,,,Verified
WBC.AX,20-SEP-2014,,End Of Day,No Trades,,,,,,,,Verified
WBC.AX,21-SEP-2014,,End Of Day,No Trades,,,,,,,,Verified
WBC.AX,22-SEP-2014,,End Of Day,,33.15,33.19,32.27,32.4,7027433,,,Verified
WBC.AX,23-SEP-2014,,End Of Day,,32.27,32.98,32.05,32.77,8746966,,,Verified
WBC.AX,24-SEP-2014,,End Of Day,,32.57,32.62,32.18,32.47,5660809,,,Verified
WBC.AX,25-SEP-2014,,End Of Day,,32.76,32.76,32.16,32.21,5797251,,,Verified
WBC.AX,26-SEP-2014,,End Of Day,,31.95,31.95,31.605,31.89,13791829,,,Verified
WBC.AX,27-SEP-2014,,End Of Day,No Trades,,,,,,,,Verified
WBC.AX,28-SEP-2014,,End Of Day,No Trades,,,,,,,,Verified
WBC.AX,29-SEP-2014,,End Of Day,,31.65,31.88,31.4,31.65,5635882,,,Verified
WBC.AX,30-SEP-2014,,End Of Day,,31.59,32.14,31.51,32.14,6797094,,,Verified
WBC.AX,01-OCT-2014,,End Of Day,,31.63,32.55,31.61,32.46,6696519,,,Verified
WBC.AX,02-OCT-2014,,End Of Day,,32.24,32.6,32.17,32.29,4768589,,,Verified
WBC.AX,03-OCT-2014,,End Of Day,,32.31,32.62,32.29,32.59,4158380,,,Verified
WBC.AX,04-OCT-2014,,End Of Day,No Trades,,,,,,,,Verified
WBC.AX,05-OCT-2014,,End Of Day,No Trades,,,,,,,,Verified
WBC.AX,06-OCT-2014,,End Of Day,,32.7,32.72,32.36,32.42,2417633,,,Verified
WBC.AX,07-OCT-2014,,End Of Day,,32.55,32.56,31.68,32.42,7679109,,,Verified
WBC.AX,08-OCT-2014,,End Of Day,,32.03,32.44,31.91,32.28,4736453,,,Verified
WBC.AX,09-OCT-2014,,End Of Day,,32.5,33.11,32.49,32.87,6444984,,,Verified
WBC.AX,10-OCT-2014,,End Of Day,,32.11,32.485,32.11,32.25,6657845,,,Verified
WBC.AX,11-OCT-2014,,End Of Day,No Trades,,,,,,,,Verified
WBC.AX,12-OCT-2014,,End Of Day,No Trades,,,,,,,,Verified
WBC.AX,13-OCT-2014,,End Of Day,,31.91,32.115,31.8,31.9,4898618,,,Verified
WBC.AX,14-OCT-2014,,End Of Day,,31.67,32.295,31.65,32.14,6498000,,,Verified
WBC.AX,15-OCT-2014,,End Of Day,,32,32.49,32,32.46,5152101,,,Verified
WBC.AX,16-OCT-2014,,End Of Day,,32.13,32.74,32.03,32.73,9307107,,,Verified
WBC.AX,17-OCT-2014,,End Of Day,,32.99,33.38,32.94,33.1,7399505,,,Verified
WBC.AX,18-OCT-2014,,End Of Day,No Trades,,,,,,,,Verified
WBC.AX,19-OCT-2014,,End Of Day,No Trades,,,,,,,,Verified
WBC.AX,20-OCT-2014,,End Of Day,,33.62,33.7,33.44,33.57,4638465,,,Verified
WBC.AX,21-OCT-2014,,End Of Day,,33.67,33.67,33.26,33.41,4691525,,,Verified
WBC.AX,22-OCT-2014,,End Of Day,,33.78,33.85,33.56,33.74,4196927,,,Verified
WBC.AX,23-OCT-2014,,End Of Day,,33.65,34.02,33.64,34.02,4214946,,,Verified
WBC.AX,24-OCT-2014,,End Of Day,,34.31,34.36,34.12,34.21,4932142,,,Verified
WBC.AX,25-OCT-2014,,End Of Day,No Trades,,,,,,,,Verified
WBC.AX,26-OCT-2014,,End Of Day,No Trades,,,,,,,,Verified
WBC.AX,27-OCT-2014,,End Of Day,,34.35,34.7,34.33,34.56,5386931,,,Verified
WBC.AX,28-OCT-2014,,End Of Day,,34.6,34.94,34.55,34.89,6091300,,,Verified
WBC.AX,29-OCT-2014,,End Of Day,,34.91,34.93,34.1,34.17,8367503,,,Verified
WBC.AX,30-OCT-2014,,End Of Day,,34.14,34.54,34.14,34.46,5195332,,,Verified
WBC.AX,31-OCT-2014,,End Of Day,,34.67,34.78,34.51,34.78,12065695,,,Verified
WBC.AX,01-NOV-2014,,End Of Day,No Trades,,,,,,,,Verified
WBC.AX,02-NOV-2014,,End Of Day,No Trades,,,,,,,,Verified
WBC.AX,03-NOV-2014,,End Of Day,,34.87,34.94,34.42,34.55,4637917,,,Verified
WBC.AX,04-NOV-2014,,End Of Day,,34.8,34.8,34.33,34.5,5706837,,,Verified
WBC.AX,05-NOV-2014,,End Of Day,,34.36,34.59,34.11,34.59,5952066,,,Verified
WBC.AX,06-NOV-2014,,End Of Day,,34.76,34.78,34.07,34.41,6866439,,,Verified
WBC.AX,07-NOV-2014,,End Of Day,,34.59,34.84,34.53,34.84,9688784,,,Verified
WBC.AX,08-NOV-2014,,End Of Day,No Trades,,,,,,,,Verified
WBC.AX,09-NOV-2014,,End Of Day,No Trades,,,,,,,,Verified
WBC.AX,10-NOV-2014,,End Of Day,,33.52,33.66,33.42,33.47,12531167,,,Verified
WBC.AX,11-NOV-2014,,End Of Day,,33.74,33.77,33.45,33.63,6494007,,,Verified
WBC.AX,12-NOV-2014,,End Of Day,,33.55,33.6,33.22,33.33,5302928,,,Verified
WBC.AX,13-NOV-2014,,End Of Day,,33.16,33.2,32.825,32.96,6134062,,,Verified
WBC.AX,14-NOV-2014,,End Of Day,,32.73,33.08,32.57,33.03,4660543,,,Verified
WBC.AX,15-NOV-2014,,End Of Day,No Trades,,,,,,,,Verified
WBC.AX,16-NOV-2014,,End Of Day,No Trades,,,,,,,,Verified
WBC.AX,17-NOV-2014,,End Of Day,,32.88,32.94,32.63,32.72,3588096,,,Verified
WBC.AX,18-NOV-2014,,End Of Day,,32.91,33.01,32.61,32.76,3702727,,,Verified
WBC.AX,19-NOV-2014,,End Of Day,,32.72,32.87,32.58,32.79,3441153,,,Verified
WBC.AX,20-NOV-2014,,End Of Day,,32.7,32.88,32.5,32.53,3739871,,,Verified
WBC.AX,21-NOV-2014,,End Of Day,,32.56,32.61,32.12,32.25,4654116,,,Verified
WBC.AX,22-NOV-2014,,End Of Day,No Trades,,,,,,,,Verified
WBC.AX,23-NOV-2014,,End Of Day,No Trades,,,,,,,,Verified
WBC.AX,24-NOV-2014,,End Of Day,,32.44,32.7,32.32,32.5,3750806,,,Verified
WBC.AX,25-NOV-2014,,End Of Day,,32.18,32.6,32.14,32.6,4874598,,,Verified
WBC.AX,26-NOV-2014,,End Of Day,,32.77,33.07,32.76,33.07,4272480,,,Verified
WBC.AX,27-NOV-2014,,End Of Day,,33,33.28,32.94,33.23,4089986,,,Verified
WBC.AX,28-NOV-2014,,End Of Day,,33.21,33.21,32.5,32.55,7730127,,,Verified
WBC.AX,29-NOV-2014,,End Of Day,No Trades,,,,,,,,Verified
WBC.AX,30-NOV-2014,,End Of Day,No Trades,,,,,,,,Verified
WBC.AX,01-DEC-2014,,End Of Day,,32.72,32.8,32.2,32.24,4550764,,,Verified
WBC.AX,02-DEC-2014,,End Of Day,,32.29,32.78,32.02,32.73,5798727,,,Verified
WBC.AX,03-DEC-2014,,End Of Day,,32.45,33.13,32.4,32.84,4319051,,,Verified
WBC.AX,04-DEC-2014,,End Of Day,,33.17,33.5,33.02,33.4,6273914,,,Verified
WBC.AX,05-DEC-2014,,End Of Day,,33.2,33.42,32.62,33.01,5070117,,,Verified
WBC.AX,06-DEC-2014,,End Of Day,No Trades,,,,,,,,Verified
WBC.AX,07-DEC-2014,,End Of Day,No Trades,,,,,,,,Verified
WBC.AX,08-DEC-2014,,End Of Day,,33.45,33.69,33.35,33.35,5398267,,,Verified
WBC.AX,09-DEC-2014,,End Of Day,,33.28,33.63,33.04,33.06,5587673,,,Verified
WBC.AX,10-DEC-2014,,End Of Day,,32.69,32.765,32.43,32.52,5772679,,,Verified
WBC.AX,11-DEC-2014,,End Of Day,,32.12,32.49,32.01,32.24,6630708,,,Verified
WBC.AX,12-DEC-2014,,End Of Day,,31.99,32.31,31.92,32.05,4387570,,,Verified
WBC.AX,13-DEC-2014,,End Of Day,No Trades,,,,,,,,Verified
WBC.AX,14-DEC-2014,,End Of Day,No Trades,,,,,,,,Verified
WBC.AX,15-DEC-2014,,End Of Day,,31.85,32.04,31.58,31.82,3689241,,,Verified
WBC.AX,16-DEC-2014,,End Of Day,,31.6,31.88,31.52,31.57,5800446,,,Verified
WBC.AX,17-DEC-2014,,End Of Day,,31.55,31.83,31.33,31.33,5563857,,,Verified
WBC.AX,18-DEC-2014,,End Of Day,,31.4,31.94,31.4,31.58,8974195,,,Verified
WBC.AX,19-DEC-2014,,End Of Day,,32.1,32.495,32.03,32.48,13886882,,,Verified
WBC.AX,20-DEC-2014,,End Of Day,No Trades,,,,,,,,Verified
WBC.AX,21-DEC-2014,,End Of Day,No Trades,,,,,,,,Verified
WBC.AX,22-DEC-2014,,End Of Day,,32.64,33,32.59,33,4937714,,,Verified
WBC.AX,23-DEC-2014,,End Of Day,,32.83,32.97,32.72,32.75,3505268,,,Verified
WBC.AX,24-DEC-2014,,End Of Day,,32.71,32.9,32.56,32.9,1635458,,,Verified
WBC.AX,25-DEC-2014,,End Of Day,No Trades,,,,,,,,Verified
WBC.AX,26-DEC-2014,,End Of Day,No Trades,,,,,,,,Verified
WBC.AX,27-DEC-2014,,End Of Day,No Trades,,,,,,,,Verified
WBC.AX,28-DEC-2014,,End Of Day,No Trades,,,,,,,,Verified
WBC.AX,29-DEC-2014,,End Of Day,,33.1,33.4,32.995,33.34,3684449,,,Verified
WBC.AX,30-DEC-2014,,End Of Day,,33.47,33.62,33.14,33.2,3020299,,,Verified
WBC.AX,31-DEC-2014,,End Of Day,,33.05,33.18,32.99,33.16,1519051,,,Verified
WBC.AX,01-JAN-2015,,End Of Day,No Trades,,,,,,,,Verified
WBC.AX,02-JAN-2015,,End Of Day,,33,33.3,32.88,33.27,2174435,,,Verified
WBC.AX,03-JAN-2015,,End Of Day,No Trades,,,,,,,,Verified
WBC.AX,04-JAN-2015,,End Of Day,No Trades,,,,,,,,Verified
WBC.AX,05-JAN-2015,,End Of Day,,33.26,33.49,33.08,33.16,2840581,,,Verified
WBC.AX,06-JAN-2015,,End Of Day,,32.81,32.99,32.6,32.87,4535271,,,Verified
WBC.AX,07-JAN-2015,,End Of Day,,32.55,32.86,32.375,32.69,4911970,,,Verified
WBC.AX,08-JAN-2015,,End Of Day,,32.87,32.93,32.63,32.81,3582612,,,Verified
WBC.AX,09-JAN-2015,,End Of Day,,33,33.41,32.99,33.4,5395985,,,Verified
WBC.AX,10-JAN-2015,,End Of Day,No Trades,,,,,,,,Verified
WBC.AX,11-JAN-2015,,End Of Day,No Trades,,,,,,,,Verified
WBC.AX,12-JAN-2015,,End Of Day,,33.29,33.48,33.21,33.34,3323194,,,Verified
WBC.AX,13-JAN-2015,,End Of Day,,33.1,33.41,32.96,33.4,3904887,,,Verified
WBC.AX,14-JAN-2015,,End Of Day,,33.3,33.53,32.975,33.13,6392890,,,Verified
WBC.AX,15-JAN-2015,,End Of Day,,32.9,33,32.58,32.79,7264021,,,Verified
WBC.AX,16-JAN-2015,,End Of Day,,32.54,32.93,32.42,32.76,4303717,,,Verified
WBC.AX,17-JAN-2015,,End Of Day,No Trades,,,,,,,,Verified
WBC.AX,18-JAN-2015,,End Of Day,No Trades,,,,,,,,Verified
WBC.AX,19-JAN-2015,,End Of Day,,33.04,33.16,32.54,32.63,4030225,,,Verified
WBC.AX,20-JAN-2015,,End Of Day,,32.67,32.96,32.54,32.89,4012538,,,Verified
WBC.AX,21-JAN-2015,,End Of Day,,33.11,33.38,32.94,33.38,4621354,,,Verified
WBC.AX,22-JAN-2015,,End Of Day,,33.59,33.86,33.58,33.86,7028894,,,Verified
WBC.AX,23-JAN-2015,,End Of Day,,34.16,34.32,34.05,34.32,5166094,,,Verified
WBC.AX,24-JAN-2015,,End Of Day,No Trades,,,,,,,,Verified
WBC.AX,25-JAN-2015,,End Of Day,No Trades,,,,,,,,Verified
WBC.AX,26-JAN-2015,,End Of Day,No Trades,,,,,,,,Verified
WBC.AX,27-JAN-2015,,End Of Day,,34.35,34.59,34.31,34.56,4848412,,,Verified
WBC.AX,28-JAN-2015,,End Of Day,,34.48,34.7,34.33,34.68,5113645,,,Verified
WBC.AX,29-JAN-2015,,End Of Day,,34.43,34.74,34.34,34.64,5904360,,,Verified
WBC.AX,30-JAN-2015,,End Of Day,,34.8,34.83,34.46,34.46,12968473,,,Verified
WBC.AX,31-JAN-2015,,End Of Day,No Trades,,,,,,,,Verified
WBC.AX,01-FEB-2015,,End Of Day,No Trades,,,,,,,,Verified
WBC.AX,02-FEB-2015,,End Of Day,,34.59,34.9,34.41,34.85,5182349,,,Verified
WBC.AX,03-FEB-2015,,End Of Day,,34.97,35.35,34.71,35.26,6532198,,,Verified
WBC.AX,04-FEB-2015,,End Of Day,,35.75,36.24,35.67,36.23,9114284,,,Verified
WBC.AX,05-FEB-2015,,End Of Day,,36.36,36.54,35.93,36.44,6780775,,,Verified
WBC.AX,06-FEB-2015,,End Of Day,,36.86,36.96,36.56,36.96,7823697,,,Verified
WBC.AX,07-FEB-2015,,End Of Day,No Trades,,,,,,,,Verified
WBC.AX,08-FEB-2015,,End Of Day,No Trades,,,,,,,,Verified
WBC.AX,09-FEB-2015,,End Of Day,,36.85,37.05,36.62,37.05,4568716,,,Verified
WBC.AX,10-FEB-2015,,End Of Day,,36.96,36.96,36.45,36.81,3661045,,,Verified
WBC.AX,11-FEB-2015,,End Of Day,,37.05,37.2,36.61,36.83,3608188,,,Verified
WBC.AX,12-FEB-2015,,End Of Day,,37,37,36.53,36.69,5594855,,,Verified
WBC.AX,13-FEB-2015,,End Of Day,,37,37.65,36.86,37.53,5779042,,,Verified
WBC.AX,14-FEB-2015,,End Of Day,No Trades,,,,,,,,Verified
WBC.AX,15-FEB-2015,,End Of Day,No Trades,,,,,,,,Verified
WBC.AX,16-FEB-2015,,End Of Day,,37.48,37.72,37.01,37.65,2767029,,,Verified
WBC.AX,17-FEB-2015,,End Of Day,,37.45,37.89,37.35,37.67,3494271,,,Verified
WBC.AX,18-FEB-2015,,End Of Day,,37.99,38,37.4,38,4582330,,,Verified
WBC.AX,19-FEB-2015,,End Of Day,,38.25,38.28,37.74,37.95,3843026,,,Verified
WBC.AX,20-FEB-2015,,End Of Day,,38,38.1,37.53,37.63,2752111,,,Verified
WBC.AX,21-FEB-2015,,End Of Day,No Trades,,,,,,,,Verified
WBC.AX,22-FEB-2015,,End Of Day,No Trades,,,,,,,,Verified
WBC.AX,23-FEB-2015,,End Of Day,,37.54,37.94,37.49,37.72,2936481,,,Verified
WBC.AX,24-FEB-2015,,End Of Day,,37.85,38,37.5,37.97,4559117,,,Verified
WBC.AX,25-FEB-2015,,End Of Day,,38,38.14,37.75,37.88,3830971,,,Verified
WBC.AX,26-FEB-2015,,End Of Day,,37.75,37.93,37.52,37.68,3185292,,,Verified
WBC.AX,27-FEB-2015,,End Of Day,,37.78,38.06,37.29,38,10892424,,,Verified
WBC.AX,28-FEB-2015,,End Of Day,No Trades,,,,,,,,Verified
WBC.AX,01-MAR-2015,,End Of Day,No Trades,,,,,,,,Verified
WBC.AX,02-MAR-2015,,End Of Day,,38.1,38.61,38.04,38.29,4542562,,,Verified
WBC.AX,03-MAR-2015,,End Of Day,,38.52,38.97,38.12,38.26,4958299,,,Verified
WBC.AX,04-MAR-2015,,End Of Day,,38.34,38.42,37.88,37.91,3551701,,,Verified
WBC.AX,05-MAR-2015,,End Of Day,,37.9,37.97,37.52,37.83,5019926,,,Verified
WBC.AX,06-MAR-2015,,End Of Day,,37.78,38.05,37.56,37.68,3050819,,,Verified
WBC.AX,07-MAR-2015,,End Of Day,No Trades,,,,,,,,Verified
WBC.AX,08-MAR-2015,,End Of Day,No Trades,,,,,,,,Verified
WBC.AX,09-MAR-2015,,End Of Day,,37.36,37.6,37.25,37.36,3311964,,,Verified
WBC.AX,10-MAR-2015,,End Of Day,,37.63,37.95,37.52,37.67,3681111,,,Verified
WBC.AX,11-MAR-2015,,End Of Day,,37.2,37.67,37.14,37.5,2968282,,,Verified
WBC.AX,12-MAR-2015,,End Of Day,,37.5,38.18,37.49,38.09,3823577,,,Verified
WBC.AX,13-MAR-2015,,End Of Day,,38.14,38.24,37.64,37.8,2929990,,,Verified
WBC.AX,14-MAR-2015,,End Of Day,No Trades,,,,,,,,Verified
WBC.AX,15-MAR-2015,,End Of Day,No Trades,,,,,,,,Verified
WBC.AX,16-MAR-2015,,End Of Day,,37.75,38.05,37.51,37.98,3527210,,,Verified
WBC.AX,17-MAR-2015,,End Of Day,,38.4,38.69,38.35,38.54,3966791,,,Verified
WBC.AX,18-MAR-2015,,End Of Day,,38.49,38.7,38.26,38.68,5221495,,,Verified
WBC.AX,19-MAR-2015,,End Of Day,,39.05,39.72,39,39.71,9037189,,,Verified
WBC.AX,20-MAR-2015,,End Of Day,,39.51,39.8,39.42,39.73,6105244,,,Verified
WBC.AX,21-MAR-2015,,End Of Day,No Trades,,,,,,,,Verified
WBC.AX,22-MAR-2015,,End Of Day,No Trades,,,,,,,,Verified
WBC.AX,23-MAR-2015,,End Of Day,,39.73,39.88,39.43,39.56,2870597,,,Verified
WBC.AX,24-MAR-2015,,End Of Day,,39.54,39.685,39.42,39.57,2520846,,,Verified
WBC.AX,25-MAR-2015,,End Of Day,,39.62,39.89,39.57,39.89,4355263,,,Verified
WBC.AX,26-MAR-2015,,End Of Day,,39.52,39.56,38.95,38.95,5848196,,,Verified
WBC.AX,27-MAR-2015,,End Of Day,,39,39.39,38.99,39.2,11930363,,,Verified
WBC.AX,28-MAR-2015,,End Of Day,No Trades,,,,,,,,Verified
WBC.AX,29-MAR-2015,,End Of Day,No Trades,,,,,,,,Verified
WBC.AX,30-MAR-2015,,End Of Day,,38.86,39.19,38.77,39.13,5158592,,,Verified
WBC.AX,31-MAR-2015,,End Of Day,,39.45,39.74,39.32,39.38,4507258,,,Verified
WBC.AX,01-APR-2015,,End Of Day,,39.11,39.37,39,39.18,6964359,,,Verified
WBC.AX,02-APR-2015,,End Of Day,,39.25,39.53,39.17,39.45,2787711,,,Verified
WBC.AX,03-APR-2015,,End Of Day,No Trades,,,,,,,,Verified
WBC.AX,04-APR-2015,,End Of Day,No Trades,,,,,,,,Verified
WBC.AX,05-APR-2015,,End Of Day,No Trades,,,,,,,,Verified
WBC.AX,06-APR-2015,,End Of Day,No Trades,,,,,,,,Verified
WBC.AX,07-APR-2015,,End Of Day,,39.87,40.07,39.35,39.66,4675366,,,Verified
WBC.AX,08-APR-2015,,End Of Day,,39.8,39.97,39.445,39.76,3778651,,,Verified
WBC.AX,09-APR-2015,,End Of Day,,39.8,39.945,39.44,39.52,3301876,,,Verified
WBC.AX,10-APR-2015,,End Of Day,,39.68,39.88,39.48,39.88,2529548,,,Verified
WBC.AX,11-APR-2015,,End Of Day,No Trades,,,,,,,,Verified
WBC.AX,12-APR-2015,,End Of Day,No Trades,,,,,,,,Verified
WBC.AX,13-APR-2015,,End Of Day,,39.99,40,39.73,39.77,2478568,,,Verified
WBC.AX,14-APR-2015,,End Of Day,,39.7,39.94,39.55,39.56,4187671,,,Verified
WBC.AX,15-APR-2015,,End Of Day,,39.4,39.52,38.8,38.92,5498816,,,Verified
WBC.AX,16-APR-2015,,End Of Day,,39.34,39.38,39.08,39.27,3291143,,,Verified
WBC.AX,17-APR-2015,,End Of Day,,39.33,39.37,38.75,38.9,4400719,,,Verified
WBC.AX,18-APR-2015,,End Of Day,No Trades,,,,,,,,Verified
WBC.AX,19-APR-2015,,End Of Day,No Trades,,,,,,,,Verified
WBC.AX,20-APR-2015,,End Of Day,,38.5,38.89,38.35,38.79,4181185,,,Verified
WBC.AX,21-APR-2015,,End Of Day,,39,39.03,38.69,38.79,3414164,,,Verified
WBC.AX,22-APR-2015,,End Of Day,,38.73,38.82,38.04,38.29,4963458,,,Verified
WBC.AX,23-APR-2015,,End Of Day,,38.15,38.33,37.94,38.18,4293030,,,Verified
WBC.AX,24-APR-2015,,End Of Day,,38.47,38.5,38.165,38.42,8623717,,,Verified
WBC.AX,25-APR-2015,,End Of Day,No Trades,,,,,,,,Verified
WBC.AX,26-APR-2015,,End Of Day,No Trades,,,,,,,,Verified
WBC.AX,27-APR-2015,,End Of Day,,38.5,38.89,38.43,38.85,3892966,,,Verified
WBC.AX,28-APR-2015,,End Of Day,,38.7,38.78,38.39,38.39,4994937,,,Verified
WBC.AX,29-APR-2015,,End Of Day,,38.24,38.51,37.4,37.4,6139735,,,Verified
WBC.AX,30-APR-2015,,End Of Day,,36.51,36.72,36.215,36.46,9803805,,,Verified
WBC.AX,01-MAY-2015,,End Of Day,,36.52,36.94,36.26,36.73,8240848,,,Verified
WBC.AX,02-MAY-2015,,End Of Day,No Trades,,,,,,,,Verified
WBC.AX,03-MAY-2015,,End Of Day,No Trades,,,,,,,,Verified
WBC.AX,04-MAY-2015,,End Of Day,,35,35.71,34.94,35.6,12643405,,,Verified
WBC.AX,05-MAY-2015,,End Of Day,,35.89,35.95,35.14,35.28,9328741,,,Verified
WBC.AX,06-MAY-2015,,End Of Day,,34.93,34.96,33.99,33.99,9799381,,,Verified
WBC.AX,07-MAY-2015,,End Of Day,,33.21,34.33,33.08,33.9,10119408,,,Verified
WBC.AX,08-MAY-2015,,End Of Day,,34.35,34.54,34.05,34.05,6399289,,,Verified
WBC.AX,09-MAY-2015,,End Of Day,No Trades,,,,,,,,Verified
WBC.AX,10-MAY-2015,,End Of Day,No Trades,,,,,,,,Verified
WBC.AX,11-MAY-2015,,End Of Day,,34.5,34.54,33.61,33.7,6603950,,,Verified
WBC.AX,12-MAY-2015,,End Of Day,,33.9,34.33,33.66,34.06,7325700,,,Verified
WBC.AX,13-MAY-2015,,End Of Day,,33.4,33.48,33.13,33.27,7231441,,,Verified
WBC.AX,14-MAY-2015,,End Of Day,,33.24,33.27,32.64,33.03,8842197,,,Verified
WBC.AX,15-MAY-2015,,End Of Day,,33.33,33.45,32.745,33.05,7759741,,,Verified
WBC.AX,16-MAY-2015,,End Of Day,No Trades,,,,,,,,Verified
WBC.AX,17-MAY-2015,,End Of Day,No Trades,,,,,,,,Verified
WBC.AX,18-MAY-2015,,End Of Day,,32.68,32.89,32.22,32.22,7883806,,,Verified
WBC.AX,19-MAY-2015,,End Of Day,,32.5,32.99,32.28,32.28,10570495,,,Verified
WBC.AX,20-MAY-2015,,End Of Day,,32.1,32.73,31.92,32.26,9198588,,,Verified
WBC.AX,21-MAY-2015,,End Of Day,,32.3,32.65,32.08,32.65,8058139,,,Verified
WBC.AX,22-MAY-2015,,End Of Day,,32.7,32.76,32.52,32.56,5447790,,,Verified
WBC.AX,23-MAY-2015,,End Of Day,No Trades,,,,,,,,Verified
WBC.AX,24-MAY-2015,,End Of Day,No Trades,,,,,,,,Verified
WBC.AX,25-MAY-2015,,End Of Day,,32.5,32.96,32.47,32.96,5336173,,,Verified
WBC.AX,26-MAY-2015,,End Of Day,,33.16,33.67,33.04,33.65,7545918,,,Verified
WBC.AX,27-MAY-2015,,End Of Day,,33.62,33.7,33.09,33.2,8877358,,,Verified
WBC.AX,28-MAY-2015,,End Of Day,,33.35,33.36,32.89,33.12,7675950,,,Verified
WBC.AX,29-MAY-2015,,End Of Day,,33.53,33.99,33.48,33.56,14841514,,,Verified
WBC.AX,30-MAY-2015,,End Of Day,No Trades,,,,,,,,Verified
WBC.AX,31-MAY-2015,,End Of Day,No Trades,,,,,,,,Verified
WBC.AX,01-JUN-2015,,End Of Day,,33.38,33.43,32.87,33.12,6890167,,,Verified
WBC.AX,02-JUN-2015,,End Of Day,,33.3,33.3,32.25,32.34,9439771,,,Verified
WBC.AX,03-JUN-2015,,End Of Day,,32.24,32.24,31.88,31.88,9101381,,,Verified
WBC.AX,04-JUN-2015,,End Of Day,,32.09,32.16,31.29,31.4,9560889,,,Verified
WBC.AX,05-JUN-2015,,End Of Day,,31.25,31.58,31,31.19,9352111,,,Verified
WBC.AX,06-JUN-2015,,End Of Day,No Trades,,,,,,,,Verified
WBC.AX,07-JUN-2015,,End Of Day,No Trades,,,,,,,,Verified
WBC.AX,08-JUN-2015,,End Of Day,No Trades,,,,,,,,Verified
WBC.AX,09-JUN-2015,,End Of Day,,31.19,31.7,31.07,31.35,8112211,,,Verified
WBC.AX,10-JUN-2015,,End Of Day,,31.45,31.52,31.04,31.36,6266178,,,Verified
WBC.AX,11-JUN-2015,,End Of Day,,31.75,32.04,31.67,31.97,6152664,,,Verified
WBC.AX,12-JUN-2015,,End Of Day,,32,32.02,31.48,31.67,6588606,,,Verified
WBC.AX,13-JUN-2015,,End Of Day,No Trades,,,,,,,,Verified
WBC.AX,14-JUN-2015,,End Of Day,No Trades,,,,,,,,Verified
WBC.AX,15-JUN-2015,,End Of Day,,31.23,31.72,31.14,31.72,5974857,,,Verified
WBC.AX,16-JUN-2015,,End Of Day,,31.75,32.51,31.73,32.3,8875869,,,Verified
WBC.AX,17-JUN-2015,,End Of Day,,32.74,33.18,32.63,32.9,9630287,,,Verified
WBC.AX,18-JUN-2015,,End Of Day,,32.9,32.9,32.26,32.48,11260770,,,Verified
WBC.AX,19-JUN-2015,,End Of Day,,32.87,32.99,32.64,32.8,6241242,,,Verified
WBC.AX,20-JUN-2015,,End Of Day,No Trades,,,,,,,,Verified
WBC.AX,21-JUN-2015,,End Of Day,No Trades,,,,,,,,Verified
WBC.AX,22-JUN-2015,,End Of Day,,32.8,33.15,32.68,33.12,4418281,,,Verified
WBC.AX,23-JUN-2015,,End Of Day,,33.81,33.81,33.53,33.7,6391238,,,Verified
WBC.AX,24-JUN-2015,,End Of Day,,33.78,33.94,33.6,33.67,5047583,,,Verified
WBC.AX,25-JUN-2015,,End Of Day,,33.33,33.6,33.3,33.31,4573844,,,Verified
WBC.AX,26-JUN-2015,,End Of Day,,33.01,33.16,32.7,33.01,10918184,,,Verified
WBC.AX,27-JUN-2015,,End Of Day,No Trades,,,,,,,,Verified
WBC.AX,28-JUN-2015,,End Of Day,No Trades,,,,,,,,Verified
WBC.AX,29-JUN-2015,,End Of Day,,32.28,32.42,32,32.02,6272121,,,Verified
WBC.AX,30-JUN-2015,,End Of Day,,31.8,32.28,31.74,32.15,6668747,,,Verified
WBC.AX,01-JUL-2015,,End Of Day,,32.26,32.53,32.16,32.38,4705824,,,Verified
WBC.AX,02-JUL-2015,,End Of Day,,32.3,33.09,32.29,33.01,6877662,,,Verified
WBC.AX,03-JUL-2015,,End Of Day,,33,33.05,32.5,32.76,5883955,,,Verified
WBC.AX,04-JUL-2015,,End Of Day,No Trades,,,,,,,,Verified
WBC.AX,05-JUL-2015,,End Of Day,No Trades,,,,,,,,Verified
WBC.AX,06-JUL-2015,,End Of Day,,32.33,32.66,32.01,32.49,4188959,,,Verified
WBC.AX,07-JUL-2015,,End Of Day,,32.9,33.785,32.87,33.76,11165112,,,Verified
WBC.AX,08-JUL-2015,,End Of Day,,33.36,33.7,33.05,33.16,7135547,,,Verified
WBC.AX,09-JUL-2015,,End Of Day,,32.72,33.04,32.33,32.88,6123489,,,Verified
WBC.AX,10-JUL-2015,,End Of Day,,33.25,33.43,33.03,33.1,4745442,,,Verified
WBC.AX,11-JUL-2015,,End Of Day,No Trades,,,,,,,,Verified
WBC.AX,12-JUL-2015,,End Of Day,No Trades,,,,,,,,Verified
WBC.AX,13-JUL-2015,,End Of Day,,32.95,33.48,32.77,32.96,5025007,,,Verified
WBC.AX,14-JUL-2015,,End Of Day,,33.6,33.7,33.4,33.61,6189340,,,Verified
WBC.AX,15-JUL-2015,,End Of Day,,33.7,34,33.65,34,5463946,,,Verified
WBC.AX,16-JUL-2015,,End Of Day,,34.17,34.64,34.11,34.63,7063021,,,Verified
WBC.AX,17-JUL-2015,,End Of Day,,34.9,34.9,34.37,34.57,6056182,,,Verified
WBC.AX,18-JUL-2015,,End Of Day,No Trades,,,,,,,,Verified
WBC.AX,19-JUL-2015,,End Of Day,No Trades,,,,,,,,Verified
WBC.AX,20-JUL-2015,,End Of Day,,34.57,34.66,34.26,34.6,4538675,,,Verified
WBC.AX,21-JUL-2015,,End Of Day,,34.86,35.04,34.66,34.9,5397611,,,Verified
WBC.AX,22-JUL-2015,,End Of Day,,34.69,34.7,34.345,34.35,6131005,,,Verified
WBC.AX,23-JUL-2015,,End Of Day,,34.6,34.6,34.05,34.26,4622431,,,Verified
WBC.AX,24-JUL-2015,,End Of Day,,34.13,34.63,34.04,34.24,5981730,,,Verified
WBC.AX,25-JUL-2015,,End Of Day,No Trades,,,,,,,,Verified
WBC.AX,26-JUL-2015,,End Of Day,No Trades,,,,,,,,Verified
WBC.AX,27-JUL-2015,,End Of Day,,34.14,34.36,34.06,34.36,3719987,,,Verified
WBC.AX,28-JUL-2015,,End Of Day,,34.11,34.32,33.82,34.21,6291368,,,Verified
WBC.AX,29-JUL-2015,,End Of Day,,34.49,34.66,34.33,34.4,4562496,,,Verified
WBC.AX,30-JUL-2015,,End Of Day,,34.49,34.8,34.37,34.74,4769970,,,Verified
WBC.AX,31-JUL-2015,,End Of Day,,34.88,34.95,34.65,34.86,12898262,,,Verified
WBC.AX,01-AUG-2015,,End Of Day,No Trades,,,,,,,,Verified
WBC.AX,02-AUG-2015,,End Of Day,No Trades,,,,,,,,Verified
WBC.AX,03-AUG-2015,,End Of Day,,34.84,34.93,34.63,34.85,3139724,,,Verified
WBC.AX,04-AUG-2015,,End Of Day,,34.76,35.15,34.72,34.77,5369287,,,Verified
WBC.AX,05-AUG-2015,,End Of Day,,34.55,34.6,34.18,34.49,4366788,,,Verified
WBC.AX,06-AUG-2015,,End Of Day,,33.78,33.8,33.16,33.44,7283531,,,Verified
WBC.AX,07-AUG-2015,,End Of Day,,32.5,32.99,32.35,32.35,7666007,,,Verified
WBC.AX,08-AUG-2015,,End Of Day,No Trades,,,,,,,,Verified
WBC.AX,09-AUG-2015,,End Of Day,No Trades,,,,,,,,Verified
WBC.AX,10-AUG-2015,,End Of Day,,32.35,32.8,32.13,32.68,3803903,,,Verified
WBC.AX,11-AUG-2015,,End Of Day,,32.7,32.75,31.95,32.05,6296566,,,Verified
WBC.AX,12-AUG-2015,,End Of Day,,32.28,32.575,31.35,31.59,6716270,,,Verified
WBC.AX,13-AUG-2015,,End Of Day,,31.87,32.18,31.7,31.8,4501682,,,Verified
WBC.AX,14-AUG-2015,,End Of Day,,31.9,32.03,31.19,31.33,6871549,,,Verified
WBC.AX,15-AUG-2015,,End Of Day,No Trades,,,,,,,,Verified
WBC.AX,16-AUG-2015,,End Of Day,No Trades,,,,,,,,Verified
WBC.AX,17-AUG-2015,,End Of Day,,31.53,32.08,31.42,31.94,7333040,,,Verified
WBC.AX,18-AUG-2015,,End Of Day,,32.2,32.455,31.65,31.66,9072184,,,Verified
WBC.AX,19-AUG-2015,,End Of Day,,32.19,32.74,32.11,32.71,9841651,,,Verified
WBC.AX,20-AUG-2015,,End Of Day,,32.42,32.75,32.11,32.2,10422150,,,Verified
WBC.AX,21-AUG-2015,,End Of Day,,31.75,31.86,30.91,31.37,12158604,,,Verified
WBC.AX,22-AUG-2015,,End Of Day,No Trades,,,,,,,,Verified
WBC.AX,23-AUG-2015,,End Of Day,No Trades,,,,,,,,Verified
WBC.AX,24-AUG-2015,,End Of Day,,30.49,30.885,29.45,29.45,14302981,,,Verified
WBC.AX,25-AUG-2015,,End Of Day,,29.2,31.05,29.2,30.9,12650179,,,Verified
WBC.AX,26-AUG-2015,,End Of Day,,30.4,31.5,30.1,31.28,10387226,,,Verified
WBC.AX,27-AUG-2015,,End Of Day,,31.74,32.07,31.61,31.64,7591287,,,Verified
WBC.AX,28-AUG-2015,,End Of Day,,31.9,31.99,31.13,31.58,6522468,,,Verified
WBC.AX,29-AUG-2015,,End Of Day,No Trades,,,,,,,,Verified
WBC.AX,30-AUG-2015,,End Of Day,No Trades,,,,,,,,Verified
WBC.AX,31-AUG-2015,,End Of Day,,31.13,31.39,30.76,31.1,5633614,,,Verified
WBC.AX,01-SEP-2015,,End Of Day,,31.01,31.21,30.2,30.2,6010457,,,Verified
WBC.AX,02-SEP-2015,,End Of Day,,30,30.54,29.68,30.42,7909312,,,Verified
WBC.AX,03-SEP-2015,,End Of Day,,31.2,31.27,30.19,30.19,8706785,,,Verified
WBC.AX,04-SEP-2015,,End Of Day,,30.1,30.35,29.455,29.94,9462564,,,Verified
WBC.AX,05-SEP-2015,,End Of Day,No Trades,,,,,,,,Verified
WBC.AX,06-SEP-2015,,End Of Day,No Trades,,,,,,,,Verified
WBC.AX,07-SEP-2015,,End Of Day,,30.13,30.24,29.44,29.8,5386780,,,Verified
WBC.AX,08-SEP-2015,,End Of Day,,30.08,30.52,30.03,30.52,6172250,,,Verified
WBC.AX,09-SEP-2015,,End Of Day,,31,31.81,30.91,31.81,9959645,,,Verified
WBC.AX,10-SEP-2015,,End Of Day,,31.03,31.22,30.75,30.76,7100413,,,Verified
WBC.AX,11-SEP-2015,,End Of Day,,30.51,30.94,30.16,30.5,6756236,,,Verified
WBC.AX,12-SEP-2015,,End Of Day,No Trades,,,,,,,,Verified
WBC.AX,13-SEP-2015,,End Of Day,No Trades,,,,,,,,Verified
WBC.AX,14-SEP-2015,,End Of Day,,31.19,31.25,30.75,30.99,6122739,,,Verified
WBC.AX,15-SEP-2015,,End Of Day,,30.84,30.92,30.15,30.2,6547245,,,Verified
WBC.AX,16-SEP-2015,,End Of Day,,30.38,31.09,30.22,31.07,8462275,,,Verified
WBC.AX,17-SEP-2015,,End Of Day,,31.62,31.81,31.22,31.35,8702662,,,Verified
WBC.AX,18-SEP-2015,,End Of Day,,31.28,31.75,30.9,31.75,8173521,,,Verified
WBC.AX,19-SEP-2015,,End Of Day,No Trades,,,,,,,,Verified
WBC.AX,20-SEP-2015,,End Of Day,No Trades,,,,,,,,Verified
WBC.AX,21-SEP-2015,,End Of Day,,31.21,31.25,30.5,30.85,6030080,,,Verified
WBC.AX,22-SEP-2015,,End Of Day,,31.07,31.34,30.89,31.11,4396711,,,Verified
WBC.AX,23-SEP-2015,,End Of Day,,30.61,30.76,29.95,29.97,8907331,,,Verified
WBC.AX,24-SEP-2015,,End Of Day,,30.18,30.43,30.06,30.36,8199021,,,Verified
WBC.AX,25-SEP-2015,,End Of Day,,30.6,30.65,29.85,29.95,8012059,,,Verified
WBC.AX,26-SEP-2015,,End Of Day,No Trades,,,,,,,,Verified
WBC.AX,27-SEP-2015,,End Of Day,No Trades,,,,,,,,Verified
WBC.AX,28-SEP-2015,,End Of Day,,30,30.48,29.98,30.24,4985204,,,Verified
WBC.AX,29-SEP-2015,,End Of Day,,29.73,29.81,29.1,29.1,8434748,,,Verified
WBC.AX,30-SEP-2015,,End Of Day,,29.4,29.79,29.12,29.7,7886252,,,Verified
WBC.AX,01-OCT-2015,,End Of Day,,29.99,30.52,29.74,30.39,7125244,,,Verified
WBC.AX,02-OCT-2015,,End Of Day,,30,30.35,29.58,29.75,5549484,,,Verified
WBC.AX,03-OCT-2015,,End Of Day,No Trades,,,,,,,,Verified
WBC.AX,04-OCT-2015,,End Of Day,No Trades,,,,,,,,Verified
WBC.AX,05-OCT-2015,,End Of Day,,30.3,30.3,29.99,30.1,4030863,,,Verified
WBC.AX,06-OCT-2015,,End Of Day,,30.49,30.63,30.31,30.36,4863979,,,Verified
WBC.AX,07-OCT-2015,,End Of Day,,30.56,30.59,29.96,30.52,4866109,,,Verified
WBC.AX,08-OCT-2015,,End Of Day,,30.75,30.92,30.49,30.54,5129003,,,Verified
WBC.AX,09-OCT-2015,,End Of Day,,30.9,30.98,30.52,30.86,5534593,,,Verified
WBC.AX,10-OCT-2015,,End Of Day,No Trades,,,,,,,,Verified
WBC.AX,11-OCT-2015,,End Of Day,No Trades,,,,,,,,Verified
WBC.AX,12-OCT-2015,,End Of Day,,30.85,30.87,30.51,30.62,4607090,,,Verified
WBC.AX,13-OCT-2015,,End Of Day,,30.59,30.76,30.2,30.44,4401040,,,Verified
WBC.AX,14-OCT-2015,,End Of Day,,,,,,29000,,,Verified
WBC.AX,17-OCT-2015,,End Of Day,No Trades,,,,,,,,Verified
WBC.AX,18-OCT-2015,,End Of Day,No Trades,,,,,,,,Verified
WBC.AX,19-OCT-2015,,End Of Day,,30.8,31.835,30.8,31.34,14751853,,,Verified
WBC.AX,20-OCT-2015,,End Of Day,,31.3,31.33,30.8,30.85,7297178,,,Verified
WBC.AX,21-OCT-2015,,End Of Day,,30.6,30.95,30.21,30.75,7449171,,,Verified
WBC.AX,22-OCT-2015,,End Of Day,,30.68,31.04,30.61,31.03,4332663,,,Verified
WBC.AX,23-OCT-2015,,End Of Day,,31.65,31.78,31.45,31.56,7725531,,,Verified
WBC.AX,24-OCT-2015,,End Of Day,No Trades,,,,,,,,Verified
WBC.AX,25-OCT-2015,,End Of Day,No Trades,,,,,,,,Verified
WBC.AX,26-OCT-2015,,End Of Day,,31.87,31.92,31.71,31.84,5597684,,,Verified
WBC.AX,27-OCT-2015,,End Of Day,,31.84,31.95,31.65,31.77,5448863,,,Verified
WBC.AX,28-OCT-2015,,End Of Day,,31.65,32.095,31.52,31.93,7771382,,,Verified
WBC.AX,29-OCT-2015,,End Of Day,,32.18,32.35,31.68,31.92,9362123,,,Verified
WBC.AX,30-OCT-2015,,End Of Day,,31.47,31.56,31.15,31.38,13182732,,,Verified
WBC.AX,31-OCT-2015,,End Of Day,No Trades,,,,,,,,Verified
WBC.AX,01-NOV-2015,,End Of Day,No Trades,,,,,,,,Verified
WBC.AX,02-NOV-2015,,End Of Day,,31.33,31.41,30.56,30.61,6132099,,,Verified
WBC.AX,03-NOV-2015,,End Of Day,,30.8,31.37,30.66,31.3,6133018,,,Verified
WBC.AX,04-NOV-2015,,End Of Day,,31.8,31.94,31.25,31.27,7331722,,,Verified
WBC.AX,05-NOV-2015,,End Of Day,,31.27,31.5,30.67,31.11,7452406,,,Verified
WBC.AX,06-NOV-2015,,End Of Day,,31.32,31.72,31.185,31.65,7015871,,,Verified
WBC.AX,07-NOV-2015,,End Of Day,No Trades,,,,,,,,Verified
WBC.AX,08-NOV-2015,,End Of Day,No Trades,,,,,,,,Verified
WBC.AX,09-NOV-2015,,End Of Day,,31.5,31.74,31.09,31.29,6250079,,,Verified
WBC.AX,10-NOV-2015,,End Of Day,,31,31.1,30.61,30.9,9662204,,,Verified
WBC.AX,11-NOV-2015,,End Of Day,,29.95,30.44,29.95,30.14,7987706,,,Verified
WBC.AX,12-NOV-2015,,End Of Day,,29.96,30.97,29.95,30.61,8802378,,,Verified
WBC.AX,13-NOV-2015,,End Of Day,,30.05,30.81,30.01,30.52,7937102,,,Verified
WBC.AX,14-NOV-2015,,End Of Day,No Trades,,,,,,,,Verified
WBC.AX,15-NOV-2015,,End Of Day,No Trades,,,,,,,,Verified
WBC.AX,16-NOV-2015,,End Of Day,,30.16,30.35,30.02,30.02,6076726,,,Verified
WBC.AX,17-NOV-2015,,End Of Day,,30.05,30.6,29.99,30.6,9103715,,,Verified
WBC.AX,18-NOV-2015,,End Of Day,,30.5,30.88,30.24,30.77,6713601,,,Verified
WBC.AX,19-NOV-2015,,End Of Day,,31.05,31.58,30.86,31.58,7008894,,,Verified
WBC.AX,20-NOV-2015,,End Of Day,,31.72,31.98,31.36,31.86,5816066,,,Verified
WBC.AX,21-NOV-2015,,End Of Day,No Trades,,,,,,,,Verified
WBC.AX,22-NOV-2015,,End Of Day,No Trades,,,,,,,,Verified
WBC.AX,23-NOV-2015,,End Of Day,,31.94,31.99,31.63,31.89,5654587,,,Verified
WBC.AX,24-NOV-2015,,End Of Day,,31.71,31.96,31.65,31.71,5107176,,,Verified
WBC.AX,25-NOV-2015,,End Of Day,,31.85,31.91,31.47,31.7,5737156,,,Verified
WBC.AX,26-NOV-2015,,End Of Day,,31.88,32.33,31.83,32.09,6570630,,,Verified
WBC.AX,27-NOV-2015,,End Of Day,,32.44,32.44,31.9,32.12,7928086,,,Verified
WBC.AX,28-NOV-2015,,End Of Day,No Trades,,,,,,,,Verified
WBC.AX,29-NOV-2015,,End Of Day,No Trades,,,,,,,,Verified
WBC.AX,30-NOV-2015,,End Of Day,,32.05,32.405,31.99,32.15,10137564,,,Verified
WBC.AX,01-DEC-2015,,End Of Day,,32.38,32.88,32.23,32.79,9117015,,,Verified
WBC.AX,02-DEC-2015,,End Of Day,,32.88,33.14,32.7,33.1,6675708,,,Verified
WBC.AX,03-DEC-2015,,End Of Day,,32.74,33.05,32.7,32.91,4915993,,,Verified
WBC.AX,04-DEC-2015,,End Of Day,,32.31,32.39,32,32.3,6357931,,,Verified
WBC.AX,05-DEC-2015,,End Of Day,No Trades,,,,,,,,Verified
WBC.AX,06-DEC-2015,,End Of Day,No Trades,,,,,,,,Verified
WBC.AX,07-DEC-2015,,End Of Day,,32.81,32.81,32.45,32.52,4315658,,,Verified
WBC.AX,08-DEC-2015,,End Of Day,,32.37,32.51,31.94,32.24,5214507,,,Verified
WBC.AX,09-DEC-2015,,End Of Day,,32,32.38,31.94,32.05,4755868,,,Verified
WBC.AX,10-DEC-2015,,End Of Day,,31.74,31.91,31.11,31.41,6945467,,,Verified
WBC.AX,11-DEC-2015,,End Of Day,,31.3,31.72,31.03,31.47,4519252,,,Verified
WBC.AX,12-DEC-2015,,End Of Day,No Trades,,,,,,,,Verified
WBC.AX,13-DEC-2015,,End Of Day,No Trades,,,,,,,,Verified
WBC.AX,14-DEC-2015,,End Of Day,,31,31.15,30.66,30.66,6330104,,,Verified
WBC.AX,15-DEC-2015,,End Of Day,,30.81,31.07,30.6,30.6,5482008,,,Verified
WBC.AX,16-DEC-2015,,End Of Day,,30.9,31.48,30.84,31.46,5657651,,,Verified
WBC.AX,17-DEC-2015,,End Of Day,,32.01,32.36,31.93,32.18,10591346,,,Verified
WBC.AX,18-DEC-2015,,End Of Day,,31.7,32.41,31.53,32.28,12457688,,,Verified
WBC.AX,19-DEC-2015,,End Of Day,No Trades,,,,,,,,Verified
WBC.AX,20-DEC-2015,,End Of Day,No Trades,,,,,,,,Verified
WBC.AX,21-DEC-2015,,End Of Day,,32.15,32.31,31.92,32.25,4245018,,,Verified
WBC.AX,22-DEC-2015,,End Of Day,,32.5,32.5,31.82,32,4002659,,,Verified
WBC.AX,23-DEC-2015,,End Of Day,,32.19,32.33,31.96,32.06,5237990,,,Verified
WBC.AX,24-DEC-2015,,End Of Day,,32.5,32.58,32.35,32.54,2454805,,,Verified
WBC.AX,25-DEC-2015,,End Of Day,No Trades,,,,,,,,Verified
WBC.AX,26-DEC-2015,,End Of Day,No Trades,,,,,,,,Verified
WBC.AX,27-DEC-2015,,End Of Day,No Trades,,,,,,,,Verified
WBC.AX,28-DEC-2015,,End Of Day,No Trades,,,,,,,,Verified
WBC.AX,29-DEC-2015,,End Of Day,,32.61,33.02,32.55,33.02,3303384,,,Verified
WBC.AX,30-DEC-2015,,End Of Day,,33.3,33.74,33.24,33.66,5125768,,,Verified
WBC.AX,31-DEC-2015,,End Of Day,,33.43,33.73,33.38,33.56,3138540,,,Verified
WBC.AX,01-JAN-2016,,End Of Day,No Trades,,,,,,,,Verified
WBC.AX,02-JAN-2016,,End Of Day,No Trades,,,,,,,,Verified
WBC.AX,03-JAN-2016,,End Of Day,No Trades,,,,,,,,Verified
WBC.AX,04-JAN-2016,,End Of Day,,33.4,33.46,32.83,33,5542986,,,Verified
WBC.AX,05-JAN-2016,,End Of Day,,32.67,32.84,32.53,32.69,3775955,,,Verified
WBC.AX,06-JAN-2016,,End Of Day,,32.65,32.67,32.03,32.21,4505275,,,Verified
WBC.AX,07-JAN-2016,,End Of Day,,32.04,32.22,31.2,31.28,6406483,,,Verified
WBC.AX,08-JAN-2016,,End Of Day,,30.66,31.66,30.64,31,6878195,,,Verified
WBC.AX,09-JAN-2016,,End Of Day,No Trades,,,,,,,,Verified
WBC.AX,10-JAN-2016,,End Of Day,No Trades,,,,,,,,Verified
WBC.AX,11-JAN-2016,,End Of Day,,30.61,30.93,30.21,30.56,5506708,,,Verified
WBC.AX,12-JAN-2016,,End Of Day,,30.76,31.24,30.57,30.82,5943780,,,Verified
WBC.AX,13-JAN-2016,,End Of Day,,31.13,31.53,30.93,31.49,6205691,,,Verified
WBC.AX,14-JAN-2016,,End Of Day,,30.75,31.16,30.6,31.16,4838349,,,Verified
WBC.AX,15-JAN-2016,,End Of Day,,31.65,31.67,30.84,31.09,6510124,,,Verified
WBC.AX,16-JAN-2016,,End Of Day,No Trades,,,,,,,,Verified
WBC.AX,17-JAN-2016,,End Of Day,No Trades,,,,,,,,Verified
WBC.AX,18-JAN-2016,,End Of Day,,30.8,30.84,30.51,30.77,4400464,,,Verified
WBC.AX,19-JAN-2016,,End Of Day,,30.83,31.18,30.64,31.18,5324293,,,Verified
WBC.AX,20-JAN-2016,,End Of Day,,31.19,31.33,29.99,30.06,7268802,,,Verified
WBC.AX,21-JAN-2016,,End Of Day,,30.69,30.69,29.86,29.89,8915150,,,Verified
WBC.AX,22-JAN-2016,,End Of Day,,29.97,30,29.66,29.93,6065769,,,Verified
WBC.AX,23-JAN-2016,,End Of Day,No Trades,,,,,,,,Verified
WBC.AX,24-JAN-2016,,End Of Day,No Trades,,,,,,,,Verified
WBC.AX,25-JAN-2016,,End Of Day,,30.35,30.97,30.25,30.91,5227966,,,Verified
WBC.AX,26-JAN-2016,,End Of Day,No Trades,,,,,,,,Verified
WBC.AX,27-JAN-2016,,End Of Day,,30.77,30.99,30.215,30.33,6769085,,,Verified
WBC.AX,28-JAN-2016,,End Of Day,,30.17,30.6,29.87,30.48,5806973,,,Verified
WBC.AX,29-JAN-2016,,End Of Day,,30.47,30.85,30.13,30.85,7577048,,,Verified
WBC.AX,30-JAN-2016,,End Of Day,No Trades,,,,,,,,Verified
WBC.AX,31-JAN-2016,,End Of Day,No Trades,,,,,,,,Verified
WBC.AX,01-FEB-2016,,End Of Day,,31.03,31.12,30.55,30.65,5730081,,,Verified
WBC.AX,02-FEB-2016,,End Of Day,,30.72,30.84,30.13,30.3,6127295,,,Verified
WBC.AX,03-FEB-2016,,End Of Day,,29.85,30.13,29.41,29.43,5796970,,,Verified
WBC.AX,04-FEB-2016,,End Of Day,,29.65,30.61,29.54,30.48,6457765,,,Verified
WBC.AX,05-FEB-2016,,End Of Day,,30.2,30.375,29.92,30.35,4504899,,,Verified
WBC.AX,06-FEB-2016,,End Of Day,No Trades,,,,,,,,Verified
WBC.AX,07-FEB-2016,,End Of Day,No Trades,,,,,,,,Verified
WBC.AX,08-FEB-2016,,End Of Day,,30.02,30.31,29.86,30.26,3332964,,,Verified
WBC.AX,09-FEB-2016,,End Of Day,,29.84,29.9,28.7,28.7,9042672,,,Verified
WBC.AX,10-FEB-2016,,End Of Day,,28.95,29,27.69,28.53,8483600,,,Verified
WBC.AX,11-FEB-2016,,End Of Day,,28.79,28.97,28.36,28.79,4093441,,,Verified
WBC.AX,12-FEB-2016,,End Of Day,,28.35,28.73,27.98,28.06,5786719,,,Verified
WBC.AX,13-FEB-2016,,End Of Day,No Trades,,,,,,,,Verified
WBC.AX,14-FEB-2016,,End Of Day,No Trades,,,,,,,,Verified
WBC.AX,15-FEB-2016,,End Of Day,,28.75,28.87,28.11,28.63,7096618,,,Verified
WBC.AX,16-FEB-2016,,End Of Day,,28.9,28.97,28.13,28.97,7974927,,,Verified
WBC.AX,17-FEB-2016,,End Of Day,,29.04,29.49,28.62,29.17,5096098,,,Verified
WBC.AX,18-FEB-2016,,End Of Day,,29.57,29.98,29.405,29.98,4871007,,,Verified
WBC.AX,19-FEB-2016,,End Of Day,,29.8,29.995,29.565,29.78,3895409,,,Verified
WBC.AX,20-FEB-2016,,End Of Day,No Trades,,,,,,,,Verified
WBC.AX,21-FEB-2016,,End Of Day,No Trades,,,,,,,,Verified
WBC.AX,22-FEB-2016,,End Of Day,,29.7,30.25,29.64,30.1,3842594,,,Verified
WBC.AX,23-FEB-2016,,End Of Day,,30.16,30.53,29.54,29.65,4578500,,,Verified
WBC.AX,24-FEB-2016,,End Of Day,,29.25,29.31,28.42,28.49,6636665,,,Verified
WBC.AX,25-FEB-2016,,End Of Day,,28.5,28.78,27.83,28.63,9123084,,,Verified
WBC.AX,26-FEB-2016,,End Of Day,,28.74,28.89,28.44,28.56,5424554,,,Verified
WBC.AX,27-FEB-2016,,End Of Day,No Trades,,,,,,,,Verified
WBC.AX,28-FEB-2016,,End Of Day,No Trades,,,,,,,,Verified
WBC.AX,29-FEB-2016,,End Of Day,,28.74,29.19,28.66,28.75,7295687,,,Verified
WBC.AX,01-MAR-2016,,End Of Day,,28.6,29.49,28.58,29.47,7918794,,,Verified
WBC.AX,02-MAR-2016,,End Of Day,,30.07,30.92,29.99,30.69,9394400,,,Verified
WBC.AX,03-MAR-2016,,End Of Day,,30.9,31.25,30.41,31.23,7901192,,,Verified
WBC.AX,04-MAR-2016,,End Of Day,,31.38,31.805,31.32,31.71,6387668,,,Verified
WBC.AX,05-MAR-2016,,End Of Day,No Trades,,,,,,,,Verified
WBC.AX,06-MAR-2016,,End Of Day,No Trades,,,,,,,,Verified
WBC.AX,07-MAR-2016,,End Of Day,,31.98,32.32,31.85,32.12,6042803,,,Verified
WBC.AX,08-MAR-2016,,End Of Day,,32.1,32.45,31.65,31.81,8329286,,,Verified
WBC.AX,09-MAR-2016,,End Of Day,,31.9,32.53,31.78,32.53,6408916,,,Verified
WBC.AX,10-MAR-2016,,End Of Day,,32.54,32.8,32.36,32.52,4278125,,,Verified
WBC.AX,11-MAR-2016,,End Of Day,,32.42,32.97,32.34,32.74,4652018,,,Verified
WBC.AX,12-MAR-2016,,End Of Day,No Trades,,,,,,,,Verified
WBC.AX,13-MAR-2016,,End Of Day,No Trades,,,,,,,,Verified
WBC.AX,14-MAR-2016,,End Of Day,,33.04,33.4,32.74,32.88,8116908,,,Verified
WBC.AX,15-MAR-2016,,End Of Day,,32.69,33.11,32.23,32.3,5125495,,,Verified
WBC.AX,16-MAR-2016,,End Of Day,,32.18,32.62,32.08,32.49,4471932,,,Verified
WBC.AX,17-MAR-2016,,End Of Day,,32.9,32.98,32.51,32.69,8010391,,,Verified
WBC.AX,18-MAR-2016,,End Of Day,,32.9,33.09,32.57,32.68,7578677,,,Verified
WBC.AX,19-MAR-2016,,End Of Day,No Trades,,,,,,,,Verified
WBC.AX,20-MAR-2016,,End Of Day,No Trades,,,,,,,,Verified
WBC.AX,21-MAR-2016,,End Of Day,,32.79,32.83,32.39,32.52,3421511,,,Verified
WBC.AX,22-MAR-2016,,End Of Day,,32.5,32.65,32.34,32.43,6207921,,,Verified
WBC.AX,23-MAR-2016,,End Of Day,,32.4,32.41,32.07,32.33,4769024,,,Verified
WBC.AX,24-MAR-2016,,End Of Day,,32.01,32.06,30.81,30.85,16328340,,,Verified
WBC.AX,25-MAR-2016,,End Of Day,No Trades,,,,,,,,Verified
WBC.AX,26-MAR-2016,,End Of Day,No Trades,,,,,,,,Verified
WBC.AX,27-MAR-2016,,End Of Day,No Trades,,,,,,,,Verified
WBC.AX,28-MAR-2016,,End Of Day,No Trades,,,,,,,,Verified
WBC.AX,29-MAR-2016,,End Of Day,,30.95,31,29.78,29.93,8412023,,,Verified
WBC.AX,30-MAR-2016,,End Of Day,,30.41,30.66,29.64,29.89,6380176,,,Verified
WBC.AX,31-MAR-2016,,End Of Day,,30.11,30.47,30.06,30.35,6954809,,,Verified
WBC.AX,01-APR-2016,,End Of Day,,29.85,30.13,29.47,29.65,8385987,,,Verified
WBC.AX,02-APR-2016,,End Of Day,No Trades,,,,,,,,Verified
WBC.AX,03-APR-2016,,End Of Day,No Trades,,,,,,,,Verified
WBC.AX,04-APR-2016,,End Of Day,,29.5,30.21,29.46,29.71,3774286,,,Verified
WBC.AX,05-APR-2016,,End Of Day,,29.61,29.67,28.94,29.13,5962352,,,Verified
WBC.AX,06-APR-2016,,End Of Day,,29.02,29.27,28.46,28.68,6210544,,,Verified
WBC.AX,07-APR-2016,,End Of Day,,28.89,29.22,28.76,28.86,5729715,,,Verified
WBC.AX,08-APR-2016,,End Of Day,,28.5,28.74,28.21,28.52,5067513,,,Verified
WBC.AX,09-APR-2016,,End Of Day,No Trades,,,,,,,,Verified
WBC.AX,10-APR-2016,,End Of Day,No Trades,,,,,,,,Verified
WBC.AX,11-APR-2016,,End Of Day,,28.5,28.66,28.155,28.42,4604855,,,Verified
WBC.AX,12-APR-2016,,End Of Day,,28.42,29.13,28.4,29.13,5077984,,,Verified
WBC.AX,13-APR-2016,,End Of Day,,29.5,29.94,29.23,29.94,6527156,,,Verified
WBC.AX,14-APR-2016,,End Of Day,,30.31,30.75,30.13,30.73,6189005,,,Verified
WBC.AX,15-APR-2016,,End Of Day,,30.8,31,30.21,30.9,5603731,,,Verified
WBC.AX,16-APR-2016,,End Of Day,No Trades,,,,,,,,Verified
WBC.AX,17-APR-2016,,End Of Day,No Trades,,,,,,,,Verified
WBC.AX,18-APR-2016,,End Of Day,,30.42,30.83,30.24,30.44,4334229,,,Verified
WBC.AX,19-APR-2016,,End Of Day,,30.91,30.98,30.54,30.55,8244006,,,Verified
WBC.AX,20-APR-2016,,End Of Day,,30.91,30.94,30.15,30.76,5550313,,,Verified
WBC.AX,21-APR-2016,,End Of Day,,31.17,31.35,30.87,31.15,5715727,,,Verified
WBC.AX,22-APR-2016,,End Of Day,,31.05,31.49,30.98,31.32,5927333,,,Verified
WBC.AX,23-APR-2016,,End Of Day,No Trades,,,,,,,,Verified
WBC.AX,24-APR-2016,,End Of Day,No Trades,,,,,,,,Verified
WBC.AX,25-APR-2016,,End Of Day,No Trades,,,,,,,,Verified
WBC.AX,26-APR-2016,,End Of Day,,31.55,31.79,31.41,31.58,6246496,,,Verified
WBC.AX,27-APR-2016,,End Of Day,,31.84,32,30.78,30.94,7864713,,,Verified
WBC.AX,28-APR-2016,,End Of Day,,30.95,31.07,30.53,30.67,7204225,,,Verified
WBC.AX,29-APR-2016,,End Of Day,,30.71,31.18,30.66,31.05,6839055,,,Verified
WBC.AX,30-APR-2016,,End Of Day,No Trades,,,,,,,,Verified
WBC.AX,01-MAY-2016,,End Of Day,No Trades,,,,,,,,Verified
WBC.AX,02-MAY-2016,,End Of Day,,29.83,29.95,29.29,29.95,10845459,,,Verified
WBC.AX,03-MAY-2016,,End Of Day,,29.6,30.7,29.42,30.65,10210711,,,Verified
WBC.AX,04-MAY-2016,,End Of Day,,30.15,30.56,30.05,30.3,6942369,,,Verified
WBC.AX,05-MAY-2016,,End Of Day,,30.1,30.63,30.08,30.49,7481825,,,Verified
WBC.AX,06-MAY-2016,,End Of Day,,30.12,30.83,30.01,30.8,7683079,,,Verified
WBC.AX,07-MAY-2016,,End Of Day,No Trades,,,,,,,,Verified
WBC.AX,08-MAY-2016,,End Of Day,No Trades,,,,,,,,Verified
WBC.AX,09-MAY-2016,,End Of Day,,30.8,31.29,30.58,31.11,6029057,,,Verified
WBC.AX,10-MAY-2016,,End Of Day,,31.2,31.58,31.08,31.3,11846667,,,Verified
WBC.AX,11-MAY-2016,,End Of Day,,31.75,31.78,31.305,31.31,10553075,,,Verified
