#RIC,Date[L],Time[L],Type,Qualifiers,Open,High,Low,Last,Volume,Open Interest,Settle,Data Source
PBG.AX,01-JAN-2014,,End Of Day,No Trades,,,,,,,,Verified
PBG.AX,02-JAN-2014,,End Of Day,,0.64,0.65,0.635,0.65,1030155,,,Verified
PBG.AX,03-JAN-2014,,End Of Day,,0.64,0.645,0.625,0.625,1032229,,,Verified
PBG.AX,04-JAN-2014,,End Of Day,No Trades,,,,,,,,Verified
PBG.AX,05-JAN-2014,,End Of Day,No Trades,,,,,,,,Verified
PBG.AX,06-JAN-2014,,End Of Day,,0.635,0.645,0.627,0.645,1969016,,,Verified
PBG.AX,07-JAN-2014,,End Of Day,,0.64,0.64,0.625,0.625,1601548,,,Verified
PBG.AX,08-JAN-2014,,End Of Day,,0.64,0.64,0.625,0.63,602806,,,Verified
PBG.AX,09-JAN-2014,,End Of Day,,0.625,0.627,0.615,0.615,1272048,,,Verified
PBG.AX,10-JAN-2014,,End Of Day,,0.62,0.64,0.61,0.62,6320383,,,Verified
PBG.AX,11-JAN-2014,,End Of Day,No Trades,,,,,,,,Verified
PBG.AX,12-JAN-2014,,End Of Day,No Trades,,,,,,,,Verified
PBG.AX,13-JAN-2014,,End Of Day,,0.625,0.63,0.615,0.62,2259044,,,Verified
PBG.AX,14-JAN-2014,,End Of Day,,0.61,0.617,0.61,0.61,1769135,,,Verified
PBG.AX,15-JAN-2014,,End Of Day,,0.615,0.62,0.61,0.61,1314036,,,Verified
PBG.AX,16-JAN-2014,,End Of Day,,0.63,0.63,0.62,0.63,10481782,,,Verified
PBG.AX,17-JAN-2014,,End Of Day,,0.63,0.63,0.605,0.605,1967300,,,Verified
PBG.AX,18-JAN-2014,,End Of Day,No Trades,,,,,,,,Verified
PBG.AX,19-JAN-2014,,End Of Day,No Trades,,,,,,,,Verified
PBG.AX,20-JAN-2014,,End Of Day,,0.605,0.61,0.6,0.61,3363592,,,Verified
PBG.AX,21-JAN-2014,,End Of Day,,0.61,0.625,0.605,0.62,2377799,,,Verified
PBG.AX,22-JAN-2014,,End Of Day,,0.62,0.63,0.61,0.63,2176984,,,Verified
PBG.AX,23-JAN-2014,,End Of Day,,0.625,0.635,0.605,0.61,1986369,,,Verified
PBG.AX,24-JAN-2014,,End Of Day,,0.605,0.612,0.6,0.61,2423770,,,Verified
PBG.AX,25-JAN-2014,,End Of Day,No Trades,,,,,,,,Verified
PBG.AX,26-JAN-2014,,End Of Day,No Trades,,,,,,,,Verified
PBG.AX,27-JAN-2014,,End Of Day,No Trades,,,,,,,,Verified
PBG.AX,28-JAN-2014,,End Of Day,,0.61,0.62,0.6,0.615,2327895,,,Verified
PBG.AX,29-JAN-2014,,End Of Day,,0.62,0.625,0.6,0.61,2114434,,,Verified
PBG.AX,30-JAN-2014,,End Of Day,,0.6,0.615,0.6,0.61,1554329,,,Verified
PBG.AX,31-JAN-2014,,End Of Day,,0.61,0.62,0.61,0.615,1716630,,,Verified
PBG.AX,01-FEB-2014,,End Of Day,No Trades,,,,,,,,Verified
PBG.AX,02-FEB-2014,,End Of Day,No Trades,,,,,,,,Verified
PBG.AX,03-FEB-2014,,End Of Day,,0.61,0.645,0.61,0.64,4077866,,,Verified
PBG.AX,04-FEB-2014,,End Of Day,,0.62,0.64,0.62,0.64,2890744,,,Verified
PBG.AX,05-FEB-2014,,End Of Day,,0.64,0.667,0.64,0.66,3088865,,,Verified
PBG.AX,06-FEB-2014,,End Of Day,,0.655,0.68,0.655,0.675,2094621,,,Verified
PBG.AX,07-FEB-2014,,End Of Day,,0.685,0.695,0.672,0.68,3404384,,,Verified
PBG.AX,08-FEB-2014,,End Of Day,No Trades,,,,,,,,Verified
PBG.AX,09-FEB-2014,,End Of Day,No Trades,,,,,,,,Verified
PBG.AX,10-FEB-2014,,End Of Day,,0.68,0.687,0.677,0.685,1934594,,,Verified
PBG.AX,11-FEB-2014,,End Of Day,,0.68,0.685,0.675,0.68,2419686,,,Verified
PBG.AX,12-FEB-2014,,End Of Day,,0.68,0.69,0.675,0.69,2682080,,,Verified
PBG.AX,13-FEB-2014,,End Of Day,,0.69,0.71,0.685,0.71,4565403,,,Verified
PBG.AX,14-FEB-2014,,End Of Day,,0.71,0.745,0.705,0.745,3965222,,,Verified
PBG.AX,15-FEB-2014,,End Of Day,No Trades,,,,,,,,Verified
PBG.AX,16-FEB-2014,,End Of Day,No Trades,,,,,,,,Verified
PBG.AX,17-FEB-2014,,End Of Day,,0.73,0.742,0.71,0.72,4058450,,,Verified
PBG.AX,18-FEB-2014,,End Of Day,,0.66,0.66,0.625,0.655,9556217,,,Verified
PBG.AX,19-FEB-2014,,End Of Day,,0.655,0.655,0.635,0.64,15272314,,,Verified
PBG.AX,20-FEB-2014,,End Of Day,,0.64,0.645,0.637,0.64,7533664,,,Verified
PBG.AX,21-FEB-2014,,End Of Day,,0.645,0.645,0.625,0.625,6271993,,,Verified
PBG.AX,22-FEB-2014,,End Of Day,No Trades,,,,,,,,Verified
PBG.AX,23-FEB-2014,,End Of Day,No Trades,,,,,,,,Verified
PBG.AX,24-FEB-2014,,End Of Day,,0.625,0.63,0.595,0.6,11348261,,,Verified
PBG.AX,25-FEB-2014,,End Of Day,,0.605,0.625,0.605,0.61,3409176,,,Verified
PBG.AX,26-FEB-2014,,End Of Day,,0.615,0.622,0.61,0.61,4587293,,,Verified
PBG.AX,27-FEB-2014,,End Of Day,,0.605,0.61,0.585,0.585,9182730,,,Verified
PBG.AX,28-FEB-2014,,End Of Day,,0.59,0.595,0.56,0.56,8686436,,,Verified
PBG.AX,01-MAR-2014,,End Of Day,No Trades,,,,,,,,Verified
PBG.AX,02-MAR-2014,,End Of Day,No Trades,,,,,,,,Verified
PBG.AX,03-MAR-2014,,End Of Day,,0.545,0.555,0.535,0.545,4023031,,,Verified
PBG.AX,04-MAR-2014,,End Of Day,,0.545,0.55,0.53,0.535,4879547,,,Verified
PBG.AX,05-MAR-2014,,End Of Day,,0.54,0.542,0.515,0.52,7246329,,,Verified
PBG.AX,06-MAR-2014,,End Of Day,,0.525,0.525,0.51,0.52,6443145,,,Verified
PBG.AX,07-MAR-2014,,End Of Day,,0.52,0.525,0.51,0.515,6639290,,,Verified
PBG.AX,08-MAR-2014,,End Of Day,No Trades,,,,,,,,Verified
PBG.AX,09-MAR-2014,,End Of Day,No Trades,,,,,,,,Verified
PBG.AX,10-MAR-2014,,End Of Day,,0.52,0.57,0.52,0.56,9739843,,,Verified
PBG.AX,11-MAR-2014,,End Of Day,,0.56,0.565,0.53,0.535,4950176,,,Verified
PBG.AX,12-MAR-2014,,End Of Day,,0.54,0.55,0.53,0.535,2949809,,,Verified
PBG.AX,13-MAR-2014,,End Of Day,,0.54,0.562,0.535,0.55,2170747,,,Verified
PBG.AX,14-MAR-2014,,End Of Day,,0.54,0.547,0.53,0.53,3472522,,,Verified
PBG.AX,15-MAR-2014,,End Of Day,No Trades,,,,,,,,Verified
PBG.AX,16-MAR-2014,,End Of Day,No Trades,,,,,,,,Verified
PBG.AX,17-MAR-2014,,End Of Day,,0.535,0.54,0.53,0.53,3782015,,,Verified
PBG.AX,18-MAR-2014,,End Of Day,,0.535,0.54,0.525,0.53,4133833,,,Verified
PBG.AX,19-MAR-2014,,End Of Day,,0.545,0.55,0.54,0.54,6899882,,,Verified
PBG.AX,20-MAR-2014,,End Of Day,,0.535,0.545,0.53,0.53,4128383,,,Verified
PBG.AX,21-MAR-2014,,End Of Day,,0.535,0.545,0.53,0.545,3423477,,,Verified
PBG.AX,22-MAR-2014,,End Of Day,No Trades,,,,,,,,Verified
PBG.AX,23-MAR-2014,,End Of Day,No Trades,,,,,,,,Verified
PBG.AX,24-MAR-2014,,End Of Day,,0.545,0.545,0.54,0.545,2419596,,,Verified
PBG.AX,25-MAR-2014,,End Of Day,,0.54,0.545,0.525,0.53,3518495,,,Verified
PBG.AX,26-MAR-2014,,End Of Day,,0.535,0.54,0.53,0.54,1706710,,,Verified
PBG.AX,27-MAR-2014,,End Of Day,,0.53,0.535,0.53,0.53,1030142,,,Verified
PBG.AX,28-MAR-2014,,End Of Day,,0.535,0.54,0.52,0.52,2628603,,,Verified
PBG.AX,29-MAR-2014,,End Of Day,No Trades,,,,,,,,Verified
PBG.AX,30-MAR-2014,,End Of Day,No Trades,,,,,,,,Verified
PBG.AX,31-MAR-2014,,End Of Day,,0.525,0.535,0.525,0.53,1292462,,,Verified
PBG.AX,01-APR-2014,,End Of Day,,0.53,0.535,0.515,0.515,2551124,,,Verified
PBG.AX,02-APR-2014,,End Of Day,,0.525,0.525,0.5,0.505,2922676,,,Verified
PBG.AX,03-APR-2014,,End Of Day,,0.51,0.525,0.51,0.51,3557502,,,Verified
PBG.AX,04-APR-2014,,End Of Day,,0.515,0.52,0.502,0.505,3712689,,,Verified
PBG.AX,05-APR-2014,,End Of Day,No Trades,,,,,,,,Verified
PBG.AX,06-APR-2014,,End Of Day,No Trades,,,,,,,,Verified
PBG.AX,07-APR-2014,,End Of Day,,0.51,0.51,0.5,0.5,4296043,,,Verified
PBG.AX,08-APR-2014,,End Of Day,,0.5,0.505,0.495,0.5,3625607,,,Verified
PBG.AX,09-APR-2014,,End Of Day,,0.505,0.52,0.49,0.49,7663953,,,Verified
PBG.AX,10-APR-2014,,End Of Day,,0.5,0.505,0.495,0.495,4568709,,,Verified
PBG.AX,11-APR-2014,,End Of Day,,0.5,0.5,0.49,0.49,3198996,,,Verified
PBG.AX,12-APR-2014,,End Of Day,No Trades,,,,,,,,Verified
PBG.AX,13-APR-2014,,End Of Day,No Trades,,,,,,,,Verified
PBG.AX,14-APR-2014,,End Of Day,,0.495,0.505,0.492,0.495,1492541,,,Verified
PBG.AX,15-APR-2014,,End Of Day,,0.5,0.505,0.495,0.505,2295814,,,Verified
PBG.AX,16-APR-2014,,End Of Day,,0.505,0.515,0.505,0.515,4012606,,,Verified
PBG.AX,17-APR-2014,,End Of Day,,0.52,0.535,0.515,0.535,3502198,,,Verified
PBG.AX,18-APR-2014,,End Of Day,No Trades,,,,,,,,Verified
PBG.AX,19-APR-2014,,End Of Day,No Trades,,,,,,,,Verified
PBG.AX,20-APR-2014,,End Of Day,No Trades,,,,,,,,Verified
PBG.AX,21-APR-2014,,End Of Day,No Trades,,,,,,,,Verified
PBG.AX,22-APR-2014,,End Of Day,,0.54,0.545,0.512,0.525,6218028,,,Verified
PBG.AX,23-APR-2014,,End Of Day,,0.54,0.542,0.527,0.54,1643955,,,Verified
PBG.AX,24-APR-2014,,End Of Day,,0.54,0.54,0.532,0.54,1273134,,,Verified
PBG.AX,25-APR-2014,,End Of Day,No Trades,,,,,,,,Verified
PBG.AX,26-APR-2014,,End Of Day,No Trades,,,,,,,,Verified
PBG.AX,27-APR-2014,,End Of Day,No Trades,,,,,,,,Verified
PBG.AX,28-APR-2014,,End Of Day,,0.54,0.54,0.525,0.525,1530832,,,Verified
PBG.AX,29-APR-2014,,End Of Day,,0.53,0.53,0.51,0.51,1147900,,,Verified
PBG.AX,30-APR-2014,,End Of Day,,0.52,0.52,0.505,0.505,866671,,,Verified
PBG.AX,01-MAY-2014,,End Of Day,,0.51,0.52,0.505,0.505,2190871,,,Verified
PBG.AX,02-MAY-2014,,End Of Day,,0.505,0.505,0.5,0.5,10494483,,,Verified
PBG.AX,03-MAY-2014,,End Of Day,No Trades,,,,,,,,Verified
PBG.AX,04-MAY-2014,,End Of Day,No Trades,,,,,,,,Verified
PBG.AX,05-MAY-2014,,End Of Day,,0.505,0.515,0.495,0.495,2376683,,,Verified
PBG.AX,06-MAY-2014,,End Of Day,,0.505,0.525,0.505,0.525,2109277,,,Verified
PBG.AX,07-MAY-2014,,End Of Day,,0.52,0.53,0.52,0.525,2434014,,,Verified
PBG.AX,08-MAY-2014,,End Of Day,,0.525,0.535,0.525,0.535,1771915,,,Verified
PBG.AX,09-MAY-2014,,End Of Day,,0.53,0.535,0.52,0.535,2295885,,,Verified
PBG.AX,10-MAY-2014,,End Of Day,No Trades,,,,,,,,Verified
PBG.AX,11-MAY-2014,,End Of Day,No Trades,,,,,,,,Verified
PBG.AX,12-MAY-2014,,End Of Day,,0.53,0.535,0.515,0.515,2567987,,,Verified
PBG.AX,13-MAY-2014,,End Of Day,,0.525,0.525,0.505,0.505,1726710,,,Verified
PBG.AX,14-MAY-2014,,End Of Day,,0.51,0.535,0.507,0.535,1676977,,,Verified
PBG.AX,15-MAY-2014,,End Of Day,,0.52,0.55,0.52,0.55,2977588,,,Verified
PBG.AX,16-MAY-2014,,End Of Day,,0.54,0.55,0.53,0.54,2187218,,,Verified
PBG.AX,17-MAY-2014,,End Of Day,No Trades,,,,,,,,Verified
PBG.AX,18-MAY-2014,,End Of Day,No Trades,,,,,,,,Verified
PBG.AX,19-MAY-2014,,End Of Day,,0.54,0.542,0.522,0.53,2328426,,,Verified
PBG.AX,20-MAY-2014,,End Of Day,,0.535,0.555,0.53,0.555,3663781,,,Verified
PBG.AX,21-MAY-2014,,End Of Day,,0.545,0.555,0.532,0.545,4184319,,,Verified
PBG.AX,22-MAY-2014,,End Of Day,,0.55,0.555,0.535,0.545,2607228,,,Verified
PBG.AX,23-MAY-2014,,End Of Day,,0.54,0.55,0.532,0.54,2099587,,,Verified
PBG.AX,24-MAY-2014,,End Of Day,No Trades,,,,,,,,Verified
PBG.AX,25-MAY-2014,,End Of Day,No Trades,,,,,,,,Verified
PBG.AX,26-MAY-2014,,End Of Day,,0.545,0.547,0.535,0.545,1019774,,,Verified
PBG.AX,27-MAY-2014,,End Of Day,,0.54,0.545,0.537,0.54,863155,,,Verified
PBG.AX,28-MAY-2014,,End Of Day,,0.545,0.545,0.54,0.545,1079636,,,Verified
PBG.AX,29-MAY-2014,,End Of Day,,0.55,0.58,0.545,0.57,3851019,,,Verified
PBG.AX,30-MAY-2014,,End Of Day,,0.57,0.575,0.565,0.565,4139930,,,Verified
PBG.AX,31-MAY-2014,,End Of Day,No Trades,,,,,,,,Verified
PBG.AX,01-JUN-2014,,End Of Day,No Trades,,,,,,,,Verified
PBG.AX,02-JUN-2014,,End Of Day,,0.565,0.57,0.545,0.55,3051139,,,Verified
PBG.AX,03-JUN-2014,,End Of Day,,0.545,0.557,0.545,0.545,5060869,,,Verified
PBG.AX,04-JUN-2014,,End Of Day,,0.545,0.56,0.545,0.55,1831516,,,Verified
PBG.AX,05-JUN-2014,,End Of Day,,0.55,0.58,0.547,0.575,2730664,,,Verified
PBG.AX,06-JUN-2014,,End Of Day,,0.57,0.587,0.56,0.56,1767858,,,Verified
PBG.AX,07-JUN-2014,,End Of Day,No Trades,,,,,,,,Verified
PBG.AX,08-JUN-2014,,End Of Day,No Trades,,,,,,,,Verified
PBG.AX,09-JUN-2014,,End Of Day,No Trades,,,,,,,,Verified
PBG.AX,10-JUN-2014,,End Of Day,,0.5,0.54,0.495,0.51,10757990,,,Verified
PBG.AX,11-JUN-2014,,End Of Day,,0.51,0.54,0.51,0.53,18155655,,,Verified
PBG.AX,12-JUN-2014,,End Of Day,,0.525,0.545,0.52,0.54,3834453,,,Verified
PBG.AX,13-JUN-2014,,End Of Day,,0.525,0.535,0.515,0.52,3296057,,,Verified
PBG.AX,14-JUN-2014,,End Of Day,No Trades,,,,,,,,Verified
PBG.AX,15-JUN-2014,,End Of Day,No Trades,,,,,,,,Verified
PBG.AX,16-JUN-2014,,End Of Day,,0.515,0.52,0.51,0.515,6152682,,,Verified
PBG.AX,17-JUN-2014,,End Of Day,,0.51,0.515,0.51,0.515,1045336,,,Verified
PBG.AX,18-JUN-2014,,End Of Day,,0.515,0.515,0.505,0.505,1860732,,,Verified
PBG.AX,19-JUN-2014,,End Of Day,,0.5,0.505,0.5,0.5,3094609,,,Verified
PBG.AX,20-JUN-2014,,End Of Day,,0.505,0.52,0.5,0.51,5392750,,,Verified
PBG.AX,21-JUN-2014,,End Of Day,No Trades,,,,,,,,Verified
PBG.AX,22-JUN-2014,,End Of Day,No Trades,,,,,,,,Verified
PBG.AX,23-JUN-2014,,End Of Day,,0.51,0.525,0.51,0.525,2633647,,,Verified
PBG.AX,24-JUN-2014,,End Of Day,,0.52,0.53,0.52,0.53,903340,,,Verified
PBG.AX,25-JUN-2014,,End Of Day,,0.525,0.527,0.505,0.52,2550212,,,Verified
PBG.AX,26-JUN-2014,,End Of Day,,0.52,0.53,0.52,0.53,1256426,,,Verified
PBG.AX,27-JUN-2014,,End Of Day,,0.53,0.53,0.52,0.53,1603525,,,Verified
PBG.AX,28-JUN-2014,,End Of Day,No Trades,,,,,,,,Verified
PBG.AX,29-JUN-2014,,End Of Day,No Trades,,,,,,,,Verified
PBG.AX,30-JUN-2014,,End Of Day,,0.52,0.55,0.515,0.545,4518792,,,Verified
PBG.AX,01-JUL-2014,,End Of Day,,0.545,0.55,0.53,0.545,5973717,,,Verified
PBG.AX,02-JUL-2014,,End Of Day,,0.545,0.545,0.532,0.535,1267528,,,Verified
PBG.AX,03-JUL-2014,,End Of Day,,0.535,0.545,0.532,0.535,1577727,,,Verified
PBG.AX,04-JUL-2014,,End Of Day,,0.54,0.545,0.535,0.54,647803,,,Verified
PBG.AX,05-JUL-2014,,End Of Day,No Trades,,,,,,,,Verified
PBG.AX,06-JUL-2014,,End Of Day,No Trades,,,,,,,,Verified
PBG.AX,07-JUL-2014,,End Of Day,,0.54,0.567,0.535,0.55,5449552,,,Verified
PBG.AX,08-JUL-2014,,End Of Day,,0.545,0.56,0.54,0.545,4196331,,,Verified
PBG.AX,09-JUL-2014,,End Of Day,,0.55,0.557,0.54,0.545,4454483,,,Verified
PBG.AX,10-JUL-2014,,End Of Day,,0.545,0.55,0.525,0.54,1996769,,,Verified
PBG.AX,11-JUL-2014,,End Of Day,,0.53,0.545,0.53,0.54,986859,,,Verified
PBG.AX,12-JUL-2014,,End Of Day,No Trades,,,,,,,,Verified
PBG.AX,13-JUL-2014,,End Of Day,No Trades,,,,,,,,Verified
PBG.AX,14-JUL-2014,,End Of Day,,0.54,0.56,0.532,0.55,2198134,,,Verified
PBG.AX,15-JUL-2014,,End Of Day,,0.55,0.555,0.54,0.55,1998753,,,Verified
PBG.AX,16-JUL-2014,,End Of Day,,0.55,0.552,0.535,0.535,2787082,,,Verified
PBG.AX,17-JUL-2014,,End Of Day,,0.545,0.55,0.537,0.54,2463793,,,Verified
PBG.AX,18-JUL-2014,,End Of Day,,0.54,0.555,0.53,0.55,2269958,,,Verified
PBG.AX,19-JUL-2014,,End Of Day,No Trades,,,,,,,,Verified
PBG.AX,20-JUL-2014,,End Of Day,No Trades,,,,,,,,Verified
PBG.AX,21-JUL-2014,,End Of Day,,0.55,0.55,0.54,0.55,653998,,,Verified
PBG.AX,22-JUL-2014,,End Of Day,,0.54,0.55,0.54,0.545,1264083,,,Verified
PBG.AX,23-JUL-2014,,End Of Day,,0.55,0.55,0.54,0.545,4208464,,,Verified
PBG.AX,24-JUL-2014,,End Of Day,,0.545,0.545,0.537,0.545,1920233,,,Verified
PBG.AX,25-JUL-2014,,End Of Day,,0.54,0.545,0.54,0.545,860605,,,Verified
PBG.AX,26-JUL-2014,,End Of Day,No Trades,,,,,,,,Verified
PBG.AX,27-JUL-2014,,End Of Day,No Trades,,,,,,,,Verified
PBG.AX,28-JUL-2014,,End Of Day,,0.54,0.56,0.54,0.56,957240,,,Verified
PBG.AX,29-JUL-2014,,End Of Day,,0.555,0.57,0.55,0.565,1289897,,,Verified
PBG.AX,30-JUL-2014,,End Of Day,,0.57,0.587,0.56,0.575,3160753,,,Verified
PBG.AX,31-JUL-2014,,End Of Day,,0.57,0.575,0.56,0.565,1743864,,,Verified
PBG.AX,01-AUG-2014,,End Of Day,,0.56,0.565,0.55,0.55,1097991,,,Verified
PBG.AX,02-AUG-2014,,End Of Day,No Trades,,,,,,,,Verified
PBG.AX,03-AUG-2014,,End Of Day,No Trades,,,,,,,,Verified
PBG.AX,04-AUG-2014,,End Of Day,,0.55,0.57,0.545,0.57,1621025,,,Verified
PBG.AX,05-AUG-2014,,End Of Day,,0.565,0.57,0.56,0.57,1307938,,,Verified
PBG.AX,06-AUG-2014,,End Of Day,,0.56,0.58,0.555,0.575,1807896,,,Verified
PBG.AX,07-AUG-2014,,End Of Day,,0.58,0.58,0.55,0.55,3127625,,,Verified
PBG.AX,08-AUG-2014,,End Of Day,,0.56,0.57,0.555,0.57,2598497,,,Verified
PBG.AX,09-AUG-2014,,End Of Day,No Trades,,,,,,,,Verified
PBG.AX,10-AUG-2014,,End Of Day,No Trades,,,,,,,,Verified
PBG.AX,11-AUG-2014,,End Of Day,,0.565,0.57,0.555,0.555,1298371,,,Verified
PBG.AX,12-AUG-2014,,End Of Day,,0.555,0.555,0.54,0.54,6778315,,,Verified
PBG.AX,13-AUG-2014,,End Of Day,,0.54,0.542,0.53,0.54,3439717,,,Verified
PBG.AX,14-AUG-2014,,End Of Day,,0.54,0.545,0.535,0.54,5269389,,,Verified
PBG.AX,15-AUG-2014,,End Of Day,,0.545,0.555,0.54,0.555,1844703,,,Verified
PBG.AX,16-AUG-2014,,End Of Day,No Trades,,,,,,,,Verified
PBG.AX,17-AUG-2014,,End Of Day,No Trades,,,,,,,,Verified
PBG.AX,18-AUG-2014,,End Of Day,,0.55,0.555,0.545,0.555,803431,,,Verified
PBG.AX,19-AUG-2014,,End Of Day,,0.555,0.56,0.55,0.555,1296357,,,Verified
PBG.AX,20-AUG-2014,,End Of Day,,0.56,0.56,0.545,0.55,846559,,,Verified
PBG.AX,21-AUG-2014,,End Of Day,,0.555,0.56,0.545,0.555,1816272,,,Verified
PBG.AX,22-AUG-2014,,End Of Day,,0.56,0.577,0.547,0.57,2763827,,,Verified
PBG.AX,23-AUG-2014,,End Of Day,No Trades,,,,,,,,Verified
PBG.AX,24-AUG-2014,,End Of Day,No Trades,,,,,,,,Verified
PBG.AX,25-AUG-2014,,End Of Day,,0.565,0.575,0.565,0.57,1779892,,,Verified
PBG.AX,26-AUG-2014,,End Of Day,,0.575,0.6,0.562,0.58,9796728,,,Verified
PBG.AX,27-AUG-2014,,End Of Day,,0.57,0.57,0.505,0.525,9469687,,,Verified
PBG.AX,28-AUG-2014,,End Of Day,,0.51,0.527,0.51,0.525,9665128,,,Verified
PBG.AX,29-AUG-2014,,End Of Day,,0.525,0.537,0.52,0.53,4672457,,,Verified
PBG.AX,30-AUG-2014,,End Of Day,No Trades,,,,,,,,Verified
PBG.AX,31-AUG-2014,,End Of Day,No Trades,,,,,,,,Verified
PBG.AX,01-SEP-2014,,End Of Day,,0.525,0.53,0.515,0.525,5999605,,,Verified
PBG.AX,02-SEP-2014,,End Of Day,,0.52,0.527,0.515,0.525,3763301,,,Verified
PBG.AX,03-SEP-2014,,End Of Day,,0.525,0.535,0.525,0.53,2176369,,,Verified
PBG.AX,04-SEP-2014,,End Of Day,,0.525,0.535,0.525,0.535,1850967,,,Verified
PBG.AX,05-SEP-2014,,End Of Day,,0.53,0.537,0.53,0.53,1073799,,,Verified
PBG.AX,06-SEP-2014,,End Of Day,No Trades,,,,,,,,Verified
PBG.AX,07-SEP-2014,,End Of Day,No Trades,,,,,,,,Verified
PBG.AX,08-SEP-2014,,End Of Day,,0.53,0.535,0.525,0.535,1825503,,,Verified
PBG.AX,09-SEP-2014,,End Of Day,,0.535,0.54,0.53,0.535,2327912,,,Verified
PBG.AX,10-SEP-2014,,End Of Day,,0.53,0.54,0.525,0.525,3539896,,,Verified
PBG.AX,11-SEP-2014,,End Of Day,,0.53,0.53,0.52,0.52,2662401,,,Verified
PBG.AX,12-SEP-2014,,End Of Day,,0.52,0.52,0.505,0.51,3005581,,,Verified
PBG.AX,13-SEP-2014,,End Of Day,No Trades,,,,,,,,Verified
PBG.AX,14-SEP-2014,,End Of Day,No Trades,,,,,,,,Verified
PBG.AX,15-SEP-2014,,End Of Day,,0.51,0.51,0.49,0.5,3026829,,,Verified
PBG.AX,16-SEP-2014,,End Of Day,,0.485,0.49,0.4775,0.48,4747582,,,Verified
PBG.AX,17-SEP-2014,,End Of Day,,0.485,0.485,0.455,0.475,5133223,,,Verified
PBG.AX,18-SEP-2014,,End Of Day,,0.465,0.485,0.465,0.485,1892257,,,Verified
PBG.AX,19-SEP-2014,,End Of Day,,0.485,0.485,0.475,0.48,1777886,,,Verified
PBG.AX,20-SEP-2014,,End Of Day,No Trades,,,,,,,,Verified
PBG.AX,21-SEP-2014,,End Of Day,No Trades,,,,,,,,Verified
PBG.AX,22-SEP-2014,,End Of Day,,0.48,0.485,0.465,0.475,2093099,,,Verified
PBG.AX,23-SEP-2014,,End Of Day,,0.48,0.495,0.48,0.495,3175377,,,Verified
PBG.AX,24-SEP-2014,,End Of Day,,0.485,0.502,0.482,0.5,3221496,,,Verified
PBG.AX,25-SEP-2014,,End Of Day,,0.495,0.495,0.48,0.49,2146489,,,Verified
PBG.AX,26-SEP-2014,,End Of Day,,0.48,0.492,0.48,0.485,1372961,,,Verified
PBG.AX,27-SEP-2014,,End Of Day,No Trades,,,,,,,,Verified
PBG.AX,28-SEP-2014,,End Of Day,No Trades,,,,,,,,Verified
PBG.AX,29-SEP-2014,,End Of Day,,0.48,0.49,0.48,0.485,1883517,,,Verified
PBG.AX,30-SEP-2014,,End Of Day,,0.485,0.49,0.48,0.485,1741331,,,Verified
PBG.AX,01-OCT-2014,,End Of Day,,0.485,0.5,0.475,0.49,2500564,,,Verified
PBG.AX,02-OCT-2014,,End Of Day,,0.485,0.49,0.475,0.48,1654267,,,Verified
PBG.AX,03-OCT-2014,,End Of Day,,0.48,0.485,0.47,0.48,2006960,,,Verified
PBG.AX,04-OCT-2014,,End Of Day,No Trades,,,,,,,,Verified
PBG.AX,05-OCT-2014,,End Of Day,No Trades,,,,,,,,Verified
PBG.AX,06-OCT-2014,,End Of Day,,0.48,0.485,0.47,0.48,500565,,,Verified
PBG.AX,07-OCT-2014,,End Of Day,,0.475,0.48,0.465,0.465,3343365,,,Verified
PBG.AX,08-OCT-2014,,End Of Day,,0.465,0.48,0.46,0.475,1468782,,,Verified
PBG.AX,09-OCT-2014,,End Of Day,,0.475,0.475,0.46,0.46,3205489,,,Verified
PBG.AX,10-OCT-2014,,End Of Day,,0.45,0.455,0.44,0.445,3273113,,,Verified
PBG.AX,11-OCT-2014,,End Of Day,No Trades,,,,,,,,Verified
PBG.AX,12-OCT-2014,,End Of Day,No Trades,,,,,,,,Verified
PBG.AX,13-OCT-2014,,End Of Day,,0.445,0.445,0.43,0.44,2973883,,,Verified
PBG.AX,14-OCT-2014,,End Of Day,,0.44,0.455,0.435,0.445,2736389,,,Verified
PBG.AX,15-OCT-2014,,End Of Day,,0.44,0.452,0.432,0.445,2798327,,,Verified
PBG.AX,16-OCT-2014,,End Of Day,,0.435,0.455,0.42,0.44,6629309,,,Verified
PBG.AX,17-OCT-2014,,End Of Day,,0.45,0.45,0.435,0.435,4340788,,,Verified
PBG.AX,18-OCT-2014,,End Of Day,No Trades,,,,,,,,Verified
PBG.AX,19-OCT-2014,,End Of Day,No Trades,,,,,,,,Verified
PBG.AX,20-OCT-2014,,End Of Day,,0.44,0.445,0.42,0.43,2150098,,,Verified
PBG.AX,21-OCT-2014,,End Of Day,,0.425,0.432,0.42,0.43,3443563,,,Verified
PBG.AX,22-OCT-2014,,End Of Day,,0.435,0.445,0.43,0.445,2317200,,,Verified
PBG.AX,23-OCT-2014,,End Of Day,,0.44,0.45,0.44,0.45,2249032,,,Verified
PBG.AX,24-OCT-2014,,End Of Day,,0.45,0.45,0.44,0.45,1204468,,,Verified
PBG.AX,25-OCT-2014,,End Of Day,No Trades,,,,,,,,Verified
PBG.AX,26-OCT-2014,,End Of Day,No Trades,,,,,,,,Verified
PBG.AX,27-OCT-2014,,End Of Day,,0.445,0.45,0.445,0.45,683799,,,Verified
PBG.AX,28-OCT-2014,,End Of Day,,0.45,0.45,0.44,0.44,2189757,,,Verified
PBG.AX,29-OCT-2014,,End Of Day,,0.43,0.445,0.43,0.44,1428530,,,Verified
PBG.AX,30-OCT-2014,,End Of Day,,0.445,0.46,0.445,0.46,1513954,,,Verified
PBG.AX,31-OCT-2014,,End Of Day,,0.455,0.47,0.455,0.47,1141115,,,Verified
PBG.AX,01-NOV-2014,,End Of Day,No Trades,,,,,,,,Verified
PBG.AX,02-NOV-2014,,End Of Day,No Trades,,,,,,,,Verified
PBG.AX,03-NOV-2014,,End Of Day,,0.47,0.477,0.465,0.47,1825137,,,Verified
PBG.AX,04-NOV-2014,,End Of Day,,0.48,0.48,0.47,0.475,1139231,,,Verified
PBG.AX,05-NOV-2014,,End Of Day,,0.48,0.48,0.46,0.475,1180803,,,Verified
PBG.AX,06-NOV-2014,,End Of Day,,0.475,0.475,0.455,0.46,915554,,,Verified
PBG.AX,07-NOV-2014,,End Of Day,,0.47,0.485,0.465,0.485,1891865,,,Verified
PBG.AX,08-NOV-2014,,End Of Day,No Trades,,,,,,,,Verified
PBG.AX,09-NOV-2014,,End Of Day,No Trades,,,,,,,,Verified
PBG.AX,10-NOV-2014,,End Of Day,,0.475,0.5,0.475,0.5,1381791,,,Verified
PBG.AX,11-NOV-2014,,End Of Day,,0.495,0.51,0.48,0.485,1962573,,,Verified
PBG.AX,12-NOV-2014,,End Of Day,,0.485,0.49,0.465,0.47,889368,,,Verified
PBG.AX,13-NOV-2014,,End Of Day,,0.475,0.475,0.45,0.47,1716620,,,Verified
PBG.AX,14-NOV-2014,,End Of Day,,0.47,0.485,0.46,0.485,644495,,,Verified
PBG.AX,15-NOV-2014,,End Of Day,No Trades,,,,,,,,Verified
PBG.AX,16-NOV-2014,,End Of Day,No Trades,,,,,,,,Verified
PBG.AX,17-NOV-2014,,End Of Day,,0.49,0.495,0.485,0.495,1221196,,,Verified
PBG.AX,18-NOV-2014,,End Of Day,,0.49,0.525,0.49,0.52,3561927,,,Verified
PBG.AX,19-NOV-2014,,End Of Day,,0.52,0.525,0.5,0.515,2042456,,,Verified
PBG.AX,20-NOV-2014,,End Of Day,,0.515,0.52,0.512,0.515,1411083,,,Verified
PBG.AX,21-NOV-2014,,End Of Day,,0.515,0.52,0.502,0.505,1332607,,,Verified
PBG.AX,22-NOV-2014,,End Of Day,No Trades,,,,,,,,Verified
PBG.AX,23-NOV-2014,,End Of Day,No Trades,,,,,,,,Verified
PBG.AX,24-NOV-2014,,End Of Day,,0.505,0.52,0.5,0.52,1126281,,,Verified
PBG.AX,25-NOV-2014,,End Of Day,,0.51,0.52,0.497,0.51,2802567,,,Verified
PBG.AX,26-NOV-2014,,End Of Day,,0.51,0.52,0.51,0.52,1110556,,,Verified
PBG.AX,27-NOV-2014,,End Of Day,,0.52,0.525,0.512,0.525,1609000,,,Verified
PBG.AX,28-NOV-2014,,End Of Day,,0.525,0.53,0.52,0.52,1373417,,,Verified
PBG.AX,29-NOV-2014,,End Of Day,No Trades,,,,,,,,Verified
PBG.AX,30-NOV-2014,,End Of Day,No Trades,,,,,,,,Verified
PBG.AX,01-DEC-2014,,End Of Day,,0.51,0.53,0.505,0.53,1668150,,,Verified
PBG.AX,02-DEC-2014,,End Of Day,,0.51,0.525,0.5,0.52,2275530,,,Verified
PBG.AX,03-DEC-2014,,End Of Day,,0.52,0.53,0.517,0.53,3196968,,,Verified
PBG.AX,04-DEC-2014,,End Of Day,,0.53,0.535,0.52,0.53,1810090,,,Verified
PBG.AX,05-DEC-2014,,End Of Day,,0.525,0.532,0.52,0.525,1097887,,,Verified
PBG.AX,06-DEC-2014,,End Of Day,No Trades,,,,,,,,Verified
PBG.AX,07-DEC-2014,,End Of Day,No Trades,,,,,,,,Verified
PBG.AX,08-DEC-2014,,End Of Day,,0.52,0.525,0.495,0.5,2859738,,,Verified
PBG.AX,09-DEC-2014,,End Of Day,,0.5,0.517,0.495,0.515,1955917,,,Verified
PBG.AX,10-DEC-2014,,End Of Day,,0.505,0.51,0.49,0.5,5188429,,,Verified
PBG.AX,11-DEC-2014,,End Of Day,,0.49,0.5,0.49,0.5,1445369,,,Verified
PBG.AX,12-DEC-2014,,End Of Day,,0.505,0.51,0.495,0.51,1431617,,,Verified
PBG.AX,13-DEC-2014,,End Of Day,No Trades,,,,,,,,Verified
PBG.AX,14-DEC-2014,,End Of Day,No Trades,,,,,,,,Verified
PBG.AX,15-DEC-2014,,End Of Day,,0.5,0.525,0.5,0.525,964553,,,Verified
PBG.AX,16-DEC-2014,,End Of Day,,0.505,0.51,0.485,0.485,1597720,,,Verified
PBG.AX,17-DEC-2014,,End Of Day,,0.47,0.49,0.465,0.49,1905850,,,Verified
PBG.AX,18-DEC-2014,,End Of Day,,0.48,0.505,0.47,0.485,2380267,,,Verified
PBG.AX,19-DEC-2014,,End Of Day,,0.49,0.51,0.49,0.51,2579714,,,Verified
PBG.AX,20-DEC-2014,,End Of Day,No Trades,,,,,,,,Verified
PBG.AX,21-DEC-2014,,End Of Day,No Trades,,,,,,,,Verified
PBG.AX,22-DEC-2014,,End Of Day,,0.51,0.515,0.505,0.515,1435600,,,Verified
PBG.AX,23-DEC-2014,,End Of Day,,0.515,0.515,0.505,0.515,866317,,,Verified
PBG.AX,24-DEC-2014,,End Of Day,,0.515,0.535,0.51,0.535,1186149,,,Verified
PBG.AX,25-DEC-2014,,End Of Day,No Trades,,,,,,,,Verified
PBG.AX,26-DEC-2014,,End Of Day,No Trades,,,,,,,,Verified
PBG.AX,27-DEC-2014,,End Of Day,No Trades,,,,,,,,Verified
PBG.AX,28-DEC-2014,,End Of Day,No Trades,,,,,,,,Verified
PBG.AX,29-DEC-2014,,End Of Day,,0.535,0.54,0.525,0.535,1555451,,,Verified
PBG.AX,30-DEC-2014,,End Of Day,,0.535,0.535,0.525,0.535,664544,,,Verified
PBG.AX,31-DEC-2014,,End Of Day,,0.535,0.54,0.53,0.54,878955,,,Verified
PBG.AX,01-JAN-2015,,End Of Day,No Trades,,,,,,,,Verified
PBG.AX,02-JAN-2015,,End Of Day,,0.535,0.54,0.53,0.54,1291906,,,Verified
PBG.AX,03-JAN-2015,,End Of Day,No Trades,,,,,,,,Verified
PBG.AX,04-JAN-2015,,End Of Day,No Trades,,,,,,,,Verified
PBG.AX,05-JAN-2015,,End Of Day,,0.53,0.535,0.525,0.535,823672,,,Verified
PBG.AX,06-JAN-2015,,End Of Day,,0.53,0.535,0.525,0.535,681243,,,Verified
PBG.AX,07-JAN-2015,,End Of Day,,0.53,0.535,0.5,0.515,2000851,,,Verified
PBG.AX,08-JAN-2015,,End Of Day,,0.52,0.52,0.49,0.505,1222713,,,Verified
PBG.AX,09-JAN-2015,,End Of Day,,0.505,0.53,0.505,0.515,1407239,,,Verified
PBG.AX,10-JAN-2015,,End Of Day,No Trades,,,,,,,,Verified
PBG.AX,11-JAN-2015,,End Of Day,No Trades,,,,,,,,Verified
PBG.AX,12-JAN-2015,,End Of Day,,0.51,0.535,0.51,0.53,877002,,,Verified
PBG.AX,13-JAN-2015,,End Of Day,,0.52,0.53,0.515,0.525,710274,,,Verified
PBG.AX,14-JAN-2015,,End Of Day,,0.515,0.525,0.495,0.5,1270502,,,Verified
PBG.AX,15-JAN-2015,,End Of Day,,0.49,0.495,0.482,0.485,1306606,,,Verified
PBG.AX,16-JAN-2015,,End Of Day,,0.485,0.495,0.475,0.48,3720037,,,Verified
PBG.AX,17-JAN-2015,,End Of Day,No Trades,,,,,,,,Verified
PBG.AX,18-JAN-2015,,End Of Day,No Trades,,,,,,,,Verified
PBG.AX,19-JAN-2015,,End Of Day,,0.485,0.49,0.485,0.485,924763,,,Verified
PBG.AX,20-JAN-2015,,End Of Day,,0.49,0.49,0.465,0.475,1100174,,,Verified
PBG.AX,21-JAN-2015,,End Of Day,,0.475,0.485,0.465,0.475,1034082,,,Verified
PBG.AX,22-JAN-2015,,End Of Day,,0.48,0.495,0.48,0.49,1336839,,,Verified
PBG.AX,23-JAN-2015,,End Of Day,,0.49,0.495,0.48,0.485,427952,,,Verified
PBG.AX,24-JAN-2015,,End Of Day,No Trades,,,,,,,,Verified
PBG.AX,25-JAN-2015,,End Of Day,No Trades,,,,,,,,Verified
PBG.AX,26-JAN-2015,,End Of Day,No Trades,,,,,,,,Verified
PBG.AX,27-JAN-2015,,End Of Day,,0.485,0.49,0.472,0.485,1050779,,,Verified
PBG.AX,28-JAN-2015,,End Of Day,,0.48,0.485,0.475,0.485,448793,,,Verified
PBG.AX,29-JAN-2015,,End Of Day,,0.475,0.5,0.475,0.5,2065067,,,Verified
PBG.AX,30-JAN-2015,,End Of Day,,0.5,0.51,0.48,0.49,1351849,,,Verified
PBG.AX,31-JAN-2015,,End Of Day,No Trades,,,,,,,,Verified
PBG.AX,01-FEB-2015,,End Of Day,No Trades,,,,,,,,Verified
PBG.AX,02-FEB-2015,,End Of Day,,0.48,0.49,0.47,0.48,1405015,,,Verified
PBG.AX,03-FEB-2015,,End Of Day,,0.475,0.485,0.475,0.48,1587068,,,Verified
PBG.AX,04-FEB-2015,,End Of Day,,0.485,0.485,0.475,0.48,1656497,,,Verified
PBG.AX,05-FEB-2015,,End Of Day,,0.48,0.482,0.475,0.48,1027042,,,Verified
PBG.AX,06-FEB-2015,,End Of Day,,0.48,0.48,0.47,0.47,497812,,,Verified
PBG.AX,07-FEB-2015,,End Of Day,No Trades,,,,,,,,Verified
PBG.AX,08-FEB-2015,,End Of Day,No Trades,,,,,,,,Verified
PBG.AX,09-FEB-2015,,End Of Day,,0.48,0.48,0.46,0.465,1427786,,,Verified
PBG.AX,10-FEB-2015,,End Of Day,,0.465,0.465,0.455,0.455,3971965,,,Verified
PBG.AX,11-FEB-2015,,End Of Day,,0.46,0.47,0.455,0.46,1133071,,,Verified
PBG.AX,12-FEB-2015,,End Of Day,,0.465,0.47,0.45,0.455,1656240,,,Verified
PBG.AX,13-FEB-2015,,End Of Day,,0.465,0.467,0.455,0.46,3479818,,,Verified
PBG.AX,14-FEB-2015,,End Of Day,No Trades,,,,,,,,Verified
PBG.AX,15-FEB-2015,,End Of Day,No Trades,,,,,,,,Verified
PBG.AX,16-FEB-2015,,End Of Day,,0.465,0.465,0.455,0.46,789517,,,Verified
PBG.AX,17-FEB-2015,,End Of Day,,0.455,0.48,0.455,0.47,1939789,,,Verified
PBG.AX,18-FEB-2015,,End Of Day,,0.475,0.475,0.465,0.475,1659958,,,Verified
PBG.AX,19-FEB-2015,,End Of Day,,0.475,0.475,0.47,0.475,879430,,,Verified
PBG.AX,20-FEB-2015,,End Of Day,,0.475,0.485,0.465,0.485,1351707,,,Verified
PBG.AX,21-FEB-2015,,End Of Day,No Trades,,,,,,,,Verified
PBG.AX,22-FEB-2015,,End Of Day,No Trades,,,,,,,,Verified
PBG.AX,23-FEB-2015,,End Of Day,,0.485,0.5,0.485,0.495,1170989,,,Verified
PBG.AX,24-FEB-2015,,End Of Day,,0.49,0.5,0.48,0.485,803463,,,Verified
PBG.AX,25-FEB-2015,,End Of Day,,0.49,0.49,0.47,0.49,1963470,,,Verified
PBG.AX,26-FEB-2015,,End Of Day,,0.475,0.49,0.475,0.49,1310681,,,Verified
PBG.AX,27-FEB-2015,,End Of Day,,0.485,0.49,0.475,0.475,2057688,,,Verified
PBG.AX,28-FEB-2015,,End Of Day,No Trades,,,,,,,,Verified
PBG.AX,01-MAR-2015,,End Of Day,No Trades,,,,,,,,Verified
PBG.AX,02-MAR-2015,,End Of Day,,0.475,0.48,0.455,0.455,1590515,,,Verified
PBG.AX,03-MAR-2015,,End Of Day,,0.455,0.467,0.445,0.445,1135797,,,Verified
PBG.AX,04-MAR-2015,,End Of Day,,0.45,0.46,0.44,0.44,1246103,,,Verified
PBG.AX,05-MAR-2015,,End Of Day,,0.44,0.45,0.44,0.445,811664,,,Verified
PBG.AX,06-MAR-2015,,End Of Day,,0.45,0.45,0.44,0.445,889936,,,Verified
PBG.AX,07-MAR-2015,,End Of Day,No Trades,,,,,,,,Verified
PBG.AX,08-MAR-2015,,End Of Day,No Trades,,,,,,,,Verified
PBG.AX,09-MAR-2015,,End Of Day,,0.445,0.447,0.44,0.44,542601,,,Verified
PBG.AX,10-MAR-2015,,End Of Day,,0.44,0.44,0.435,0.44,308673,,,Verified
PBG.AX,11-MAR-2015,,End Of Day,,0.435,0.435,0.42,0.42,1933660,,,Verified
PBG.AX,12-MAR-2015,,End Of Day,,0.425,0.437,0.425,0.425,9742596,,,Verified
PBG.AX,13-MAR-2015,,End Of Day,,0.425,0.445,0.425,0.445,6641951,,,Verified
PBG.AX,14-MAR-2015,,End Of Day,No Trades,,,,,,,,Verified
PBG.AX,15-MAR-2015,,End Of Day,No Trades,,,,,,,,Verified
PBG.AX,16-MAR-2015,,End Of Day,,0.44,0.44,0.43,0.43,375925,,,Verified
PBG.AX,17-MAR-2015,,End Of Day,,0.44,0.44,0.42,0.42,1319526,,,Verified
PBG.AX,18-MAR-2015,,End Of Day,,0.425,0.43,0.42,0.42,1241661,,,Verified
PBG.AX,19-MAR-2015,,End Of Day,,0.435,0.435,0.425,0.435,2104289,,,Verified
PBG.AX,20-MAR-2015,,End Of Day,,0.435,0.445,0.425,0.44,2025862,,,Verified
PBG.AX,21-MAR-2015,,End Of Day,No Trades,,,,,,,,Verified
PBG.AX,22-MAR-2015,,End Of Day,No Trades,,,,,,,,Verified
PBG.AX,23-MAR-2015,,End Of Day,,0.43,0.45,0.43,0.45,933004,,,Verified
PBG.AX,24-MAR-2015,,End Of Day,,0.445,0.465,0.445,0.46,1180447,,,Verified
PBG.AX,25-MAR-2015,,End Of Day,,0.465,0.485,0.46,0.48,2390730,,,Verified
PBG.AX,26-MAR-2015,,End Of Day,,0.46,0.47,0.455,0.455,985490,,,Verified
PBG.AX,27-MAR-2015,,End Of Day,,0.455,0.465,0.45,0.455,1005134,,,Verified
PBG.AX,28-MAR-2015,,End Of Day,No Trades,,,,,,,,Verified
PBG.AX,29-MAR-2015,,End Of Day,No Trades,,,,,,,,Verified
PBG.AX,30-MAR-2015,,End Of Day,,0.45,0.46,0.45,0.455,421759,,,Verified
PBG.AX,31-MAR-2015,,End Of Day,,0.455,0.46,0.45,0.46,815983,,,Verified
PBG.AX,01-APR-2015,,End Of Day,,0.46,0.46,0.44,0.44,897904,,,Verified
PBG.AX,02-APR-2015,,End Of Day,,0.44,0.45,0.435,0.44,1371147,,,Verified
PBG.AX,03-APR-2015,,End Of Day,No Trades,,,,,,,,Verified
PBG.AX,04-APR-2015,,End Of Day,No Trades,,,,,,,,Verified
PBG.AX,05-APR-2015,,End Of Day,No Trades,,,,,,,,Verified
PBG.AX,06-APR-2015,,End Of Day,No Trades,,,,,,,,Verified
PBG.AX,07-APR-2015,,End Of Day,,0.43,0.44,0.42,0.43,677058,,,Verified
PBG.AX,08-APR-2015,,End Of Day,,0.43,0.475,0.43,0.47,1520664,,,Verified
PBG.AX,09-APR-2015,,End Of Day,,0.475,0.475,0.45,0.47,891479,,,Verified
PBG.AX,10-APR-2015,,End Of Day,,0.47,0.475,0.465,0.47,913515,,,Verified
PBG.AX,11-APR-2015,,End Of Day,No Trades,,,,,,,,Verified
PBG.AX,12-APR-2015,,End Of Day,No Trades,,,,,,,,Verified
PBG.AX,13-APR-2015,,End Of Day,,0.465,0.475,0.465,0.475,1033664,,,Verified
PBG.AX,14-APR-2015,,End Of Day,,0.465,0.475,0.465,0.475,1044331,,,Verified
PBG.AX,15-APR-2015,,End Of Day,,0.47,0.47,0.465,0.465,3782630,,,Verified
PBG.AX,16-APR-2015,,End Of Day,,0.47,0.47,0.465,0.47,348386,,,Verified
PBG.AX,17-APR-2015,,End Of Day,,0.465,0.47,0.45,0.45,617347,,,Verified
PBG.AX,18-APR-2015,,End Of Day,No Trades,,,,,,,,Verified
PBG.AX,19-APR-2015,,End Of Day,No Trades,,,,,,,,Verified
PBG.AX,20-APR-2015,,End Of Day,,0.45,0.45,0.437,0.445,641575,,,Verified
PBG.AX,21-APR-2015,,End Of Day,,0.45,0.46,0.447,0.455,674259,,,Verified
PBG.AX,22-APR-2015,,End Of Day,,0.46,0.47,0.455,0.47,1248719,,,Verified
PBG.AX,23-APR-2015,,End Of Day,,0.46,0.47,0.46,0.46,446247,,,Verified
PBG.AX,24-APR-2015,,End Of Day,,0.47,0.475,0.465,0.475,646376,,,Verified
PBG.AX,25-APR-2015,,End Of Day,No Trades,,,,,,,,Verified
PBG.AX,26-APR-2015,,End Of Day,No Trades,,,,,,,,Verified
PBG.AX,27-APR-2015,,End Of Day,,0.47,0.477,0.465,0.465,873261,,,Verified
PBG.AX,28-APR-2015,,End Of Day,,0.465,0.47,0.455,0.465,2007015,,,Verified
PBG.AX,29-APR-2015,,End Of Day,,0.47,0.47,0.46,0.46,8336056,,,Verified
PBG.AX,30-APR-2015,,End Of Day,,0.46,0.47,0.435,0.435,997514,,,Verified
PBG.AX,01-MAY-2015,,End Of Day,,0.435,0.44,0.425,0.43,1550061,,,Verified
PBG.AX,02-MAY-2015,,End Of Day,No Trades,,,,,,,,Verified
PBG.AX,03-MAY-2015,,End Of Day,No Trades,,,,,,,,Verified
PBG.AX,04-MAY-2015,,End Of Day,,0.45,0.45,0.435,0.445,1343135,,,Verified
PBG.AX,05-MAY-2015,,End Of Day,,0.45,0.45,0.44,0.445,714012,,,Verified
PBG.AX,06-MAY-2015,,End Of Day,,0.43,0.445,0.42,0.42,1068396,,,Verified
PBG.AX,07-MAY-2015,,End Of Day,,0.415,0.42,0.415,0.415,788415,,,Verified
PBG.AX,08-MAY-2015,,End Of Day,,0.415,0.42,0.4,0.4,878991,,,Verified
PBG.AX,09-MAY-2015,,End Of Day,No Trades,,,,,,,,Verified
PBG.AX,10-MAY-2015,,End Of Day,No Trades,,,,,,,,Verified
PBG.AX,11-MAY-2015,,End Of Day,,0.405,0.41,0.4,0.4,1220100,,,Verified
PBG.AX,12-MAY-2015,,End Of Day,,0.395,0.405,0.395,0.4,1097037,,,Verified
PBG.AX,13-MAY-2015,,End Of Day,,0.4,0.4,0.387,0.4,3864657,,,Verified
PBG.AX,14-MAY-2015,,End Of Day,,0.395,0.41,0.395,0.41,1652917,,,Verified
PBG.AX,15-MAY-2015,,End Of Day,,0.42,0.425,0.415,0.42,834333,,,Verified
PBG.AX,16-MAY-2015,,End Of Day,No Trades,,,,,,,,Verified
PBG.AX,17-MAY-2015,,End Of Day,No Trades,,,,,,,,Verified
PBG.AX,18-MAY-2015,,End Of Day,,0.42,0.43,0.415,0.415,1355482,,,Verified
PBG.AX,19-MAY-2015,,End Of Day,,0.42,0.425,0.4,0.4,1241198,,,Verified
PBG.AX,20-MAY-2015,,End Of Day,,0.4,0.405,0.395,0.395,1094381,,,Verified
PBG.AX,21-MAY-2015,,End Of Day,,0.395,0.405,0.395,0.4,1379895,,,Verified
PBG.AX,22-MAY-2015,,End Of Day,,0.4,0.405,0.395,0.405,670054,,,Verified
PBG.AX,23-MAY-2015,,End Of Day,No Trades,,,,,,,,Verified
PBG.AX,24-MAY-2015,,End Of Day,No Trades,,,,,,,,Verified
PBG.AX,25-MAY-2015,,End Of Day,,0.405,0.405,0.395,0.395,705498,,,Verified
PBG.AX,26-MAY-2015,,End Of Day,,0.395,0.405,0.395,0.4,1335362,,,Verified
PBG.AX,27-MAY-2015,,End Of Day,,0.395,0.405,0.395,0.4,1281026,,,Verified
PBG.AX,28-MAY-2015,,End Of Day,,0.405,0.405,0.395,0.395,272742,,,Verified
PBG.AX,29-MAY-2015,,End Of Day,,0.4,0.415,0.395,0.415,1551449,,,Verified
PBG.AX,30-MAY-2015,,End Of Day,No Trades,,,,,,,,Verified
PBG.AX,31-MAY-2015,,End Of Day,No Trades,,,,,,,,Verified
PBG.AX,01-JUN-2015,,End Of Day,,0.405,0.41,0.4,0.405,1516468,,,Verified
PBG.AX,02-JUN-2015,,End Of Day,,0.41,0.41,0.4,0.405,12841179,,,Verified
PBG.AX,03-JUN-2015,,End Of Day,,0.4,0.405,0.385,0.385,1934482,,,Verified
PBG.AX,04-JUN-2015,,End Of Day,,0.395,0.395,0.37,0.375,1368131,,,Verified
PBG.AX,05-JUN-2015,,End Of Day,,0.375,0.38,0.37,0.38,641761,,,Verified
PBG.AX,06-JUN-2015,,End Of Day,No Trades,,,,,,,,Verified
PBG.AX,07-JUN-2015,,End Of Day,No Trades,,,,,,,,Verified
PBG.AX,08-JUN-2015,,End Of Day,No Trades,,,,,,,,Verified
PBG.AX,09-JUN-2015,,End Of Day,,0.375,0.385,0.37,0.37,681408,,,Verified
PBG.AX,10-JUN-2015,,End Of Day,,0.37,0.375,0.355,0.355,905436,,,Verified
PBG.AX,11-JUN-2015,,End Of Day,,0.36,0.37,0.36,0.37,1254139,,,Verified
PBG.AX,12-JUN-2015,,End Of Day,,0.365,0.37,0.365,0.365,840834,,,Verified
PBG.AX,13-JUN-2015,,End Of Day,No Trades,,,,,,,,Verified
PBG.AX,14-JUN-2015,,End Of Day,No Trades,,,,,,,,Verified
PBG.AX,15-JUN-2015,,End Of Day,,0.36,0.365,0.35,0.35,1100182,,,Verified
PBG.AX,16-JUN-2015,,End Of Day,,0.35,0.35,0.32,0.335,3628893,,,Verified
PBG.AX,17-JUN-2015,,End Of Day,,0.33,0.367,0.33,0.365,2785112,,,Verified
PBG.AX,18-JUN-2015,,End Of Day,,0.355,0.36,0.345,0.35,3664997,,,Verified
PBG.AX,19-JUN-2015,,End Of Day,,0.35,0.365,0.345,0.345,6682745,,,Verified
PBG.AX,20-JUN-2015,,End Of Day,No Trades,,,,,,,,Verified
PBG.AX,21-JUN-2015,,End Of Day,No Trades,,,,,,,,Verified
PBG.AX,22-JUN-2015,,End Of Day,,0.35,0.352,0.345,0.35,3005597,,,Verified
PBG.AX,23-JUN-2015,,End Of Day,,0.35,0.355,0.345,0.355,3596030,,,Verified
PBG.AX,24-JUN-2015,,End Of Day,,0.345,0.355,0.345,0.35,5334966,,,Verified
PBG.AX,25-JUN-2015,,End Of Day,,0.355,0.355,0.345,0.345,4249569,,,Verified
PBG.AX,26-JUN-2015,,End Of Day,,0.345,0.35,0.32,0.32,7800913,,,Verified
PBG.AX,27-JUN-2015,,End Of Day,No Trades,,,,,,,,Verified
PBG.AX,28-JUN-2015,,End Of Day,No Trades,,,,,,,,Verified
PBG.AX,29-JUN-2015,,End Of Day,,0.325,0.33,0.315,0.32,3931129,,,Verified
PBG.AX,30-JUN-2015,,End Of Day,,0.32,0.34,0.315,0.32,5768033,,,Verified
PBG.AX,01-JUL-2015,,End Of Day,,0.325,0.33,0.315,0.325,20836543,,,Verified
PBG.AX,02-JUL-2015,,End Of Day,,0.42,0.49,0.405,0.49,14941860,,,Verified
PBG.AX,03-JUL-2015,,End Of Day,,0.46,0.48,0.44,0.47,4235263,,,Verified
PBG.AX,04-JUL-2015,,End Of Day,No Trades,,,,,,,,Verified
PBG.AX,05-JUL-2015,,End Of Day,No Trades,,,,,,,,Verified
PBG.AX,06-JUL-2015,,End Of Day,,0.46,0.475,0.447,0.455,1670720,,,Verified
PBG.AX,07-JUL-2015,,End Of Day,,0.455,0.46,0.45,0.46,722349,,,Verified
PBG.AX,08-JUL-2015,,End Of Day,,0.45,0.46,0.45,0.45,965942,,,Verified
PBG.AX,09-JUL-2015,,End Of Day,,0.45,0.45,0.41,0.435,1435838,,,Verified
PBG.AX,10-JUL-2015,,End Of Day,,0.45,0.455,0.43,0.435,1094626,,,Verified
PBG.AX,11-JUL-2015,,End Of Day,No Trades,,,,,,,,Verified
PBG.AX,12-JUL-2015,,End Of Day,No Trades,,,,,,,,Verified
PBG.AX,13-JUL-2015,,End Of Day,,0.425,0.435,0.42,0.42,928837,,,Verified
PBG.AX,14-JUL-2015,,End Of Day,,0.435,0.435,0.425,0.435,1397192,,,Verified
PBG.AX,15-JUL-2015,,End Of Day,,0.435,0.44,0.43,0.44,2171169,,,Verified
PBG.AX,16-JUL-2015,,End Of Day,,0.45,0.45,0.417,0.43,1051151,,,Verified
PBG.AX,17-JUL-2015,,End Of Day,,0.435,0.45,0.42,0.45,4659333,,,Verified
PBG.AX,18-JUL-2015,,End Of Day,No Trades,,,,,,,,Verified
PBG.AX,19-JUL-2015,,End Of Day,No Trades,,,,,,,,Verified
PBG.AX,20-JUL-2015,,End Of Day,,0.445,0.45,0.435,0.435,464731,,,Verified
PBG.AX,21-JUL-2015,,End Of Day,,0.44,0.457,0.435,0.45,4030119,,,Verified
PBG.AX,22-JUL-2015,,End Of Day,,0.455,0.46,0.45,0.46,2655768,,,Verified
PBG.AX,23-JUL-2015,,End Of Day,,0.46,0.46,0.45,0.45,1105610,,,Verified
PBG.AX,24-JUL-2015,,End Of Day,,0.45,0.455,0.44,0.44,933926,,,Verified
PBG.AX,25-JUL-2015,,End Of Day,No Trades,,,,,,,,Verified
PBG.AX,26-JUL-2015,,End Of Day,No Trades,,,,,,,,Verified
PBG.AX,27-JUL-2015,,End Of Day,,0.44,0.44,0.42,0.425,838445,,,Verified
PBG.AX,28-JUL-2015,,End Of Day,,0.415,0.43,0.415,0.415,2145303,,,Verified
PBG.AX,29-JUL-2015,,End Of Day,,0.43,0.437,0.417,0.43,4734375,,,Verified
PBG.AX,30-JUL-2015,,End Of Day,,0.44,0.445,0.43,0.435,528244,,,Verified
PBG.AX,31-JUL-2015,,End Of Day,,0.435,0.44,0.42,0.42,1119111,,,Verified
PBG.AX,01-AUG-2015,,End Of Day,No Trades,,,,,,,,Verified
PBG.AX,02-AUG-2015,,End Of Day,No Trades,,,,,,,,Verified
PBG.AX,03-AUG-2015,,End Of Day,,0.42,0.43,0.42,0.42,1221452,,,Verified
PBG.AX,04-AUG-2015,,End Of Day,,0.42,0.43,0.415,0.425,1115198,,,Verified
PBG.AX,05-AUG-2015,,End Of Day,,0.42,0.432,0.42,0.42,1212576,,,Verified
PBG.AX,06-AUG-2015,,End Of Day,,0.42,0.43,0.415,0.415,805060,,,Verified
PBG.AX,07-AUG-2015,,End Of Day,,0.415,0.417,0.41,0.41,742744,,,Verified
PBG.AX,08-AUG-2015,,End Of Day,No Trades,,,,,,,,Verified
PBG.AX,09-AUG-2015,,End Of Day,No Trades,,,,,,,,Verified
PBG.AX,10-AUG-2015,,End Of Day,,0.415,0.42,0.415,0.415,504398,,,Verified
PBG.AX,11-AUG-2015,,End Of Day,,0.42,0.42,0.41,0.415,695831,,,Verified
PBG.AX,12-AUG-2015,,End Of Day,,0.415,0.43,0.41,0.41,2479464,,,Verified
PBG.AX,13-AUG-2015,,End Of Day,,0.415,0.43,0.41,0.42,1904286,,,Verified
PBG.AX,14-AUG-2015,,End Of Day,,0.42,0.425,0.415,0.42,1054376,,,Verified
PBG.AX,15-AUG-2015,,End Of Day,No Trades,,,,,,,,Verified
PBG.AX,16-AUG-2015,,End Of Day,No Trades,,,,,,,,Verified
PBG.AX,17-AUG-2015,,End Of Day,,0.42,0.425,0.415,0.425,1317563,,,Verified
PBG.AX,18-AUG-2015,,End Of Day,,0.415,0.425,0.415,0.42,1471216,,,Verified
PBG.AX,19-AUG-2015,,End Of Day,,0.415,0.42,0.385,0.395,1602121,,,Verified
PBG.AX,20-AUG-2015,,End Of Day,,0.395,0.41,0.392,0.4,1608058,,,Verified
PBG.AX,21-AUG-2015,,End Of Day,,0.4,0.415,0.395,0.4,2126339,,,Verified
PBG.AX,22-AUG-2015,,End Of Day,No Trades,,,,,,,,Verified
PBG.AX,23-AUG-2015,,End Of Day,No Trades,,,,,,,,Verified
PBG.AX,24-AUG-2015,,End Of Day,,0.4,0.4,0.38,0.385,2933088,,,Verified
PBG.AX,25-AUG-2015,,End Of Day,,0.405,0.465,0.405,0.445,10056341,,,Verified
PBG.AX,26-AUG-2015,,End Of Day,,0.43,0.49,0.425,0.485,9697638,,,Verified
PBG.AX,27-AUG-2015,,End Of Day,,0.49,0.535,0.49,0.53,5985664,,,Verified
PBG.AX,28-AUG-2015,,End Of Day,,0.535,0.56,0.527,0.56,8228639,,,Verified
PBG.AX,29-AUG-2015,,End Of Day,No Trades,,,,,,,,Verified
PBG.AX,30-AUG-2015,,End Of Day,No Trades,,,,,,,,Verified
PBG.AX,31-AUG-2015,,End Of Day,,0.555,0.595,0.55,0.595,5323838,,,Verified
PBG.AX,01-SEP-2015,,End Of Day,,0.585,0.68,0.575,0.655,9079172,,,Verified
PBG.AX,02-SEP-2015,,End Of Day,,0.64,0.68,0.6,0.675,21974445,,,Verified
PBG.AX,03-SEP-2015,,End Of Day,,0.67,0.67,0.61,0.66,9725394,,,Verified
PBG.AX,04-SEP-2015,,End Of Day,,0.645,0.66,0.615,0.64,10311484,,,Verified
PBG.AX,05-SEP-2015,,End Of Day,No Trades,,,,,,,,Verified
PBG.AX,06-SEP-2015,,End Of Day,No Trades,,,,,,,,Verified
PBG.AX,07-SEP-2015,,End Of Day,,0.64,0.64,0.6,0.64,3709356,,,Verified
PBG.AX,08-SEP-2015,,End Of Day,,0.64,0.665,0.63,0.66,3615117,,,Verified
PBG.AX,09-SEP-2015,,End Of Day,,0.66,0.68,0.655,0.68,4596000,,,Verified
PBG.AX,10-SEP-2015,,End Of Day,,0.645,0.68,0.645,0.67,3425185,,,Verified
PBG.AX,11-SEP-2015,,End Of Day,,0.685,0.695,0.665,0.695,4593403,,,Verified
PBG.AX,12-SEP-2015,,End Of Day,No Trades,,,,,,,,Verified
PBG.AX,13-SEP-2015,,End Of Day,No Trades,,,,,,,,Verified
PBG.AX,14-SEP-2015,,End Of Day,,0.695,0.7,0.685,0.7,3334147,,,Verified
PBG.AX,15-SEP-2015,,End Of Day,,0.695,0.72,0.685,0.695,3797286,,,Verified
PBG.AX,16-SEP-2015,,End Of Day,,0.72,0.747,0.71,0.71,6573834,,,Verified
PBG.AX,17-SEP-2015,,End Of Day,,0.72,0.73,0.67,0.68,7724907,,,Verified
PBG.AX,18-SEP-2015,,End Of Day,,0.675,0.7,0.66,0.68,4336756,,,Verified
PBG.AX,19-SEP-2015,,End Of Day,No Trades,,,,,,,,Verified
PBG.AX,20-SEP-2015,,End Of Day,No Trades,,,,,,,,Verified
PBG.AX,21-SEP-2015,,End Of Day,,0.66,0.66,0.62,0.64,2953870,,,Verified
PBG.AX,22-SEP-2015,,End Of Day,,0.65,0.675,0.645,0.67,1928629,,,Verified
PBG.AX,23-SEP-2015,,End Of Day,,0.655,0.67,0.65,0.655,1570250,,,Verified
PBG.AX,24-SEP-2015,,End Of Day,,0.67,0.68,0.66,0.67,3539220,,,Verified
PBG.AX,25-SEP-2015,,End Of Day,,0.685,0.685,0.66,0.665,1994689,,,Verified
PBG.AX,26-SEP-2015,,End Of Day,No Trades,,,,,,,,Verified
PBG.AX,27-SEP-2015,,End Of Day,No Trades,,,,,,,,Verified
PBG.AX,28-SEP-2015,,End Of Day,,0.66,0.69,0.657,0.685,12089677,,,Verified
PBG.AX,29-SEP-2015,,End Of Day,,0.685,0.717,0.66,0.69,5387564,,,Verified
PBG.AX,30-SEP-2015,,End Of Day,,0.7,0.715,0.68,0.71,4814037,,,Verified
PBG.AX,01-OCT-2015,,End Of Day,,0.705,0.72,0.7,0.72,2300997,,,Verified
PBG.AX,02-OCT-2015,,End Of Day,,0.7,0.715,0.7,0.71,3110536,,,Verified
PBG.AX,03-OCT-2015,,End Of Day,No Trades,,,,,,,,Verified
PBG.AX,04-OCT-2015,,End Of Day,No Trades,,,,,,,,Verified
PBG.AX,05-OCT-2015,,End Of Day,,0.715,0.73,0.69,0.72,2007441,,,Verified
PBG.AX,06-OCT-2015,,End Of Day,,0.72,0.72,0.7,0.715,1587201,,,Verified
PBG.AX,07-OCT-2015,,End Of Day,,0.72,0.725,0.705,0.715,2505022,,,Verified
PBG.AX,08-OCT-2015,,End Of Day,,0.725,0.725,0.695,0.7,712644,,,Verified
PBG.AX,09-OCT-2015,,End Of Day,,0.71,0.73,0.7,0.725,4894171,,,Verified
PBG.AX,10-OCT-2015,,End Of Day,No Trades,,,,,,,,Verified
PBG.AX,11-OCT-2015,,End Of Day,No Trades,,,,,,,,Verified
PBG.AX,12-OCT-2015,,End Of Day,,0.73,0.73,0.705,0.71,1496861,,,Verified
PBG.AX,13-OCT-2015,,End Of Day,,0.7,0.707,0.665,0.665,1773949,,,Verified
PBG.AX,14-OCT-2015,,End Of Day,,0.66,0.67,0.65,0.65,1737846,,,Verified
PBG.AX,15-OCT-2015,,End Of Day,,0.665,0.695,0.655,0.695,2240149,,,Verified
PBG.AX,16-OCT-2015,,End Of Day,,0.695,0.705,0.64,0.65,4510252,,,Verified
PBG.AX,17-OCT-2015,,End Of Day,No Trades,,,,,,,,Verified
PBG.AX,18-OCT-2015,,End Of Day,No Trades,,,,,,,,Verified
PBG.AX,19-OCT-2015,,End Of Day,,0.65,0.67,0.647,0.665,1790740,,,Verified
PBG.AX,20-OCT-2015,,End Of Day,,0.655,0.67,0.645,0.65,933839,,,Verified
PBG.AX,21-OCT-2015,,End Of Day,,0.65,0.67,0.65,0.67,1848314,,,Verified
PBG.AX,22-OCT-2015,,End Of Day,,0.67,0.685,0.645,0.685,2649300,,,Verified
PBG.AX,23-OCT-2015,,End Of Day,,0.695,0.7,0.67,0.7,2323416,,,Verified
PBG.AX,24-OCT-2015,,End Of Day,No Trades,,,,,,,,Verified
PBG.AX,25-OCT-2015,,End Of Day,No Trades,,,,,,,,Verified
PBG.AX,26-OCT-2015,,End Of Day,,0.7,0.72,0.695,0.71,2212992,,,Verified
PBG.AX,27-OCT-2015,,End Of Day,,0.71,0.71,0.69,0.71,2775787,,,Verified
PBG.AX,28-OCT-2015,,End Of Day,,0.71,0.75,0.705,0.745,5985883,,,Verified
PBG.AX,29-OCT-2015,,End Of Day,,0.75,0.76,0.74,0.75,3668108,,,Verified
PBG.AX,30-OCT-2015,,End Of Day,,0.735,0.745,0.71,0.72,2621286,,,Verified
PBG.AX,31-OCT-2015,,End Of Day,No Trades,,,,,,,,Verified
PBG.AX,01-NOV-2015,,End Of Day,No Trades,,,,,,,,Verified
PBG.AX,02-NOV-2015,,End Of Day,,0.725,0.767,0.72,0.745,2320886,,,Verified
PBG.AX,03-NOV-2015,,End Of Day,,0.75,0.765,0.75,0.765,1470176,,,Verified
PBG.AX,04-NOV-2015,,End Of Day,,0.77,0.78,0.755,0.77,3963840,,,Verified
PBG.AX,05-NOV-2015,,End Of Day,,0.76,0.77,0.735,0.765,2413232,,,Verified
PBG.AX,06-NOV-2015,,End Of Day,,0.76,0.78,0.76,0.78,2428666,,,Verified
PBG.AX,07-NOV-2015,,End Of Day,No Trades,,,,,,,,Verified
PBG.AX,08-NOV-2015,,End Of Day,No Trades,,,,,,,,Verified
PBG.AX,09-NOV-2015,,End Of Day,,0.77,0.78,0.745,0.755,1415799,,,Verified
PBG.AX,10-NOV-2015,,End Of Day,,0.74,0.75,0.7,0.715,2761600,,,Verified
PBG.AX,11-NOV-2015,,End Of Day,,0.71,0.735,0.68,0.69,3249084,,,Verified
PBG.AX,12-NOV-2015,,End Of Day,,0.69,0.695,0.68,0.69,2158056,,,Verified
PBG.AX,13-NOV-2015,,End Of Day,,0.68,0.69,0.66,0.685,1384999,,,Verified
PBG.AX,14-NOV-2015,,End Of Day,No Trades,,,,,,,,Verified
PBG.AX,15-NOV-2015,,End Of Day,No Trades,,,,,,,,Verified
PBG.AX,16-NOV-2015,,End Of Day,,0.66,0.69,0.66,0.67,2477897,,,Verified
PBG.AX,17-NOV-2015,,End Of Day,,0.685,0.695,0.67,0.695,2475508,,,Verified
PBG.AX,18-NOV-2015,,End Of Day,,0.69,0.7,0.67,0.69,1410608,,,Verified
PBG.AX,19-NOV-2015,,End Of Day,,0.7,0.745,0.69,0.745,1983751,,,Verified
PBG.AX,20-NOV-2015,,End Of Day,,0.745,0.745,0.72,0.725,1382615,,,Verified
PBG.AX,21-NOV-2015,,End Of Day,No Trades,,,,,,,,Verified
PBG.AX,22-NOV-2015,,End Of Day,No Trades,,,,,,,,Verified
PBG.AX,23-NOV-2015,,End Of Day,,0.725,0.735,0.712,0.73,1223543,,,Verified
PBG.AX,24-NOV-2015,,End Of Day,,0.73,0.752,0.73,0.745,1269180,,,Verified
PBG.AX,25-NOV-2015,,End Of Day,,0.75,0.75,0.705,0.725,2193509,,,Verified
PBG.AX,26-NOV-2015,,End Of Day,,0.725,0.74,0.715,0.72,1172828,,,Verified
PBG.AX,27-NOV-2015,,End Of Day,,0.73,0.74,0.722,0.725,444281,,,Verified
PBG.AX,28-NOV-2015,,End Of Day,No Trades,,,,,,,,Verified
PBG.AX,29-NOV-2015,,End Of Day,No Trades,,,,,,,,Verified
PBG.AX,30-NOV-2015,,End Of Day,,0.725,0.725,0.67,0.67,2176404,,,Verified
PBG.AX,01-DEC-2015,,End Of Day,,0.685,0.715,0.672,0.71,1956193,,,Verified
PBG.AX,02-DEC-2015,,End Of Day,,0.7,0.715,0.69,0.7,1808790,,,Verified
PBG.AX,03-DEC-2015,,End Of Day,,0.685,0.7,0.685,0.695,1824818,,,Verified
PBG.AX,04-DEC-2015,,End Of Day,,0.69,0.74,0.69,0.715,1958207,,,Verified
PBG.AX,05-DEC-2015,,End Of Day,No Trades,,,,,,,,Verified
PBG.AX,06-DEC-2015,,End Of Day,No Trades,,,,,,,,Verified
PBG.AX,07-DEC-2015,,End Of Day,,0.735,0.74,0.72,0.73,1703277,,,Verified
PBG.AX,08-DEC-2015,,End Of Day,,0.715,0.77,0.715,0.745,2528485,,,Verified
PBG.AX,09-DEC-2015,,End Of Day,,0.74,0.792,0.73,0.79,4904510,,,Verified
PBG.AX,10-DEC-2015,,End Of Day,,0.78,0.79,0.75,0.755,9527143,,,Verified
PBG.AX,11-DEC-2015,,End Of Day,,0.765,0.767,0.705,0.705,1608866,,,Verified
PBG.AX,12-DEC-2015,,End Of Day,No Trades,,,,,,,,Verified
PBG.AX,13-DEC-2015,,End Of Day,No Trades,,,,,,,,Verified
PBG.AX,14-DEC-2015,,End Of Day,,0.695,0.722,0.69,0.715,3354494,,,Verified
PBG.AX,15-DEC-2015,,End Of Day,,0.715,0.755,0.715,0.755,3748437,,,Verified
PBG.AX,16-DEC-2015,,End Of Day,,0.765,0.775,0.755,0.765,6413947,,,Verified
PBG.AX,17-DEC-2015,,End Of Day,,0.78,0.79,0.73,0.745,5154817,,,Verified
PBG.AX,18-DEC-2015,,End Of Day,,0.725,0.775,0.725,0.775,2451862,,,Verified
PBG.AX,19-DEC-2015,,End Of Day,No Trades,,,,,,,,Verified
PBG.AX,20-DEC-2015,,End Of Day,No Trades,,,,,,,,Verified
PBG.AX,21-DEC-2015,,End Of Day,,0.775,0.78,0.76,0.77,2264367,,,Verified
PBG.AX,22-DEC-2015,,End Of Day,,0.785,0.785,0.765,0.775,1693110,,,Verified
PBG.AX,23-DEC-2015,,End Of Day,,0.77,0.775,0.755,0.765,765203,,,Verified
PBG.AX,24-DEC-2015,,End Of Day,,0.77,0.78,0.76,0.78,385040,,,Verified
PBG.AX,25-DEC-2015,,End Of Day,No Trades,,,,,,,,Verified
PBG.AX,26-DEC-2015,,End Of Day,No Trades,,,,,,,,Verified
PBG.AX,27-DEC-2015,,End Of Day,No Trades,,,,,,,,Verified
PBG.AX,28-DEC-2015,,End Of Day,No Trades,,,,,,,,Verified
PBG.AX,29-DEC-2015,,End Of Day,,0.785,0.785,0.775,0.785,1323224,,,Verified
PBG.AX,30-DEC-2015,,End Of Day,,0.785,0.79,0.78,0.79,1026245,,,Verified
PBG.AX,31-DEC-2015,,End Of Day,,0.79,0.79,0.78,0.79,1199363,,,Verified
PBG.AX,01-JAN-2016,,End Of Day,No Trades,,,,,,,,Verified
PBG.AX,02-JAN-2016,,End Of Day,No Trades,,,,,,,,Verified
PBG.AX,03-JAN-2016,,End Of Day,No Trades,,,,,,,,Verified
PBG.AX,04-JAN-2016,,End Of Day,,0.79,0.79,0.765,0.775,1334534,,,Verified
PBG.AX,05-JAN-2016,,End Of Day,,0.77,0.775,0.755,0.77,2288683,,,Verified
PBG.AX,06-JAN-2016,,End Of Day,,0.76,0.77,0.73,0.74,5915466,,,Verified
PBG.AX,07-JAN-2016,,End Of Day,,0.75,0.76,0.727,0.745,2143694,,,Verified
PBG.AX,08-JAN-2016,,End Of Day,,0.73,0.745,0.72,0.73,2266376,,,Verified
PBG.AX,09-JAN-2016,,End Of Day,No Trades,,,,,,,,Verified
PBG.AX,10-JAN-2016,,End Of Day,No Trades,,,,,,,,Verified
PBG.AX,11-JAN-2016,,End Of Day,,0.715,0.73,0.69,0.725,2518059,,,Verified
PBG.AX,12-JAN-2016,,End Of Day,,0.72,0.735,0.67,0.685,5524453,,,Verified
PBG.AX,13-JAN-2016,,End Of Day,,0.69,0.725,0.69,0.725,4759718,,,Verified
PBG.AX,14-JAN-2016,,End Of Day,,0.69,0.695,0.68,0.685,4318917,,,Verified
PBG.AX,15-JAN-2016,,End Of Day,,0.705,0.705,0.66,0.67,2117301,,,Verified
PBG.AX,16-JAN-2016,,End Of Day,No Trades,,,,,,,,Verified
PBG.AX,17-JAN-2016,,End Of Day,No Trades,,,,,,,,Verified
PBG.AX,18-JAN-2016,,End Of Day,,0.645,0.675,0.645,0.675,8173389,,,Verified
PBG.AX,19-JAN-2016,,End Of Day,,0.675,0.707,0.672,0.7,3431466,,,Verified
PBG.AX,20-JAN-2016,,End Of Day,,0.7,0.72,0.685,0.705,2537400,,,Verified
PBG.AX,21-JAN-2016,,End Of Day,,0.72,0.73,0.705,0.73,3332992,,,Verified
PBG.AX,22-JAN-2016,,End Of Day,,0.735,0.757,0.725,0.75,2289096,,,Verified
PBG.AX,23-JAN-2016,,End Of Day,No Trades,,,,,,,,Verified
PBG.AX,24-JAN-2016,,End Of Day,No Trades,,,,,,,,Verified
PBG.AX,25-JAN-2016,,End Of Day,,0.76,0.77,0.74,0.755,1924643,,,Verified
PBG.AX,26-JAN-2016,,End Of Day,No Trades,,,,,,,,Verified
PBG.AX,27-JAN-2016,,End Of Day,,0.755,0.81,0.75,0.8,6146009,,,Verified
PBG.AX,28-JAN-2016,,End Of Day,,0.805,0.805,0.782,0.795,3659666,,,Verified
PBG.AX,29-JAN-2016,,End Of Day,,0.79,0.81,0.785,0.805,4085294,,,Verified
PBG.AX,30-JAN-2016,,End Of Day,No Trades,,,,,,,,Verified
PBG.AX,31-JAN-2016,,End Of Day,No Trades,,,,,,,,Verified
PBG.AX,01-FEB-2016,,End Of Day,,0.805,0.84,0.8,0.8,12242046,,,Verified
PBG.AX,02-FEB-2016,,End Of Day,,0.8,0.83,0.755,0.805,6597396,,,Verified
PBG.AX,03-FEB-2016,,End Of Day,,0.785,0.81,0.785,0.805,4856146,,,Verified
PBG.AX,04-FEB-2016,,End Of Day,,0.81,0.825,0.79,0.815,3163745,,,Verified
PBG.AX,05-FEB-2016,,End Of Day,,0.81,0.817,0.79,0.815,2502811,,,Verified
PBG.AX,06-FEB-2016,,End Of Day,No Trades,,,,,,,,Verified
PBG.AX,07-FEB-2016,,End Of Day,No Trades,,,,,,,,Verified
PBG.AX,08-FEB-2016,,End Of Day,,0.81,0.81,0.785,0.8,1458733,,,Verified
PBG.AX,09-FEB-2016,,End Of Day,,0.785,0.8,0.745,0.755,10551665,,,Verified
PBG.AX,10-FEB-2016,,End Of Day,,0.755,0.755,0.72,0.74,3504252,,,Verified
PBG.AX,11-FEB-2016,,End Of Day,,0.745,0.775,0.71,0.765,3207115,,,Verified
PBG.AX,12-FEB-2016,,End Of Day,,0.75,0.79,0.75,0.77,3684901,,,Verified
PBG.AX,13-FEB-2016,,End Of Day,No Trades,,,,,,,,Verified
PBG.AX,14-FEB-2016,,End Of Day,No Trades,,,,,,,,Verified
PBG.AX,15-FEB-2016,,End Of Day,,0.78,0.79,0.765,0.78,1412959,,,Verified
PBG.AX,16-FEB-2016,,End Of Day,,0.9,0.912,0.835,0.86,10408021,,,Verified
PBG.AX,17-FEB-2016,,End Of Day,,0.875,0.88,0.845,0.85,5876520,,,Verified
PBG.AX,18-FEB-2016,,End Of Day,,0.865,0.907,0.86,0.885,11703446,,,Verified
PBG.AX,19-FEB-2016,,End Of Day,,0.885,0.905,0.882,0.89,2776527,,,Verified
PBG.AX,20-FEB-2016,,End Of Day,No Trades,,,,,,,,Verified
PBG.AX,21-FEB-2016,,End Of Day,No Trades,,,,,,,,Verified
PBG.AX,22-FEB-2016,,End Of Day,,0.895,0.92,0.89,0.905,4893956,,,Verified
PBG.AX,23-FEB-2016,,End Of Day,,0.905,0.905,0.855,0.89,4074931,,,Verified
PBG.AX,24-FEB-2016,,End Of Day,,0.9,0.925,0.895,0.915,5862934,,,Verified
PBG.AX,25-FEB-2016,,End Of Day,,0.92,0.922,0.872,0.88,2189869,,,Verified
PBG.AX,26-FEB-2016,,End Of Day,,0.885,0.915,0.87,0.9,1461462,,,Verified
PBG.AX,27-FEB-2016,,End Of Day,No Trades,,,,,,,,Verified
PBG.AX,28-FEB-2016,,End Of Day,No Trades,,,,,,,,Verified
PBG.AX,29-FEB-2016,,End Of Day,,0.905,0.92,0.89,0.91,3433657,,,Verified
PBG.AX,01-MAR-2016,,End Of Day,,0.915,0.975,0.9,0.955,7780062,,,Verified
PBG.AX,02-MAR-2016,,End Of Day,,0.975,0.975,0.937,0.955,3805698,,,Verified
PBG.AX,03-MAR-2016,,End Of Day,,0.96,0.97,0.94,0.95,4551016,,,Verified
PBG.AX,04-MAR-2016,,End Of Day,,0.94,0.995,0.92,0.97,8901818,,,Verified
PBG.AX,05-MAR-2016,,End Of Day,No Trades,,,,,,,,Verified
PBG.AX,06-MAR-2016,,End Of Day,No Trades,,,,,,,,Verified
PBG.AX,07-MAR-2016,,End Of Day,,0.995,0.995,0.95,0.97,7721861,,,Verified
PBG.AX,08-MAR-2016,,End Of Day,,0.97,0.99,0.945,0.965,10431886,,,Verified
PBG.AX,09-MAR-2016,,End Of Day,,0.965,0.97,0.945,0.96,8706611,,,Verified
PBG.AX,10-MAR-2016,,End Of Day,,0.955,0.985,0.955,0.985,5240001,,,Verified
PBG.AX,11-MAR-2016,,End Of Day,,0.985,1,0.97,0.985,8026125,,,Verified
PBG.AX,12-MAR-2016,,End Of Day,No Trades,,,,,,,,Verified
PBG.AX,13-MAR-2016,,End Of Day,No Trades,,,,,,,,Verified
PBG.AX,14-MAR-2016,,End Of Day,,1,1,0.965,0.985,6489985,,,Verified
PBG.AX,15-MAR-2016,,End Of Day,,0.98,0.995,0.965,0.97,2831701,,,Verified
PBG.AX,16-MAR-2016,,End Of Day,,0.985,0.995,0.95,0.96,4908801,,,Verified
PBG.AX,17-MAR-2016,,End Of Day,,0.96,0.99,0.955,0.985,5546874,,,Verified
PBG.AX,18-MAR-2016,,End Of Day,,0.99,1.017,0.982,0.99,5818489,,,Verified
PBG.AX,19-MAR-2016,,End Of Day,No Trades,,,,,,,,Verified
PBG.AX,20-MAR-2016,,End Of Day,No Trades,,,,,,,,Verified
PBG.AX,21-MAR-2016,,End Of Day,,1,1.015,0.99,1,2356477,,,Verified
PBG.AX,22-MAR-2016,,End Of Day,,1.01,1.027,0.995,1.025,4261832,,,Verified
PBG.AX,23-MAR-2016,,End Of Day,,1.035,1.035,0.995,1.005,2763173,,,Verified
PBG.AX,24-MAR-2016,,End Of Day,,1,1.025,0.995,1.02,2775469,,,Verified
PBG.AX,25-MAR-2016,,End Of Day,No Trades,,,,,,,,Verified
PBG.AX,26-MAR-2016,,End Of Day,No Trades,,,,,,,,Verified
PBG.AX,27-MAR-2016,,End Of Day,No Trades,,,,,,,,Verified
PBG.AX,28-MAR-2016,,End Of Day,No Trades,,,,,,,,Verified
PBG.AX,29-MAR-2016,,End Of Day,,1.02,1.025,1,1.01,1781619,,,Verified
PBG.AX,30-MAR-2016,,End Of Day,,1.02,1.035,1.005,1.025,3607315,,,Verified
PBG.AX,31-MAR-2016,,End Of Day,,1.035,1.047,1.02,1.03,3014130,,,Verified
PBG.AX,01-APR-2016,,End Of Day,,1.025,1.035,1.01,1.03,3378659,,,Verified
PBG.AX,02-APR-2016,,End Of Day,No Trades,,,,,,,,Verified
PBG.AX,03-APR-2016,,End Of Day,No Trades,,,,,,,,Verified
PBG.AX,04-APR-2016,,End Of Day,,1.03,1.05,1.02,1.025,4001432,,,Verified
PBG.AX,05-APR-2016,,End Of Day,,1.01,1.015,0.94,0.945,4491690,,,Verified
PBG.AX,06-APR-2016,,End Of Day,,0.945,1.01,0.93,1,5413787,,,Verified
PBG.AX,07-APR-2016,,End Of Day,,1,1.01,0.97,0.995,4503108,,,Verified
PBG.AX,08-APR-2016,,End Of Day,,0.99,0.995,0.96,0.975,1548782,,,Verified
PBG.AX,09-APR-2016,,End Of Day,No Trades,,,,,,,,Verified
PBG.AX,10-APR-2016,,End Of Day,No Trades,,,,,,,,Verified
PBG.AX,11-APR-2016,,End Of Day,,0.99,0.995,0.96,0.98,2089363,,,Verified
PBG.AX,12-APR-2016,,End Of Day,,0.975,0.99,0.955,0.955,1859403,,,Verified
PBG.AX,13-APR-2016,,End Of Day,,0.97,0.992,0.96,0.96,3914685,,,Verified
PBG.AX,14-APR-2016,,End Of Day,,0.965,0.99,0.955,0.985,1510490,,,Verified
PBG.AX,15-APR-2016,,End Of Day,,0.99,0.995,0.967,0.98,2435599,,,Verified
PBG.AX,16-APR-2016,,End Of Day,No Trades,,,,,,,,Verified
PBG.AX,17-APR-2016,,End Of Day,No Trades,,,,,,,,Verified
PBG.AX,18-APR-2016,,End Of Day,,0.98,0.985,0.91,0.91,3658662,,,Verified
PBG.AX,19-APR-2016,,End Of Day,,0.91,0.925,0.825,0.88,10600503,,,Verified
PBG.AX,20-APR-2016,,End Of Day,,0.885,0.9,0.87,0.885,5006426,,,Verified
PBG.AX,21-APR-2016,,End Of Day,,0.875,0.885,0.83,0.875,9250184,,,Verified
PBG.AX,22-APR-2016,,End Of Day,,0.88,0.905,0.85,0.865,2268708,,,Verified
PBG.AX,23-APR-2016,,End Of Day,No Trades,,,,,,,,Verified
PBG.AX,24-APR-2016,,End Of Day,No Trades,,,,,,,,Verified
PBG.AX,25-APR-2016,,End Of Day,No Trades,,,,,,,,Verified
PBG.AX,26-APR-2016,,End Of Day,,0.855,0.905,0.855,0.9,3360075,,,Verified
PBG.AX,27-APR-2016,,End Of Day,,0.92,0.965,0.917,0.94,5213649,,,Verified
PBG.AX,28-APR-2016,,End Of Day,,1.15,1.17,1.15,1.155,18612756,,,Verified
PBG.AX,29-APR-2016,,End Of Day,,1.155,1.16,1.145,1.145,30795218,,,Verified
PBG.AX,30-APR-2016,,End Of Day,No Trades,,,,,,,,Verified
PBG.AX,01-MAY-2016,,End Of Day,No Trades,,,,,,,,Verified
PBG.AX,02-MAY-2016,,End Of Day,,1.15,1.155,1.145,1.15,11607033,,,Verified
PBG.AX,03-MAY-2016,,End Of Day,,1.15,1.15,1.145,1.145,7008604,,,Verified
PBG.AX,04-MAY-2016,,End Of Day,,1.145,1.15,1.14,1.14,5507145,,,Verified
PBG.AX,05-MAY-2016,,End Of Day,,1.14,1.145,1.13,1.13,13387028,,,Verified
PBG.AX,06-MAY-2016,,End Of Day,,1.135,1.14,1.13,1.135,24762303,,,Verified
PBG.AX,07-MAY-2016,,End Of Day,No Trades,,,,,,,,Verified
PBG.AX,08-MAY-2016,,End Of Day,No Trades,,,,,,,,Verified
PBG.AX,09-MAY-2016,,End Of Day,,1.14,1.14,1.135,1.135,4959128,,,Verified
PBG.AX,10-MAY-2016,,End Of Day,,1.14,1.14,1.135,1.135,5431245,,,Verified
PBG.AX,11-MAY-2016,,End Of Day,,1.14,1.14,1.135,1.135,8599294,,,Verified
