{
  "FXRHKD": {
    "startDate": "29-Jan-2010",
    "values": [
      3.2718,
      3.2682,
      3.3636,
      3.4154,
      3.1180,
      3.1301,
      3.3001,
      3.2751,
      3.5502,
      3.5847,
      3.5322,
      3.7324,
      3.6446,
      3.7324,
      3.7952,
      4.0030,
      3.9329,
      3.9439,
      4.0229,
      3.9263,
      3.5921,
      3.8594,
      3.6802,
      3.7298,
      3.9064,
      3.9722,
      3.8201,
      3.8389,
      3.5722,
      3.7426,
      3.8657,
      3.7830,
      3.8429,
      3.8113,
      3.8308,
      3.8135,
      3.8172,
      3.7735,
      3.8289,
      3.8076,
      3.5436,
      3.4062,
      3.3188,
      3.2858,
      3.4187,
      3.4852,
      3.3372,
      3.2862,
      3.2182,
      3.2858,
      3.3864,
      3.4107,
      3.4224,
      3.4595,
      3.4242,
      3.4334,
      3.2142,
      3.2336,
      3.1183,
      3.0122,
      2.8576,
      2.8616,
      2.8036,
      2.931,
      2.8142,
      2.8205,
      2.6787,
      2.6255,
      2.5744,
      2.6071,
      2.6402,
      2.6831,
      2.6075,
      2.6222,
      2.812
    ]
  }
}
