{
  "FXRMR": {
    "startDate": "29-Jan-2010",
    "values": [
      1.2662,
      1.2828,
      1.2905,
      1.2828,
      1.2430,
      1.2308,
      1.2455,
      1.2727,
      1.3131,
      1.2961,
      1.2924,
      1.3171,
      1.2860,
      1.3518,
      1.3592,
      1.3598,
      1.2993,
      1.2953,
      1.2652,
      1.2514,
      1.2757,
      1.2997,
      1.3135,
      1.3145,
      1.2909,
      1.2841,
      1.2690,
      1.2718,
      1.2877,
      1.2771,
      1.2990,
      1.2883,
      1.2533,
      1.2636,
      1.2677,
      1.2608,
      1.2448,
      1.2357,
      1.2464,
      1.2102,
      1.1933,
      1.1871,
      1.1315,
      1.1491,
      1.1248,
      1.1497,
      1.1216,
      1.0879,
      1.0773,
      1.0659,
      1.0661,
      1.0847,
      1.0952,
      1.0761,
      1.0957,
      1.117,
      1.1216,
      1.1232,
      1.0839,
      1.0462,
      1.0687,
      1.033,
      1.0195,
      1.0503,
      1.0723,
      1.1294,
      1.1077,
      1.1127,
      1.0998,
      1.0534,
      1.0982,
      1.0667,
      1.0933,
      1.0838,
      1.11
    ]
  }
}
