{
  "FXRSARY": {
    "startDate": "29-Jan-2010",
    "values": [
      0.9517,
      0.9417,
      0.9325,
      0.9335,
      0.8901,
      0.8976,
      0.9309,
      0.9454,
      0.9992,
      0.9976,
      0.9811,
      1.0167,
      0.9933,
      0.9939,
      1.0035,
      1.0375,
      1.0407,
      1.0389,
      1.0424,
      1.0458,
      1.0163,
      1.0528,
      1.0343,
      1.0364,
      1.0648,
      1.0744,
      1.0379,
      1.0254,
      0.9995,
      1.0454,
      1.0538,
      1.0223,
      1.0244,
      1.0369,
      1.0358,
      1.0332,
      1.0428,
      1.0513,
      1.0599,
      1.0484,
      0.9948,
      0.9699,
      0.9312,
      0.9422,
      0.9596,
      0.9949,
      0.9630,
      0.9524,
      0.9793,
      0.9956,
      1.0201,
      1.0180,
      1.0098,
      1.0057,
      1.0167,
      1.0152,
      0.9758,
      0.9866,
      0.9641,
      0.9518,
      0.9824,
      0.9732,
      0.9694,
      0.9604,
      0.9520,
      0.9517,
      0.9484,
      0.9460,
      0.9401,
      0.9347,
      0.9620,
      1.0137,
      0.9956,
      0.9658,
      0.9951
    ]
  }
}
