{
  "FXRUKPS": {
    "startDate": "29-Jan-2010",
    "values": [
      0.6395,
      0.6551,
      0.6827,
      0.7023,
      0.6901,
      0.6979,
      0.6878,
      0.7053,
      0.7121,
      0.7029,
      0.7348,
      0.7647,
      0.7294,
      0.7388,
      0.7309,
      0.7344,
      0.7447,
      0.7405,
      0.7663,
      0.7408,
      0.7213,
      0.7511,
      0.7516,
      0.7847,
      0.8063,
      0.8021,
      0.7788,
      0.7889,
      0.7849,
      0.8092,
      0.8578,
      0.8239,
      0.8093,
      0.8008,
      0.8025,
      0.7868,
      0.7660,
      0.7818,
      0.8155,
      0.7908,
      0.7403,
      0.7095,
      0.6817,
      0.6756,
      0.6900,
      0.6923,
      0.6676,
      0.6485,
      0.6467,
      0.6530,
      0.6707,
      0.6729,
      0.6852,
      0.6906,
      0.6959,
      0.7096,
      0.6898,
      0.6995,
      0.6822,
      0.6746,
      0.6869,
      0.695,
      0.707,
      0.7198,
      0.6998,
      0.6866,
      0.667,
      0.6355,
      0.6236,
      0.6467,
      0.679,
      0.6682,
      0.6496,
      0.653,
      0.6765
    ]
  }
}
