{
"Name": "Perpetual Ltd (PPT.AX)",
"Market Cap (intraday)": "1.97B",
"Enterprise Value (28/05/2016)": "1.76B",
"Trailing P/E (ttm, intraday):": "15.56",
"Forward P/E (fye 30/06/2017)": "15.32",
"PEG Ratio (5 yr expected)": "4.17",
"Price/Sales (ttm):": "3.88",
"Price/Book (mrq):": "3.26",
"Enterprise Value/Revenue (ttm)": "3.51",
"Enterprise Value/EBITDA (ttm)": "8.79",
"Fiscal Year Ends:": "30 Jun",
"Most Recent Quarter (mrq):": "31/12/2015",
"Profit Margin (ttm):": "25.62%",
"Operating Margin (ttm):": "37.81%",
"Return on Assets (ttm):": "10.62%",
"Return on Equity (ttm):": "22.07%",
"Revenue (ttm):": "500.76M",
"Revenue Per Share (ttm):": "11.10",
"Qtrly Revenue Growth (yoy):": "-4.00%",
"Gross Profit (ttm):": "323.00M",
"EBITDA (ttm)": "199.76M",
"Net Income Avl to Common (ttm):": "128.31M",
"Diluted EPS (ttm):": "2.78",
"Qtrly Earnings Growth (yoy):": "10.00%",
"Total Cash (mrq):": "240.21M",
"Total Cash Per Share (mrq):": "5.27",
"Total Debt (mrq):": "87.00M",
"Total Debt/Equity (mrq):": "14.61",
"Current Ratio (mrq):": "1.70",
"Book Value Per Share (mrq):": "13.06",
"Operating Cash Flow (ttm):": "125.08M",
"Levered Free Cash Flow (ttm):": "132.52M",
"Beta:": "N/A",
"52-Week Change": "-24.11%",
"S&P500 52-Week Change": "-0.60%",
"52-Week High (02/06/2015)": "57.00",
"52-Week Low (25/08/2015)": "37.25",
"50-Day Moving Average": "42.24",
"200-Day Moving Average": "42.83",
"Avg Vol (3 month)": "166,658",
"Avg Vol (10 day)": "188,603",
"Shares Outstanding": "45.58M",
"Float:": "42.33M",
"% Held by Insiders": "N/A",
"% Held by Institutions": "N/A",
"Shares Short ": "N/A",
"Short Ratio ": "N/A",
"Short % of Float ": "N/A",
"Shares Short (prior month)": "N/A",
"Forward Annual Dividend Rate": "N/A",
"Forward Annual Dividend Yield": "N/A",
"Trailing Annual Dividend Yield": "3.57",
"Trailing Annual Dividend Yield": "8.40%",
"5 Year Average Dividend Yield": "N/A",
"Payout Ratio": "N/A",
"Dividend Date": "N/A",
"Ex-Dividend Date": "N/A",
"Last Split Factor (new per old)": "1:1",
"Last Split Date": "06/11/1989"
}
