#RIC,Date[L],Time[L],Type,Qualifiers,Open,High,Low,Last,Volume,Open Interest,Settle,Data Source
SPO.AX,23-MAY-2014,,End Of Day,,1.75,1.75,1.7,1.715,87135477,,,Verified
SPO.AX,24-MAY-2014,,End Of Day,No Trades,,,,,,,,Verified
SPO.AX,25-MAY-2014,,End Of Day,No Trades,,,,,,,,Verified
SPO.AX,26-MAY-2014,,End Of Day,,1.715,1.72,1.705,1.71,16196728,,,Verified
SPO.AX,27-MAY-2014,,End Of Day,,1.71,1.722,1.7,1.72,6521310,,,Verified
SPO.AX,28-MAY-2014,,End Of Day,,1.715,1.78,1.715,1.775,7388751,,,Verified
SPO.AX,29-MAY-2014,,End Of Day,,1.775,1.845,1.775,1.82,12763949,,,Verified
SPO.AX,30-MAY-2014,,End Of Day,,1.82,1.845,1.785,1.845,5700007,,,Verified
SPO.AX,31-MAY-2014,,End Of Day,No Trades,,,,,,,,Verified
SPO.AX,01-JUN-2014,,End Of Day,No Trades,,,,,,,,Verified
SPO.AX,02-JUN-2014,,End Of Day,,1.845,1.86,1.83,1.85,5454102,,,Verified
SPO.AX,03-JUN-2014,,End Of Day,,1.85,1.85,1.81,1.84,5878639,,,Verified
SPO.AX,04-JUN-2014,,End Of Day,,1.84,1.85,1.82,1.84,4465359,,,Verified
SPO.AX,05-JUN-2014,,End Of Day,,1.845,1.86,1.825,1.825,6587635,,,Verified
SPO.AX,06-JUN-2014,,End Of Day,,1.82,1.825,1.78,1.785,2278666,,,Verified
SPO.AX,07-JUN-2014,,End Of Day,No Trades,,,,,,,,Verified
SPO.AX,08-JUN-2014,,End Of Day,No Trades,,,,,,,,Verified
SPO.AX,09-JUN-2014,,End Of Day,No Trades,,,,,,,,Verified
SPO.AX,10-JUN-2014,,End Of Day,,1.785,1.787,1.76,1.77,1997062,,,Verified
SPO.AX,11-JUN-2014,,End Of Day,,1.75,1.765,1.73,1.745,2392650,,,Verified
SPO.AX,12-JUN-2014,,End Of Day,,1.74,1.74,1.72,1.735,2264821,,,Verified
SPO.AX,13-JUN-2014,,End Of Day,,1.73,1.76,1.71,1.72,1586719,,,Verified
SPO.AX,14-JUN-2014,,End Of Day,No Trades,,,,,,,,Verified
SPO.AX,15-JUN-2014,,End Of Day,No Trades,,,,,,,,Verified
SPO.AX,16-JUN-2014,,End Of Day,,1.72,1.72,1.64,1.7,4414692,,,Verified
SPO.AX,17-JUN-2014,,End Of Day,,1.685,1.75,1.685,1.735,2248022,,,Verified
SPO.AX,18-JUN-2014,,End Of Day,,1.75,1.76,1.725,1.74,1406891,,,Verified
SPO.AX,19-JUN-2014,,End Of Day,,1.75,1.75,1.715,1.72,838293,,,Verified
SPO.AX,20-JUN-2014,,End Of Day,,1.715,1.725,1.69,1.725,807801,,,Verified
SPO.AX,21-JUN-2014,,End Of Day,No Trades,,,,,,,,Verified
SPO.AX,22-JUN-2014,,End Of Day,No Trades,,,,,,,,Verified
SPO.AX,23-JUN-2014,,End Of Day,,1.725,1.73,1.705,1.72,369905,,,Verified
SPO.AX,24-JUN-2014,,End Of Day,,1.715,1.725,1.7,1.71,1015859,,,Verified
SPO.AX,25-JUN-2014,,End Of Day,,1.7,1.735,1.67,1.69,1006699,,,Verified
SPO.AX,26-JUN-2014,,End Of Day,,1.675,1.7,1.665,1.7,963302,,,Verified
SPO.AX,27-JUN-2014,,End Of Day,,1.68,1.71,1.66,1.675,609932,,,Verified
SPO.AX,28-JUN-2014,,End Of Day,No Trades,,,,,,,,Verified
SPO.AX,29-JUN-2014,,End Of Day,No Trades,,,,,,,,Verified
SPO.AX,30-JUN-2014,,End Of Day,,1.71,1.71,1.64,1.65,1375790,,,Verified
SPO.AX,01-JUL-2014,,End Of Day,,1.7,1.7,1.645,1.655,876047,,,Verified
SPO.AX,02-JUL-2014,,End Of Day,,1.65,1.68,1.64,1.66,1587763,,,Verified
SPO.AX,03-JUL-2014,,End Of Day,,1.66,1.7,1.66,1.69,449606,,,Verified
SPO.AX,04-JUL-2014,,End Of Day,,1.7,1.79,1.7,1.74,1253864,,,Verified
SPO.AX,05-JUL-2014,,End Of Day,No Trades,,,,,,,,Verified
SPO.AX,06-JUL-2014,,End Of Day,No Trades,,,,,,,,Verified
SPO.AX,07-JUL-2014,,End Of Day,,1.74,1.782,1.74,1.76,1492848,,,Verified
SPO.AX,08-JUL-2014,,End Of Day,,1.765,1.78,1.73,1.76,861194,,,Verified
SPO.AX,09-JUL-2014,,End Of Day,,1.76,1.76,1.715,1.73,1627342,,,Verified
SPO.AX,10-JUL-2014,,End Of Day,,1.75,1.775,1.73,1.74,905548,,,Verified
SPO.AX,11-JUL-2014,,End Of Day,,1.74,1.775,1.74,1.775,870626,,,Verified
SPO.AX,12-JUL-2014,,End Of Day,No Trades,,,,,,,,Verified
SPO.AX,13-JUL-2014,,End Of Day,No Trades,,,,,,,,Verified
SPO.AX,14-JUL-2014,,End Of Day,,1.775,1.82,1.765,1.8,1279680,,,Verified
SPO.AX,15-JUL-2014,,End Of Day,,1.8,1.81,1.785,1.8,8282822,,,Verified
SPO.AX,16-JUL-2014,,End Of Day,,1.8,1.81,1.8,1.805,621300,,,Verified
SPO.AX,17-JUL-2014,,End Of Day,,1.8,1.805,1.785,1.795,1554980,,,Verified
SPO.AX,18-JUL-2014,,End Of Day,,1.795,1.805,1.785,1.8,2069210,,,Verified
SPO.AX,19-JUL-2014,,End Of Day,No Trades,,,,,,,,Verified
SPO.AX,20-JUL-2014,,End Of Day,No Trades,,,,,,,,Verified
SPO.AX,21-JUL-2014,,End Of Day,,1.8,1.845,1.785,1.84,1105914,,,Verified
SPO.AX,22-JUL-2014,,End Of Day,,1.835,1.84,1.815,1.82,1349048,,,Verified
SPO.AX,23-JUL-2014,,End Of Day,,1.825,1.84,1.815,1.835,1721905,,,Verified
SPO.AX,24-JUL-2014,,End Of Day,,1.835,1.835,1.825,1.835,350100,,,Verified
SPO.AX,25-JUL-2014,,End Of Day,,1.83,1.835,1.825,1.835,2048463,,,Verified
SPO.AX,26-JUL-2014,,End Of Day,No Trades,,,,,,,,Verified
SPO.AX,27-JUL-2014,,End Of Day,No Trades,,,,,,,,Verified
SPO.AX,28-JUL-2014,,End Of Day,,1.835,1.84,1.82,1.835,3493266,,,Verified
SPO.AX,29-JUL-2014,,End Of Day,,1.83,1.84,1.827,1.835,1145988,,,Verified
SPO.AX,30-JUL-2014,,End Of Day,,1.83,1.865,1.83,1.845,1459528,,,Verified
SPO.AX,31-JUL-2014,,End Of Day,,1.85,1.86,1.845,1.85,1587780,,,Verified
SPO.AX,01-AUG-2014,,End Of Day,,1.84,1.85,1.83,1.845,1603181,,,Verified
SPO.AX,02-AUG-2014,,End Of Day,No Trades,,,,,,,,Verified
SPO.AX,03-AUG-2014,,End Of Day,No Trades,,,,,,,,Verified
SPO.AX,04-AUG-2014,,End Of Day,,1.84,1.855,1.825,1.845,1254270,,,Verified
SPO.AX,05-AUG-2014,,End Of Day,,1.86,1.885,1.85,1.865,1658864,,,Verified
SPO.AX,06-AUG-2014,,End Of Day,,1.87,1.91,1.835,1.85,1705574,,,Verified
SPO.AX,07-AUG-2014,,End Of Day,,1.88,1.905,1.865,1.905,2724245,,,Verified
SPO.AX,08-AUG-2014,,End Of Day,,1.89,1.92,1.865,1.895,2237559,,,Verified
SPO.AX,09-AUG-2014,,End Of Day,No Trades,,,,,,,,Verified
SPO.AX,10-AUG-2014,,End Of Day,No Trades,,,,,,,,Verified
SPO.AX,11-AUG-2014,,End Of Day,,1.93,1.935,1.895,1.9,2174050,,,Verified
SPO.AX,12-AUG-2014,,End Of Day,,1.915,1.915,1.895,1.905,759825,,,Verified
SPO.AX,13-AUG-2014,,End Of Day,,1.91,1.915,1.88,1.88,1188712,,,Verified
SPO.AX,14-AUG-2014,,End Of Day,,1.9,1.905,1.89,1.9,966396,,,Verified
SPO.AX,15-AUG-2014,,End Of Day,,1.895,1.9,1.88,1.89,20374761,,,Verified
SPO.AX,16-AUG-2014,,End Of Day,No Trades,,,,,,,,Verified
SPO.AX,17-AUG-2014,,End Of Day,No Trades,,,,,,,,Verified
SPO.AX,18-AUG-2014,,End Of Day,,1.89,1.895,1.872,1.895,837641,,,Verified
SPO.AX,19-AUG-2014,,End Of Day,,1.9,1.92,1.89,1.915,1796004,,,Verified
SPO.AX,20-AUG-2014,,End Of Day,,1.94,1.95,1.875,1.895,1428433,,,Verified
SPO.AX,21-AUG-2014,,End Of Day,,1.93,1.93,1.85,1.865,1470147,,,Verified
SPO.AX,22-AUG-2014,,End Of Day,,1.88,1.9,1.85,1.875,4775767,,,Verified
SPO.AX,23-AUG-2014,,End Of Day,No Trades,,,,,,,,Verified
SPO.AX,24-AUG-2014,,End Of Day,No Trades,,,,,,,,Verified
SPO.AX,25-AUG-2014,,End Of Day,,1.885,1.92,1.867,1.905,2322686,,,Verified
SPO.AX,26-AUG-2014,,End Of Day,,1.93,1.97,1.92,1.965,1851491,,,Verified
SPO.AX,27-AUG-2014,,End Of Day,,1.95,1.96,1.94,1.95,2250430,,,Verified
SPO.AX,28-AUG-2014,,End Of Day,,1.955,1.955,1.92,1.92,1516243,,,Verified
SPO.AX,29-AUG-2014,,End Of Day,,1.91,1.955,1.9,1.94,1574192,,,Verified
SPO.AX,30-AUG-2014,,End Of Day,No Trades,,,,,,,,Verified
SPO.AX,31-AUG-2014,,End Of Day,No Trades,,,,,,,,Verified
SPO.AX,01-SEP-2014,,End Of Day,,1.945,1.952,1.93,1.935,1437635,,,Verified
SPO.AX,02-SEP-2014,,End Of Day,,1.915,1.96,1.905,1.93,1550515,,,Verified
SPO.AX,03-SEP-2014,,End Of Day,,1.93,1.93,1.89,1.895,969598,,,Verified
SPO.AX,04-SEP-2014,,End Of Day,,1.9,1.91,1.885,1.895,1063716,,,Verified
SPO.AX,05-SEP-2014,,End Of Day,,1.85,1.87,1.795,1.85,2241665,,,Verified
SPO.AX,06-SEP-2014,,End Of Day,No Trades,,,,,,,,Verified
SPO.AX,07-SEP-2014,,End Of Day,No Trades,,,,,,,,Verified
SPO.AX,08-SEP-2014,,End Of Day,,1.865,1.87,1.835,1.86,1104540,,,Verified
SPO.AX,09-SEP-2014,,End Of Day,,1.885,1.885,1.84,1.85,1680055,,,Verified
SPO.AX,10-SEP-2014,,End Of Day,,1.84,1.86,1.83,1.835,934435,,,Verified
SPO.AX,11-SEP-2014,,End Of Day,,1.84,1.842,1.805,1.82,1023117,,,Verified
SPO.AX,12-SEP-2014,,End Of Day,,1.81,1.84,1.8,1.84,851530,,,Verified
SPO.AX,13-SEP-2014,,End Of Day,No Trades,,,,,,,,Verified
SPO.AX,14-SEP-2014,,End Of Day,No Trades,,,,,,,,Verified
SPO.AX,15-SEP-2014,,End Of Day,,1.82,1.83,1.805,1.815,919334,,,Verified
SPO.AX,16-SEP-2014,,End Of Day,,1.81,1.82,1.8,1.805,577143,,,Verified
SPO.AX,17-SEP-2014,,End Of Day,,1.78,1.83,1.78,1.815,502348,,,Verified
SPO.AX,18-SEP-2014,,End Of Day,,1.8,1.86,1.8,1.825,1385431,,,Verified
SPO.AX,19-SEP-2014,,End Of Day,,1.835,1.877,1.785,1.835,730581,,,Verified
SPO.AX,20-SEP-2014,,End Of Day,No Trades,,,,,,,,Verified
SPO.AX,21-SEP-2014,,End Of Day,No Trades,,,,,,,,Verified
SPO.AX,22-SEP-2014,,End Of Day,,1.825,1.825,1.8,1.82,1093687,,,Verified
SPO.AX,23-SEP-2014,,End Of Day,,1.83,1.83,1.8,1.82,1184583,,,Verified
SPO.AX,24-SEP-2014,,End Of Day,,1.8,1.815,1.797,1.8,843040,,,Verified
SPO.AX,25-SEP-2014,,End Of Day,,1.805,1.805,1.77,1.8,915235,,,Verified
SPO.AX,26-SEP-2014,,End Of Day,,1.77,1.8,1.745,1.78,1843743,,,Verified
SPO.AX,27-SEP-2014,,End Of Day,No Trades,,,,,,,,Verified
SPO.AX,28-SEP-2014,,End Of Day,No Trades,,,,,,,,Verified
SPO.AX,29-SEP-2014,,End Of Day,,1.74,1.795,1.74,1.78,1035710,,,Verified
SPO.AX,30-SEP-2014,,End Of Day,,1.78,1.81,1.78,1.81,1548727,,,Verified
SPO.AX,01-OCT-2014,,End Of Day,,1.81,1.81,1.785,1.805,1302160,,,Verified
SPO.AX,02-OCT-2014,,End Of Day,,1.765,1.795,1.765,1.78,1638573,,,Verified
SPO.AX,03-OCT-2014,,End Of Day,,1.81,1.845,1.79,1.84,1596782,,,Verified
SPO.AX,04-OCT-2014,,End Of Day,No Trades,,,,,,,,Verified
SPO.AX,05-OCT-2014,,End Of Day,No Trades,,,,,,,,Verified
SPO.AX,06-OCT-2014,,End Of Day,,1.84,1.85,1.815,1.83,380710,,,Verified
SPO.AX,07-OCT-2014,,End Of Day,,1.83,1.83,1.75,1.81,2114139,,,Verified
SPO.AX,08-OCT-2014,,End Of Day,,1.77,1.81,1.77,1.8,734209,,,Verified
SPO.AX,09-OCT-2014,,End Of Day,,1.8,1.84,1.8,1.81,1253296,,,Verified
SPO.AX,10-OCT-2014,,End Of Day,,1.76,1.815,1.76,1.8,1647525,,,Verified
SPO.AX,11-OCT-2014,,End Of Day,No Trades,,,,,,,,Verified
SPO.AX,12-OCT-2014,,End Of Day,No Trades,,,,,,,,Verified
SPO.AX,13-OCT-2014,,End Of Day,,1.78,1.79,1.75,1.765,1372587,,,Verified
SPO.AX,14-OCT-2014,,End Of Day,,1.75,1.76,1.73,1.74,3719041,,,Verified
SPO.AX,15-OCT-2014,,End Of Day,,1.74,1.78,1.74,1.77,2248200,,,Verified
SPO.AX,16-OCT-2014,,End Of Day,,1.76,1.8,1.755,1.795,3169820,,,Verified
SPO.AX,17-OCT-2014,,End Of Day,,1.81,1.83,1.81,1.83,2533789,,,Verified
SPO.AX,18-OCT-2014,,End Of Day,No Trades,,,,,,,,Verified
SPO.AX,19-OCT-2014,,End Of Day,No Trades,,,,,,,,Verified
SPO.AX,20-OCT-2014,,End Of Day,,1.84,1.85,1.825,1.835,924350,,,Verified
SPO.AX,21-OCT-2014,,End Of Day,,1.84,1.875,1.825,1.865,1526587,,,Verified
SPO.AX,22-OCT-2014,,End Of Day,,1.88,1.89,1.855,1.875,1431310,,,Verified
SPO.AX,23-OCT-2014,,End Of Day,,1.87,1.895,1.86,1.875,1564912,,,Verified
SPO.AX,24-OCT-2014,,End Of Day,,1.875,1.9,1.84,1.885,1658634,,,Verified
SPO.AX,25-OCT-2014,,End Of Day,No Trades,,,,,,,,Verified
SPO.AX,26-OCT-2014,,End Of Day,No Trades,,,,,,,,Verified
SPO.AX,27-OCT-2014,,End Of Day,,1.88,1.895,1.85,1.88,968728,,,Verified
SPO.AX,28-OCT-2014,,End Of Day,,1.89,1.89,1.835,1.87,2092612,,,Verified
SPO.AX,29-OCT-2014,,End Of Day,,1.88,1.89,1.86,1.88,1566438,,,Verified
SPO.AX,30-OCT-2014,,End Of Day,,1.89,1.9,1.862,1.895,1122562,,,Verified
SPO.AX,31-OCT-2014,,End Of Day,,1.9,1.925,1.895,1.92,1482792,,,Verified
SPO.AX,01-NOV-2014,,End Of Day,No Trades,,,,,,,,Verified
SPO.AX,02-NOV-2014,,End Of Day,No Trades,,,,,,,,Verified
SPO.AX,03-NOV-2014,,End Of Day,,1.92,1.945,1.9,1.93,2647864,,,Verified
SPO.AX,04-NOV-2014,,End Of Day,,1.945,1.99,1.937,1.99,1031154,,,Verified
SPO.AX,05-NOV-2014,,End Of Day,,2.03,2.05,1.995,2,3190523,,,Verified
SPO.AX,06-NOV-2014,,End Of Day,,2.02,2.02,1.94,1.95,2460178,,,Verified
SPO.AX,07-NOV-2014,,End Of Day,,1.97,2.02,1.945,2.02,3526915,,,Verified
SPO.AX,08-NOV-2014,,End Of Day,No Trades,,,,,,,,Verified
SPO.AX,09-NOV-2014,,End Of Day,No Trades,,,,,,,,Verified
SPO.AX,10-NOV-2014,,End Of Day,,2,2,1.97,1.985,1308721,,,Verified
SPO.AX,11-NOV-2014,,End Of Day,,2.01,2.01,1.965,1.965,1294436,,,Verified
SPO.AX,12-NOV-2014,,End Of Day,,1.98,1.985,1.89,1.905,1722606,,,Verified
SPO.AX,13-NOV-2014,,End Of Day,,1.96,1.96,1.91,1.925,1539129,,,Verified
SPO.AX,14-NOV-2014,,End Of Day,,1.935,1.97,1.92,1.945,2240844,,,Verified
SPO.AX,15-NOV-2014,,End Of Day,No Trades,,,,,,,,Verified
SPO.AX,16-NOV-2014,,End Of Day,No Trades,,,,,,,,Verified
SPO.AX,17-NOV-2014,,End Of Day,,1.94,1.94,1.9,1.905,844588,,,Verified
SPO.AX,18-NOV-2014,,End Of Day,,1.915,1.93,1.905,1.925,1028192,,,Verified
SPO.AX,19-NOV-2014,,End Of Day,,1.93,1.97,1.922,1.965,1980280,,,Verified
SPO.AX,20-NOV-2014,,End Of Day,,1.92,1.95,1.91,1.94,1751204,,,Verified
SPO.AX,21-NOV-2014,,End Of Day,,1.93,1.975,1.895,1.92,1205750,,,Verified
SPO.AX,22-NOV-2014,,End Of Day,No Trades,,,,,,,,Verified
SPO.AX,23-NOV-2014,,End Of Day,No Trades,,,,,,,,Verified
SPO.AX,24-NOV-2014,,End Of Day,,1.95,1.965,1.935,1.955,2124558,,,Verified
SPO.AX,25-NOV-2014,,End Of Day,,1.945,1.98,1.92,1.94,15751248,,,Verified
SPO.AX,26-NOV-2014,,End Of Day,,1.93,1.97,1.93,1.95,1138897,,,Verified
SPO.AX,27-NOV-2014,,End Of Day,,1.95,1.955,1.935,1.94,620435,,,Verified
SPO.AX,28-NOV-2014,,End Of Day,,1.93,1.96,1.925,1.945,852781,,,Verified
SPO.AX,29-NOV-2014,,End Of Day,No Trades,,,,,,,,Verified
SPO.AX,30-NOV-2014,,End Of Day,No Trades,,,,,,,,Verified
SPO.AX,01-DEC-2014,,End Of Day,,1.915,1.92,1.89,1.895,3587106,,,Verified
SPO.AX,02-DEC-2014,,End Of Day,,1.89,1.92,1.865,1.905,3949494,,,Verified
SPO.AX,03-DEC-2014,,End Of Day,,1.92,1.945,1.92,1.945,2925246,,,Verified
SPO.AX,04-DEC-2014,,End Of Day,,1.93,1.945,1.9,1.905,3773023,,,Verified
SPO.AX,05-DEC-2014,,End Of Day,,1.905,1.915,1.895,1.91,2685800,,,Verified
SPO.AX,06-DEC-2014,,End Of Day,No Trades,,,,,,,,Verified
SPO.AX,07-DEC-2014,,End Of Day,No Trades,,,,,,,,Verified
SPO.AX,08-DEC-2014,,End Of Day,,1.91,1.925,1.9,1.9,2014484,,,Verified
SPO.AX,09-DEC-2014,,End Of Day,,1.9,1.91,1.87,1.875,3835583,,,Verified
SPO.AX,10-DEC-2014,,End Of Day,,1.86,1.87,1.85,1.855,2369332,,,Verified
SPO.AX,11-DEC-2014,,End Of Day,,1.82,1.86,1.82,1.85,4494890,,,Verified
SPO.AX,12-DEC-2014,,End Of Day,,1.86,1.895,1.86,1.895,3715577,,,Verified
SPO.AX,13-DEC-2014,,End Of Day,No Trades,,,,,,,,Verified
SPO.AX,14-DEC-2014,,End Of Day,No Trades,,,,,,,,Verified
SPO.AX,15-DEC-2014,,End Of Day,,1.895,1.915,1.882,1.9,3098800,,,Verified
SPO.AX,16-DEC-2014,,End Of Day,,1.89,1.91,1.87,1.9,1730582,,,Verified
SPO.AX,17-DEC-2014,,End Of Day,,1.9,1.91,1.87,1.895,1260520,,,Verified
SPO.AX,18-DEC-2014,,End Of Day,,1.88,1.935,1.88,1.9,2693511,,,Verified
SPO.AX,19-DEC-2014,,End Of Day,,1.92,1.955,1.915,1.94,12201823,,,Verified
SPO.AX,20-DEC-2014,,End Of Day,No Trades,,,,,,,,Verified
SPO.AX,21-DEC-2014,,End Of Day,No Trades,,,,,,,,Verified
SPO.AX,22-DEC-2014,,End Of Day,,1.96,1.975,1.95,1.95,1872162,,,Verified
SPO.AX,23-DEC-2014,,End Of Day,,1.965,1.965,1.935,1.94,806553,,,Verified
SPO.AX,24-DEC-2014,,End Of Day,,1.95,1.95,1.94,1.945,264997,,,Verified
SPO.AX,25-DEC-2014,,End Of Day,No Trades,,,,,,,,Verified
SPO.AX,26-DEC-2014,,End Of Day,No Trades,,,,,,,,Verified
SPO.AX,27-DEC-2014,,End Of Day,No Trades,,,,,,,,Verified
SPO.AX,28-DEC-2014,,End Of Day,No Trades,,,,,,,,Verified
SPO.AX,29-DEC-2014,,End Of Day,,1.945,1.985,1.935,1.96,1016502,,,Verified
SPO.AX,30-DEC-2014,,End Of Day,,1.965,1.965,1.94,1.94,699191,,,Verified
SPO.AX,31-DEC-2014,,End Of Day,,1.95,1.95,1.9,1.91,966491,,,Verified
SPO.AX,01-JAN-2015,,End Of Day,No Trades,,,,,,,,Verified
SPO.AX,02-JAN-2015,,End Of Day,,1.95,1.955,1.905,1.94,497346,,,Verified
SPO.AX,03-JAN-2015,,End Of Day,No Trades,,,,,,,,Verified
SPO.AX,04-JAN-2015,,End Of Day,No Trades,,,,,,,,Verified
SPO.AX,05-JAN-2015,,End Of Day,,1.93,1.97,1.91,1.95,1050123,,,Verified
SPO.AX,06-JAN-2015,,End Of Day,,1.91,1.94,1.902,1.915,1238462,,,Verified
SPO.AX,07-JAN-2015,,End Of Day,,1.91,1.95,1.895,1.935,1105562,,,Verified
SPO.AX,08-JAN-2015,,End Of Day,,1.945,1.96,1.93,1.96,2693114,,,Verified
SPO.AX,09-JAN-2015,,End Of Day,,1.965,1.985,1.935,1.96,2238213,,,Verified
SPO.AX,10-JAN-2015,,End Of Day,No Trades,,,,,,,,Verified
SPO.AX,11-JAN-2015,,End Of Day,No Trades,,,,,,,,Verified
SPO.AX,12-JAN-2015,,End Of Day,,1.945,1.955,1.93,1.94,1010596,,,Verified
SPO.AX,13-JAN-2015,,End Of Day,,1.91,1.935,1.905,1.91,767772,,,Verified
SPO.AX,14-JAN-2015,,End Of Day,,1.91,1.92,1.86,1.87,1367723,,,Verified
SPO.AX,15-JAN-2015,,End Of Day,,1.87,1.89,1.845,1.87,3168457,,,Verified
SPO.AX,16-JAN-2015,,End Of Day,,1.835,1.865,1.83,1.85,1158644,,,Verified
SPO.AX,17-JAN-2015,,End Of Day,No Trades,,,,,,,,Verified
SPO.AX,18-JAN-2015,,End Of Day,No Trades,,,,,,,,Verified
SPO.AX,19-JAN-2015,,End Of Day,,1.845,1.875,1.84,1.85,744778,,,Verified
SPO.AX,20-JAN-2015,,End Of Day,,1.845,1.86,1.835,1.84,1201445,,,Verified
SPO.AX,21-JAN-2015,,End Of Day,,1.85,1.895,1.84,1.89,1053796,,,Verified
SPO.AX,22-JAN-2015,,End Of Day,,1.93,1.93,1.85,1.85,2215468,,,Verified
SPO.AX,23-JAN-2015,,End Of Day,,1.865,1.885,1.85,1.87,862588,,,Verified
SPO.AX,24-JAN-2015,,End Of Day,No Trades,,,,,,,,Verified
SPO.AX,25-JAN-2015,,End Of Day,No Trades,,,,,,,,Verified
SPO.AX,26-JAN-2015,,End Of Day,No Trades,,,,,,,,Verified
SPO.AX,27-JAN-2015,,End Of Day,,1.875,1.9,1.865,1.88,1477559,,,Verified
SPO.AX,28-JAN-2015,,End Of Day,,1.865,1.88,1.84,1.87,1321762,,,Verified
SPO.AX,29-JAN-2015,,End Of Day,,1.865,1.882,1.86,1.88,1282532,,,Verified
SPO.AX,30-JAN-2015,,End Of Day,,1.88,1.882,1.855,1.865,1682979,,,Verified
SPO.AX,31-JAN-2015,,End Of Day,No Trades,,,,,,,,Verified
SPO.AX,01-FEB-2015,,End Of Day,No Trades,,,,,,,,Verified
SPO.AX,02-FEB-2015,,End Of Day,,1.86,1.915,1.86,1.89,1638436,,,Verified
SPO.AX,03-FEB-2015,,End Of Day,,1.94,1.98,1.935,1.95,4149275,,,Verified
SPO.AX,04-FEB-2015,,End Of Day,,2,2.03,1.98,1.99,2429262,,,Verified
SPO.AX,05-FEB-2015,,End Of Day,,1.99,2,1.965,1.975,1926132,,,Verified
SPO.AX,06-FEB-2015,,End Of Day,,1.99,2.02,1.98,2,1532986,,,Verified
SPO.AX,07-FEB-2015,,End Of Day,No Trades,,,,,,,,Verified
SPO.AX,08-FEB-2015,,End Of Day,No Trades,,,,,,,,Verified
SPO.AX,09-FEB-2015,,End Of Day,,2,2.01,1.975,1.995,1141934,,,Verified
SPO.AX,10-FEB-2015,,End Of Day,,1.995,2,1.97,1.98,1608764,,,Verified
SPO.AX,11-FEB-2015,,End Of Day,,1.98,1.985,1.96,1.975,1337587,,,Verified
SPO.AX,12-FEB-2015,,End Of Day,,1.98,1.99,1.965,1.97,2232670,,,Verified
SPO.AX,13-FEB-2015,,End Of Day,,2,2,1.975,1.98,1155533,,,Verified
SPO.AX,14-FEB-2015,,End Of Day,No Trades,,,,,,,,Verified
SPO.AX,15-FEB-2015,,End Of Day,No Trades,,,,,,,,Verified
SPO.AX,16-FEB-2015,,End Of Day,,1.98,2,1.97,1.99,1243073,,,Verified
SPO.AX,17-FEB-2015,,End Of Day,,1.985,2,1.985,1.995,465382,,,Verified
SPO.AX,18-FEB-2015,,End Of Day,,2.01,2.03,1.98,2,3375144,,,Verified
SPO.AX,19-FEB-2015,,End Of Day,,2.02,2.03,1.99,2.02,2026671,,,Verified
SPO.AX,20-FEB-2015,,End Of Day,,2.05,2.07,2.02,2.05,2303035,,,Verified
SPO.AX,21-FEB-2015,,End Of Day,No Trades,,,,,,,,Verified
SPO.AX,22-FEB-2015,,End Of Day,No Trades,,,,,,,,Verified
SPO.AX,23-FEB-2015,,End Of Day,,2.06,2.07,2.03,2.05,629171,,,Verified
SPO.AX,24-FEB-2015,,End Of Day,,2.04,2.055,1.947,2.02,3709020,,,Verified
SPO.AX,25-FEB-2015,,End Of Day,,2.01,2.01,1.99,2,2661446,,,Verified
SPO.AX,26-FEB-2015,,End Of Day,,1.995,2.01,1.98,2.01,1768722,,,Verified
SPO.AX,27-FEB-2015,,End Of Day,,2.05,2.15,2.05,2.09,5638966,,,Verified
SPO.AX,28-FEB-2015,,End Of Day,No Trades,,,,,,,,Verified
SPO.AX,01-MAR-2015,,End Of Day,No Trades,,,,,,,,Verified
SPO.AX,02-MAR-2015,,End Of Day,,2.09,2.13,2.08,2.09,3413277,,,Verified
SPO.AX,03-MAR-2015,,End Of Day,,2.09,2.12,2.05,2.08,2374787,,,Verified
SPO.AX,04-MAR-2015,,End Of Day,,2.08,2.1,2.07,2.08,5026103,,,Verified
SPO.AX,05-MAR-2015,,End Of Day,,2.08,2.105,2.07,2.08,3768869,,,Verified
SPO.AX,06-MAR-2015,,End Of Day,,2.09,2.11,2.06,2.08,4971495,,,Verified
SPO.AX,07-MAR-2015,,End Of Day,No Trades,,,,,,,,Verified
SPO.AX,08-MAR-2015,,End Of Day,No Trades,,,,,,,,Verified
SPO.AX,09-MAR-2015,,End Of Day,,2.07,2.08,2.04,2.04,1041686,,,Verified
SPO.AX,10-MAR-2015,,End Of Day,,2.05,2.09,2.05,2.08,4016124,,,Verified
SPO.AX,11-MAR-2015,,End Of Day,,2.07,2.12,2.07,2.1,2655635,,,Verified
SPO.AX,12-MAR-2015,,End Of Day,,2.11,2.15,2.09,2.12,2188958,,,Verified
SPO.AX,13-MAR-2015,,End Of Day,,2.08,2.19,2.05,2.15,6778120,,,Verified
SPO.AX,14-MAR-2015,,End Of Day,No Trades,,,,,,,,Verified
SPO.AX,15-MAR-2015,,End Of Day,No Trades,,,,,,,,Verified
SPO.AX,16-MAR-2015,,End Of Day,,2.15,2.21,2.13,2.18,4187147,,,Verified
SPO.AX,17-MAR-2015,,End Of Day,,2.21,2.27,2.17,2.19,4201394,,,Verified
SPO.AX,18-MAR-2015,,End Of Day,,2.19,2.21,2.18,2.2,6866253,,,Verified
SPO.AX,19-MAR-2015,,End Of Day,,2.19,2.26,2.18,2.24,4432948,,,Verified
SPO.AX,20-MAR-2015,,End Of Day,,2.23,2.29,2.2,2.26,6785455,,,Verified
SPO.AX,21-MAR-2015,,End Of Day,No Trades,,,,,,,,Verified
SPO.AX,22-MAR-2015,,End Of Day,No Trades,,,,,,,,Verified
SPO.AX,23-MAR-2015,,End Of Day,,2.25,2.26,2.195,2.2,3822679,,,Verified
SPO.AX,24-MAR-2015,,End Of Day,,2.26,2.39,2.25,2.36,5085768,,,Verified
SPO.AX,25-MAR-2015,,End Of Day,,2.39,2.39,2.31,2.35,2182676,,,Verified
SPO.AX,26-MAR-2015,,End Of Day,,2.33,2.34,2.28,2.3,2170397,,,Verified
SPO.AX,27-MAR-2015,,End Of Day,,2.28,2.35,2.25,2.33,2264546,,,Verified
SPO.AX,28-MAR-2015,,End Of Day,No Trades,,,,,,,,Verified
SPO.AX,29-MAR-2015,,End Of Day,No Trades,,,,,,,,Verified
SPO.AX,30-MAR-2015,,End Of Day,,2.29,2.31,2.25,2.28,2555910,,,Verified
SPO.AX,31-MAR-2015,,End Of Day,,2.3,2.32,2.26,2.27,4897392,,,Verified
SPO.AX,01-APR-2015,,End Of Day,,2.29,2.29,2.25,2.27,3099512,,,Verified
SPO.AX,02-APR-2015,,End Of Day,,2.27,2.29,2.26,2.27,3248976,,,Verified
SPO.AX,03-APR-2015,,End Of Day,No Trades,,,,,,,,Verified
SPO.AX,04-APR-2015,,End Of Day,No Trades,,,,,,,,Verified
SPO.AX,05-APR-2015,,End Of Day,No Trades,,,,,,,,Verified
SPO.AX,06-APR-2015,,End Of Day,No Trades,,,,,,,,Verified
SPO.AX,07-APR-2015,,End Of Day,,2.32,2.39,2.32,2.36,3449538,,,Verified
SPO.AX,08-APR-2015,,End Of Day,,2.35,2.36,2.32,2.35,2074258,,,Verified
SPO.AX,09-APR-2015,,End Of Day,,2.35,2.39,2.33,2.39,3144924,,,Verified
SPO.AX,10-APR-2015,,End Of Day,,2.38,2.39,2.36,2.39,3381760,,,Verified
SPO.AX,11-APR-2015,,End Of Day,No Trades,,,,,,,,Verified
SPO.AX,12-APR-2015,,End Of Day,No Trades,,,,,,,,Verified
SPO.AX,13-APR-2015,,End Of Day,,2.39,2.445,2.38,2.41,3056324,,,Verified
SPO.AX,14-APR-2015,,End Of Day,,2.41,2.47,2.4,2.46,3493387,,,Verified
SPO.AX,15-APR-2015,,End Of Day,,2.47,2.515,2.45,2.47,6446500,,,Verified
SPO.AX,16-APR-2015,,End Of Day,,2.49,2.49,2.42,2.46,3531261,,,Verified
SPO.AX,17-APR-2015,,End Of Day,,2.46,2.505,2.44,2.47,2933825,,,Verified
SPO.AX,18-APR-2015,,End Of Day,No Trades,,,,,,,,Verified
SPO.AX,19-APR-2015,,End Of Day,No Trades,,,,,,,,Verified
SPO.AX,20-APR-2015,,End Of Day,,2.44,2.46,2.42,2.43,2595869,,,Verified
SPO.AX,21-APR-2015,,End Of Day,,2.43,2.43,2.39,2.42,2290139,,,Verified
SPO.AX,22-APR-2015,,End Of Day,,2.43,2.46,2.4,2.43,1413055,,,Verified
SPO.AX,23-APR-2015,,End Of Day,,2.41,2.43,2.24,2.28,9052403,,,Verified
SPO.AX,24-APR-2015,,End Of Day,,2.23,2.25,2.21,2.22,10727226,,,Verified
SPO.AX,25-APR-2015,,End Of Day,No Trades,,,,,,,,Verified
SPO.AX,26-APR-2015,,End Of Day,No Trades,,,,,,,,Verified
SPO.AX,27-APR-2015,,End Of Day,,2.25,2.295,2.24,2.28,3809517,,,Verified
SPO.AX,28-APR-2015,,End Of Day,,2.29,2.33,2.27,2.27,4498425,,,Verified
SPO.AX,29-APR-2015,,End Of Day,,2.28,2.31,2.25,2.26,3726511,,,Verified
SPO.AX,30-APR-2015,,End Of Day,,2.26,2.3,2.25,2.28,4195855,,,Verified
SPO.AX,01-MAY-2015,,End Of Day,,2.29,2.29,2.25,2.27,2663745,,,Verified
SPO.AX,02-MAY-2015,,End Of Day,No Trades,,,,,,,,Verified
SPO.AX,03-MAY-2015,,End Of Day,No Trades,,,,,,,,Verified
SPO.AX,04-MAY-2015,,End Of Day,,2.26,2.3,2.25,2.27,1501239,,,Verified
SPO.AX,05-MAY-2015,,End Of Day,,2.29,2.35,2.27,2.29,3434645,,,Verified
SPO.AX,06-MAY-2015,,End Of Day,,2.26,2.28,2.24,2.25,2711662,,,Verified
SPO.AX,07-MAY-2015,,End Of Day,,2.21,2.24,2.195,2.2,1842334,,,Verified
SPO.AX,08-MAY-2015,,End Of Day,,2.17,2.25,2.15,2.23,1947400,,,Verified
SPO.AX,09-MAY-2015,,End Of Day,No Trades,,,,,,,,Verified
SPO.AX,10-MAY-2015,,End Of Day,No Trades,,,,,,,,Verified
SPO.AX,11-MAY-2015,,End Of Day,,2.23,2.25,2.21,2.24,1783831,,,Verified
SPO.AX,12-MAY-2015,,End Of Day,,2.23,2.27,2.15,2.26,2770156,,,Verified
SPO.AX,13-MAY-2015,,End Of Day,,2.26,2.32,2.23,2.27,3935116,,,Verified
SPO.AX,14-MAY-2015,,End Of Day,,2.26,2.31,2.25,2.3,3422166,,,Verified
SPO.AX,15-MAY-2015,,End Of Day,,2.32,2.33,2.29,2.3,2253949,,,Verified
SPO.AX,16-MAY-2015,,End Of Day,No Trades,,,,,,,,Verified
SPO.AX,17-MAY-2015,,End Of Day,No Trades,,,,,,,,Verified
SPO.AX,18-MAY-2015,,End Of Day,,2.3,2.39,2.29,2.32,2204317,,,Verified
SPO.AX,19-MAY-2015,,End Of Day,,2.32,2.33,2.27,2.31,3745028,,,Verified
SPO.AX,20-MAY-2015,,End Of Day,,2.32,2.34,2.3,2.32,4342007,,,Verified
SPO.AX,21-MAY-2015,,End Of Day,,2.3,2.32,2.29,2.31,2282413,,,Verified
SPO.AX,22-MAY-2015,,End Of Day,,2.33,2.335,2.28,2.31,1090174,,,Verified
SPO.AX,23-MAY-2015,,End Of Day,No Trades,,,,,,,,Verified
SPO.AX,24-MAY-2015,,End Of Day,No Trades,,,,,,,,Verified
SPO.AX,25-MAY-2015,,End Of Day,,2.3,2.32,2.29,2.3,1434599,,,Verified
SPO.AX,26-MAY-2015,,End Of Day,,2.29,2.29,2.27,2.28,1804542,,,Verified
SPO.AX,27-MAY-2015,,End Of Day,,2.28,2.295,2.25,2.27,3226526,,,Verified
SPO.AX,28-MAY-2015,,End Of Day,,2.29,2.29,2.25,2.26,1867428,,,Verified
SPO.AX,29-MAY-2015,,End Of Day,,2.26,2.28,2.24,2.25,7456300,,,Verified
SPO.AX,30-MAY-2015,,End Of Day,No Trades,,,,,,,,Verified
SPO.AX,31-MAY-2015,,End Of Day,No Trades,,,,,,,,Verified
SPO.AX,01-JUN-2015,,End Of Day,,2.23,2.25,2.12,2.15,5282849,,,Verified
SPO.AX,02-JUN-2015,,End Of Day,,2.17,2.18,2.11,2.12,3840211,,,Verified
SPO.AX,03-JUN-2015,,End Of Day,,2.14,2.15,2.06,2.11,11169629,,,Verified
SPO.AX,04-JUN-2015,,End Of Day,,2.13,2.16,2.12,2.12,3691076,,,Verified
SPO.AX,05-JUN-2015,,End Of Day,,2.12,2.16,2.12,2.15,6165969,,,Verified
SPO.AX,06-JUN-2015,,End Of Day,No Trades,,,,,,,,Verified
SPO.AX,07-JUN-2015,,End Of Day,No Trades,,,,,,,,Verified
SPO.AX,08-JUN-2015,,End Of Day,No Trades,,,,,,,,Verified
SPO.AX,09-JUN-2015,,End Of Day,,2.14,2.21,2.14,2.19,3541153,,,Verified
SPO.AX,10-JUN-2015,,End Of Day,,2.17,2.18,2.15,2.17,5916453,,,Verified
SPO.AX,11-JUN-2015,,End Of Day,,2.18,2.21,2.16,2.21,4093868,,,Verified
SPO.AX,12-JUN-2015,,End Of Day,,2.2,2.205,2.18,2.2,2795459,,,Verified
SPO.AX,13-JUN-2015,,End Of Day,No Trades,,,,,,,,Verified
SPO.AX,14-JUN-2015,,End Of Day,No Trades,,,,,,,,Verified
SPO.AX,15-JUN-2015,,End Of Day,,2.18,2.18,2.1,2.12,4328408,,,Verified
SPO.AX,16-JUN-2015,,End Of Day,,2.2,2.22,2.18,2.2,3976274,,,Verified
SPO.AX,17-JUN-2015,,End Of Day,,2.2,2.21,2.14,2.15,1821702,,,Verified
SPO.AX,18-JUN-2015,,End Of Day,,2.12,2.15,2.12,2.14,4167174,,,Verified
SPO.AX,19-JUN-2015,,End Of Day,,2.16,2.215,2.16,2.2,7611768,,,Verified
SPO.AX,20-JUN-2015,,End Of Day,No Trades,,,,,,,,Verified
SPO.AX,21-JUN-2015,,End Of Day,No Trades,,,,,,,,Verified
SPO.AX,22-JUN-2015,,End Of Day,,2.2,2.2,2.15,2.18,6574511,,,Verified
SPO.AX,23-JUN-2015,,End Of Day,,2.18,2.2,2.16,2.18,1973975,,,Verified
SPO.AX,24-JUN-2015,,End Of Day,,2.2,2.2,2.17,2.19,2072533,,,Verified
SPO.AX,25-JUN-2015,,End Of Day,,2.19,2.19,2.16,2.17,3006570,,,Verified
SPO.AX,26-JUN-2015,,End Of Day,,2.15,2.16,2.095,2.14,3328762,,,Verified
SPO.AX,27-JUN-2015,,End Of Day,No Trades,,,,,,,,Verified
SPO.AX,28-JUN-2015,,End Of Day,No Trades,,,,,,,,Verified
SPO.AX,29-JUN-2015,,End Of Day,,2.07,2.1,2.06,2.06,2926727,,,Verified
SPO.AX,30-JUN-2015,,End Of Day,,2.05,2.11,2.05,2.09,2283736,,,Verified
SPO.AX,01-JUL-2015,,End Of Day,,2.1,2.15,2.09,2.12,1932981,,,Verified
SPO.AX,02-JUL-2015,,End Of Day,,2.14,2.19,2.13,2.17,1940434,,,Verified
SPO.AX,03-JUL-2015,,End Of Day,,2.14,2.15,2.13,2.14,1089011,,,Verified
SPO.AX,04-JUL-2015,,End Of Day,No Trades,,,,,,,,Verified
SPO.AX,05-JUL-2015,,End Of Day,No Trades,,,,,,,,Verified
SPO.AX,06-JUL-2015,,End Of Day,,2.09,2.1,2.06,2.07,2199772,,,Verified
SPO.AX,07-JUL-2015,,End Of Day,,2.12,2.18,2.12,2.14,3150953,,,Verified
SPO.AX,08-JUL-2015,,End Of Day,,2.1,2.17,2.1,2.13,2803222,,,Verified
SPO.AX,09-JUL-2015,,End Of Day,,2.11,2.13,2.06,2.08,2253002,,,Verified
SPO.AX,10-JUL-2015,,End Of Day,,2.11,2.12,2.06,2.07,2619782,,,Verified
SPO.AX,11-JUL-2015,,End Of Day,No Trades,,,,,,,,Verified
SPO.AX,12-JUL-2015,,End Of Day,No Trades,,,,,,,,Verified
SPO.AX,13-JUL-2015,,End Of Day,,2.06,2.07,2.04,2.04,1689221,,,Verified
SPO.AX,14-JUL-2015,,End Of Day,,2.04,2.09,2.04,2.05,4550883,,,Verified
SPO.AX,15-JUL-2015,,End Of Day,,2.06,2.115,2.055,2.08,1690273,,,Verified
SPO.AX,16-JUL-2015,,End Of Day,,2.11,2.13,2.07,2.09,1364132,,,Verified
SPO.AX,17-JUL-2015,,End Of Day,,2.11,2.15,2.09,2.09,3585900,,,Verified
SPO.AX,18-JUL-2015,,End Of Day,No Trades,,,,,,,,Verified
SPO.AX,19-JUL-2015,,End Of Day,No Trades,,,,,,,,Verified
SPO.AX,20-JUL-2015,,End Of Day,,2.1,2.115,2.09,2.09,1096726,,,Verified
SPO.AX,21-JUL-2015,,End Of Day,,2.1,2.11,2.07,2.09,1981155,,,Verified
SPO.AX,22-JUL-2015,,End Of Day,,2.1,2.125,2.09,2.09,1356665,,,Verified
SPO.AX,23-JUL-2015,,End Of Day,,2.1,2.12,2.08,2.09,3258179,,,Verified
SPO.AX,24-JUL-2015,,End Of Day,,2.05,2.08,2.04,2.04,1427264,,,Verified
SPO.AX,25-JUL-2015,,End Of Day,No Trades,,,,,,,,Verified
SPO.AX,26-JUL-2015,,End Of Day,No Trades,,,,,,,,Verified
SPO.AX,27-JUL-2015,,End Of Day,,2.01,2.04,1.985,2,5457199,,,Verified
SPO.AX,28-JUL-2015,,End Of Day,,1.98,1.99,1.93,1.97,4799346,,,Verified
SPO.AX,29-JUL-2015,,End Of Day,,1.99,1.99,1.952,1.965,3605505,,,Verified
SPO.AX,30-JUL-2015,,End Of Day,,1.975,1.98,1.957,1.965,3192498,,,Verified
SPO.AX,31-JUL-2015,,End Of Day,,1.97,1.995,1.945,1.955,3277615,,,Verified
SPO.AX,01-AUG-2015,,End Of Day,No Trades,,,,,,,,Verified
SPO.AX,02-AUG-2015,,End Of Day,No Trades,,,,,,,,Verified
SPO.AX,03-AUG-2015,,End Of Day,,1.97,2.02,1.965,1.985,3959350,,,Verified
SPO.AX,04-AUG-2015,,End Of Day,,1.995,2.015,1.965,1.99,2399146,,,Verified
SPO.AX,05-AUG-2015,,End Of Day,,1.97,1.985,1.945,1.965,2628174,,,Verified
SPO.AX,06-AUG-2015,,End Of Day,,1.945,1.962,1.915,1.915,1834381,,,Verified
SPO.AX,07-AUG-2015,,End Of Day,,1.895,1.895,1.875,1.88,2193357,,,Verified
SPO.AX,08-AUG-2015,,End Of Day,No Trades,,,,,,,,Verified
SPO.AX,09-AUG-2015,,End Of Day,No Trades,,,,,,,,Verified
SPO.AX,10-AUG-2015,,End Of Day,,1.875,1.89,1.862,1.875,1492536,,,Verified
SPO.AX,11-AUG-2015,,End Of Day,,1.885,1.895,1.855,1.87,1618971,,,Verified
SPO.AX,12-AUG-2015,,End Of Day,,1.865,1.885,1.835,1.835,1850694,,,Verified
SPO.AX,13-AUG-2015,,End Of Day,,1.865,1.872,1.832,1.835,1934145,,,Verified
SPO.AX,14-AUG-2015,,End Of Day,,1.83,1.83,1.79,1.8,5617383,,,Verified
SPO.AX,15-AUG-2015,,End Of Day,No Trades,,,,,,,,Verified
SPO.AX,16-AUG-2015,,End Of Day,No Trades,,,,,,,,Verified
SPO.AX,17-AUG-2015,,End Of Day,,1.8,1.872,1.8,1.815,3048802,,,Verified
SPO.AX,18-AUG-2015,,End Of Day,,1.8,1.84,1.785,1.8,1822136,,,Verified
SPO.AX,19-AUG-2015,,End Of Day,,1.81,1.84,1.8,1.83,2815531,,,Verified
SPO.AX,20-AUG-2015,,End Of Day,,1.805,1.822,1.787,1.81,2206182,,,Verified
SPO.AX,21-AUG-2015,,End Of Day,,1.785,1.815,1.78,1.81,2937519,,,Verified
SPO.AX,22-AUG-2015,,End Of Day,No Trades,,,,,,,,Verified
SPO.AX,23-AUG-2015,,End Of Day,No Trades,,,,,,,,Verified
SPO.AX,24-AUG-2015,,End Of Day,,1.77,1.8,1.74,1.745,5270268,,,Verified
SPO.AX,25-AUG-2015,,End Of Day,,1.8,2.02,1.8,1.85,16037793,,,Verified
SPO.AX,26-AUG-2015,,End Of Day,,1.8,1.9,1.795,1.85,250740644,,,Verified
SPO.AX,27-AUG-2015,,End Of Day,,1.9,1.96,1.89,1.96,28914487,,,Verified
SPO.AX,28-AUG-2015,,End Of Day,,1.99,2.01,1.965,1.995,16915321,,,Verified
SPO.AX,29-AUG-2015,,End Of Day,No Trades,,,,,,,,Verified
SPO.AX,30-AUG-2015,,End Of Day,No Trades,,,,,,,,Verified
SPO.AX,31-AUG-2015,,End Of Day,,1.995,2.02,1.975,1.99,17124303,,,Verified
SPO.AX,01-SEP-2015,,End Of Day,,1.98,1.995,1.91,1.935,19980684,,,Verified
SPO.AX,02-SEP-2015,,End Of Day,,1.84,1.885,1.83,1.865,6809086,,,Verified
SPO.AX,03-SEP-2015,,End Of Day,,1.94,1.95,1.86,1.885,7477515,,,Verified
SPO.AX,04-SEP-2015,,End Of Day,,1.855,1.865,1.78,1.815,11556180,,,Verified
SPO.AX,05-SEP-2015,,End Of Day,No Trades,,,,,,,,Verified
SPO.AX,06-SEP-2015,,End Of Day,No Trades,,,,,,,,Verified
SPO.AX,07-SEP-2015,,End Of Day,,1.83,1.86,1.795,1.84,7420236,,,Verified
SPO.AX,08-SEP-2015,,End Of Day,,1.86,1.872,1.825,1.85,10562711,,,Verified
SPO.AX,09-SEP-2015,,End Of Day,,1.88,1.907,1.87,1.9,4381206,,,Verified
SPO.AX,10-SEP-2015,,End Of Day,,1.87,1.9,1.867,1.88,6725218,,,Verified
SPO.AX,11-SEP-2015,,End Of Day,,1.88,1.92,1.875,1.91,4505634,,,Verified
SPO.AX,12-SEP-2015,,End Of Day,No Trades,,,,,,,,Verified
SPO.AX,13-SEP-2015,,End Of Day,No Trades,,,,,,,,Verified
SPO.AX,14-SEP-2015,,End Of Day,,1.935,1.985,1.912,1.97,12888679,,,Verified
SPO.AX,15-SEP-2015,,End Of Day,,1.98,1.985,1.905,1.94,9034539,,,Verified
SPO.AX,16-SEP-2015,,End Of Day,,1.935,1.995,1.935,1.99,9419835,,,Verified
SPO.AX,17-SEP-2015,,End Of Day,,2.03,2.05,2.01,2.04,12754631,,,Verified
SPO.AX,18-SEP-2015,,End Of Day,,2.04,2.09,2.02,2.09,29183722,,,Verified
SPO.AX,19-SEP-2015,,End Of Day,No Trades,,,,,,,,Verified
SPO.AX,20-SEP-2015,,End Of Day,No Trades,,,,,,,,Verified
SPO.AX,21-SEP-2015,,End Of Day,,2.01,2.06,2.01,2.06,5392148,,,Verified
SPO.AX,22-SEP-2015,,End Of Day,,2.09,2.12,2.055,2.07,5881771,,,Verified
SPO.AX,23-SEP-2015,,End Of Day,,2.06,2.09,2.02,2.03,6608444,,,Verified
SPO.AX,24-SEP-2015,,End Of Day,,2.03,2.07,2.03,2.07,6782173,,,Verified
SPO.AX,25-SEP-2015,,End Of Day,,2.07,2.08,2.04,2.05,4603610,,,Verified
SPO.AX,26-SEP-2015,,End Of Day,No Trades,,,,,,,,Verified
SPO.AX,27-SEP-2015,,End Of Day,No Trades,,,,,,,,Verified
SPO.AX,28-SEP-2015,,End Of Day,,2.08,2.14,2.05,2.1,13063072,,,Verified
SPO.AX,29-SEP-2015,,End Of Day,,2.07,2.105,2.06,2.07,11625168,,,Verified
SPO.AX,30-SEP-2015,,End Of Day,,2.07,2.17,2.07,2.15,8591183,,,Verified
SPO.AX,01-OCT-2015,,End Of Day,,2.15,2.27,2.13,2.25,9937411,,,Verified
SPO.AX,02-OCT-2015,,End Of Day,,2.22,2.25,2.185,2.21,6417053,,,Verified
SPO.AX,03-OCT-2015,,End Of Day,No Trades,,,,,,,,Verified
SPO.AX,04-OCT-2015,,End Of Day,No Trades,,,,,,,,Verified
SPO.AX,05-OCT-2015,,End Of Day,,2.2,2.23,2.16,2.2,3755933,,,Verified
SPO.AX,06-OCT-2015,,End Of Day,,2.2,2.24,2.17,2.2,3318191,,,Verified
SPO.AX,07-OCT-2015,,End Of Day,,2.19,2.19,2.15,2.18,4848369,,,Verified
SPO.AX,08-OCT-2015,,End Of Day,,2.19,2.21,2.14,2.16,3257405,,,Verified
SPO.AX,09-OCT-2015,,End Of Day,,2.2,2.21,2.17,2.19,3563940,,,Verified
SPO.AX,10-OCT-2015,,End Of Day,No Trades,,,,,,,,Verified
SPO.AX,11-OCT-2015,,End Of Day,No Trades,,,,,,,,Verified
SPO.AX,12-OCT-2015,,End Of Day,,2.16,2.19,2.15,2.16,3640585,,,Verified
SPO.AX,13-OCT-2015,,End Of Day,,2.16,2.19,2.16,2.17,3036148,,,Verified
SPO.AX,14-OCT-2015,,End Of Day,,2.15,2.22,2.15,2.19,3651463,,,Verified
SPO.AX,15-OCT-2015,,End Of Day,,2.21,2.22,2.17,2.19,2559303,,,Verified
SPO.AX,16-OCT-2015,,End Of Day,,2.24,2.26,2.21,2.22,9932259,,,Verified
SPO.AX,17-OCT-2015,,End Of Day,No Trades,,,,,,,,Verified
SPO.AX,18-OCT-2015,,End Of Day,No Trades,,,,,,,,Verified
SPO.AX,19-OCT-2015,,End Of Day,,2.22,2.24,2.18,2.19,3701824,,,Verified
SPO.AX,20-OCT-2015,,End Of Day,,2.19,2.22,2.17,2.19,2357601,,,Verified
SPO.AX,21-OCT-2015,,End Of Day,,2.16,2.175,2.12,2.17,3239023,,,Verified
SPO.AX,22-OCT-2015,,End Of Day,,2.15,2.16,2.08,2.1,4825042,,,Verified
SPO.AX,23-OCT-2015,,End Of Day,,2.15,2.16,2.13,2.15,5620273,,,Verified
SPO.AX,24-OCT-2015,,End Of Day,No Trades,,,,,,,,Verified
SPO.AX,25-OCT-2015,,End Of Day,No Trades,,,,,,,,Verified
SPO.AX,26-OCT-2015,,End Of Day,,2.17,2.17,2.1,2.12,4077106,,,Verified
SPO.AX,27-OCT-2015,,End Of Day,,2.13,2.17,2.13,2.14,3437709,,,Verified
SPO.AX,28-OCT-2015,,End Of Day,,2.14,2.18,2.13,2.14,3331765,,,Verified
SPO.AX,29-OCT-2015,,End Of Day,,2.15,2.17,2.135,2.15,2345051,,,Verified
SPO.AX,30-OCT-2015,,End Of Day,,2.12,2.16,2.12,2.15,2667650,,,Verified
SPO.AX,31-OCT-2015,,End Of Day,No Trades,,,,,,,,Verified
SPO.AX,01-NOV-2015,,End Of Day,No Trades,,,,,,,,Verified
SPO.AX,02-NOV-2015,,End Of Day,,2.16,2.17,2.125,2.13,3622194,,,Verified
SPO.AX,03-NOV-2015,,End Of Day,,2.14,2.18,2.12,2.17,2062271,,,Verified
SPO.AX,04-NOV-2015,,End Of Day,,2.18,2.2,2.14,2.16,3352670,,,Verified
SPO.AX,05-NOV-2015,,End Of Day,,2.15,2.18,2.13,2.15,2514272,,,Verified
SPO.AX,06-NOV-2015,,End Of Day,,2.15,2.17,2.12,2.16,2014988,,,Verified
SPO.AX,07-NOV-2015,,End Of Day,No Trades,,,,,,,,Verified
SPO.AX,08-NOV-2015,,End Of Day,No Trades,,,,,,,,Verified
SPO.AX,09-NOV-2015,,End Of Day,,2.15,2.17,2.12,2.13,2559124,,,Verified
SPO.AX,10-NOV-2015,,End Of Day,,2.11,2.11,2.06,2.08,3957344,,,Verified
SPO.AX,11-NOV-2015,,End Of Day,,2.08,2.12,2.08,2.11,2352239,,,Verified
SPO.AX,12-NOV-2015,,End Of Day,,2.1,2.14,2.085,2.11,3195199,,,Verified
SPO.AX,13-NOV-2015,,End Of Day,,2.08,2.1,2.08,2.08,3975197,,,Verified
SPO.AX,14-NOV-2015,,End Of Day,No Trades,,,,,,,,Verified
SPO.AX,15-NOV-2015,,End Of Day,No Trades,,,,,,,,Verified
SPO.AX,16-NOV-2015,,End Of Day,,2.06,2.08,2.04,2.06,3360637,,,Verified
SPO.AX,17-NOV-2015,,End Of Day,,2.07,2.12,2.04,2.12,8200114,,,Verified
SPO.AX,18-NOV-2015,,End Of Day,,2.09,2.19,2.08,2.18,5732550,,,Verified
SPO.AX,19-NOV-2015,,End Of Day,,2.2,2.2,2.16,2.19,4695192,,,Verified
SPO.AX,20-NOV-2015,,End Of Day,,2.19,2.2,2.18,2.19,3616465,,,Verified
SPO.AX,21-NOV-2015,,End Of Day,No Trades,,,,,,,,Verified
SPO.AX,22-NOV-2015,,End Of Day,No Trades,,,,,,,,Verified
SPO.AX,23-NOV-2015,,End Of Day,,2.19,2.22,2.15,2.2,3469462,,,Verified
SPO.AX,24-NOV-2015,,End Of Day,,2.2,2.205,2.18,2.18,2576068,,,Verified
SPO.AX,25-NOV-2015,,End Of Day,,2.2,2.2,2.16,2.16,3111362,,,Verified
SPO.AX,26-NOV-2015,,End Of Day,,2.18,2.24,2.175,2.21,5516803,,,Verified
SPO.AX,27-NOV-2015,,End Of Day,,2.25,2.25,2.16,2.18,3545194,,,Verified
SPO.AX,28-NOV-2015,,End Of Day,No Trades,,,,,,,,Verified
SPO.AX,29-NOV-2015,,End Of Day,No Trades,,,,,,,,Verified
SPO.AX,30-NOV-2015,,End Of Day,,2.17,2.17,2.15,2.16,9714647,,,Verified
SPO.AX,01-DEC-2015,,End Of Day,,2.17,2.2,2.14,2.2,7532648,,,Verified
SPO.AX,02-DEC-2015,,End Of Day,,1.485,1.545,1.25,1.325,80531690,,,Verified
SPO.AX,03-DEC-2015,,End Of Day,,1.27,1.4,1.255,1.295,47886115,,,Verified
SPO.AX,04-DEC-2015,,End Of Day,,1.26,1.29,1.22,1.235,25742017,,,Verified
SPO.AX,05-DEC-2015,,End Of Day,No Trades,,,,,,,,Verified
SPO.AX,06-DEC-2015,,End Of Day,No Trades,,,,,,,,Verified
SPO.AX,07-DEC-2015,,End Of Day,,1.25,1.265,1.04,1.065,44428415,,,Verified
SPO.AX,08-DEC-2015,,End Of Day,,1.1,1.16,1.07,1.145,64006193,,,Verified
SPO.AX,09-DEC-2015,,End Of Day,,1.175,1.24,1.097,1.1,37655552,,,Verified
SPO.AX,10-DEC-2015,,End Of Day,,1.135,1.16,1.09,1.14,23357011,,,Verified
SPO.AX,11-DEC-2015,,End Of Day,,1.155,1.19,1.15,1.155,13346430,,,Verified
SPO.AX,12-DEC-2015,,End Of Day,No Trades,,,,,,,,Verified
SPO.AX,13-DEC-2015,,End Of Day,No Trades,,,,,,,,Verified
SPO.AX,14-DEC-2015,,End Of Day,,1.14,1.155,1.11,1.115,12630612,,,Verified
SPO.AX,15-DEC-2015,,End Of Day,,1.12,1.13,1.09,1.095,6534972,,,Verified
SPO.AX,16-DEC-2015,,End Of Day,,1.12,1.145,1.115,1.135,8938079,,,Verified
SPO.AX,17-DEC-2015,,End Of Day,,1.19,1.19,1.135,1.145,12805657,,,Verified
SPO.AX,18-DEC-2015,,End Of Day,,1.14,1.155,1.125,1.155,8150834,,,Verified
SPO.AX,19-DEC-2015,,End Of Day,No Trades,,,,,,,,Verified
SPO.AX,20-DEC-2015,,End Of Day,No Trades,,,,,,,,Verified
SPO.AX,21-DEC-2015,,End Of Day,,1.13,1.147,1.115,1.12,6076535,,,Verified
SPO.AX,22-DEC-2015,,End Of Day,,1.125,1.13,1.08,1.09,8050066,,,Verified
SPO.AX,23-DEC-2015,,End Of Day,,1.1,1.12,1.085,1.105,6618601,,,Verified
SPO.AX,24-DEC-2015,,End Of Day,,1.11,1.12,1.075,1.075,4495077,,,Verified
SPO.AX,25-DEC-2015,,End Of Day,No Trades,,,,,,,,Verified
SPO.AX,26-DEC-2015,,End Of Day,No Trades,,,,,,,,Verified
SPO.AX,27-DEC-2015,,End Of Day,No Trades,,,,,,,,Verified
SPO.AX,28-DEC-2015,,End Of Day,No Trades,,,,,,,,Verified
SPO.AX,29-DEC-2015,,End Of Day,,1.1,1.11,1.09,1.1,2919980,,,Verified
SPO.AX,30-DEC-2015,,End Of Day,,1.1,1.1,1.07,1.075,4404955,,,Verified
SPO.AX,31-DEC-2015,,End Of Day,,1.085,1.09,1.065,1.08,4634150,,,Verified
SPO.AX,01-JAN-2016,,End Of Day,No Trades,,,,,,,,Verified
SPO.AX,02-JAN-2016,,End Of Day,No Trades,,,,,,,,Verified
SPO.AX,03-JAN-2016,,End Of Day,No Trades,,,,,,,,Verified
SPO.AX,04-JAN-2016,,End Of Day,,1.095,1.105,1.085,1.095,3043489,,,Verified
SPO.AX,05-JAN-2016,,End Of Day,,1.09,1.09,0.98,1.02,9362660,,,Verified
SPO.AX,06-JAN-2016,,End Of Day,,1.04,1.05,0.96,0.99,12759446,,,Verified
SPO.AX,07-JAN-2016,,End Of Day,,1.02,1.05,0.945,1.02,16428972,,,Verified
SPO.AX,08-JAN-2016,,End Of Day,,1,1.005,0.945,0.975,20878691,,,Verified
SPO.AX,09-JAN-2016,,End Of Day,No Trades,,,,,,,,Verified
SPO.AX,10-JAN-2016,,End Of Day,No Trades,,,,,,,,Verified
SPO.AX,11-JAN-2016,,End Of Day,,0.97,0.97,0.905,0.92,20416606,,,Verified
SPO.AX,12-JAN-2016,,End Of Day,,0.93,0.96,0.925,0.95,20650799,,,Verified
SPO.AX,13-JAN-2016,,End Of Day,,0.965,1.1,0.96,1.095,16037404,,,Verified
SPO.AX,14-JAN-2016,,End Of Day,,1.035,1.065,1.01,1.035,12615599,,,Verified
SPO.AX,15-JAN-2016,,End Of Day,,1.055,1.065,1.012,1.02,7471530,,,Verified
SPO.AX,16-JAN-2016,,End Of Day,No Trades,,,,,,,,Verified
SPO.AX,17-JAN-2016,,End Of Day,No Trades,,,,,,,,Verified
SPO.AX,18-JAN-2016,,End Of Day,,0.99,1.035,0.98,1.025,3268845,,,Verified
SPO.AX,19-JAN-2016,,End Of Day,,1.03,1.04,1.017,1.025,4059213,,,Verified
SPO.AX,20-JAN-2016,,End Of Day,,1.01,1.052,1.01,1.04,8259365,,,Verified
SPO.AX,21-JAN-2016,,End Of Day,,1.03,1.065,1.03,1.05,12040424,,,Verified
SPO.AX,22-JAN-2016,,End Of Day,,1.05,1.06,1.01,1.035,12558660,,,Verified
SPO.AX,23-JAN-2016,,End Of Day,No Trades,,,,,,,,Verified
SPO.AX,24-JAN-2016,,End Of Day,No Trades,,,,,,,,Verified
SPO.AX,25-JAN-2016,,End Of Day,,1.06,1.09,1.035,1.08,14766310,,,Verified
SPO.AX,26-JAN-2016,,End Of Day,No Trades,,,,,,,,Verified
SPO.AX,27-JAN-2016,,End Of Day,,1.08,1.085,1.05,1.06,11380310,,,Verified
SPO.AX,28-JAN-2016,,End Of Day,,1.06,1.06,1.015,1.04,13502253,,,Verified
SPO.AX,29-JAN-2016,,End Of Day,,1.04,1.05,1.015,1.035,8848061,,,Verified
SPO.AX,30-JAN-2016,,End Of Day,No Trades,,,,,,,,Verified
SPO.AX,31-JAN-2016,,End Of Day,No Trades,,,,,,,,Verified
SPO.AX,01-FEB-2016,,End Of Day,,1.05,1.06,1.025,1.055,5677263,,,Verified
SPO.AX,02-FEB-2016,,End Of Day,,1.04,1.052,1.015,1.02,7574081,,,Verified
SPO.AX,03-FEB-2016,,End Of Day,,1.01,1.025,1,1.01,5385539,,,Verified
SPO.AX,04-FEB-2016,,End Of Day,,1.015,1.017,0.99,1.01,6224278,,,Verified
SPO.AX,05-FEB-2016,,End Of Day,,1,1.01,0.99,1,3766704,,,Verified
SPO.AX,06-FEB-2016,,End Of Day,No Trades,,,,,,,,Verified
SPO.AX,07-FEB-2016,,End Of Day,No Trades,,,,,,,,Verified
SPO.AX,08-FEB-2016,,End Of Day,,0.99,1.01,0.97,1,4994466,,,Verified
SPO.AX,09-FEB-2016,,End Of Day,,0.99,1,0.927,0.935,6604990,,,Verified
SPO.AX,10-FEB-2016,,End Of Day,,0.935,0.945,0.892,0.91,6804619,,,Verified
SPO.AX,11-FEB-2016,,End Of Day,,0.915,0.95,0.915,0.935,3590892,,,Verified
SPO.AX,12-FEB-2016,,End Of Day,,0.94,0.945,0.925,0.93,3407702,,,Verified
SPO.AX,13-FEB-2016,,End Of Day,No Trades,,,,,,,,Verified
SPO.AX,14-FEB-2016,,End Of Day,No Trades,,,,,,,,Verified
SPO.AX,15-FEB-2016,,End Of Day,,0.95,0.95,0.91,0.92,3996725,,,Verified
SPO.AX,16-FEB-2016,,End Of Day,,0.945,1,0.935,0.99,4742884,,,Verified
SPO.AX,17-FEB-2016,,End Of Day,,1,1.01,0.967,1.005,5368653,,,Verified
SPO.AX,18-FEB-2016,,End Of Day,,1.02,1.055,1,1.05,6738142,,,Verified
SPO.AX,19-FEB-2016,,End Of Day,,1.06,1.095,1.06,1.085,5212266,,,Verified
SPO.AX,20-FEB-2016,,End Of Day,No Trades,,,,,,,,Verified
SPO.AX,21-FEB-2016,,End Of Day,No Trades,,,,,,,,Verified
SPO.AX,22-FEB-2016,,End Of Day,,1.085,1.117,1.08,1.115,4852498,,,Verified
SPO.AX,23-FEB-2016,,End Of Day,,1.17,1.24,1.17,1.215,18120775,,,Verified
SPO.AX,24-FEB-2016,,End Of Day,,1.24,1.24,1.19,1.2,10849726,,,Verified
SPO.AX,25-FEB-2016,,End Of Day,,1.22,1.22,1.2,1.205,3441514,,,Verified
SPO.AX,26-FEB-2016,,End Of Day,,1.21,1.22,1.177,1.22,4837386,,,Verified
SPO.AX,27-FEB-2016,,End Of Day,No Trades,,,,,,,,Verified
SPO.AX,28-FEB-2016,,End Of Day,No Trades,,,,,,,,Verified
SPO.AX,29-FEB-2016,,End Of Day,,1.22,1.23,1.185,1.205,4523364,,,Verified
SPO.AX,01-MAR-2016,,End Of Day,,1.21,1.215,1.142,1.16,6414917,,,Verified
SPO.AX,02-MAR-2016,,End Of Day,,1.19,1.207,1.16,1.2,4518292,,,Verified
SPO.AX,03-MAR-2016,,End Of Day,,1.21,1.25,1.182,1.25,7815027,,,Verified
SPO.AX,04-MAR-2016,,End Of Day,,1.245,1.275,1.225,1.25,7605071,,,Verified
SPO.AX,05-MAR-2016,,End Of Day,No Trades,,,,,,,,Verified
SPO.AX,06-MAR-2016,,End Of Day,No Trades,,,,,,,,Verified
SPO.AX,07-MAR-2016,,End Of Day,,1.27,1.27,1.247,1.255,4107462,,,Verified
SPO.AX,08-MAR-2016,,End Of Day,,1.28,1.28,1.22,1.23,7970524,,,Verified
SPO.AX,09-MAR-2016,,End Of Day,,1.21,1.235,1.19,1.2,7701975,,,Verified
SPO.AX,10-MAR-2016,,End Of Day,,1.21,1.235,1.195,1.23,4760003,,,Verified
SPO.AX,11-MAR-2016,,End Of Day,,1.23,1.23,1.19,1.22,3534382,,,Verified
SPO.AX,12-MAR-2016,,End Of Day,No Trades,,,,,,,,Verified
SPO.AX,13-MAR-2016,,End Of Day,No Trades,,,,,,,,Verified
SPO.AX,14-MAR-2016,,End Of Day,,1.235,1.315,1.21,1.3,5993187,,,Verified
SPO.AX,15-MAR-2016,,End Of Day,,1.305,1.305,1.25,1.255,7275065,,,Verified
SPO.AX,16-MAR-2016,,End Of Day,,1.265,1.265,1.22,1.23,4624499,,,Verified
SPO.AX,17-MAR-2016,,End Of Day,,1.21,1.215,1.19,1.21,8881148,,,Verified
SPO.AX,18-MAR-2016,,End Of Day,,1.205,1.215,1.17,1.2,4324322,,,Verified
SPO.AX,19-MAR-2016,,End Of Day,No Trades,,,,,,,,Verified
SPO.AX,20-MAR-2016,,End Of Day,No Trades,,,,,,,,Verified
SPO.AX,21-MAR-2016,,End Of Day,,1.2,1.21,1.187,1.205,2759030,,,Verified
SPO.AX,22-MAR-2016,,End Of Day,,1.21,1.23,1.192,1.2,4761646,,,Verified
SPO.AX,23-MAR-2016,,End Of Day,,1.2,1.2,1.165,1.175,1924673,,,Verified
SPO.AX,24-MAR-2016,,End Of Day,,1.16,1.19,1.155,1.185,3332397,,,Verified
SPO.AX,25-MAR-2016,,End Of Day,No Trades,,,,,,,,Verified
SPO.AX,26-MAR-2016,,End Of Day,No Trades,,,,,,,,Verified
SPO.AX,27-MAR-2016,,End Of Day,No Trades,,,,,,,,Verified
SPO.AX,28-MAR-2016,,End Of Day,No Trades,,,,,,,,Verified
SPO.AX,29-MAR-2016,,End Of Day,,1.195,1.195,1.157,1.17,3758797,,,Verified
SPO.AX,30-MAR-2016,,End Of Day,,1.18,1.21,1.18,1.195,3119424,,,Verified
SPO.AX,31-MAR-2016,,End Of Day,,1.215,1.26,1.21,1.26,7729213,,,Verified
SPO.AX,01-APR-2016,,End Of Day,,1.235,1.24,1.19,1.205,8546298,,,Verified
SPO.AX,02-APR-2016,,End Of Day,No Trades,,,,,,,,Verified
SPO.AX,03-APR-2016,,End Of Day,No Trades,,,,,,,,Verified
SPO.AX,04-APR-2016,,End Of Day,,1.205,1.235,1.2,1.215,2986966,,,Verified
SPO.AX,05-APR-2016,,End Of Day,,1.205,1.23,1.19,1.195,3184460,,,Verified
SPO.AX,06-APR-2016,,End Of Day,,1.19,1.205,1.165,1.19,3168857,,,Verified
SPO.AX,07-APR-2016,,End Of Day,,1.2,1.215,1.185,1.2,6888905,,,Verified
SPO.AX,08-APR-2016,,End Of Day,,1.18,1.19,1.16,1.17,3572098,,,Verified
SPO.AX,09-APR-2016,,End Of Day,No Trades,,,,,,,,Verified
SPO.AX,10-APR-2016,,End Of Day,No Trades,,,,,,,,Verified
SPO.AX,11-APR-2016,,End Of Day,,1.18,1.195,1.17,1.195,8084984,,,Verified
SPO.AX,12-APR-2016,,End Of Day,,1.19,1.21,1.167,1.175,4913768,,,Verified
SPO.AX,13-APR-2016,,End Of Day,,1.17,1.175,1.15,1.155,7753207,,,Verified
SPO.AX,14-APR-2016,,End Of Day,,1.17,1.2,1.165,1.19,11763532,,,Verified
SPO.AX,15-APR-2016,,End Of Day,,1.205,1.23,1.2,1.22,7934543,,,Verified
SPO.AX,16-APR-2016,,End Of Day,No Trades,,,,,,,,Verified
SPO.AX,17-APR-2016,,End Of Day,No Trades,,,,,,,,Verified
SPO.AX,18-APR-2016,,End Of Day,,1.22,1.23,1.205,1.22,7116598,,,Verified
SPO.AX,19-APR-2016,,End Of Day,,1.23,1.267,1.23,1.26,5264801,,,Verified
SPO.AX,20-APR-2016,,End Of Day,,1.26,1.275,1.255,1.26,10268183,,,Verified
SPO.AX,21-APR-2016,,End Of Day,,1.29,1.31,1.275,1.295,8129323,,,Verified
SPO.AX,22-APR-2016,,End Of Day,,1.31,1.315,1.29,1.3,7491740,,,Verified
SPO.AX,23-APR-2016,,End Of Day,No Trades,,,,,,,,Verified
SPO.AX,24-APR-2016,,End Of Day,No Trades,,,,,,,,Verified
SPO.AX,25-APR-2016,,End Of Day,No Trades,,,,,,,,Verified
SPO.AX,26-APR-2016,,End Of Day,,1.315,1.315,1.24,1.27,5903355,,,Verified
SPO.AX,27-APR-2016,,End Of Day,,1.285,1.3,1.265,1.295,8216210,,,Verified
SPO.AX,28-APR-2016,,End Of Day,,1.305,1.305,1.28,1.285,9068737,,,Verified
SPO.AX,29-APR-2016,,End Of Day,,1.29,1.305,1.285,1.295,5073625,,,Verified
SPO.AX,30-APR-2016,,End Of Day,No Trades,,,,,,,,Verified
SPO.AX,01-MAY-2016,,End Of Day,No Trades,,,,,,,,Verified
SPO.AX,02-MAY-2016,,End Of Day,,1.31,1.31,1.282,1.29,2908388,,,Verified
SPO.AX,03-MAY-2016,,End Of Day,,1.29,1.305,1.27,1.28,7301776,,,Verified
SPO.AX,04-MAY-2016,,End Of Day,,1.29,1.29,1.255,1.255,4998351,,,Verified
SPO.AX,05-MAY-2016,,End Of Day,,1.28,1.29,1.235,1.27,5189708,,,Verified
SPO.AX,06-MAY-2016,,End Of Day,,1.245,1.247,1.195,1.21,5337568,,,Verified
SPO.AX,07-MAY-2016,,End Of Day,No Trades,,,,,,,,Verified
SPO.AX,08-MAY-2016,,End Of Day,No Trades,,,,,,,,Verified
SPO.AX,09-MAY-2016,,End Of Day,,1.215,1.24,1.215,1.235,5038734,,,Verified
SPO.AX,10-MAY-2016,,End Of Day,,1.245,1.27,1.225,1.26,5459064,,,Verified
SPO.AX,11-MAY-2016,,End Of Day,,1.28,1.315,1.272,1.285,7679242,,,Verified
