#RIC,Date[L],Time[L],Type,Qualifiers,Open,High,Low,Last,Volume,Open Interest,Settle,Data Source
SKC.AX,01-JAN-2014,,End Of Day,No Trades,,,,,,,,Verified
SKC.AX,02-JAN-2014,,End Of Day,,3.7,3.7,3.52,3.57,224615,,,Verified
SKC.AX,03-JAN-2014,,End Of Day,,3.54,3.55,3.49,3.49,61380,,,Verified
SKC.AX,04-JAN-2014,,End Of Day,No Trades,,,,,,,,Verified
SKC.AX,05-JAN-2014,,End Of Day,No Trades,,,,,,,,Verified
SKC.AX,06-JAN-2014,,End Of Day,,3.61,3.61,3.45,3.45,114941,,,Verified
SKC.AX,07-JAN-2014,,End Of Day,,3.5,3.555,3.45,3.55,120472,,,Verified
SKC.AX,08-JAN-2014,,End Of Day,,3.57,3.57,3.49,3.5,70409,,,Verified
SKC.AX,09-JAN-2014,,End Of Day,,3.53,3.53,3.44,3.49,140511,,,Verified
SKC.AX,10-JAN-2014,,End Of Day,,3.48,3.53,3.39,3.48,98866,,,Verified
SKC.AX,11-JAN-2014,,End Of Day,No Trades,,,,,,,,Verified
SKC.AX,12-JAN-2014,,End Of Day,No Trades,,,,,,,,Verified
SKC.AX,13-JAN-2014,,End Of Day,,3.5,3.58,3.5,3.54,383495,,,Verified
SKC.AX,14-JAN-2014,,End Of Day,,3.52,3.57,3.5,3.56,342777,,,Verified
SKC.AX,15-JAN-2014,,End Of Day,,3.58,3.7,3.58,3.61,747511,,,Verified
SKC.AX,16-JAN-2014,,End Of Day,,3.62,3.66,3.61,3.64,966523,,,Verified
SKC.AX,17-JAN-2014,,End Of Day,,3.62,3.62,3.51,3.53,59826,,,Verified
SKC.AX,18-JAN-2014,,End Of Day,No Trades,,,,,,,,Verified
SKC.AX,19-JAN-2014,,End Of Day,No Trades,,,,,,,,Verified
SKC.AX,20-JAN-2014,,End Of Day,,3.54,3.62,3.52,3.6,291119,,,Verified
SKC.AX,21-JAN-2014,,End Of Day,,3.59,3.64,3.58,3.6,474745,,,Verified
SKC.AX,22-JAN-2014,,End Of Day,,3.6,3.67,3.57,3.66,333538,,,Verified
SKC.AX,23-JAN-2014,,End Of Day,,3.65,3.66,3.57,3.6,239225,,,Verified
SKC.AX,24-JAN-2014,,End Of Day,,3.57,3.66,3.57,3.64,282343,,,Verified
SKC.AX,25-JAN-2014,,End Of Day,No Trades,,,,,,,,Verified
SKC.AX,26-JAN-2014,,End Of Day,No Trades,,,,,,,,Verified
SKC.AX,27-JAN-2014,,End Of Day,No Trades,,,,,,,,Verified
SKC.AX,28-JAN-2014,,End Of Day,,3.59,3.64,3.59,3.61,262880,,,Verified
SKC.AX,29-JAN-2014,,End Of Day,,3.64,3.71,3.625,3.7,586369,,,Verified
SKC.AX,30-JAN-2014,,End Of Day,,3.65,3.65,3.59,3.62,225060,,,Verified
SKC.AX,31-JAN-2014,,End Of Day,,3.61,3.63,3.57,3.59,408745,,,Verified
SKC.AX,01-FEB-2014,,End Of Day,No Trades,,,,,,,,Verified
SKC.AX,02-FEB-2014,,End Of Day,No Trades,,,,,,,,Verified
SKC.AX,03-FEB-2014,,End Of Day,,3.57,3.57,3.5,3.53,239400,,,Verified
SKC.AX,04-FEB-2014,,End Of Day,,3.46,3.49,3.43,3.45,480975,,,Verified
SKC.AX,05-FEB-2014,,End Of Day,,3.45,3.48,3.42,3.45,423880,,,Verified
SKC.AX,06-FEB-2014,,End Of Day,,3.43,3.54,3.4,3.44,469355,,,Verified
SKC.AX,07-FEB-2014,,End Of Day,,3.45,3.46,3.425,3.44,157526,,,Verified
SKC.AX,08-FEB-2014,,End Of Day,No Trades,,,,,,,,Verified
SKC.AX,09-FEB-2014,,End Of Day,No Trades,,,,,,,,Verified
SKC.AX,10-FEB-2014,,End Of Day,,3.42,3.43,3.37,3.4,171468,,,Verified
SKC.AX,11-FEB-2014,,End Of Day,,3.36,3.38,3.29,3.37,223711,,,Verified
SKC.AX,12-FEB-2014,,End Of Day,,3.34,3.45,3.33,3.41,1497224,,,Verified
SKC.AX,13-FEB-2014,,End Of Day,,3.39,3.43,3.36,3.4,218527,,,Verified
SKC.AX,14-FEB-2014,,End Of Day,,3.45,3.49,3.41,3.47,205342,,,Verified
SKC.AX,15-FEB-2014,,End Of Day,No Trades,,,,,,,,Verified
SKC.AX,16-FEB-2014,,End Of Day,No Trades,,,,,,,,Verified
SKC.AX,17-FEB-2014,,End Of Day,,3.5,3.56,3.46,3.5,507869,,,Verified
SKC.AX,18-FEB-2014,,End Of Day,,3.47,3.5,3.45,3.47,6374487,,,Verified
SKC.AX,19-FEB-2014,,End Of Day,,3.47,3.48,3.43,3.45,1012462,,,Verified
SKC.AX,20-FEB-2014,,End Of Day,,3.45,3.53,3.43,3.51,2001879,,,Verified
SKC.AX,21-FEB-2014,,End Of Day,,3.51,3.53,3.48,3.53,132683,,,Verified
SKC.AX,22-FEB-2014,,End Of Day,No Trades,,,,,,,,Verified
SKC.AX,23-FEB-2014,,End Of Day,No Trades,,,,,,,,Verified
SKC.AX,24-FEB-2014,,End Of Day,,3.53,3.63,3.52,3.61,507388,,,Verified
SKC.AX,25-FEB-2014,,End Of Day,,3.61,3.61,3.56,3.57,168905,,,Verified
SKC.AX,26-FEB-2014,,End Of Day,,3.55,3.62,3.55,3.61,298846,,,Verified
SKC.AX,27-FEB-2014,,End Of Day,,3.59,3.64,3.58,3.61,237314,,,Verified
SKC.AX,28-FEB-2014,,End Of Day,,3.64,3.69,3.62,3.68,170191,,,Verified
SKC.AX,01-MAR-2014,,End Of Day,No Trades,,,,,,,,Verified
SKC.AX,02-MAR-2014,,End Of Day,No Trades,,,,,,,,Verified
SKC.AX,03-MAR-2014,,End Of Day,,3.63,3.72,3.62,3.71,302064,,,Verified
SKC.AX,04-MAR-2014,,End Of Day,,3.68,3.71,3.66,3.7,331215,,,Verified
SKC.AX,05-MAR-2014,,End Of Day,,3.7,3.75,3.69,3.72,459227,,,Verified
SKC.AX,06-MAR-2014,,End Of Day,,3.72,3.74,3.69,3.72,453707,,,Verified
SKC.AX,07-MAR-2014,,End Of Day,,3.7,3.7,3.65,3.67,194437,,,Verified
SKC.AX,08-MAR-2014,,End Of Day,No Trades,,,,,,,,Verified
SKC.AX,09-MAR-2014,,End Of Day,No Trades,,,,,,,,Verified
SKC.AX,10-MAR-2014,,End Of Day,,3.68,3.72,3.66,3.69,150860,,,Verified
SKC.AX,11-MAR-2014,,End Of Day,,3.68,3.7,3.63,3.69,458826,,,Verified
SKC.AX,12-MAR-2014,,End Of Day,,3.69,3.73,3.67,3.71,436100,,,Verified
SKC.AX,13-MAR-2014,,End Of Day,,3.72,3.76,3.7,3.73,212894,,,Verified
SKC.AX,14-MAR-2014,,End Of Day,,3.71,3.75,3.7,3.71,370764,,,Verified
SKC.AX,15-MAR-2014,,End Of Day,No Trades,,,,,,,,Verified
SKC.AX,16-MAR-2014,,End Of Day,No Trades,,,,,,,,Verified
SKC.AX,17-MAR-2014,,End Of Day,,3.63,3.63,3.57,3.59,688830,,,Verified
SKC.AX,18-MAR-2014,,End Of Day,,3.59,3.67,3.58,3.67,360175,,,Verified
SKC.AX,19-MAR-2014,,End Of Day,,3.67,3.76,3.67,3.74,544197,,,Verified
SKC.AX,20-MAR-2014,,End Of Day,,3.71,3.78,3.7,3.76,573745,,,Verified
SKC.AX,21-MAR-2014,,End Of Day,,3.76,3.83,3.73,3.75,2025183,,,Verified
SKC.AX,22-MAR-2014,,End Of Day,No Trades,,,,,,,,Verified
SKC.AX,23-MAR-2014,,End Of Day,No Trades,,,,,,,,Verified
SKC.AX,24-MAR-2014,,End Of Day,,3.73,3.73,3.65,3.67,406177,,,Verified
SKC.AX,25-MAR-2014,,End Of Day,,3.64,3.69,3.62,3.66,702396,,,Verified
SKC.AX,26-MAR-2014,,End Of Day,,3.67,3.71,3.635,3.65,911213,,,Verified
SKC.AX,27-MAR-2014,,End Of Day,,3.61,3.64,3.61,3.62,179796,,,Verified
SKC.AX,28-MAR-2014,,End Of Day,,3.64,3.65,3.62,3.65,209818,,,Verified
SKC.AX,29-MAR-2014,,End Of Day,No Trades,,,,,,,,Verified
SKC.AX,30-MAR-2014,,End Of Day,No Trades,,,,,,,,Verified
SKC.AX,31-MAR-2014,,End Of Day,,3.66,3.7,3.65,3.66,372651,,,Verified
SKC.AX,01-APR-2014,,End Of Day,,3.66,3.7,3.66,3.68,163386,,,Verified
SKC.AX,02-APR-2014,,End Of Day,,3.67,3.67,3.61,3.62,308547,,,Verified
SKC.AX,03-APR-2014,,End Of Day,,3.6,3.61,3.56,3.57,239066,,,Verified
SKC.AX,04-APR-2014,,End Of Day,,3.55,3.63,3.55,3.63,214026,,,Verified
SKC.AX,05-APR-2014,,End Of Day,No Trades,,,,,,,,Verified
SKC.AX,06-APR-2014,,End Of Day,No Trades,,,,,,,,Verified
SKC.AX,07-APR-2014,,End Of Day,,3.59,3.64,3.59,3.62,144022,,,Verified
SKC.AX,08-APR-2014,,End Of Day,,3.62,3.65,3.58,3.63,179205,,,Verified
SKC.AX,09-APR-2014,,End Of Day,,3.64,3.71,3.61,3.66,518874,,,Verified
SKC.AX,10-APR-2014,,End Of Day,,3.69,3.75,3.68,3.69,357477,,,Verified
SKC.AX,11-APR-2014,,End Of Day,,3.65,3.7,3.63,3.65,835524,,,Verified
SKC.AX,12-APR-2014,,End Of Day,No Trades,,,,,,,,Verified
SKC.AX,13-APR-2014,,End Of Day,No Trades,,,,,,,,Verified
SKC.AX,14-APR-2014,,End Of Day,,3.63,3.65,3.58,3.58,349854,,,Verified
SKC.AX,15-APR-2014,,End Of Day,,3.6,3.64,3.58,3.63,322881,,,Verified
SKC.AX,16-APR-2014,,End Of Day,,3.64,3.68,3.64,3.67,452408,,,Verified
SKC.AX,17-APR-2014,,End Of Day,,3.7,3.71,3.66,3.69,745718,,,Verified
SKC.AX,18-APR-2014,,End Of Day,No Trades,,,,,,,,Verified
SKC.AX,19-APR-2014,,End Of Day,No Trades,,,,,,,,Verified
SKC.AX,20-APR-2014,,End Of Day,No Trades,,,,,,,,Verified
SKC.AX,21-APR-2014,,End Of Day,No Trades,,,,,,,,Verified
SKC.AX,22-APR-2014,,End Of Day,,3.64,3.69,3.64,3.66,356375,,,Verified
SKC.AX,23-APR-2014,,End Of Day,,3.68,3.755,3.67,3.73,331792,,,Verified
SKC.AX,24-APR-2014,,End Of Day,,3.73,3.85,3.73,3.82,236216,,,Verified
SKC.AX,25-APR-2014,,End Of Day,No Trades,,,,,,,,Verified
SKC.AX,26-APR-2014,,End Of Day,No Trades,,,,,,,,Verified
SKC.AX,27-APR-2014,,End Of Day,No Trades,,,,,,,,Verified
SKC.AX,28-APR-2014,,End Of Day,,3.79,3.79,3.73,3.77,375936,,,Verified
SKC.AX,29-APR-2014,,End Of Day,,3.79,3.83,3.77,3.8,498568,,,Verified
SKC.AX,30-APR-2014,,End Of Day,,3.82,3.9,3.8,3.89,191253,,,Verified
SKC.AX,01-MAY-2014,,End Of Day,,3.84,3.86,3.77,3.79,435536,,,Verified
SKC.AX,02-MAY-2014,,End Of Day,,3.83,3.83,3.8,3.81,204729,,,Verified
SKC.AX,03-MAY-2014,,End Of Day,No Trades,,,,,,,,Verified
SKC.AX,04-MAY-2014,,End Of Day,No Trades,,,,,,,,Verified
SKC.AX,05-MAY-2014,,End Of Day,,3.82,3.83,3.78,3.8,276171,,,Verified
SKC.AX,06-MAY-2014,,End Of Day,,3.77,3.77,3.73,3.74,256275,,,Verified
SKC.AX,07-MAY-2014,,End Of Day,,3.67,3.72,3.64,3.68,389965,,,Verified
SKC.AX,08-MAY-2014,,End Of Day,,3.71,3.82,3.68,3.77,553308,,,Verified
SKC.AX,09-MAY-2014,,End Of Day,,3.78,3.85,3.78,3.83,243040,,,Verified
SKC.AX,10-MAY-2014,,End Of Day,No Trades,,,,,,,,Verified
SKC.AX,11-MAY-2014,,End Of Day,No Trades,,,,,,,,Verified
SKC.AX,12-MAY-2014,,End Of Day,,3.83,3.86,3.8,3.81,356859,,,Verified
SKC.AX,13-MAY-2014,,End Of Day,,3.82,3.86,3.82,3.83,988478,,,Verified
SKC.AX,14-MAY-2014,,End Of Day,,3.82,3.82,3.78,3.81,223917,,,Verified
SKC.AX,15-MAY-2014,,End Of Day,,3.78,3.81,3.77,3.79,179199,,,Verified
SKC.AX,16-MAY-2014,,End Of Day,,3.76,3.81,3.73,3.78,224365,,,Verified
SKC.AX,17-MAY-2014,,End Of Day,No Trades,,,,,,,,Verified
SKC.AX,18-MAY-2014,,End Of Day,No Trades,,,,,,,,Verified
SKC.AX,19-MAY-2014,,End Of Day,,3.77,3.77,3.68,3.69,952582,,,Verified
SKC.AX,20-MAY-2014,,End Of Day,,3.73,3.75,3.7,3.72,640480,,,Verified
SKC.AX,21-MAY-2014,,End Of Day,,3.69,3.73,3.63,3.73,616349,,,Verified
SKC.AX,22-MAY-2014,,End Of Day,,3.74,3.77,3.71,3.72,776288,,,Verified
SKC.AX,23-MAY-2014,,End Of Day,,3.71,3.75,3.7,3.72,355890,,,Verified
SKC.AX,24-MAY-2014,,End Of Day,No Trades,,,,,,,,Verified
SKC.AX,25-MAY-2014,,End Of Day,No Trades,,,,,,,,Verified
SKC.AX,26-MAY-2014,,End Of Day,,3.69,3.72,3.65,3.68,695370,,,Verified
SKC.AX,27-MAY-2014,,End Of Day,,3.68,3.7,3.65,3.66,327858,,,Verified
SKC.AX,28-MAY-2014,,End Of Day,,3.7,3.72,3.67,3.69,526794,,,Verified
SKC.AX,29-MAY-2014,,End Of Day,,3.65,3.67,3.61,3.64,288150,,,Verified
SKC.AX,30-MAY-2014,,End Of Day,,3.64,3.64,3.58,3.59,627309,,,Verified
SKC.AX,31-MAY-2014,,End Of Day,No Trades,,,,,,,,Verified
SKC.AX,01-JUN-2014,,End Of Day,No Trades,,,,,,,,Verified
SKC.AX,02-JUN-2014,,End Of Day,,3.6,3.66,3.6,3.63,443358,,,Verified
SKC.AX,03-JUN-2014,,End Of Day,,3.63,3.65,3.59,3.6,1638812,,,Verified
SKC.AX,04-JUN-2014,,End Of Day,,3.61,3.63,3.59,3.59,844006,,,Verified
SKC.AX,05-JUN-2014,,End Of Day,,3.62,3.64,3.61,3.63,412029,,,Verified
SKC.AX,06-JUN-2014,,End Of Day,,3.65,3.66,3.63,3.63,334894,,,Verified
SKC.AX,07-JUN-2014,,End Of Day,No Trades,,,,,,,,Verified
SKC.AX,08-JUN-2014,,End Of Day,No Trades,,,,,,,,Verified
SKC.AX,09-JUN-2014,,End Of Day,No Trades,,,,,,,,Verified
SKC.AX,10-JUN-2014,,End Of Day,,3.65,3.675,3.63,3.66,183847,,,Verified
SKC.AX,11-JUN-2014,,End Of Day,,3.64,3.69,3.64,3.67,1098458,,,Verified
SKC.AX,12-JUN-2014,,End Of Day,,3.69,3.73,3.69,3.72,521695,,,Verified
SKC.AX,13-JUN-2014,,End Of Day,,3.71,3.74,3.7,3.74,663677,,,Verified
SKC.AX,14-JUN-2014,,End Of Day,No Trades,,,,,,,,Verified
SKC.AX,15-JUN-2014,,End Of Day,No Trades,,,,,,,,Verified
SKC.AX,16-JUN-2014,,End Of Day,,3.75,3.77,3.73,3.76,385593,,,Verified
SKC.AX,17-JUN-2014,,End Of Day,,3.76,3.8,3.76,3.78,4032236,,,Verified
SKC.AX,18-JUN-2014,,End Of Day,,3.78,3.81,3.77,3.79,565376,,,Verified
SKC.AX,19-JUN-2014,,End Of Day,,3.79,3.8,3.77,3.8,4001538,,,Verified
SKC.AX,20-JUN-2014,,End Of Day,,3.78,3.79,3.77,3.77,246240,,,Verified
SKC.AX,21-JUN-2014,,End Of Day,No Trades,,,,,,,,Verified
SKC.AX,22-JUN-2014,,End Of Day,No Trades,,,,,,,,Verified
SKC.AX,23-JUN-2014,,End Of Day,,3.77,3.77,3.73,3.75,547671,,,Verified
SKC.AX,24-JUN-2014,,End Of Day,,3.71,3.71,3.67,3.69,286726,,,Verified
SKC.AX,25-JUN-2014,,End Of Day,,3.66,3.7,3.66,3.7,1494886,,,Verified
SKC.AX,26-JUN-2014,,End Of Day,,3.68,3.72,3.67,3.72,155970,,,Verified
SKC.AX,27-JUN-2014,,End Of Day,,3.72,3.73,3.7,3.7,114116,,,Verified
SKC.AX,28-JUN-2014,,End Of Day,No Trades,,,,,,,,Verified
SKC.AX,29-JUN-2014,,End Of Day,No Trades,,,,,,,,Verified
SKC.AX,30-JUN-2014,,End Of Day,,3.7,3.71,3.69,3.69,123697,,,Verified
SKC.AX,01-JUL-2014,,End Of Day,,3.69,3.76,3.69,3.72,456991,,,Verified
SKC.AX,02-JUL-2014,,End Of Day,,3.72,3.73,3.7,3.71,578504,,,Verified
SKC.AX,03-JUL-2014,,End Of Day,,3.72,3.73,3.69,3.7,949179,,,Verified
SKC.AX,04-JUL-2014,,End Of Day,,3.7,3.71,3.69,3.69,882539,,,Verified
SKC.AX,05-JUL-2014,,End Of Day,No Trades,,,,,,,,Verified
SKC.AX,06-JUL-2014,,End Of Day,No Trades,,,,,,,,Verified
SKC.AX,07-JUL-2014,,End Of Day,,3.69,3.7,3.67,3.69,432636,,,Verified
SKC.AX,08-JUL-2014,,End Of Day,,3.7,3.71,3.65,3.65,904892,,,Verified
SKC.AX,09-JUL-2014,,End Of Day,,3.64,3.65,3.59,3.6,296696,,,Verified
SKC.AX,10-JUL-2014,,End Of Day,,3.62,3.64,3.56,3.58,183458,,,Verified
SKC.AX,11-JUL-2014,,End Of Day,,3.5,3.55,3.48,3.5,327064,,,Verified
SKC.AX,12-JUL-2014,,End Of Day,No Trades,,,,,,,,Verified
SKC.AX,13-JUL-2014,,End Of Day,No Trades,,,,,,,,Verified
SKC.AX,14-JUL-2014,,End Of Day,,3.53,3.58,3.52,3.55,373941,,,Verified
SKC.AX,15-JUL-2014,,End Of Day,,3.57,3.59,3.53,3.56,255041,,,Verified
SKC.AX,16-JUL-2014,,End Of Day,,3.5,3.53,3.46,3.46,363733,,,Verified
SKC.AX,17-JUL-2014,,End Of Day,,3.5,3.5,3.45,3.45,315316,,,Verified
SKC.AX,18-JUL-2014,,End Of Day,,3.43,3.45,3.41,3.44,334666,,,Verified
SKC.AX,19-JUL-2014,,End Of Day,No Trades,,,,,,,,Verified
SKC.AX,20-JUL-2014,,End Of Day,No Trades,,,,,,,,Verified
SKC.AX,21-JUL-2014,,End Of Day,,3.44,3.47,3.425,3.44,677544,,,Verified
SKC.AX,22-JUL-2014,,End Of Day,,3.45,3.56,3.45,3.55,535101,,,Verified
SKC.AX,23-JUL-2014,,End Of Day,,3.55,3.58,3.54,3.57,393297,,,Verified
SKC.AX,24-JUL-2014,,End Of Day,,3.56,3.56,3.49,3.52,806513,,,Verified
SKC.AX,25-JUL-2014,,End Of Day,,3.47,3.5,3.46,3.49,752013,,,Verified
SKC.AX,26-JUL-2014,,End Of Day,No Trades,,,,,,,,Verified
SKC.AX,27-JUL-2014,,End Of Day,No Trades,,,,,,,,Verified
SKC.AX,28-JUL-2014,,End Of Day,,3.49,3.52,3.48,3.5,407568,,,Verified
SKC.AX,29-JUL-2014,,End Of Day,,3.5,3.53,3.46,3.46,522114,,,Verified
SKC.AX,30-JUL-2014,,End Of Day,,3.45,3.5,3.44,3.45,408326,,,Verified
SKC.AX,31-JUL-2014,,End Of Day,,3.46,3.46,3.42,3.44,762397,,,Verified
SKC.AX,01-AUG-2014,,End Of Day,,3.43,3.46,3.42,3.45,310954,,,Verified
SKC.AX,02-AUG-2014,,End Of Day,No Trades,,,,,,,,Verified
SKC.AX,03-AUG-2014,,End Of Day,No Trades,,,,,,,,Verified
SKC.AX,04-AUG-2014,,End Of Day,,3.42,3.42,3.36,3.37,827895,,,Verified
SKC.AX,05-AUG-2014,,End Of Day,,3.38,3.42,3.37,3.4,442982,,,Verified
SKC.AX,06-AUG-2014,,End Of Day,,3.38,3.38,3.33,3.36,531524,,,Verified
SKC.AX,07-AUG-2014,,End Of Day,,3.35,3.38,3.32,3.38,447845,,,Verified
SKC.AX,08-AUG-2014,,End Of Day,,3.34,3.34,3.31,3.33,666210,,,Verified
SKC.AX,09-AUG-2014,,End Of Day,No Trades,,,,,,,,Verified
SKC.AX,10-AUG-2014,,End Of Day,No Trades,,,,,,,,Verified
SKC.AX,11-AUG-2014,,End Of Day,,3.3,3.32,3.27,3.27,1113603,,,Verified
SKC.AX,12-AUG-2014,,End Of Day,,3.28,3.29,3.2,3.26,1237266,,,Verified
SKC.AX,13-AUG-2014,,End Of Day,,3.3,3.32,3.27,3.29,2451886,,,Verified
SKC.AX,14-AUG-2014,,End Of Day,,3.29,3.4,3.29,3.37,647622,,,Verified
SKC.AX,15-AUG-2014,,End Of Day,,3.43,3.455,3.41,3.45,806803,,,Verified
SKC.AX,16-AUG-2014,,End Of Day,No Trades,,,,,,,,Verified
SKC.AX,17-AUG-2014,,End Of Day,No Trades,,,,,,,,Verified
SKC.AX,18-AUG-2014,,End Of Day,,3.45,3.46,3.42,3.44,584303,,,Verified
SKC.AX,19-AUG-2014,,End Of Day,,3.45,3.45,3.4,3.41,469972,,,Verified
SKC.AX,20-AUG-2014,,End Of Day,,3.43,3.45,3.38,3.38,1030808,,,Verified
SKC.AX,21-AUG-2014,,End Of Day,,3.42,3.44,3.4,3.44,290323,,,Verified
SKC.AX,22-AUG-2014,,End Of Day,,3.43,3.45,3.41,3.43,998003,,,Verified
SKC.AX,23-AUG-2014,,End Of Day,No Trades,,,,,,,,Verified
SKC.AX,24-AUG-2014,,End Of Day,No Trades,,,,,,,,Verified
SKC.AX,25-AUG-2014,,End Of Day,,3.43,3.43,3.38,3.39,393639,,,Verified
SKC.AX,26-AUG-2014,,End Of Day,,3.4,3.4,3.34,3.34,403490,,,Verified
SKC.AX,27-AUG-2014,,End Of Day,,3.35,3.36,3.34,3.35,80396,,,Verified
SKC.AX,28-AUG-2014,,End Of Day,,3.35,3.39,3.35,3.37,231389,,,Verified
SKC.AX,29-AUG-2014,,End Of Day,,3.37,3.39,3.35,3.39,221312,,,Verified
SKC.AX,30-AUG-2014,,End Of Day,No Trades,,,,,,,,Verified
SKC.AX,31-AUG-2014,,End Of Day,No Trades,,,,,,,,Verified
SKC.AX,01-SEP-2014,,End Of Day,,3.4,3.41,3.37,3.38,242912,,,Verified
SKC.AX,02-SEP-2014,,End Of Day,,3.42,3.44,3.4,3.41,974253,,,Verified
SKC.AX,03-SEP-2014,,End Of Day,,3.41,3.44,3.41,3.43,205265,,,Verified
SKC.AX,04-SEP-2014,,End Of Day,,3.41,3.43,3.39,3.41,1710661,,,Verified
SKC.AX,05-SEP-2014,,End Of Day,,3.39,3.39,3.34,3.37,148620,,,Verified
SKC.AX,06-SEP-2014,,End Of Day,No Trades,,,,,,,,Verified
SKC.AX,07-SEP-2014,,End Of Day,No Trades,,,,,,,,Verified
SKC.AX,08-SEP-2014,,End Of Day,,3.35,3.35,3.32,3.32,1222998,,,Verified
SKC.AX,09-SEP-2014,,End Of Day,,3.33,3.34,3.3,3.32,102313,,,Verified
SKC.AX,10-SEP-2014,,End Of Day,,3.32,3.36,3.32,3.33,824631,,,Verified
SKC.AX,11-SEP-2014,,End Of Day,,3.35,3.35,3.3,3.3,140087,,,Verified
SKC.AX,12-SEP-2014,,End Of Day,,3.33,3.36,3.33,3.36,283265,,,Verified
SKC.AX,13-SEP-2014,,End Of Day,No Trades,,,,,,,,Verified
SKC.AX,14-SEP-2014,,End Of Day,No Trades,,,,,,,,Verified
SKC.AX,15-SEP-2014,,End Of Day,,3.35,3.37,3.35,3.36,172465,,,Verified
SKC.AX,16-SEP-2014,,End Of Day,,3.39,3.4,3.34,3.35,407669,,,Verified
SKC.AX,17-SEP-2014,,End Of Day,,3.26,3.27,3.23,3.23,520624,,,Verified
SKC.AX,18-SEP-2014,,End Of Day,,3.27,3.29,3.26,3.28,867037,,,Verified
SKC.AX,19-SEP-2014,,End Of Day,,3.29,3.32,3.28,3.31,178036,,,Verified
SKC.AX,20-SEP-2014,,End Of Day,No Trades,,,,,,,,Verified
SKC.AX,21-SEP-2014,,End Of Day,No Trades,,,,,,,,Verified
SKC.AX,22-SEP-2014,,End Of Day,,3.37,3.39,3.35,3.38,1236298,,,Verified
SKC.AX,23-SEP-2014,,End Of Day,,3.38,3.41,3.37,3.41,578015,,,Verified
SKC.AX,24-SEP-2014,,End Of Day,,3.39,3.43,3.38,3.4,323753,,,Verified
SKC.AX,25-SEP-2014,,End Of Day,,3.39,3.41,3.36,3.38,212315,,,Verified
SKC.AX,26-SEP-2014,,End Of Day,,3.33,3.35,3.31,3.34,163474,,,Verified
SKC.AX,27-SEP-2014,,End Of Day,No Trades,,,,,,,,Verified
SKC.AX,28-SEP-2014,,End Of Day,No Trades,,,,,,,,Verified
SKC.AX,29-SEP-2014,,End Of Day,,3.32,3.33,3.23,3.23,429919,,,Verified
SKC.AX,30-SEP-2014,,End Of Day,,3.23,3.26,3.23,3.23,289487,,,Verified
SKC.AX,01-OCT-2014,,End Of Day,,3.25,3.27,3.21,3.25,273276,,,Verified
SKC.AX,02-OCT-2014,,End Of Day,,3.22,3.26,3.19,3.21,289600,,,Verified
SKC.AX,03-OCT-2014,,End Of Day,,3.22,3.25,3.21,3.23,359630,,,Verified
SKC.AX,04-OCT-2014,,End Of Day,No Trades,,,,,,,,Verified
SKC.AX,05-OCT-2014,,End Of Day,No Trades,,,,,,,,Verified
SKC.AX,06-OCT-2014,,End Of Day,,3.23,3.24,3.21,3.24,70494,,,Verified
SKC.AX,07-OCT-2014,,End Of Day,,3.25,3.25,3.19,3.23,1368787,,,Verified
SKC.AX,08-OCT-2014,,End Of Day,,3.17,3.26,3.17,3.24,454741,,,Verified
SKC.AX,09-OCT-2014,,End Of Day,,3.25,3.27,3.24,3.26,355660,,,Verified
SKC.AX,10-OCT-2014,,End Of Day,,3.19,3.22,3.17,3.17,306082,,,Verified
SKC.AX,11-OCT-2014,,End Of Day,No Trades,,,,,,,,Verified
SKC.AX,12-OCT-2014,,End Of Day,No Trades,,,,,,,,Verified
SKC.AX,13-OCT-2014,,End Of Day,,3.16,3.19,3.16,3.16,200076,,,Verified
SKC.AX,14-OCT-2014,,End Of Day,,3.15,3.21,3.15,3.16,474955,,,Verified
SKC.AX,15-OCT-2014,,End Of Day,,3.18,3.19,3.14,3.14,285016,,,Verified
SKC.AX,16-OCT-2014,,End Of Day,,3.11,3.19,3.09,3.19,453237,,,Verified
SKC.AX,17-OCT-2014,,End Of Day,,3.19,3.3,3.19,3.23,1395034,,,Verified
SKC.AX,18-OCT-2014,,End Of Day,No Trades,,,,,,,,Verified
SKC.AX,19-OCT-2014,,End Of Day,No Trades,,,,,,,,Verified
SKC.AX,20-OCT-2014,,End Of Day,,3.33,3.43,3.32,3.43,966638,,,Verified
SKC.AX,21-OCT-2014,,End Of Day,,3.44,3.57,3.42,3.52,565514,,,Verified
SKC.AX,22-OCT-2014,,End Of Day,,3.49,3.555,3.47,3.53,345513,,,Verified
SKC.AX,23-OCT-2014,,End Of Day,,3.46,3.49,3.44,3.46,498325,,,Verified
SKC.AX,24-OCT-2014,,End Of Day,,3.46,3.5,3.45,3.49,475892,,,Verified
SKC.AX,25-OCT-2014,,End Of Day,No Trades,,,,,,,,Verified
SKC.AX,26-OCT-2014,,End Of Day,No Trades,,,,,,,,Verified
SKC.AX,27-OCT-2014,,End Of Day,,3.5,3.535,3.48,3.53,269954,,,Verified
SKC.AX,28-OCT-2014,,End Of Day,,3.49,3.52,3.485,3.51,436496,,,Verified
SKC.AX,29-OCT-2014,,End Of Day,,3.51,3.51,3.45,3.45,556790,,,Verified
SKC.AX,30-OCT-2014,,End Of Day,,3.45,3.49,3.42,3.47,1613763,,,Verified
SKC.AX,31-OCT-2014,,End Of Day,,3.5,3.52,3.47,3.5,244688,,,Verified
SKC.AX,01-NOV-2014,,End Of Day,No Trades,,,,,,,,Verified
SKC.AX,02-NOV-2014,,End Of Day,No Trades,,,,,,,,Verified
SKC.AX,03-NOV-2014,,End Of Day,,3.49,3.52,3.43,3.46,144274,,,Verified
SKC.AX,04-NOV-2014,,End Of Day,,3.46,3.51,3.43,3.51,279187,,,Verified
SKC.AX,05-NOV-2014,,End Of Day,,3.52,3.59,3.505,3.59,400137,,,Verified
SKC.AX,06-NOV-2014,,End Of Day,,3.6,3.63,3.58,3.62,410446,,,Verified
SKC.AX,07-NOV-2014,,End Of Day,,3.64,3.69,3.63,3.69,476603,,,Verified
SKC.AX,08-NOV-2014,,End Of Day,No Trades,,,,,,,,Verified
SKC.AX,09-NOV-2014,,End Of Day,No Trades,,,,,,,,Verified
SKC.AX,10-NOV-2014,,End Of Day,,3.67,3.72,3.66,3.68,263601,,,Verified
SKC.AX,11-NOV-2014,,End Of Day,,3.65,3.68,3.61,3.65,254005,,,Verified
SKC.AX,12-NOV-2014,,End Of Day,,3.65,3.7,3.64,3.7,320907,,,Verified
SKC.AX,13-NOV-2014,,End Of Day,,3.69,3.73,3.67,3.7,804397,,,Verified
SKC.AX,14-NOV-2014,,End Of Day,,3.7,3.725,3.67,3.71,182937,,,Verified
SKC.AX,15-NOV-2014,,End Of Day,No Trades,,,,,,,,Verified
SKC.AX,16-NOV-2014,,End Of Day,No Trades,,,,,,,,Verified
SKC.AX,17-NOV-2014,,End Of Day,,3.71,3.72,3.68,3.71,169485,,,Verified
SKC.AX,18-NOV-2014,,End Of Day,,3.71,3.77,3.71,3.76,289530,,,Verified
SKC.AX,19-NOV-2014,,End Of Day,,3.75,3.78,3.74,3.75,379529,,,Verified
SKC.AX,20-NOV-2014,,End Of Day,,3.72,3.77,3.72,3.73,271779,,,Verified
SKC.AX,21-NOV-2014,,End Of Day,,3.66,3.71,3.66,3.7,130858,,,Verified
SKC.AX,22-NOV-2014,,End Of Day,No Trades,,,,,,,,Verified
SKC.AX,23-NOV-2014,,End Of Day,No Trades,,,,,,,,Verified
SKC.AX,24-NOV-2014,,End Of Day,,3.71,3.73,3.685,3.71,159959,,,Verified
SKC.AX,25-NOV-2014,,End Of Day,,3.68,3.74,3.66,3.73,411147,,,Verified
SKC.AX,26-NOV-2014,,End Of Day,,3.74,3.74,3.69,3.72,176257,,,Verified
SKC.AX,27-NOV-2014,,End Of Day,,3.72,3.72,3.68,3.69,150098,,,Verified
SKC.AX,28-NOV-2014,,End Of Day,,3.68,3.7,3.65,3.66,333064,,,Verified
SKC.AX,29-NOV-2014,,End Of Day,No Trades,,,,,,,,Verified
SKC.AX,30-NOV-2014,,End Of Day,No Trades,,,,,,,,Verified
SKC.AX,01-DEC-2014,,End Of Day,,3.68,3.68,3.62,3.63,490094,,,Verified
SKC.AX,02-DEC-2014,,End Of Day,,3.6,3.65,3.59,3.65,287150,,,Verified
SKC.AX,03-DEC-2014,,End Of Day,,3.66,3.735,3.64,3.73,228648,,,Verified
SKC.AX,04-DEC-2014,,End Of Day,,3.75,3.75,3.7,3.75,239215,,,Verified
SKC.AX,05-DEC-2014,,End Of Day,,3.73,3.77,3.72,3.75,494030,,,Verified
SKC.AX,06-DEC-2014,,End Of Day,No Trades,,,,,,,,Verified
SKC.AX,07-DEC-2014,,End Of Day,No Trades,,,,,,,,Verified
SKC.AX,08-DEC-2014,,End Of Day,,3.75,3.75,3.63,3.66,446684,,,Verified
SKC.AX,09-DEC-2014,,End Of Day,,3.65,3.71,3.65,3.66,309312,,,Verified
SKC.AX,10-DEC-2014,,End Of Day,,3.68,3.7,3.66,3.67,1035458,,,Verified
SKC.AX,11-DEC-2014,,End Of Day,,3.67,3.68,3.65,3.68,408539,,,Verified
SKC.AX,12-DEC-2014,,End Of Day,,3.74,3.76,3.71,3.73,564343,,,Verified
SKC.AX,13-DEC-2014,,End Of Day,No Trades,,,,,,,,Verified
SKC.AX,14-DEC-2014,,End Of Day,No Trades,,,,,,,,Verified
SKC.AX,15-DEC-2014,,End Of Day,,3.71,3.73,3.69,3.7,150851,,,Verified
SKC.AX,16-DEC-2014,,End Of Day,,3.69,3.71,3.62,3.65,355824,,,Verified
SKC.AX,17-DEC-2014,,End Of Day,,3.67,3.74,3.67,3.71,658209,,,Verified
SKC.AX,18-DEC-2014,,End Of Day,,3.72,3.75,3.7,3.75,473629,,,Verified
SKC.AX,19-DEC-2014,,End Of Day,,3.75,3.82,3.62,3.63,2008968,,,Verified
SKC.AX,20-DEC-2014,,End Of Day,No Trades,,,,,,,,Verified
SKC.AX,21-DEC-2014,,End Of Day,No Trades,,,,,,,,Verified
SKC.AX,22-DEC-2014,,End Of Day,,3.65,3.66,3.595,3.62,696346,,,Verified
SKC.AX,23-DEC-2014,,End Of Day,,3.62,3.655,3.6,3.63,365479,,,Verified
SKC.AX,24-DEC-2014,,End Of Day,,3.64,3.64,3.58,3.59,181399,,,Verified
SKC.AX,25-DEC-2014,,End Of Day,No Trades,,,,,,,,Verified
SKC.AX,26-DEC-2014,,End Of Day,No Trades,,,,,,,,Verified
SKC.AX,27-DEC-2014,,End Of Day,No Trades,,,,,,,,Verified
SKC.AX,28-DEC-2014,,End Of Day,No Trades,,,,,,,,Verified
SKC.AX,29-DEC-2014,,End Of Day,,3.61,3.62,3.59,3.62,142019,,,Verified
SKC.AX,30-DEC-2014,,End Of Day,,3.62,3.705,3.62,3.69,674420,,,Verified
SKC.AX,31-DEC-2014,,End Of Day,,3.7,3.72,3.65,3.69,68492,,,Verified
SKC.AX,01-JAN-2015,,End Of Day,No Trades,,,,,,,,Verified
SKC.AX,02-JAN-2015,,End Of Day,,3.7,3.7,3.59,3.65,40459,,,Verified
SKC.AX,03-JAN-2015,,End Of Day,No Trades,,,,,,,,Verified
SKC.AX,04-JAN-2015,,End Of Day,No Trades,,,,,,,,Verified
SKC.AX,05-JAN-2015,,End Of Day,,3.66,3.68,3.61,3.64,98535,,,Verified
SKC.AX,06-JAN-2015,,End Of Day,,3.61,3.67,3.61,3.65,208842,,,Verified
SKC.AX,07-JAN-2015,,End Of Day,,3.65,3.7,3.65,3.69,762131,,,Verified
SKC.AX,08-JAN-2015,,End Of Day,,3.69,3.78,3.68,3.75,359886,,,Verified
SKC.AX,09-JAN-2015,,End Of Day,,3.78,3.83,3.78,3.82,323664,,,Verified
SKC.AX,10-JAN-2015,,End Of Day,No Trades,,,,,,,,Verified
SKC.AX,11-JAN-2015,,End Of Day,No Trades,,,,,,,,Verified
SKC.AX,12-JAN-2015,,End Of Day,,3.82,3.82,3.79,3.8,301334,,,Verified
SKC.AX,13-JAN-2015,,End Of Day,,3.78,3.8,3.74,3.75,115087,,,Verified
SKC.AX,14-JAN-2015,,End Of Day,,3.75,3.82,3.75,3.79,219250,,,Verified
SKC.AX,15-JAN-2015,,End Of Day,,3.76,3.78,3.74,3.75,530074,,,Verified
SKC.AX,16-JAN-2015,,End Of Day,,3.74,3.76,3.67,3.71,198127,,,Verified
SKC.AX,17-JAN-2015,,End Of Day,No Trades,,,,,,,,Verified
SKC.AX,18-JAN-2015,,End Of Day,No Trades,,,,,,,,Verified
SKC.AX,19-JAN-2015,,End Of Day,,3.71,3.73,3.68,3.69,350842,,,Verified
SKC.AX,20-JAN-2015,,End Of Day,,3.71,3.73,3.67,3.72,168806,,,Verified
SKC.AX,21-JAN-2015,,End Of Day,,3.7,3.83,3.7,3.83,326752,,,Verified
SKC.AX,22-JAN-2015,,End Of Day,,3.8,3.81,3.75,3.8,1045293,,,Verified
SKC.AX,23-JAN-2015,,End Of Day,,3.8,3.84,3.79,3.81,183922,,,Verified
SKC.AX,24-JAN-2015,,End Of Day,No Trades,,,,,,,,Verified
SKC.AX,25-JAN-2015,,End Of Day,No Trades,,,,,,,,Verified
SKC.AX,26-JAN-2015,,End Of Day,No Trades,,,,,,,,Verified
SKC.AX,27-JAN-2015,,End Of Day,,3.81,3.86,3.8,3.86,268389,,,Verified
SKC.AX,28-JAN-2015,,End Of Day,,3.8,3.8,3.73,3.8,179691,,,Verified
SKC.AX,29-JAN-2015,,End Of Day,,3.76,3.76,3.69,3.7,193997,,,Verified
SKC.AX,30-JAN-2015,,End Of Day,,3.74,3.75,3.66,3.7,143785,,,Verified
SKC.AX,31-JAN-2015,,End Of Day,No Trades,,,,,,,,Verified
SKC.AX,01-FEB-2015,,End Of Day,No Trades,,,,,,,,Verified
SKC.AX,02-FEB-2015,,End Of Day,,3.66,3.66,3.61,3.63,239142,,,Verified
SKC.AX,03-FEB-2015,,End Of Day,,3.62,3.71,3.61,3.71,347941,,,Verified
SKC.AX,04-FEB-2015,,End Of Day,,3.72,3.72,3.58,3.65,353854,,,Verified
SKC.AX,05-FEB-2015,,End Of Day,,3.6,3.65,3.56,3.64,235103,,,Verified
SKC.AX,06-FEB-2015,,End Of Day,,3.62,3.65,3.57,3.65,157818,,,Verified
SKC.AX,07-FEB-2015,,End Of Day,No Trades,,,,,,,,Verified
SKC.AX,08-FEB-2015,,End Of Day,No Trades,,,,,,,,Verified
SKC.AX,09-FEB-2015,,End Of Day,,3.57,3.62,3.56,3.61,193609,,,Verified
SKC.AX,10-FEB-2015,,End Of Day,,3.6,3.71,3.59,3.7,174595,,,Verified
SKC.AX,11-FEB-2015,,End Of Day,,3.66,3.81,3.66,3.78,852199,,,Verified
SKC.AX,12-FEB-2015,,End Of Day,,3.78,3.79,3.72,3.75,570557,,,Verified
SKC.AX,13-FEB-2015,,End Of Day,,3.72,3.77,3.71,3.73,1148431,,,Verified
SKC.AX,14-FEB-2015,,End Of Day,No Trades,,,,,,,,Verified
SKC.AX,15-FEB-2015,,End Of Day,No Trades,,,,,,,,Verified
SKC.AX,16-FEB-2015,,End Of Day,,3.7,3.77,3.67,3.74,246599,,,Verified
SKC.AX,17-FEB-2015,,End Of Day,,3.75,3.81,3.75,3.8,2118225,,,Verified
SKC.AX,18-FEB-2015,,End Of Day,,3.8,3.87,3.79,3.84,1991133,,,Verified
SKC.AX,19-FEB-2015,,End Of Day,,3.87,3.9,3.83,3.86,748382,,,Verified
SKC.AX,20-FEB-2015,,End Of Day,,3.86,3.86,3.83,3.85,138245,,,Verified
SKC.AX,21-FEB-2015,,End Of Day,No Trades,,,,,,,,Verified
SKC.AX,22-FEB-2015,,End Of Day,No Trades,,,,,,,,Verified
SKC.AX,23-FEB-2015,,End Of Day,,3.85,3.87,3.79,3.86,705061,,,Verified
SKC.AX,24-FEB-2015,,End Of Day,,3.86,3.89,3.84,3.89,227392,,,Verified
SKC.AX,25-FEB-2015,,End Of Day,,3.86,3.9,3.86,3.89,426011,,,Verified
SKC.AX,26-FEB-2015,,End Of Day,,3.89,3.9,3.85,3.87,188514,,,Verified
SKC.AX,27-FEB-2015,,End Of Day,,3.89,3.9,3.85,3.86,312996,,,Verified
SKC.AX,28-FEB-2015,,End Of Day,No Trades,,,,,,,,Verified
SKC.AX,01-MAR-2015,,End Of Day,No Trades,,,,,,,,Verified
SKC.AX,02-MAR-2015,,End Of Day,,3.86,3.89,3.84,3.86,587805,,,Verified
SKC.AX,03-MAR-2015,,End Of Day,,3.88,3.9,3.85,3.88,183062,,,Verified
SKC.AX,04-MAR-2015,,End Of Day,,3.89,3.95,3.87,3.9,316153,,,Verified
SKC.AX,05-MAR-2015,,End Of Day,,3.91,3.95,3.9,3.92,138593,,,Verified
SKC.AX,06-MAR-2015,,End Of Day,,3.91,3.97,3.89,3.97,575948,,,Verified
SKC.AX,07-MAR-2015,,End Of Day,No Trades,,,,,,,,Verified
SKC.AX,08-MAR-2015,,End Of Day,No Trades,,,,,,,,Verified
SKC.AX,09-MAR-2015,,End Of Day,,3.94,3.96,3.91,3.94,371494,,,Verified
SKC.AX,10-MAR-2015,,End Of Day,,3.93,4,3.92,3.92,527332,,,Verified
SKC.AX,11-MAR-2015,,End Of Day,,3.92,3.96,3.88,3.91,837433,,,Verified
SKC.AX,12-MAR-2015,,End Of Day,,3.92,4.03,3.91,3.98,978445,,,Verified
SKC.AX,13-MAR-2015,,End Of Day,,3.97,3.99,3.94,3.97,500347,,,Verified
SKC.AX,14-MAR-2015,,End Of Day,No Trades,,,,,,,,Verified
SKC.AX,15-MAR-2015,,End Of Day,No Trades,,,,,,,,Verified
SKC.AX,16-MAR-2015,,End Of Day,,3.96,4,3.94,3.99,127018,,,Verified
SKC.AX,17-MAR-2015,,End Of Day,,4.02,4.05,3.99,4,267200,,,Verified
SKC.AX,18-MAR-2015,,End Of Day,,3.89,3.89,3.86,3.88,1320644,,,Verified
SKC.AX,19-MAR-2015,,End Of Day,,3.93,3.99,3.91,3.99,1302338,,,Verified
SKC.AX,20-MAR-2015,,End Of Day,,3.99,4.01,3.92,3.93,988380,,,Verified
SKC.AX,21-MAR-2015,,End Of Day,No Trades,,,,,,,,Verified
SKC.AX,22-MAR-2015,,End Of Day,No Trades,,,,,,,,Verified
SKC.AX,23-MAR-2015,,End Of Day,,3.93,3.935,3.86,3.92,438712,,,Verified
SKC.AX,24-MAR-2015,,End Of Day,,3.9,3.92,3.88,3.91,367614,,,Verified
SKC.AX,25-MAR-2015,,End Of Day,,3.9,3.94,3.87,3.91,463715,,,Verified
SKC.AX,26-MAR-2015,,End Of Day,,3.88,3.91,3.86,3.89,555669,,,Verified
SKC.AX,27-MAR-2015,,End Of Day,,3.91,3.97,3.9,3.94,409577,,,Verified
SKC.AX,28-MAR-2015,,End Of Day,No Trades,,,,,,,,Verified
SKC.AX,29-MAR-2015,,End Of Day,No Trades,,,,,,,,Verified
SKC.AX,30-MAR-2015,,End Of Day,,3.95,4,3.94,3.96,448581,,,Verified
SKC.AX,31-MAR-2015,,End Of Day,,3.99,4.055,3.99,4.05,588518,,,Verified
SKC.AX,01-APR-2015,,End Of Day,,4.01,4.05,4,4.01,271280,,,Verified
SKC.AX,02-APR-2015,,End Of Day,,4.01,4.06,3.98,4.05,253727,,,Verified
SKC.AX,03-APR-2015,,End Of Day,No Trades,,,,,,,,Verified
SKC.AX,04-APR-2015,,End Of Day,No Trades,,,,,,,,Verified
SKC.AX,05-APR-2015,,End Of Day,No Trades,,,,,,,,Verified
SKC.AX,06-APR-2015,,End Of Day,No Trades,,,,,,,,Verified
SKC.AX,07-APR-2015,,End Of Day,,4.09,4.14,3.99,4.01,430869,,,Verified
SKC.AX,08-APR-2015,,End Of Day,,4.02,4.07,4.01,4.06,962493,,,Verified
SKC.AX,09-APR-2015,,End Of Day,,4.06,4.06,4.02,4.03,102923,,,Verified
SKC.AX,10-APR-2015,,End Of Day,,4.03,4.07,4,4.07,794539,,,Verified
SKC.AX,11-APR-2015,,End Of Day,No Trades,,,,,,,,Verified
SKC.AX,12-APR-2015,,End Of Day,No Trades,,,,,,,,Verified
SKC.AX,13-APR-2015,,End Of Day,,4.04,4.09,4.02,4.08,228069,,,Verified
SKC.AX,14-APR-2015,,End Of Day,,4.08,4.13,4.06,4.1,248781,,,Verified
SKC.AX,15-APR-2015,,End Of Day,,4.09,4.115,4.07,4.1,1644472,,,Verified
SKC.AX,16-APR-2015,,End Of Day,,4.1,4.1,4.01,4.04,229614,,,Verified
SKC.AX,17-APR-2015,,End Of Day,,4.03,4.06,4.025,4.03,251948,,,Verified
SKC.AX,18-APR-2015,,End Of Day,No Trades,,,,,,,,Verified
SKC.AX,19-APR-2015,,End Of Day,No Trades,,,,,,,,Verified
SKC.AX,20-APR-2015,,End Of Day,,4.02,4.06,4.02,4.04,180169,,,Verified
SKC.AX,21-APR-2015,,End Of Day,,4.05,4.1,4.04,4.09,278273,,,Verified
SKC.AX,22-APR-2015,,End Of Day,,4.07,4.08,4.04,4.07,625253,,,Verified
SKC.AX,23-APR-2015,,End Of Day,,4.04,4.05,4,4.04,392592,,,Verified
SKC.AX,24-APR-2015,,End Of Day,,4.05,4.1,4.03,4.09,285811,,,Verified
SKC.AX,25-APR-2015,,End Of Day,No Trades,,,,,,,,Verified
SKC.AX,26-APR-2015,,End Of Day,No Trades,,,,,,,,Verified
SKC.AX,27-APR-2015,,End Of Day,,4.09,4.14,4.07,4.14,270130,,,Verified
SKC.AX,28-APR-2015,,End Of Day,,4.12,4.12,3.86,3.98,3625613,,,Verified
SKC.AX,29-APR-2015,,End Of Day,,3.98,4,3.92,3.97,534599,,,Verified
SKC.AX,30-APR-2015,,End Of Day,,3.97,4.02,3.96,3.99,2428209,,,Verified
SKC.AX,01-MAY-2015,,End Of Day,,3.99,4.04,3.99,4.04,5222729,,,Verified
SKC.AX,02-MAY-2015,,End Of Day,No Trades,,,,,,,,Verified
SKC.AX,03-MAY-2015,,End Of Day,No Trades,,,,,,,,Verified
SKC.AX,04-MAY-2015,,End Of Day,,4.04,4.07,4.01,4.06,515264,,,Verified
SKC.AX,05-MAY-2015,,End Of Day,,4.04,4.08,3.99,3.99,782947,,,Verified
SKC.AX,06-MAY-2015,,End Of Day,,3.99,4,3.88,3.88,581332,,,Verified
SKC.AX,07-MAY-2015,,End Of Day,,3.89,3.93,3.85,3.87,368021,,,Verified
SKC.AX,08-MAY-2015,,End Of Day,,3.89,3.93,3.84,3.85,415407,,,Verified
SKC.AX,09-MAY-2015,,End Of Day,No Trades,,,,,,,,Verified
SKC.AX,10-MAY-2015,,End Of Day,No Trades,,,,,,,,Verified
SKC.AX,11-MAY-2015,,End Of Day,,3.85,3.9,3.85,3.9,243795,,,Verified
SKC.AX,12-MAY-2015,,End Of Day,,3.85,3.895,3.845,3.87,427373,,,Verified
SKC.AX,13-MAY-2015,,End Of Day,,3.9,3.96,3.88,3.96,360939,,,Verified
SKC.AX,14-MAY-2015,,End Of Day,,3.93,3.94,3.87,3.94,328452,,,Verified
SKC.AX,15-MAY-2015,,End Of Day,,3.95,3.95,3.9,3.94,251622,,,Verified
SKC.AX,16-MAY-2015,,End Of Day,No Trades,,,,,,,,Verified
SKC.AX,17-MAY-2015,,End Of Day,No Trades,,,,,,,,Verified
SKC.AX,18-MAY-2015,,End Of Day,,3.95,3.97,3.93,3.93,146824,,,Verified
SKC.AX,19-MAY-2015,,End Of Day,,3.92,3.92,3.84,3.9,685116,,,Verified
SKC.AX,20-MAY-2015,,End Of Day,,3.9,3.95,3.88,3.93,510445,,,Verified
SKC.AX,21-MAY-2015,,End Of Day,,3.93,4.02,3.91,4,442664,,,Verified
SKC.AX,22-MAY-2015,,End Of Day,,4.02,4.09,4.02,4.05,286048,,,Verified
SKC.AX,23-MAY-2015,,End Of Day,No Trades,,,,,,,,Verified
SKC.AX,24-MAY-2015,,End Of Day,No Trades,,,,,,,,Verified
SKC.AX,25-MAY-2015,,End Of Day,,4.08,4.11,4.07,4.1,1028968,,,Verified
SKC.AX,26-MAY-2015,,End Of Day,,4.07,4.09,4.05,4.06,856969,,,Verified
SKC.AX,27-MAY-2015,,End Of Day,,4.08,4.18,4.08,4.14,2609998,,,Verified
SKC.AX,28-MAY-2015,,End Of Day,,4.13,4.13,4.08,4.09,294356,,,Verified
SKC.AX,29-MAY-2015,,End Of Day,,4.12,4.15,4.09,4.13,490114,,,Verified
SKC.AX,30-MAY-2015,,End Of Day,No Trades,,,,,,,,Verified
SKC.AX,31-MAY-2015,,End Of Day,No Trades,,,,,,,,Verified
SKC.AX,01-JUN-2015,,End Of Day,,4.1,4.13,4.08,4.11,258929,,,Verified
SKC.AX,02-JUN-2015,,End Of Day,,4.13,4.17,4.08,4.09,1441884,,,Verified
SKC.AX,03-JUN-2015,,End Of Day,,4.05,4.06,4.03,4.04,642350,,,Verified
SKC.AX,04-JUN-2015,,End Of Day,,4.06,4.07,4.035,4.05,500368,,,Verified
SKC.AX,05-JUN-2015,,End Of Day,,4.04,4.09,4.03,4.05,1625777,,,Verified
SKC.AX,06-JUN-2015,,End Of Day,No Trades,,,,,,,,Verified
SKC.AX,07-JUN-2015,,End Of Day,No Trades,,,,,,,,Verified
SKC.AX,08-JUN-2015,,End Of Day,No Trades,,,,,,,,Verified
SKC.AX,09-JUN-2015,,End Of Day,,4.03,4.05,4.01,4.02,295203,,,Verified
SKC.AX,10-JUN-2015,,End Of Day,,4.02,4.07,3.985,4.05,582385,,,Verified
SKC.AX,11-JUN-2015,,End Of Day,,4.05,4.05,3.98,4.03,486744,,,Verified
SKC.AX,12-JUN-2015,,End Of Day,,4.02,4.04,3.98,3.99,934227,,,Verified
SKC.AX,13-JUN-2015,,End Of Day,No Trades,,,,,,,,Verified
SKC.AX,14-JUN-2015,,End Of Day,No Trades,,,,,,,,Verified
SKC.AX,15-JUN-2015,,End Of Day,,3.97,3.98,3.88,3.89,453713,,,Verified
SKC.AX,16-JUN-2015,,End Of Day,,3.91,3.91,3.8,3.8,376338,,,Verified
SKC.AX,17-JUN-2015,,End Of Day,,3.82,3.82,3.78,3.8,577717,,,Verified
SKC.AX,18-JUN-2015,,End Of Day,,3.75,3.78,3.67,3.68,734166,,,Verified
SKC.AX,19-JUN-2015,,End Of Day,,3.68,3.75,3.66,3.73,524911,,,Verified
SKC.AX,20-JUN-2015,,End Of Day,No Trades,,,,,,,,Verified
SKC.AX,21-JUN-2015,,End Of Day,No Trades,,,,,,,,Verified
SKC.AX,22-JUN-2015,,End Of Day,,3.73,3.73,3.68,3.72,522979,,,Verified
SKC.AX,23-JUN-2015,,End Of Day,,3.74,3.83,3.73,3.82,896182,,,Verified
SKC.AX,24-JUN-2015,,End Of Day,,3.81,3.81,3.75,3.77,556894,,,Verified
SKC.AX,25-JUN-2015,,End Of Day,,3.77,3.77,3.72,3.75,1295894,,,Verified
SKC.AX,26-JUN-2015,,End Of Day,,3.72,3.75,3.72,3.73,583139,,,Verified
SKC.AX,27-JUN-2015,,End Of Day,No Trades,,,,,,,,Verified
SKC.AX,28-JUN-2015,,End Of Day,No Trades,,,,,,,,Verified
SKC.AX,29-JUN-2015,,End Of Day,,3.67,3.72,3.67,3.71,1054664,,,Verified
SKC.AX,30-JUN-2015,,End Of Day,,3.68,3.77,3.68,3.75,793181,,,Verified
SKC.AX,01-JUL-2015,,End Of Day,,3.73,3.81,3.73,3.81,776276,,,Verified
SKC.AX,02-JUL-2015,,End Of Day,,3.8,3.87,3.79,3.87,742950,,,Verified
SKC.AX,03-JUL-2015,,End Of Day,,3.85,3.9,3.85,3.89,413619,,,Verified
SKC.AX,04-JUL-2015,,End Of Day,No Trades,,,,,,,,Verified
SKC.AX,05-JUL-2015,,End Of Day,No Trades,,,,,,,,Verified
SKC.AX,06-JUL-2015,,End Of Day,,3.83,3.87,3.81,3.84,330620,,,Verified
SKC.AX,07-JUL-2015,,End Of Day,,3.86,3.93,3.86,3.88,849385,,,Verified
SKC.AX,08-JUL-2015,,End Of Day,,3.81,3.89,3.81,3.81,574552,,,Verified
SKC.AX,09-JUL-2015,,End Of Day,,3.79,3.82,3.76,3.78,333321,,,Verified
SKC.AX,10-JUL-2015,,End Of Day,,3.81,3.88,3.78,3.79,368872,,,Verified
SKC.AX,11-JUL-2015,,End Of Day,No Trades,,,,,,,,Verified
SKC.AX,12-JUL-2015,,End Of Day,No Trades,,,,,,,,Verified
SKC.AX,13-JUL-2015,,End Of Day,,3.74,3.76,3.7,3.72,513862,,,Verified
SKC.AX,14-JUL-2015,,End Of Day,,3.71,3.75,3.7,3.72,1445036,,,Verified
SKC.AX,15-JUL-2015,,End Of Day,,3.75,3.8,3.73,3.78,437162,,,Verified
SKC.AX,16-JUL-2015,,End Of Day,,3.78,3.81,3.73,3.73,561624,,,Verified
SKC.AX,17-JUL-2015,,End Of Day,,3.75,3.76,3.71,3.73,131924,,,Verified
SKC.AX,18-JUL-2015,,End Of Day,No Trades,,,,,,,,Verified
SKC.AX,19-JUL-2015,,End Of Day,No Trades,,,,,,,,Verified
SKC.AX,20-JUL-2015,,End Of Day,,3.74,3.79,3.71,3.78,306539,,,Verified
SKC.AX,21-JUL-2015,,End Of Day,,3.79,3.8,3.76,3.8,217082,,,Verified
SKC.AX,22-JUL-2015,,End Of Day,,3.8,3.83,3.76,3.76,264902,,,Verified
SKC.AX,23-JUL-2015,,End Of Day,,3.79,3.84,3.79,3.82,155614,,,Verified
SKC.AX,24-JUL-2015,,End Of Day,,3.78,3.81,3.77,3.79,201077,,,Verified
SKC.AX,25-JUL-2015,,End Of Day,No Trades,,,,,,,,Verified
SKC.AX,26-JUL-2015,,End Of Day,No Trades,,,,,,,,Verified
SKC.AX,27-JUL-2015,,End Of Day,,3.76,3.83,3.75,3.83,172721,,,Verified
SKC.AX,28-JUL-2015,,End Of Day,,3.83,3.84,3.79,3.82,257799,,,Verified
SKC.AX,29-JUL-2015,,End Of Day,,3.9,3.96,3.89,3.95,501033,,,Verified
SKC.AX,30-JUL-2015,,End Of Day,,3.95,3.99,3.94,3.95,265878,,,Verified
SKC.AX,31-JUL-2015,,End Of Day,,3.97,4.01,3.96,4.01,239753,,,Verified
SKC.AX,01-AUG-2015,,End Of Day,No Trades,,,,,,,,Verified
SKC.AX,02-AUG-2015,,End Of Day,No Trades,,,,,,,,Verified
SKC.AX,03-AUG-2015,,End Of Day,,3.96,4.01,3.95,3.98,323985,,,Verified
SKC.AX,04-AUG-2015,,End Of Day,,3.95,3.98,3.93,3.95,299409,,,Verified
SKC.AX,05-AUG-2015,,End Of Day,,3.92,3.93,3.87,3.9,456840,,,Verified
SKC.AX,06-AUG-2015,,End Of Day,,3.9,3.955,3.85,3.86,413360,,,Verified
SKC.AX,07-AUG-2015,,End Of Day,,3.82,3.85,3.82,3.82,619897,,,Verified
SKC.AX,08-AUG-2015,,End Of Day,No Trades,,,,,,,,Verified
SKC.AX,09-AUG-2015,,End Of Day,No Trades,,,,,,,,Verified
SKC.AX,10-AUG-2015,,End Of Day,,3.82,3.84,3.79,3.82,228190,,,Verified
SKC.AX,11-AUG-2015,,End Of Day,,3.83,3.85,3.78,3.83,177723,,,Verified
SKC.AX,12-AUG-2015,,End Of Day,,3.83,3.84,3.75,3.75,1107149,,,Verified
SKC.AX,13-AUG-2015,,End Of Day,,3.74,3.76,3.7,3.71,431957,,,Verified
SKC.AX,14-AUG-2015,,End Of Day,,3.7,3.71,3.66,3.69,418922,,,Verified
SKC.AX,15-AUG-2015,,End Of Day,No Trades,,,,,,,,Verified
SKC.AX,16-AUG-2015,,End Of Day,No Trades,,,,,,,,Verified
SKC.AX,17-AUG-2015,,End Of Day,,3.68,3.72,3.66,3.66,529459,,,Verified
SKC.AX,18-AUG-2015,,End Of Day,,3.66,3.72,3.66,3.67,1081340,,,Verified
SKC.AX,19-AUG-2015,,End Of Day,,3.68,3.71,3.66,3.71,681251,,,Verified
SKC.AX,20-AUG-2015,,End Of Day,,3.67,3.7,3.62,3.65,1321472,,,Verified
SKC.AX,21-AUG-2015,,End Of Day,,3.6,3.64,3.58,3.63,1490039,,,Verified
SKC.AX,22-AUG-2015,,End Of Day,No Trades,,,,,,,,Verified
SKC.AX,23-AUG-2015,,End Of Day,No Trades,,,,,,,,Verified
SKC.AX,24-AUG-2015,,End Of Day,,3.6,3.6,3.51,3.57,861337,,,Verified
SKC.AX,25-AUG-2015,,End Of Day,,3.51,3.63,3.5,3.62,1560930,,,Verified
SKC.AX,26-AUG-2015,,End Of Day,,3.58,3.64,3.58,3.63,1182849,,,Verified
SKC.AX,27-AUG-2015,,End Of Day,,3.65,3.66,3.59,3.61,844214,,,Verified
SKC.AX,28-AUG-2015,,End Of Day,,3.62,3.62,3.55,3.58,232606,,,Verified
SKC.AX,29-AUG-2015,,End Of Day,No Trades,,,,,,,,Verified
SKC.AX,30-AUG-2015,,End Of Day,No Trades,,,,,,,,Verified
SKC.AX,31-AUG-2015,,End Of Day,,3.55,3.56,3.46,3.5,829270,,,Verified
SKC.AX,01-SEP-2015,,End Of Day,,3.45,3.5,3.435,3.47,510892,,,Verified
SKC.AX,02-SEP-2015,,End Of Day,,3.44,3.47,3.41,3.47,535625,,,Verified
SKC.AX,03-SEP-2015,,End Of Day,,3.5,3.51,3.42,3.43,744670,,,Verified
SKC.AX,04-SEP-2015,,End Of Day,,3.43,3.5,3.42,3.49,524257,,,Verified
SKC.AX,05-SEP-2015,,End Of Day,No Trades,,,,,,,,Verified
SKC.AX,06-SEP-2015,,End Of Day,No Trades,,,,,,,,Verified
SKC.AX,07-SEP-2015,,End Of Day,,3.47,3.52,3.45,3.52,291688,,,Verified
SKC.AX,08-SEP-2015,,End Of Day,,3.53,3.55,3.49,3.52,264983,,,Verified
SKC.AX,09-SEP-2015,,End Of Day,,3.54,3.54,3.5,3.52,1108334,,,Verified
SKC.AX,10-SEP-2015,,End Of Day,,3.47,3.49,3.4,3.4,2276868,,,Verified
SKC.AX,11-SEP-2015,,End Of Day,,3.41,3.45,3.395,3.45,327543,,,Verified
SKC.AX,12-SEP-2015,,End Of Day,No Trades,,,,,,,,Verified
SKC.AX,13-SEP-2015,,End Of Day,No Trades,,,,,,,,Verified
SKC.AX,14-SEP-2015,,End Of Day,,3.49,3.5,3.44,3.5,380251,,,Verified
SKC.AX,15-SEP-2015,,End Of Day,,3.49,3.525,3.46,3.49,1249681,,,Verified
SKC.AX,16-SEP-2015,,End Of Day,,3.41,3.45,3.37,3.43,1277605,,,Verified
SKC.AX,17-SEP-2015,,End Of Day,,3.46,3.465,3.39,3.43,651210,,,Verified
SKC.AX,18-SEP-2015,,End Of Day,,3.4,3.45,3.4,3.43,532852,,,Verified
SKC.AX,19-SEP-2015,,End Of Day,No Trades,,,,,,,,Verified
SKC.AX,20-SEP-2015,,End Of Day,No Trades,,,,,,,,Verified
SKC.AX,21-SEP-2015,,End Of Day,,3.38,3.44,3.37,3.44,386036,,,Verified
SKC.AX,22-SEP-2015,,End Of Day,,3.46,3.46,3.4,3.42,401170,,,Verified
SKC.AX,23-SEP-2015,,End Of Day,,3.41,3.43,3.36,3.4,598542,,,Verified
SKC.AX,24-SEP-2015,,End Of Day,,3.42,3.46,3.41,3.45,645349,,,Verified
SKC.AX,25-SEP-2015,,End Of Day,,3.46,3.52,3.45,3.5,700910,,,Verified
SKC.AX,26-SEP-2015,,End Of Day,No Trades,,,,,,,,Verified
SKC.AX,27-SEP-2015,,End Of Day,No Trades,,,,,,,,Verified
SKC.AX,28-SEP-2015,,End Of Day,,3.49,3.52,3.48,3.5,615635,,,Verified
SKC.AX,29-SEP-2015,,End Of Day,,3.44,3.46,3.41,3.41,551953,,,Verified
SKC.AX,30-SEP-2015,,End Of Day,,3.41,3.45,3.39,3.39,561213,,,Verified
SKC.AX,01-OCT-2015,,End Of Day,,3.4,3.42,3.38,3.41,7394082,,,Verified
SKC.AX,02-OCT-2015,,End Of Day,,3.39,3.5,3.38,3.48,475086,,,Verified
SKC.AX,03-OCT-2015,,End Of Day,No Trades,,,,,,,,Verified
SKC.AX,04-OCT-2015,,End Of Day,No Trades,,,,,,,,Verified
SKC.AX,05-OCT-2015,,End Of Day,,3.48,3.53,3.48,3.49,1369133,,,Verified
SKC.AX,06-OCT-2015,,End Of Day,,3.53,3.6,3.53,3.59,927436,,,Verified
SKC.AX,07-OCT-2015,,End Of Day,,3.6,3.67,3.6,3.65,783243,,,Verified
SKC.AX,08-OCT-2015,,End Of Day,,3.68,3.68,3.62,3.64,690511,,,Verified
SKC.AX,09-OCT-2015,,End Of Day,,3.64,3.645,3.58,3.59,574510,,,Verified
SKC.AX,10-OCT-2015,,End Of Day,No Trades,,,,,,,,Verified
SKC.AX,11-OCT-2015,,End Of Day,No Trades,,,,,,,,Verified
SKC.AX,12-OCT-2015,,End Of Day,,3.5,3.65,3.5,3.62,593057,,,Verified
SKC.AX,13-OCT-2015,,End Of Day,,3.63,3.66,3.62,3.64,562404,,,Verified
SKC.AX,14-OCT-2015,,End Of Day,,3.68,3.68,3.64,3.66,814342,,,Verified
SKC.AX,15-OCT-2015,,End Of Day,,3.67,3.7,3.62,3.66,663867,,,Verified
SKC.AX,16-OCT-2015,,End Of Day,,3.7,3.72,3.67,3.69,305237,,,Verified
SKC.AX,17-OCT-2015,,End Of Day,No Trades,,,,,,,,Verified
SKC.AX,18-OCT-2015,,End Of Day,No Trades,,,,,,,,Verified
SKC.AX,19-OCT-2015,,End Of Day,,3.69,3.69,3.66,3.68,200415,,,Verified
SKC.AX,20-OCT-2015,,End Of Day,,3.66,3.69,3.64,3.64,288612,,,Verified
SKC.AX,21-OCT-2015,,End Of Day,,3.63,3.66,3.62,3.64,289720,,,Verified
SKC.AX,22-OCT-2015,,End Of Day,,3.64,3.65,3.6,3.61,371178,,,Verified
SKC.AX,23-OCT-2015,,End Of Day,,3.68,3.74,3.68,3.72,493019,,,Verified
SKC.AX,24-OCT-2015,,End Of Day,No Trades,,,,,,,,Verified
SKC.AX,25-OCT-2015,,End Of Day,No Trades,,,,,,,,Verified
SKC.AX,26-OCT-2015,,End Of Day,,3.73,3.73,3.68,3.7,458115,,,Verified
SKC.AX,27-OCT-2015,,End Of Day,,3.7,3.71,3.67,3.7,651346,,,Verified
SKC.AX,28-OCT-2015,,End Of Day,,3.72,3.76,3.71,3.75,3529526,,,Verified
SKC.AX,29-OCT-2015,,End Of Day,,3.76,3.81,3.76,3.8,864085,,,Verified
SKC.AX,30-OCT-2015,,End Of Day,,3.8,3.83,3.79,3.81,313844,,,Verified
SKC.AX,31-OCT-2015,,End Of Day,No Trades,,,,,,,,Verified
SKC.AX,01-NOV-2015,,End Of Day,No Trades,,,,,,,,Verified
SKC.AX,02-NOV-2015,,End Of Day,,3.82,3.83,3.76,3.76,605308,,,Verified
SKC.AX,03-NOV-2015,,End Of Day,,3.78,3.78,3.71,3.75,711864,,,Verified
SKC.AX,04-NOV-2015,,End Of Day,,3.77,3.78,3.72,3.74,514993,,,Verified
SKC.AX,05-NOV-2015,,End Of Day,,3.73,3.75,3.69,3.73,1084546,,,Verified
SKC.AX,06-NOV-2015,,End Of Day,,3.76,3.8,3.74,3.8,416387,,,Verified
SKC.AX,07-NOV-2015,,End Of Day,No Trades,,,,,,,,Verified
SKC.AX,08-NOV-2015,,End Of Day,No Trades,,,,,,,,Verified
SKC.AX,09-NOV-2015,,End Of Day,,3.78,3.81,3.78,3.8,281334,,,Verified
SKC.AX,10-NOV-2015,,End Of Day,,3.79,3.84,3.77,3.83,1776293,,,Verified
SKC.AX,11-NOV-2015,,End Of Day,,3.86,3.9,3.86,3.89,635735,,,Verified
SKC.AX,12-NOV-2015,,End Of Day,,3.85,3.88,3.82,3.86,392208,,,Verified
SKC.AX,13-NOV-2015,,End Of Day,,3.86,3.92,3.84,3.87,657841,,,Verified
SKC.AX,14-NOV-2015,,End Of Day,No Trades,,,,,,,,Verified
SKC.AX,15-NOV-2015,,End Of Day,No Trades,,,,,,,,Verified
SKC.AX,16-NOV-2015,,End Of Day,,3.8,3.825,3.79,3.8,454603,,,Verified
SKC.AX,17-NOV-2015,,End Of Day,,3.82,3.86,3.81,3.86,4756243,,,Verified
SKC.AX,18-NOV-2015,,End Of Day,,3.85,3.94,3.84,3.94,1765614,,,Verified
SKC.AX,19-NOV-2015,,End Of Day,,3.93,3.95,3.9,3.95,369128,,,Verified
SKC.AX,20-NOV-2015,,End Of Day,,4.06,4.07,3.93,3.93,578731,,,Verified
SKC.AX,21-NOV-2015,,End Of Day,No Trades,,,,,,,,Verified
SKC.AX,22-NOV-2015,,End Of Day,No Trades,,,,,,,,Verified
SKC.AX,23-NOV-2015,,End Of Day,,3.94,3.96,3.9,3.95,451330,,,Verified
SKC.AX,24-NOV-2015,,End Of Day,,3.93,3.97,3.91,3.92,357424,,,Verified
SKC.AX,25-NOV-2015,,End Of Day,,3.9,3.9,3.83,3.85,699920,,,Verified
SKC.AX,26-NOV-2015,,End Of Day,,3.85,3.9,3.84,3.89,646001,,,Verified
SKC.AX,27-NOV-2015,,End Of Day,,3.92,3.93,3.81,3.83,323683,,,Verified
SKC.AX,28-NOV-2015,,End Of Day,No Trades,,,,,,,,Verified
SKC.AX,29-NOV-2015,,End Of Day,No Trades,,,,,,,,Verified
SKC.AX,30-NOV-2015,,End Of Day,,3.83,3.9,3.8,3.89,384356,,,Verified
SKC.AX,01-DEC-2015,,End Of Day,,3.87,3.98,3.86,3.98,631795,,,Verified
SKC.AX,02-DEC-2015,,End Of Day,,3.97,3.98,3.91,3.94,682695,,,Verified
SKC.AX,03-DEC-2015,,End Of Day,,3.89,3.91,3.85,3.86,884564,,,Verified
SKC.AX,04-DEC-2015,,End Of Day,,3.79,3.95,3.79,3.93,5695221,,,Verified
SKC.AX,05-DEC-2015,,End Of Day,No Trades,,,,,,,,Verified
SKC.AX,06-DEC-2015,,End Of Day,No Trades,,,,,,,,Verified
SKC.AX,07-DEC-2015,,End Of Day,,3.96,3.99,3.95,3.97,1277612,,,Verified
SKC.AX,08-DEC-2015,,End Of Day,,3.95,3.99,3.95,3.97,1357970,,,Verified
SKC.AX,09-DEC-2015,,End Of Day,,3.95,3.98,3.93,3.93,493216,,,Verified
SKC.AX,10-DEC-2015,,End Of Day,,3.94,3.98,3.93,3.96,364034,,,Verified
SKC.AX,11-DEC-2015,,End Of Day,,3.96,3.99,3.91,3.93,360047,,,Verified
SKC.AX,12-DEC-2015,,End Of Day,No Trades,,,,,,,,Verified
SKC.AX,13-DEC-2015,,End Of Day,No Trades,,,,,,,,Verified
SKC.AX,14-DEC-2015,,End Of Day,,3.91,3.93,3.89,3.89,390146,,,Verified
SKC.AX,15-DEC-2015,,End Of Day,,3.91,3.96,3.91,3.94,1054244,,,Verified
SKC.AX,16-DEC-2015,,End Of Day,,3.97,4.06,3.95,4.03,322909,,,Verified
SKC.AX,17-DEC-2015,,End Of Day,,4.05,4.05,3.96,4,2553461,,,Verified
SKC.AX,18-DEC-2015,,End Of Day,,3.99,4.05,3.99,4.03,378625,,,Verified
SKC.AX,19-DEC-2015,,End Of Day,No Trades,,,,,,,,Verified
SKC.AX,20-DEC-2015,,End Of Day,No Trades,,,,,,,,Verified
SKC.AX,21-DEC-2015,,End Of Day,,4,4.06,4,4.02,361341,,,Verified
SKC.AX,22-DEC-2015,,End Of Day,,4.07,4.09,4.03,4.06,298849,,,Verified
SKC.AX,23-DEC-2015,,End Of Day,,4.1,4.1,4.02,4.02,365570,,,Verified
SKC.AX,24-DEC-2015,,End Of Day,,4.07,4.08,4.01,4.02,253254,,,Verified
SKC.AX,25-DEC-2015,,End Of Day,No Trades,,,,,,,,Verified
SKC.AX,26-DEC-2015,,End Of Day,No Trades,,,,,,,,Verified
SKC.AX,27-DEC-2015,,End Of Day,No Trades,,,,,,,,Verified
SKC.AX,28-DEC-2015,,End Of Day,No Trades,,,,,,,,Verified
SKC.AX,29-DEC-2015,,End Of Day,,4.4,4.4,4.04,4.06,663430,,,Verified
SKC.AX,30-DEC-2015,,End Of Day,,4.1,4.17,4.07,4.17,239662,,,Verified
SKC.AX,31-DEC-2015,,End Of Day,,4.15,4.18,4.11,4.11,160381,,,Verified
SKC.AX,01-JAN-2016,,End Of Day,No Trades,,,,,,,,Verified
SKC.AX,02-JAN-2016,,End Of Day,No Trades,,,,,,,,Verified
SKC.AX,03-JAN-2016,,End Of Day,No Trades,,,,,,,,Verified
SKC.AX,04-JAN-2016,,End Of Day,,4.11,4.17,4.06,4.07,333498,,,Verified
SKC.AX,05-JAN-2016,,End Of Day,,4.04,4.07,4,4,542752,,,Verified
SKC.AX,06-JAN-2016,,End Of Day,,4.03,4.05,3.93,3.99,401516,,,Verified
SKC.AX,07-JAN-2016,,End Of Day,,3.97,3.97,3.91,3.94,685713,,,Verified
SKC.AX,08-JAN-2016,,End Of Day,,3.9,3.95,3.9,3.91,630971,,,Verified
SKC.AX,09-JAN-2016,,End Of Day,No Trades,,,,,,,,Verified
SKC.AX,10-JAN-2016,,End Of Day,No Trades,,,,,,,,Verified
SKC.AX,11-JAN-2016,,End Of Day,,3.86,3.95,3.86,3.92,489930,,,Verified
SKC.AX,12-JAN-2016,,End Of Day,,3.94,3.98,3.93,3.96,746787,,,Verified
SKC.AX,13-JAN-2016,,End Of Day,,3.95,3.96,3.9,3.91,710023,,,Verified
SKC.AX,14-JAN-2016,,End Of Day,,3.85,3.895,3.85,3.87,691864,,,Verified
SKC.AX,15-JAN-2016,,End Of Day,,3.89,3.94,3.87,3.9,810928,,,Verified
SKC.AX,16-JAN-2016,,End Of Day,No Trades,,,,,,,,Verified
SKC.AX,17-JAN-2016,,End Of Day,No Trades,,,,,,,,Verified
SKC.AX,18-JAN-2016,,End Of Day,,3.85,3.92,3.85,3.9,362390,,,Verified
SKC.AX,19-JAN-2016,,End Of Day,,4.05,4.21,4.02,4.2,1346960,,,Verified
SKC.AX,20-JAN-2016,,End Of Day,,4.17,4.245,4.14,4.19,950398,,,Verified
SKC.AX,21-JAN-2016,,End Of Day,,4.25,4.25,4.17,4.21,1300121,,,Verified
SKC.AX,22-JAN-2016,,End Of Day,,4.21,4.22,4.185,4.21,774087,,,Verified
SKC.AX,23-JAN-2016,,End Of Day,No Trades,,,,,,,,Verified
SKC.AX,24-JAN-2016,,End Of Day,No Trades,,,,,,,,Verified
SKC.AX,25-JAN-2016,,End Of Day,,4.27,4.3,4.2,4.26,476935,,,Verified
SKC.AX,26-JAN-2016,,End Of Day,No Trades,,,,,,,,Verified
SKC.AX,27-JAN-2016,,End Of Day,,4.25,4.27,4.22,4.26,595954,,,Verified
SKC.AX,28-JAN-2016,,End Of Day,,4.22,4.23,4.18,4.22,360656,,,Verified
SKC.AX,29-JAN-2016,,End Of Day,,4.2,4.28,4.19,4.24,707670,,,Verified
SKC.AX,30-JAN-2016,,End Of Day,No Trades,,,,,,,,Verified
SKC.AX,31-JAN-2016,,End Of Day,No Trades,,,,,,,,Verified
SKC.AX,01-FEB-2016,,End Of Day,,4.29,4.35,4.27,4.29,468980,,,Verified
SKC.AX,02-FEB-2016,,End Of Day,,4.3,4.36,4.27,4.32,702013,,,Verified
SKC.AX,03-FEB-2016,,End Of Day,,4.3,4.3,4.24,4.26,1041275,,,Verified
SKC.AX,04-FEB-2016,,End Of Day,,4.26,4.26,4.17,4.2,685690,,,Verified
SKC.AX,05-FEB-2016,,End Of Day,,4.18,4.21,4.15,4.18,777173,,,Verified
SKC.AX,06-FEB-2016,,End Of Day,No Trades,,,,,,,,Verified
SKC.AX,07-FEB-2016,,End Of Day,No Trades,,,,,,,,Verified
SKC.AX,08-FEB-2016,,End Of Day,,4.15,4.2,4.15,4.18,567003,,,Verified
SKC.AX,09-FEB-2016,,End Of Day,,4.15,4.15,4.09,4.14,1071374,,,Verified
SKC.AX,10-FEB-2016,,End Of Day,,4.12,4.18,4.1,4.15,1043571,,,Verified
SKC.AX,11-FEB-2016,,End Of Day,,4.16,4.16,4.09,4.11,2018725,,,Verified
SKC.AX,12-FEB-2016,,End Of Day,,4.08,4.12,4.01,4.08,731271,,,Verified
SKC.AX,13-FEB-2016,,End Of Day,No Trades,,,,,,,,Verified
SKC.AX,14-FEB-2016,,End Of Day,No Trades,,,,,,,,Verified
SKC.AX,15-FEB-2016,,End Of Day,,4.12,4.13,4.07,4.08,2395655,,,Verified
SKC.AX,16-FEB-2016,,End Of Day,,4.08,4.1,4.03,4.04,4410599,,,Verified
SKC.AX,17-FEB-2016,,End Of Day,,4.06,4.065,4,4,2083595,,,Verified
SKC.AX,18-FEB-2016,,End Of Day,,4.05,4.07,4.03,4.04,1912739,,,Verified
SKC.AX,19-FEB-2016,,End Of Day,,4.05,4.09,4.05,4.06,643388,,,Verified
SKC.AX,20-FEB-2016,,End Of Day,No Trades,,,,,,,,Verified
SKC.AX,21-FEB-2016,,End Of Day,No Trades,,,,,,,,Verified
SKC.AX,22-FEB-2016,,End Of Day,,4.07,4.17,4.07,4.17,732539,,,Verified
SKC.AX,23-FEB-2016,,End Of Day,,4.18,4.205,4.16,4.17,996503,,,Verified
SKC.AX,24-FEB-2016,,End Of Day,,4.17,4.175,4.12,4.16,785508,,,Verified
SKC.AX,25-FEB-2016,,End Of Day,,4.19,4.19,4.13,4.17,466704,,,Verified
SKC.AX,26-FEB-2016,,End Of Day,,4.17,4.22,4.17,4.18,524689,,,Verified
SKC.AX,27-FEB-2016,,End Of Day,No Trades,,,,,,,,Verified
SKC.AX,28-FEB-2016,,End Of Day,No Trades,,,,,,,,Verified
SKC.AX,29-FEB-2016,,End Of Day,,4.19,4.22,4.12,4.15,463203,,,Verified
SKC.AX,01-MAR-2016,,End Of Day,,4.15,4.17,4.07,4.09,1097150,,,Verified
SKC.AX,02-MAR-2016,,End Of Day,,4.04,4.05,3.98,4,555988,,,Verified
SKC.AX,03-MAR-2016,,End Of Day,,4,4.05,3.99,4.04,1111607,,,Verified
SKC.AX,04-MAR-2016,,End Of Day,,4.04,4.16,4.04,4.13,618807,,,Verified
SKC.AX,05-MAR-2016,,End Of Day,No Trades,,,,,,,,Verified
SKC.AX,06-MAR-2016,,End Of Day,No Trades,,,,,,,,Verified
SKC.AX,07-MAR-2016,,End Of Day,,4.12,4.14,4.03,4.04,571209,,,Verified
SKC.AX,08-MAR-2016,,End Of Day,,4.08,4.4,4.07,4.14,960070,,,Verified
SKC.AX,09-MAR-2016,,End Of Day,,4.12,4.15,4.09,4.12,516089,,,Verified
SKC.AX,10-MAR-2016,,End Of Day,,4.11,4.17,4.11,4.16,701792,,,Verified
SKC.AX,11-MAR-2016,,End Of Day,,4.18,4.23,4.165,4.23,734722,,,Verified
SKC.AX,12-MAR-2016,,End Of Day,No Trades,,,,,,,,Verified
SKC.AX,13-MAR-2016,,End Of Day,No Trades,,,,,,,,Verified
SKC.AX,14-MAR-2016,,End Of Day,,4.23,4.28,4.07,4.13,807933,,,Verified
SKC.AX,15-MAR-2016,,End Of Day,,4.15,4.24,4.13,4.18,471437,,,Verified
SKC.AX,16-MAR-2016,,End Of Day,,4.21,4.34,4.21,4.29,968224,,,Verified
SKC.AX,17-MAR-2016,,End Of Day,,4.32,4.4,4.3,4.38,625177,,,Verified
SKC.AX,18-MAR-2016,,End Of Day,,4.38,4.43,4.32,4.42,2354528,,,Verified
SKC.AX,19-MAR-2016,,End Of Day,No Trades,,,,,,,,Verified
SKC.AX,20-MAR-2016,,End Of Day,No Trades,,,,,,,,Verified
SKC.AX,21-MAR-2016,,End Of Day,,4.43,4.49,4.42,4.48,811869,,,Verified
SKC.AX,22-MAR-2016,,End Of Day,,4.58,4.58,4.46,4.49,1946653,,,Verified
SKC.AX,23-MAR-2016,,End Of Day,,4.49,4.49,4.29,4.32,1233165,,,Verified
SKC.AX,24-MAR-2016,,End Of Day,,4.32,4.52,4.32,4.5,1109920,,,Verified
SKC.AX,25-MAR-2016,,End Of Day,No Trades,,,,,,,,Verified
SKC.AX,26-MAR-2016,,End Of Day,No Trades,,,,,,,,Verified
SKC.AX,27-MAR-2016,,End Of Day,No Trades,,,,,,,,Verified
SKC.AX,28-MAR-2016,,End Of Day,No Trades,,,,,,,,Verified
SKC.AX,29-MAR-2016,,End Of Day,,4.52,4.52,4.45,4.5,733446,,,Verified
SKC.AX,30-MAR-2016,,End Of Day,,4.54,4.56,4.5,4.51,970096,,,Verified
SKC.AX,31-MAR-2016,,End Of Day,,4.51,4.56,4.51,4.53,1240753,,,Verified
SKC.AX,01-APR-2016,,End Of Day,,4.5,4.53,4.48,4.51,650717,,,Verified
SKC.AX,02-APR-2016,,End Of Day,No Trades,,,,,,,,Verified
SKC.AX,03-APR-2016,,End Of Day,No Trades,,,,,,,,Verified
SKC.AX,04-APR-2016,,End Of Day,,4.5,4.58,4.49,4.56,336024,,,Verified
SKC.AX,05-APR-2016,,End Of Day,,4.56,4.57,4.44,4.46,594721,,,Verified
SKC.AX,06-APR-2016,,End Of Day,,4.46,4.5,4.45,4.47,566587,,,Verified
SKC.AX,07-APR-2016,,End Of Day,,4.5,4.5,4.265,4.29,1810404,,,Verified
SKC.AX,08-APR-2016,,End Of Day,,4.17,4.2,4.13,4.15,1654881,,,Verified
SKC.AX,09-APR-2016,,End Of Day,No Trades,,,,,,,,Verified
SKC.AX,10-APR-2016,,End Of Day,No Trades,,,,,,,,Verified
SKC.AX,11-APR-2016,,End Of Day,,4.28,4.32,4.22,4.28,735481,,,Verified
SKC.AX,12-APR-2016,,End Of Day,,4.27,4.45,4.27,4.44,1100164,,,Verified
SKC.AX,13-APR-2016,,End Of Day,,4.46,4.51,4.46,4.48,1139975,,,Verified
SKC.AX,14-APR-2016,,End Of Day,,4.5,4.53,4.43,4.49,520921,,,Verified
SKC.AX,15-APR-2016,,End Of Day,,4.49,4.67,4.49,4.66,563834,,,Verified
SKC.AX,16-APR-2016,,End Of Day,No Trades,,,,,,,,Verified
SKC.AX,17-APR-2016,,End Of Day,No Trades,,,,,,,,Verified
SKC.AX,18-APR-2016,,End Of Day,,4.65,4.72,4.63,4.66,888610,,,Verified
SKC.AX,19-APR-2016,,End Of Day,,4.69,4.69,4.59,4.61,498611,,,Verified
SKC.AX,20-APR-2016,,End Of Day,,4.6,4.65,4.55,4.55,686177,,,Verified
SKC.AX,21-APR-2016,,End Of Day,,4.62,4.63,4.53,4.6,632986,,,Verified
SKC.AX,22-APR-2016,,End Of Day,,4.59,4.59,4.51,4.51,698548,,,Verified
SKC.AX,23-APR-2016,,End Of Day,No Trades,,,,,,,,Verified
SKC.AX,24-APR-2016,,End Of Day,No Trades,,,,,,,,Verified
SKC.AX,25-APR-2016,,End Of Day,No Trades,,,,,,,,Verified
SKC.AX,26-APR-2016,,End Of Day,,4.49,4.49,4.4,4.4,644971,,,Verified
SKC.AX,27-APR-2016,,End Of Day,,4.39,4.45,4.35,4.38,684645,,,Verified
SKC.AX,28-APR-2016,,End Of Day,,4.44,4.48,4.41,4.45,552378,,,Verified
SKC.AX,29-APR-2016,,End Of Day,,4.45,4.48,4.42,4.43,623515,,,Verified
SKC.AX,30-APR-2016,,End Of Day,No Trades,,,,,,,,Verified
SKC.AX,01-MAY-2016,,End Of Day,No Trades,,,,,,,,Verified
SKC.AX,02-MAY-2016,,End Of Day,,4.48,4.67,4.48,4.66,902834,,,Verified
SKC.AX,03-MAY-2016,,End Of Day,,4.66,4.72,4.61,4.7,730336,,,Verified
SKC.AX,04-MAY-2016,,End Of Day,,4.68,4.68,4.63,4.63,760728,,,Verified
SKC.AX,05-MAY-2016,,End Of Day,,4.63,4.71,4.63,4.69,944652,,,Verified
SKC.AX,06-MAY-2016,,End Of Day,,4.63,4.73,4.63,4.7,573684,,,Verified
SKC.AX,07-MAY-2016,,End Of Day,No Trades,,,,,,,,Verified
SKC.AX,08-MAY-2016,,End Of Day,No Trades,,,,,,,,Verified
SKC.AX,09-MAY-2016,,End Of Day,,4.66,4.69,4.62,4.67,334048,,,Verified
SKC.AX,10-MAY-2016,,End Of Day,,4.66,4.66,4.575,4.63,795512,,,Verified
