#RIC,Date[L],Time[L],Type,Qualifiers,Open,High,Low,Last,Volume,Open Interest,Settle,Data Source
NVT.AX,01-JAN-2014,,End Of Day,No Trades,,,,,,,,Verified
NVT.AX,02-JAN-2014,,End Of Day,,6.45,6.48,6.31,6.36,419080,,,Verified
NVT.AX,03-JAN-2014,,End Of Day,,6.34,6.43,6.26,6.29,369641,,,Verified
NVT.AX,04-JAN-2014,,End Of Day,No Trades,,,,,,,,Verified
NVT.AX,05-JAN-2014,,End Of Day,No Trades,,,,,,,,Verified
NVT.AX,06-JAN-2014,,End Of Day,,6.35,6.42,6.31,6.35,213797,,,Verified
NVT.AX,07-JAN-2014,,End Of Day,,6.4,6.4,6.33,6.37,174363,,,Verified
NVT.AX,08-JAN-2014,,End Of Day,,6.34,6.37,6.26,6.32,276372,,,Verified
NVT.AX,09-JAN-2014,,End Of Day,,6.35,6.485,6.29,6.47,347433,,,Verified
NVT.AX,10-JAN-2014,,End Of Day,,6.53,6.65,6.39,6.48,278322,,,Verified
NVT.AX,11-JAN-2014,,End Of Day,No Trades,,,,,,,,Verified
NVT.AX,12-JAN-2014,,End Of Day,No Trades,,,,,,,,Verified
NVT.AX,13-JAN-2014,,End Of Day,,6.48,6.49,6.35,6.4,387118,,,Verified
NVT.AX,14-JAN-2014,,End Of Day,,6.12,6.32,6.08,6.21,444121,,,Verified
NVT.AX,15-JAN-2014,,End Of Day,,6.28,6.4,6.265,6.34,443408,,,Verified
NVT.AX,16-JAN-2014,,End Of Day,,6.37,6.46,6.36,6.44,506472,,,Verified
NVT.AX,17-JAN-2014,,End Of Day,,6.39,6.39,6.22,6.23,506178,,,Verified
NVT.AX,18-JAN-2014,,End Of Day,No Trades,,,,,,,,Verified
NVT.AX,19-JAN-2014,,End Of Day,No Trades,,,,,,,,Verified
NVT.AX,20-JAN-2014,,End Of Day,,6.2,6.3,6.16,6.24,307403,,,Verified
NVT.AX,21-JAN-2014,,End Of Day,,6.24,6.46,6.24,6.45,598924,,,Verified
NVT.AX,22-JAN-2014,,End Of Day,,6.44,6.475,6.42,6.45,478040,,,Verified
NVT.AX,23-JAN-2014,,End Of Day,,6.45,6.47,6.38,6.4,402259,,,Verified
NVT.AX,24-JAN-2014,,End Of Day,,6.38,6.44,6.35,6.4,273998,,,Verified
NVT.AX,25-JAN-2014,,End Of Day,No Trades,,,,,,,,Verified
NVT.AX,26-JAN-2014,,End Of Day,No Trades,,,,,,,,Verified
NVT.AX,27-JAN-2014,,End Of Day,No Trades,,,,,,,,Verified
NVT.AX,28-JAN-2014,,End Of Day,,6.2,6.33,6.14,6.24,801507,,,Verified
NVT.AX,29-JAN-2014,,End Of Day,,6.27,6.43,6.27,6.43,408427,,,Verified
NVT.AX,30-JAN-2014,,End Of Day,,6.23,6.57,6.04,6.57,745138,,,Verified
NVT.AX,31-JAN-2014,,End Of Day,,6.53,6.78,6.48,6.76,1311351,,,Verified
NVT.AX,01-FEB-2014,,End Of Day,No Trades,,,,,,,,Verified
NVT.AX,02-FEB-2014,,End Of Day,No Trades,,,,,,,,Verified
NVT.AX,03-FEB-2014,,End Of Day,,6.75,6.82,6.55,6.65,774588,,,Verified
NVT.AX,04-FEB-2014,,End Of Day,,6.51,6.66,6.51,6.65,1662061,,,Verified
NVT.AX,05-FEB-2014,,End Of Day,,6.65,6.7,6.58,6.65,1017586,,,Verified
NVT.AX,06-FEB-2014,,End Of Day,,6.61,6.745,6.6,6.71,537254,,,Verified
NVT.AX,07-FEB-2014,,End Of Day,,6.7,6.8,6.66,6.8,763084,,,Verified
NVT.AX,08-FEB-2014,,End Of Day,No Trades,,,,,,,,Verified
NVT.AX,09-FEB-2014,,End Of Day,No Trades,,,,,,,,Verified
NVT.AX,10-FEB-2014,,End Of Day,,6.81,6.93,6.8,6.9,1007844,,,Verified
NVT.AX,11-FEB-2014,,End Of Day,,6.89,7.09,6.87,7.09,1053292,,,Verified
NVT.AX,12-FEB-2014,,End Of Day,,7.03,7.05,6.96,7.04,2564316,,,Verified
NVT.AX,13-FEB-2014,,End Of Day,,7.07,7.11,6.975,7.07,517171,,,Verified
NVT.AX,14-FEB-2014,,End Of Day,,7.08,7.14,7,7.09,919647,,,Verified
NVT.AX,15-FEB-2014,,End Of Day,No Trades,,,,,,,,Verified
NVT.AX,16-FEB-2014,,End Of Day,No Trades,,,,,,,,Verified
NVT.AX,17-FEB-2014,,End Of Day,,7.14,7.19,7.045,7.13,801737,,,Verified
NVT.AX,18-FEB-2014,,End Of Day,,7.14,7.19,7.09,7.19,528280,,,Verified
NVT.AX,19-FEB-2014,,End Of Day,,7.2,7.21,7.1,7.19,1491198,,,Verified
NVT.AX,20-FEB-2014,,End Of Day,,7.32,7.43,7.25,7.39,1644780,,,Verified
NVT.AX,21-FEB-2014,,End Of Day,,7.4,7.41,7.23,7.24,1020680,,,Verified
NVT.AX,22-FEB-2014,,End Of Day,No Trades,,,,,,,,Verified
NVT.AX,23-FEB-2014,,End Of Day,No Trades,,,,,,,,Verified
NVT.AX,24-FEB-2014,,End Of Day,,7.19,7.235,7.1,7.17,1677460,,,Verified
NVT.AX,25-FEB-2014,,End Of Day,,7.28,7.315,7.08,7.11,1171647,,,Verified
NVT.AX,26-FEB-2014,,End Of Day,,7.1,7.255,7.085,7.19,472690,,,Verified
NVT.AX,27-FEB-2014,,End Of Day,,7.19,7.22,7.11,7.16,398895,,,Verified
NVT.AX,28-FEB-2014,,End Of Day,,7.23,7.25,7.165,7.25,826196,,,Verified
NVT.AX,01-MAR-2014,,End Of Day,No Trades,,,,,,,,Verified
NVT.AX,02-MAR-2014,,End Of Day,No Trades,,,,,,,,Verified
NVT.AX,03-MAR-2014,,End Of Day,,7.28,7.34,7.23,7.31,938821,,,Verified
NVT.AX,04-MAR-2014,,End Of Day,,7.36,7.52,7.35,7.48,805142,,,Verified
NVT.AX,05-MAR-2014,,End Of Day,,7.53,7.69,7.51,7.54,1379608,,,Verified
NVT.AX,06-MAR-2014,,End Of Day,,7.58,7.64,7.46,7.56,894880,,,Verified
NVT.AX,07-MAR-2014,,End Of Day,,7.61,7.66,7.54,7.59,410433,,,Verified
NVT.AX,08-MAR-2014,,End Of Day,No Trades,,,,,,,,Verified
NVT.AX,09-MAR-2014,,End Of Day,No Trades,,,,,,,,Verified
NVT.AX,10-MAR-2014,,End Of Day,,7.57,7.635,7.55,7.58,395045,,,Verified
NVT.AX,11-MAR-2014,,End Of Day,,7.61,7.75,7.51,7.55,1019000,,,Verified
NVT.AX,12-MAR-2014,,End Of Day,,7.52,7.57,7.4,7.49,760285,,,Verified
NVT.AX,13-MAR-2014,,End Of Day,,7.53,7.57,7.48,7.55,583893,,,Verified
NVT.AX,14-MAR-2014,,End Of Day,,7.43,7.52,7.345,7.48,545036,,,Verified
NVT.AX,15-MAR-2014,,End Of Day,No Trades,,,,,,,,Verified
NVT.AX,16-MAR-2014,,End Of Day,No Trades,,,,,,,,Verified
NVT.AX,17-MAR-2014,,End Of Day,,7.4,7.56,7.39,7.5,416181,,,Verified
NVT.AX,18-MAR-2014,,End Of Day,,7.57,7.66,7.52,7.58,562769,,,Verified
NVT.AX,19-MAR-2014,,End Of Day,,7.53,7.73,7.52,7.72,784452,,,Verified
NVT.AX,20-MAR-2014,,End Of Day,,7.75,7.75,7.39,7.5,1248409,,,Verified
NVT.AX,21-MAR-2014,,End Of Day,,7.49,7.575,7.44,7.56,576873,,,Verified
NVT.AX,22-MAR-2014,,End Of Day,No Trades,,,,,,,,Verified
NVT.AX,23-MAR-2014,,End Of Day,No Trades,,,,,,,,Verified
NVT.AX,24-MAR-2014,,End Of Day,,7.46,7.48,7.33,7.46,427196,,,Verified
NVT.AX,25-MAR-2014,,End Of Day,,7.38,7.51,7.36,7.51,738569,,,Verified
NVT.AX,26-MAR-2014,,End Of Day,,7.53,7.58,7.41,7.49,556925,,,Verified
NVT.AX,27-MAR-2014,,End Of Day,,7.36,7.38,6.9,6.93,1468370,,,Verified
NVT.AX,28-MAR-2014,,End Of Day,,6.95,7.44,6.95,7.33,1545943,,,Verified
NVT.AX,29-MAR-2014,,End Of Day,No Trades,,,,,,,,Verified
NVT.AX,30-MAR-2014,,End Of Day,No Trades,,,,,,,,Verified
NVT.AX,31-MAR-2014,,End Of Day,,7.36,7.41,7.22,7.3,475677,,,Verified
NVT.AX,01-APR-2014,,End Of Day,,7.14,7.35,7.07,7.3,722510,,,Verified
NVT.AX,02-APR-2014,,End Of Day,,7.31,7.34,7.18,7.22,713191,,,Verified
NVT.AX,03-APR-2014,,End Of Day,,7.27,7.295,7.2,7.26,658716,,,Verified
NVT.AX,04-APR-2014,,End Of Day,,7.23,7.27,7.19,7.21,598716,,,Verified
NVT.AX,05-APR-2014,,End Of Day,No Trades,,,,,,,,Verified
NVT.AX,06-APR-2014,,End Of Day,No Trades,,,,,,,,Verified
NVT.AX,07-APR-2014,,End Of Day,,7.11,7.14,6.96,6.98,715324,,,Verified
NVT.AX,08-APR-2014,,End Of Day,,6.92,7.045,6.92,7.03,1013058,,,Verified
NVT.AX,09-APR-2014,,End Of Day,,7.1,7.18,7.04,7.11,483545,,,Verified
NVT.AX,10-APR-2014,,End Of Day,,7.24,7.25,7.15,7.2,439066,,,Verified
NVT.AX,11-APR-2014,,End Of Day,,7.03,7.12,7.01,7.02,300827,,,Verified
NVT.AX,12-APR-2014,,End Of Day,No Trades,,,,,,,,Verified
NVT.AX,13-APR-2014,,End Of Day,No Trades,,,,,,,,Verified
NVT.AX,14-APR-2014,,End Of Day,,6.99,7.08,6.98,6.98,875710,,,Verified
NVT.AX,15-APR-2014,,End Of Day,,6.95,7.18,6.95,7.14,680112,,,Verified
NVT.AX,16-APR-2014,,End Of Day,,7.15,7.15,7.02,7.09,463390,,,Verified
NVT.AX,17-APR-2014,,End Of Day,,7.18,7.25,7.13,7.18,462332,,,Verified
NVT.AX,18-APR-2014,,End Of Day,No Trades,,,,,,,,Verified
NVT.AX,19-APR-2014,,End Of Day,No Trades,,,,,,,,Verified
NVT.AX,20-APR-2014,,End Of Day,No Trades,,,,,,,,Verified
NVT.AX,21-APR-2014,,End Of Day,No Trades,,,,,,,,Verified
NVT.AX,22-APR-2014,,End Of Day,,7.24,7.27,7.15,7.18,654490,,,Verified
NVT.AX,23-APR-2014,,End Of Day,,7.27,7.34,7.22,7.32,640086,,,Verified
NVT.AX,24-APR-2014,,End Of Day,,7.43,7.47,7.28,7.36,712383,,,Verified
NVT.AX,25-APR-2014,,End Of Day,No Trades,,,,,,,,Verified
NVT.AX,26-APR-2014,,End Of Day,No Trades,,,,,,,,Verified
NVT.AX,27-APR-2014,,End Of Day,No Trades,,,,,,,,Verified
NVT.AX,28-APR-2014,,End Of Day,,7.32,7.48,7.3,7.42,716243,,,Verified
NVT.AX,29-APR-2014,,End Of Day,,7.48,7.48,7.38,7.42,567345,,,Verified
NVT.AX,30-APR-2014,,End Of Day,,7.47,7.47,7.265,7.35,582191,,,Verified
NVT.AX,01-MAY-2014,,End Of Day,,7.4,7.4,7.22,7.27,345573,,,Verified
NVT.AX,02-MAY-2014,,End Of Day,,7.33,7.37,7.235,7.35,276987,,,Verified
NVT.AX,03-MAY-2014,,End Of Day,No Trades,,,,,,,,Verified
NVT.AX,04-MAY-2014,,End Of Day,No Trades,,,,,,,,Verified
NVT.AX,05-MAY-2014,,End Of Day,,7.34,7.36,7.14,7.21,543452,,,Verified
NVT.AX,06-MAY-2014,,End Of Day,,7.23,7.37,7.23,7.35,302582,,,Verified
NVT.AX,07-MAY-2014,,End Of Day,,7.22,7.25,7.125,7.18,394616,,,Verified
NVT.AX,08-MAY-2014,,End Of Day,,7.2,7.29,7.17,7.28,619103,,,Verified
NVT.AX,09-MAY-2014,,End Of Day,,7.21,7.25,7.09,7.17,549643,,,Verified
NVT.AX,10-MAY-2014,,End Of Day,No Trades,,,,,,,,Verified
NVT.AX,11-MAY-2014,,End Of Day,No Trades,,,,,,,,Verified
NVT.AX,12-MAY-2014,,End Of Day,,7.17,7.26,7.16,7.22,332282,,,Verified
NVT.AX,13-MAY-2014,,End Of Day,,7.26,7.34,7.2,7.34,583455,,,Verified
NVT.AX,14-MAY-2014,,End Of Day,,7.36,7.45,7.36,7.42,365353,,,Verified
NVT.AX,15-MAY-2014,,End Of Day,,7.37,7.51,7.3,7.51,268220,,,Verified
NVT.AX,16-MAY-2014,,End Of Day,,7.4,7.44,7.34,7.36,244335,,,Verified
NVT.AX,17-MAY-2014,,End Of Day,No Trades,,,,,,,,Verified
NVT.AX,18-MAY-2014,,End Of Day,No Trades,,,,,,,,Verified
NVT.AX,19-MAY-2014,,End Of Day,,7.36,7.39,7.09,7.11,576401,,,Verified
NVT.AX,20-MAY-2014,,End Of Day,,7.14,7.27,7.08,7.22,388931,,,Verified
NVT.AX,21-MAY-2014,,End Of Day,,7.11,7.31,7.08,7.3,497881,,,Verified
NVT.AX,22-MAY-2014,,End Of Day,,7.32,7.39,7.29,7.37,329665,,,Verified
NVT.AX,23-MAY-2014,,End Of Day,,7.37,7.51,7.37,7.46,330836,,,Verified
NVT.AX,24-MAY-2014,,End Of Day,No Trades,,,,,,,,Verified
NVT.AX,25-MAY-2014,,End Of Day,No Trades,,,,,,,,Verified
NVT.AX,26-MAY-2014,,End Of Day,,7.52,7.68,7.49,7.67,214419,,,Verified
NVT.AX,27-MAY-2014,,End Of Day,,7.67,7.67,7.52,7.65,258582,,,Verified
NVT.AX,28-MAY-2014,,End Of Day,,7.67,7.74,7.6,7.69,253468,,,Verified
NVT.AX,29-MAY-2014,,End Of Day,,7.69,7.74,7.605,7.65,204439,,,Verified
NVT.AX,30-MAY-2014,,End Of Day,,7.68,7.85,7.61,7.71,1188433,,,Verified
NVT.AX,31-MAY-2014,,End Of Day,No Trades,,,,,,,,Verified
NVT.AX,01-JUN-2014,,End Of Day,No Trades,,,,,,,,Verified
NVT.AX,02-JUN-2014,,End Of Day,,7.79,7.88,7.74,7.81,421349,,,Verified
NVT.AX,03-JUN-2014,,End Of Day,,7.8,7.81,7.64,7.67,763704,,,Verified
NVT.AX,04-JUN-2014,,End Of Day,,7.66,7.68,7.43,7.45,616846,,,Verified
NVT.AX,05-JUN-2014,,End Of Day,,7.4,7.61,7.35,7.5,435246,,,Verified
NVT.AX,06-JUN-2014,,End Of Day,,7.41,7.5,7.38,7.4,723030,,,Verified
NVT.AX,07-JUN-2014,,End Of Day,No Trades,,,,,,,,Verified
NVT.AX,08-JUN-2014,,End Of Day,No Trades,,,,,,,,Verified
NVT.AX,09-JUN-2014,,End Of Day,No Trades,,,,,,,,Verified
NVT.AX,10-JUN-2014,,End Of Day,,7.43,7.43,7.3,7.33,581401,,,Verified
NVT.AX,11-JUN-2014,,End Of Day,,7.27,7.42,7.26,7.38,1527847,,,Verified
NVT.AX,12-JUN-2014,,End Of Day,,7.27,7.35,7.22,7.31,1086964,,,Verified
NVT.AX,13-JUN-2014,,End Of Day,,7.26,7.32,7.16,7.2,1096048,,,Verified
NVT.AX,14-JUN-2014,,End Of Day,No Trades,,,,,,,,Verified
NVT.AX,15-JUN-2014,,End Of Day,No Trades,,,,,,,,Verified
NVT.AX,16-JUN-2014,,End Of Day,,7.17,7.22,7.12,7.15,509475,,,Verified
NVT.AX,17-JUN-2014,,End Of Day,,7.05,7.21,7.03,7.19,890357,,,Verified
NVT.AX,18-JUN-2014,,End Of Day,,7.21,7.28,7.17,7.17,728655,,,Verified
NVT.AX,19-JUN-2014,,End Of Day,,7.19,7.51,7.18,7.35,1599618,,,Verified
NVT.AX,20-JUN-2014,,End Of Day,,7.35,7.39,7.23,7.25,1156025,,,Verified
NVT.AX,21-JUN-2014,,End Of Day,No Trades,,,,,,,,Verified
NVT.AX,22-JUN-2014,,End Of Day,No Trades,,,,,,,,Verified
NVT.AX,23-JUN-2014,,End Of Day,,7.24,7.37,7.23,7.26,893814,,,Verified
NVT.AX,24-JUN-2014,,End Of Day,,7.31,7.35,7.22,7.28,641176,,,Verified
NVT.AX,25-JUN-2014,,End Of Day,,7.2,7.2,7.09,7.15,516806,,,Verified
NVT.AX,26-JUN-2014,,End Of Day,,7.12,7.24,7.11,7.14,800566,,,Verified
NVT.AX,27-JUN-2014,,End Of Day,,7.15,7.22,7.08,7.09,1013249,,,Verified
NVT.AX,28-JUN-2014,,End Of Day,No Trades,,,,,,,,Verified
NVT.AX,29-JUN-2014,,End Of Day,No Trades,,,,,,,,Verified
NVT.AX,30-JUN-2014,,End Of Day,,7.1,7.14,7.07,7.13,1348104,,,Verified
NVT.AX,01-JUL-2014,,End Of Day,,7.07,7.2,7.02,7.17,658496,,,Verified
NVT.AX,02-JUL-2014,,End Of Day,,7.15,7.305,7.15,7.18,994028,,,Verified
NVT.AX,03-JUL-2014,,End Of Day,,7.15,7.2,7.03,7.03,973511,,,Verified
NVT.AX,04-JUL-2014,,End Of Day,,7.09,7.13,6.99,7.04,1326025,,,Verified
NVT.AX,05-JUL-2014,,End Of Day,No Trades,,,,,,,,Verified
NVT.AX,06-JUL-2014,,End Of Day,No Trades,,,,,,,,Verified
NVT.AX,09-JUL-2014,,End Of Day,,4.6,4.92,4.43,4.86,17142169,,,Verified
NVT.AX,10-JUL-2014,,End Of Day,,5.02,5.16,5.01,5.15,6285835,,,Verified
NVT.AX,11-JUL-2014,,End Of Day,,5.11,5.265,5.07,5.25,2696889,,,Verified
NVT.AX,12-JUL-2014,,End Of Day,No Trades,,,,,,,,Verified
NVT.AX,13-JUL-2014,,End Of Day,No Trades,,,,,,,,Verified
NVT.AX,14-JUL-2014,,End Of Day,,5.28,5.31,5.18,5.26,3010245,,,Verified
NVT.AX,15-JUL-2014,,End Of Day,,5.27,5.32,5.13,5.19,850963,,,Verified
NVT.AX,16-JUL-2014,,End Of Day,,5.23,5.26,5.14,5.21,1503371,,,Verified
NVT.AX,17-JUL-2014,,End Of Day,,5.29,5.3,5.11,5.12,1065981,,,Verified
NVT.AX,18-JUL-2014,,End Of Day,,5.09,5.15,5.01,5.15,616468,,,Verified
NVT.AX,19-JUL-2014,,End Of Day,No Trades,,,,,,,,Verified
NVT.AX,20-JUL-2014,,End Of Day,No Trades,,,,,,,,Verified
NVT.AX,21-JUL-2014,,End Of Day,,5.14,5.18,5.12,5.15,743981,,,Verified
NVT.AX,22-JUL-2014,,End Of Day,,5.13,5.18,5.09,5.18,748089,,,Verified
NVT.AX,23-JUL-2014,,End Of Day,,5.18,5.28,5.14,5.22,733915,,,Verified
NVT.AX,24-JUL-2014,,End Of Day,,5.25,5.25,5.18,5.22,603154,,,Verified
NVT.AX,25-JUL-2014,,End Of Day,,5.16,5.2,5.12,5.17,811592,,,Verified
NVT.AX,26-JUL-2014,,End Of Day,No Trades,,,,,,,,Verified
NVT.AX,27-JUL-2014,,End Of Day,No Trades,,,,,,,,Verified
NVT.AX,28-JUL-2014,,End Of Day,,5.12,5.13,4.97,4.98,1440513,,,Verified
NVT.AX,29-JUL-2014,,End Of Day,,4.93,4.95,4.7,4.7,1800360,,,Verified
NVT.AX,30-JUL-2014,,End Of Day,,4.71,4.88,4.64,4.85,2288256,,,Verified
NVT.AX,31-JUL-2014,,End Of Day,,4.96,4.99,4.9,4.96,1548378,,,Verified
NVT.AX,01-AUG-2014,,End Of Day,,4.93,5.05,4.87,5.02,1598694,,,Verified
NVT.AX,02-AUG-2014,,End Of Day,No Trades,,,,,,,,Verified
NVT.AX,03-AUG-2014,,End Of Day,No Trades,,,,,,,,Verified
NVT.AX,04-AUG-2014,,End Of Day,,5.02,5.02,4.885,4.95,917598,,,Verified
NVT.AX,05-AUG-2014,,End Of Day,,4.95,5.055,4.87,5,2508568,,,Verified
NVT.AX,06-AUG-2014,,End Of Day,,5.01,5.11,5.01,5.07,1263399,,,Verified
NVT.AX,07-AUG-2014,,End Of Day,,5.07,5.09,5.04,5.06,1353428,,,Verified
NVT.AX,08-AUG-2014,,End Of Day,,5.03,5.065,4.97,5.03,1715845,,,Verified
NVT.AX,09-AUG-2014,,End Of Day,No Trades,,,,,,,,Verified
NVT.AX,10-AUG-2014,,End Of Day,No Trades,,,,,,,,Verified
NVT.AX,11-AUG-2014,,End Of Day,,5.09,5.1,5.05,5.09,747653,,,Verified
NVT.AX,12-AUG-2014,,End Of Day,,5.1,5.18,5.09,5.17,1863891,,,Verified
NVT.AX,13-AUG-2014,,End Of Day,,5.11,5.16,5.06,5.08,1729107,,,Verified
NVT.AX,14-AUG-2014,,End Of Day,,5.05,5.17,5.05,5.12,990412,,,Verified
NVT.AX,15-AUG-2014,,End Of Day,,5.18,5.24,5.11,5.22,1178923,,,Verified
NVT.AX,16-AUG-2014,,End Of Day,No Trades,,,,,,,,Verified
NVT.AX,17-AUG-2014,,End Of Day,No Trades,,,,,,,,Verified
NVT.AX,18-AUG-2014,,End Of Day,,5.24,5.38,5.22,5.34,1707253,,,Verified
NVT.AX,19-AUG-2014,,End Of Day,,5.47,5.51,5.37,5.49,1292832,,,Verified
NVT.AX,20-AUG-2014,,End Of Day,,5.59,5.59,5.45,5.51,1335795,,,Verified
NVT.AX,21-AUG-2014,,End Of Day,,5.55,5.56,5.42,5.47,882221,,,Verified
NVT.AX,22-AUG-2014,,End Of Day,,5.53,5.53,5.46,5.47,930776,,,Verified
NVT.AX,23-AUG-2014,,End Of Day,No Trades,,,,,,,,Verified
NVT.AX,24-AUG-2014,,End Of Day,No Trades,,,,,,,,Verified
NVT.AX,25-AUG-2014,,End Of Day,,5.48,5.52,5.45,5.48,1015936,,,Verified
NVT.AX,26-AUG-2014,,End Of Day,,5.52,5.54,5.45,5.48,1653653,,,Verified
NVT.AX,27-AUG-2014,,End Of Day,,5.52,5.525,5.47,5.52,746780,,,Verified
NVT.AX,28-AUG-2014,,End Of Day,,5.37,5.39,5.27,5.31,831861,,,Verified
NVT.AX,29-AUG-2014,,End Of Day,,5.35,5.4,5.33,5.37,418554,,,Verified
NVT.AX,30-AUG-2014,,End Of Day,No Trades,,,,,,,,Verified
NVT.AX,31-AUG-2014,,End Of Day,No Trades,,,,,,,,Verified
NVT.AX,01-SEP-2014,,End Of Day,,5.46,5.49,5.35,5.43,740061,,,Verified
NVT.AX,02-SEP-2014,,End Of Day,,5.4,5.45,5.39,5.42,638334,,,Verified
NVT.AX,03-SEP-2014,,End Of Day,,5.41,5.5,5.405,5.44,550880,,,Verified
NVT.AX,04-SEP-2014,,End Of Day,,5.42,5.52,5.42,5.49,1243325,,,Verified
NVT.AX,05-SEP-2014,,End Of Day,,5.49,5.51,5.43,5.43,1235482,,,Verified
NVT.AX,06-SEP-2014,,End Of Day,No Trades,,,,,,,,Verified
NVT.AX,07-SEP-2014,,End Of Day,No Trades,,,,,,,,Verified
NVT.AX,08-SEP-2014,,End Of Day,,5.41,5.45,5.36,5.37,283372,,,Verified
NVT.AX,09-SEP-2014,,End Of Day,,5.36,5.43,5.35,5.4,366803,,,Verified
NVT.AX,10-SEP-2014,,End Of Day,,5.35,5.38,5.27,5.3,627106,,,Verified
NVT.AX,11-SEP-2014,,End Of Day,,5.36,5.36,5.15,5.15,1010004,,,Verified
NVT.AX,12-SEP-2014,,End Of Day,,5.15,5.23,5.15,5.2,538704,,,Verified
NVT.AX,13-SEP-2014,,End Of Day,No Trades,,,,,,,,Verified
NVT.AX,14-SEP-2014,,End Of Day,No Trades,,,,,,,,Verified
NVT.AX,15-SEP-2014,,End Of Day,,5.14,5.24,5.09,5.21,1112160,,,Verified
NVT.AX,16-SEP-2014,,End Of Day,,5.15,5.17,5.08,5.09,553632,,,Verified
NVT.AX,17-SEP-2014,,End Of Day,,5.06,5.11,5.04,5.04,593812,,,Verified
NVT.AX,18-SEP-2014,,End Of Day,,5.12,5.12,4.96,5.06,840831,,,Verified
NVT.AX,19-SEP-2014,,End Of Day,,5.05,5.13,5.02,5.09,576061,,,Verified
NVT.AX,20-SEP-2014,,End Of Day,No Trades,,,,,,,,Verified
NVT.AX,21-SEP-2014,,End Of Day,No Trades,,,,,,,,Verified
NVT.AX,22-SEP-2014,,End Of Day,,5.02,5.08,4.93,5,706738,,,Verified
NVT.AX,23-SEP-2014,,End Of Day,,5.06,5.17,4.99,5.12,1676598,,,Verified
NVT.AX,24-SEP-2014,,End Of Day,,5.06,5.11,5.06,5.09,1682731,,,Verified
NVT.AX,25-SEP-2014,,End Of Day,,5.1,5.11,5,5.06,934780,,,Verified
NVT.AX,26-SEP-2014,,End Of Day,,5,5.05,4.97,5.01,967223,,,Verified
NVT.AX,27-SEP-2014,,End Of Day,No Trades,,,,,,,,Verified
NVT.AX,28-SEP-2014,,End Of Day,No Trades,,,,,,,,Verified
NVT.AX,29-SEP-2014,,End Of Day,,4.95,5.02,4.94,4.96,607067,,,Verified
NVT.AX,30-SEP-2014,,End Of Day,,4.97,5.03,4.95,5,630060,,,Verified
NVT.AX,01-OCT-2014,,End Of Day,,4.93,5.09,4.82,5.07,694789,,,Verified
NVT.AX,02-OCT-2014,,End Of Day,,4.99,5.08,4.99,5.05,674109,,,Verified
NVT.AX,03-OCT-2014,,End Of Day,,5.02,5.1,5.01,5.08,451261,,,Verified
NVT.AX,04-OCT-2014,,End Of Day,No Trades,,,,,,,,Verified
NVT.AX,05-OCT-2014,,End Of Day,No Trades,,,,,,,,Verified
NVT.AX,06-OCT-2014,,End Of Day,,5.06,5.07,5,5.02,254996,,,Verified
NVT.AX,07-OCT-2014,,End Of Day,,5.02,5.02,4.93,4.98,872600,,,Verified
NVT.AX,08-OCT-2014,,End Of Day,,4.9,4.98,4.9,4.97,490327,,,Verified
NVT.AX,09-OCT-2014,,End Of Day,,4.97,5.05,4.97,5.02,597662,,,Verified
NVT.AX,10-OCT-2014,,End Of Day,,4.83,4.95,4.81,4.9,1113789,,,Verified
NVT.AX,11-OCT-2014,,End Of Day,No Trades,,,,,,,,Verified
NVT.AX,12-OCT-2014,,End Of Day,No Trades,,,,,,,,Verified
NVT.AX,13-OCT-2014,,End Of Day,,4.83,4.99,4.82,4.98,671838,,,Verified
NVT.AX,14-OCT-2014,,End Of Day,,4.89,5.03,4.89,5.01,807062,,,Verified
NVT.AX,15-OCT-2014,,End Of Day,,4.96,5.105,4.96,5.07,487122,,,Verified
NVT.AX,16-OCT-2014,,End Of Day,,5.02,5.36,4.98,5.32,1329648,,,Verified
NVT.AX,17-OCT-2014,,End Of Day,,5.35,5.37,5.22,5.29,854919,,,Verified
NVT.AX,18-OCT-2014,,End Of Day,No Trades,,,,,,,,Verified
NVT.AX,19-OCT-2014,,End Of Day,No Trades,,,,,,,,Verified
NVT.AX,20-OCT-2014,,End Of Day,,5.36,5.49,5.36,5.39,505941,,,Verified
NVT.AX,21-OCT-2014,,End Of Day,,5.4,5.48,5.4,5.46,961728,,,Verified
NVT.AX,22-OCT-2014,,End Of Day,,5.51,5.52,5.41,5.48,528299,,,Verified
NVT.AX,23-OCT-2014,,End Of Day,,5.41,5.55,5.41,5.52,490820,,,Verified
NVT.AX,24-OCT-2014,,End Of Day,,5.55,5.61,5.53,5.54,854713,,,Verified
NVT.AX,25-OCT-2014,,End Of Day,No Trades,,,,,,,,Verified
NVT.AX,26-OCT-2014,,End Of Day,No Trades,,,,,,,,Verified
NVT.AX,27-OCT-2014,,End Of Day,,5.57,5.58,5.535,5.57,1130701,,,Verified
NVT.AX,28-OCT-2014,,End Of Day,,5.54,5.56,5.4,5.42,931269,,,Verified
NVT.AX,29-OCT-2014,,End Of Day,,5.47,5.47,5.22,5.24,3097990,,,Verified
NVT.AX,30-OCT-2014,,End Of Day,,5.28,5.33,5.24,5.27,607723,,,Verified
NVT.AX,31-OCT-2014,,End Of Day,,5.36,5.36,5.25,5.28,2213160,,,Verified
NVT.AX,01-NOV-2014,,End Of Day,No Trades,,,,,,,,Verified
NVT.AX,02-NOV-2014,,End Of Day,No Trades,,,,,,,,Verified
NVT.AX,03-NOV-2014,,End Of Day,,5.28,5.34,5.26,5.3,563833,,,Verified
NVT.AX,04-NOV-2014,,End Of Day,,5.3,5.35,5.26,5.27,828625,,,Verified
NVT.AX,05-NOV-2014,,End Of Day,,5.28,5.31,5.11,5.13,1252639,,,Verified
NVT.AX,06-NOV-2014,,End Of Day,,5.22,5.27,5.17,5.19,595901,,,Verified
NVT.AX,07-NOV-2014,,End Of Day,,5.28,5.35,5.26,5.34,740796,,,Verified
NVT.AX,08-NOV-2014,,End Of Day,No Trades,,,,,,,,Verified
NVT.AX,09-NOV-2014,,End Of Day,No Trades,,,,,,,,Verified
NVT.AX,10-NOV-2014,,End Of Day,,5.34,5.36,5.22,5.25,582615,,,Verified
NVT.AX,11-NOV-2014,,End Of Day,,5.29,5.35,5.23,5.26,675386,,,Verified
NVT.AX,12-NOV-2014,,End Of Day,,5.34,5.34,5.22,5.24,255795,,,Verified
NVT.AX,13-NOV-2014,,End Of Day,,5.29,5.31,5.13,5.13,716627,,,Verified
NVT.AX,14-NOV-2014,,End Of Day,,5.15,5.29,5.13,5.29,527710,,,Verified
NVT.AX,15-NOV-2014,,End Of Day,No Trades,,,,,,,,Verified
NVT.AX,16-NOV-2014,,End Of Day,No Trades,,,,,,,,Verified
NVT.AX,17-NOV-2014,,End Of Day,,5.32,5.33,5.18,5.18,867705,,,Verified
NVT.AX,18-NOV-2014,,End Of Day,,5.24,5.24,5.06,5.08,516127,,,Verified
NVT.AX,19-NOV-2014,,End Of Day,,5.07,5.17,5.01,5.02,471053,,,Verified
NVT.AX,20-NOV-2014,,End Of Day,,4.98,5.01,4.88,4.91,711264,,,Verified
NVT.AX,21-NOV-2014,,End Of Day,,4.94,5.12,4.91,5.11,1068033,,,Verified
NVT.AX,22-NOV-2014,,End Of Day,No Trades,,,,,,,,Verified
NVT.AX,23-NOV-2014,,End Of Day,No Trades,,,,,,,,Verified
NVT.AX,24-NOV-2014,,End Of Day,,5.18,5.22,4.995,5,1080640,,,Verified
NVT.AX,25-NOV-2014,,End Of Day,,4.95,5.105,4.93,5.07,1130308,,,Verified
NVT.AX,26-NOV-2014,,End Of Day,,5.12,5.33,5.12,5.32,1282982,,,Verified
NVT.AX,27-NOV-2014,,End Of Day,,5.37,5.4,5.14,5.17,685073,,,Verified
NVT.AX,28-NOV-2014,,End Of Day,,5.14,5.14,4.97,5.03,829815,,,Verified
NVT.AX,29-NOV-2014,,End Of Day,No Trades,,,,,,,,Verified
NVT.AX,30-NOV-2014,,End Of Day,No Trades,,,,,,,,Verified
NVT.AX,01-DEC-2014,,End Of Day,,5.08,5.1,4.86,4.92,914655,,,Verified
NVT.AX,02-DEC-2014,,End Of Day,,4.9,5.01,4.89,5,834404,,,Verified
NVT.AX,03-DEC-2014,,End Of Day,,4.95,5.02,4.88,4.98,671354,,,Verified
NVT.AX,04-DEC-2014,,End Of Day,,5.05,5.06,4.95,5.03,644449,,,Verified
NVT.AX,05-DEC-2014,,End Of Day,,5.04,5.04,4.92,4.97,459128,,,Verified
NVT.AX,06-DEC-2014,,End Of Day,No Trades,,,,,,,,Verified
NVT.AX,07-DEC-2014,,End Of Day,No Trades,,,,,,,,Verified
NVT.AX,08-DEC-2014,,End Of Day,,5.1,5.11,4.98,5.05,354010,,,Verified
NVT.AX,09-DEC-2014,,End Of Day,,4.91,5.05,4.86,4.86,829587,,,Verified
NVT.AX,10-DEC-2014,,End Of Day,,4.85,4.91,4.76,4.86,519595,,,Verified
NVT.AX,11-DEC-2014,,End Of Day,,4.69,4.88,4.69,4.88,822800,,,Verified
NVT.AX,12-DEC-2014,,End Of Day,,4.8,4.86,4.73,4.78,369589,,,Verified
NVT.AX,13-DEC-2014,,End Of Day,No Trades,,,,,,,,Verified
NVT.AX,14-DEC-2014,,End Of Day,No Trades,,,,,,,,Verified
NVT.AX,15-DEC-2014,,End Of Day,,4.68,5.03,4.68,5.02,842194,,,Verified
NVT.AX,16-DEC-2014,,End Of Day,,5,5.02,4.92,5,993146,,,Verified
NVT.AX,17-DEC-2014,,End Of Day,,4.96,5.04,4.83,4.85,922752,,,Verified
NVT.AX,18-DEC-2014,,End Of Day,,4.81,4.98,4.79,4.82,887443,,,Verified
NVT.AX,19-DEC-2014,,End Of Day,,4.9,4.98,4.83,4.9,994176,,,Verified
NVT.AX,20-DEC-2014,,End Of Day,No Trades,,,,,,,,Verified
NVT.AX,21-DEC-2014,,End Of Day,No Trades,,,,,,,,Verified
NVT.AX,22-DEC-2014,,End Of Day,,4.98,5.09,4.86,5.08,706252,,,Verified
NVT.AX,23-DEC-2014,,End Of Day,,5.15,5.15,4.9,4.94,421139,,,Verified
NVT.AX,24-DEC-2014,,End Of Day,,5,5.05,4.95,5.05,188778,,,Verified
NVT.AX,25-DEC-2014,,End Of Day,No Trades,,,,,,,,Verified
NVT.AX,26-DEC-2014,,End Of Day,No Trades,,,,,,,,Verified
NVT.AX,27-DEC-2014,,End Of Day,No Trades,,,,,,,,Verified
NVT.AX,28-DEC-2014,,End Of Day,No Trades,,,,,,,,Verified
NVT.AX,29-DEC-2014,,End Of Day,,5.09,5.23,5.03,5.19,305066,,,Verified
NVT.AX,30-DEC-2014,,End Of Day,,5.18,5.18,5.03,5.03,322721,,,Verified
NVT.AX,31-DEC-2014,,End Of Day,,5.11,5.19,5.05,5.08,143816,,,Verified
NVT.AX,01-JAN-2015,,End Of Day,No Trades,,,,,,,,Verified
NVT.AX,02-JAN-2015,,End Of Day,,5.05,5.15,5.02,5.13,148607,,,Verified
NVT.AX,03-JAN-2015,,End Of Day,No Trades,,,,,,,,Verified
NVT.AX,04-JAN-2015,,End Of Day,No Trades,,,,,,,,Verified
NVT.AX,05-JAN-2015,,End Of Day,,5.07,5.18,5.01,5.09,422009,,,Verified
NVT.AX,06-JAN-2015,,End Of Day,,5.02,5.09,4.95,4.97,424640,,,Verified
NVT.AX,07-JAN-2015,,End Of Day,,4.96,5.07,4.95,5.04,323024,,,Verified
NVT.AX,08-JAN-2015,,End Of Day,,5.11,5.145,5,5.09,353690,,,Verified
NVT.AX,09-JAN-2015,,End Of Day,,5.16,5.37,5.15,5.34,737677,,,Verified
NVT.AX,10-JAN-2015,,End Of Day,No Trades,,,,,,,,Verified
NVT.AX,11-JAN-2015,,End Of Day,No Trades,,,,,,,,Verified
NVT.AX,12-JAN-2015,,End Of Day,,5.25,5.33,5.145,5.2,1258006,,,Verified
NVT.AX,13-JAN-2015,,End Of Day,,5.13,5.26,5.13,5.25,722445,,,Verified
NVT.AX,14-JAN-2015,,End Of Day,,5.25,5.36,5.19,5.22,766701,,,Verified
NVT.AX,15-JAN-2015,,End Of Day,,5.2,5.34,5.19,5.27,788258,,,Verified
NVT.AX,16-JAN-2015,,End Of Day,,5.05,5.18,4.95,4.97,939432,,,Verified
NVT.AX,17-JAN-2015,,End Of Day,No Trades,,,,,,,,Verified
NVT.AX,18-JAN-2015,,End Of Day,No Trades,,,,,,,,Verified
NVT.AX,19-JAN-2015,,End Of Day,,5.05,5.11,4.99,5.06,1311924,,,Verified
NVT.AX,20-JAN-2015,,End Of Day,,5.07,5.07,4.95,5,526983,,,Verified
NVT.AX,21-JAN-2015,,End Of Day,,5.02,5.21,5.01,5.16,453850,,,Verified
NVT.AX,22-JAN-2015,,End Of Day,,5.24,5.3,5.15,5.18,552631,,,Verified
NVT.AX,23-JAN-2015,,End Of Day,,5.29,5.33,5.25,5.33,427730,,,Verified
NVT.AX,24-JAN-2015,,End Of Day,No Trades,,,,,,,,Verified
NVT.AX,25-JAN-2015,,End Of Day,No Trades,,,,,,,,Verified
NVT.AX,26-JAN-2015,,End Of Day,No Trades,,,,,,,,Verified
NVT.AX,27-JAN-2015,,End Of Day,,5.33,5.48,5.31,5.35,764811,,,Verified
NVT.AX,28-JAN-2015,,End Of Day,,5.19,5.4,5.19,5.36,357921,,,Verified
NVT.AX,29-JAN-2015,,End Of Day,,5.34,5.34,5.21,5.23,266238,,,Verified
NVT.AX,30-JAN-2015,,End Of Day,,5.32,5.4,5.28,5.37,227244,,,Verified
NVT.AX,31-JAN-2015,,End Of Day,No Trades,,,,,,,,Verified
NVT.AX,01-FEB-2015,,End Of Day,No Trades,,,,,,,,Verified
NVT.AX,02-FEB-2015,,End Of Day,,5.36,5.37,5.21,5.25,549830,,,Verified
NVT.AX,03-FEB-2015,,End Of Day,,5.29,5.33,4.65,4.75,2274512,,,Verified
NVT.AX,04-FEB-2015,,End Of Day,,4.78,4.78,4.26,4.4,5098126,,,Verified
NVT.AX,05-FEB-2015,,End Of Day,,4.41,4.43,4.26,4.33,4397441,,,Verified
NVT.AX,06-FEB-2015,,End Of Day,,4.35,4.5,4.31,4.45,1852204,,,Verified
NVT.AX,07-FEB-2015,,End Of Day,No Trades,,,,,,,,Verified
NVT.AX,08-FEB-2015,,End Of Day,No Trades,,,,,,,,Verified
NVT.AX,09-FEB-2015,,End Of Day,,4.5,4.53,4.46,4.51,1328740,,,Verified
NVT.AX,10-FEB-2015,,End Of Day,,4.53,4.56,4.47,4.52,2048028,,,Verified
NVT.AX,11-FEB-2015,,End Of Day,,4.6,4.61,4.49,4.52,880450,,,Verified
NVT.AX,12-FEB-2015,,End Of Day,,4.6,4.6,4.5,4.59,1097693,,,Verified
NVT.AX,13-FEB-2015,,End Of Day,,4.6,4.68,4.6,4.62,1068756,,,Verified
NVT.AX,14-FEB-2015,,End Of Day,No Trades,,,,,,,,Verified
NVT.AX,15-FEB-2015,,End Of Day,No Trades,,,,,,,,Verified
NVT.AX,16-FEB-2015,,End Of Day,,4.62,4.67,4.6,4.64,379884,,,Verified
NVT.AX,17-FEB-2015,,End Of Day,,4.62,4.65,4.59,4.64,785702,,,Verified
NVT.AX,18-FEB-2015,,End Of Day,,4.66,4.72,4.62,4.72,524717,,,Verified
NVT.AX,19-FEB-2015,,End Of Day,,4.78,4.79,4.66,4.72,910170,,,Verified
NVT.AX,20-FEB-2015,,End Of Day,,4.74,4.74,4.67,4.71,887981,,,Verified
NVT.AX,21-FEB-2015,,End Of Day,No Trades,,,,,,,,Verified
NVT.AX,22-FEB-2015,,End Of Day,No Trades,,,,,,,,Verified
NVT.AX,23-FEB-2015,,End Of Day,,4.72,4.77,4.68,4.69,1058035,,,Verified
NVT.AX,24-FEB-2015,,End Of Day,,4.71,4.76,4.63,4.65,947761,,,Verified
NVT.AX,25-FEB-2015,,End Of Day,,4.57,4.62,4.48,4.56,822667,,,Verified
NVT.AX,26-FEB-2015,,End Of Day,,4.52,4.58,4.41,4.51,1072592,,,Verified
NVT.AX,27-FEB-2015,,End Of Day,,4.54,4.65,4.5,4.61,830448,,,Verified
NVT.AX,28-FEB-2015,,End Of Day,No Trades,,,,,,,,Verified
NVT.AX,01-MAR-2015,,End Of Day,No Trades,,,,,,,,Verified
NVT.AX,02-MAR-2015,,End Of Day,,4.61,4.61,4.47,4.52,1340856,,,Verified
NVT.AX,03-MAR-2015,,End Of Day,,4.55,4.63,4.51,4.6,1206558,,,Verified
NVT.AX,04-MAR-2015,,End Of Day,,4.69,4.72,4.6,4.7,726233,,,Verified
NVT.AX,05-MAR-2015,,End Of Day,,4.69,4.74,4.67,4.7,941028,,,Verified
NVT.AX,06-MAR-2015,,End Of Day,,4.71,4.74,4.66,4.73,692100,,,Verified
NVT.AX,07-MAR-2015,,End Of Day,No Trades,,,,,,,,Verified
NVT.AX,08-MAR-2015,,End Of Day,No Trades,,,,,,,,Verified
NVT.AX,09-MAR-2015,,End Of Day,,4.7,4.73,4.65,4.71,630637,,,Verified
NVT.AX,10-MAR-2015,,End Of Day,,4.71,4.72,4.62,4.65,717999,,,Verified
NVT.AX,11-MAR-2015,,End Of Day,,4.6,4.63,4.56,4.57,617496,,,Verified
NVT.AX,12-MAR-2015,,End Of Day,,4.56,4.68,4.56,4.64,511022,,,Verified
NVT.AX,13-MAR-2015,,End Of Day,,4.63,4.69,4.6,4.64,427631,,,Verified
NVT.AX,14-MAR-2015,,End Of Day,No Trades,,,,,,,,Verified
NVT.AX,15-MAR-2015,,End Of Day,No Trades,,,,,,,,Verified
NVT.AX,16-MAR-2015,,End Of Day,,4.63,4.63,4.51,4.52,860717,,,Verified
NVT.AX,17-MAR-2015,,End Of Day,,4.55,4.65,4.55,4.64,550080,,,Verified
NVT.AX,18-MAR-2015,,End Of Day,,4.61,4.69,4.6,4.69,571740,,,Verified
NVT.AX,19-MAR-2015,,End Of Day,,4.74,4.82,4.7,4.78,1007061,,,Verified
NVT.AX,20-MAR-2015,,End Of Day,,4.79,4.82,4.73,4.82,673232,,,Verified
NVT.AX,21-MAR-2015,,End Of Day,No Trades,,,,,,,,Verified
NVT.AX,22-MAR-2015,,End Of Day,No Trades,,,,,,,,Verified
NVT.AX,23-MAR-2015,,End Of Day,,4.78,4.81,4.75,4.78,459946,,,Verified
NVT.AX,24-MAR-2015,,End Of Day,,4.7,4.82,4.7,4.78,498774,,,Verified
NVT.AX,25-MAR-2015,,End Of Day,,4.82,4.895,4.79,4.81,794706,,,Verified
NVT.AX,26-MAR-2015,,End Of Day,,4.67,4.79,4.67,4.75,585319,,,Verified
NVT.AX,27-MAR-2015,,End Of Day,,4.72,4.97,4.72,4.9,655992,,,Verified
NVT.AX,28-MAR-2015,,End Of Day,No Trades,,,,,,,,Verified
NVT.AX,29-MAR-2015,,End Of Day,No Trades,,,,,,,,Verified
NVT.AX,30-MAR-2015,,End Of Day,,4.85,4.86,4.71,4.75,466364,,,Verified
NVT.AX,31-MAR-2015,,End Of Day,,4.76,4.97,4.76,4.9,481384,,,Verified
NVT.AX,01-APR-2015,,End Of Day,,4.85,4.89,4.69,4.69,2203743,,,Verified
NVT.AX,02-APR-2015,,End Of Day,,4.7,4.72,4.53,4.54,1774443,,,Verified
NVT.AX,03-APR-2015,,End Of Day,No Trades,,,,,,,,Verified
NVT.AX,04-APR-2015,,End Of Day,No Trades,,,,,,,,Verified
NVT.AX,05-APR-2015,,End Of Day,No Trades,,,,,,,,Verified
NVT.AX,06-APR-2015,,End Of Day,No Trades,,,,,,,,Verified
NVT.AX,07-APR-2015,,End Of Day,,4.54,4.58,4.47,4.47,1557230,,,Verified
NVT.AX,08-APR-2015,,End Of Day,,4.45,4.56,4.45,4.5,630478,,,Verified
NVT.AX,09-APR-2015,,End Of Day,,4.51,4.61,4.5,4.54,595786,,,Verified
NVT.AX,10-APR-2015,,End Of Day,,4.57,4.63,4.57,4.6,396949,,,Verified
NVT.AX,11-APR-2015,,End Of Day,No Trades,,,,,,,,Verified
NVT.AX,12-APR-2015,,End Of Day,No Trades,,,,,,,,Verified
NVT.AX,13-APR-2015,,End Of Day,,4.61,4.63,4.52,4.54,578180,,,Verified
NVT.AX,14-APR-2015,,End Of Day,,4.54,4.56,4.48,4.48,473296,,,Verified
NVT.AX,15-APR-2015,,End Of Day,,4.45,4.5,4.3,4.3,4999714,,,Verified
NVT.AX,16-APR-2015,,End Of Day,,4.52,4.54,4.45,4.49,1678429,,,Verified
NVT.AX,17-APR-2015,,End Of Day,,4.48,4.52,4.43,4.48,1170353,,,Verified
NVT.AX,18-APR-2015,,End Of Day,No Trades,,,,,,,,Verified
NVT.AX,19-APR-2015,,End Of Day,No Trades,,,,,,,,Verified
NVT.AX,20-APR-2015,,End Of Day,,4.48,4.48,4.37,4.42,711854,,,Verified
NVT.AX,21-APR-2015,,End Of Day,,4.45,4.53,4.43,4.5,453082,,,Verified
NVT.AX,22-APR-2015,,End Of Day,,4.5,4.55,4.47,4.53,666417,,,Verified
NVT.AX,23-APR-2015,,End Of Day,,4.5,4.55,4.48,4.52,509936,,,Verified
NVT.AX,24-APR-2015,,End Of Day,,4.58,4.67,4.58,4.67,427049,,,Verified
NVT.AX,25-APR-2015,,End Of Day,No Trades,,,,,,,,Verified
NVT.AX,26-APR-2015,,End Of Day,No Trades,,,,,,,,Verified
NVT.AX,27-APR-2015,,End Of Day,,4.65,4.705,4.63,4.67,550037,,,Verified
NVT.AX,28-APR-2015,,End Of Day,,4.68,4.72,4.65,4.68,412777,,,Verified
NVT.AX,29-APR-2015,,End Of Day,,4.71,4.73,4.625,4.64,495217,,,Verified
NVT.AX,30-APR-2015,,End Of Day,,4.61,4.66,4.57,4.63,852729,,,Verified
NVT.AX,01-MAY-2015,,End Of Day,,4.56,4.64,4.53,4.63,410250,,,Verified
NVT.AX,02-MAY-2015,,End Of Day,No Trades,,,,,,,,Verified
NVT.AX,03-MAY-2015,,End Of Day,No Trades,,,,,,,,Verified
NVT.AX,04-MAY-2015,,End Of Day,,4.66,4.71,4.62,4.68,552357,,,Verified
NVT.AX,05-MAY-2015,,End Of Day,,4.74,4.77,4.66,4.68,832841,,,Verified
NVT.AX,06-MAY-2015,,End Of Day,,4.57,4.72,4.57,4.6,720830,,,Verified
NVT.AX,07-MAY-2015,,End Of Day,,4.58,4.61,4.52,4.54,767901,,,Verified
NVT.AX,08-MAY-2015,,End Of Day,,4.55,4.7,4.55,4.65,526418,,,Verified
NVT.AX,09-MAY-2015,,End Of Day,No Trades,,,,,,,,Verified
NVT.AX,10-MAY-2015,,End Of Day,No Trades,,,,,,,,Verified
NVT.AX,11-MAY-2015,,End Of Day,,4.76,4.76,4.625,4.7,459618,,,Verified
NVT.AX,12-MAY-2015,,End Of Day,,4.67,4.72,4.6,4.72,552020,,,Verified
NVT.AX,13-MAY-2015,,End Of Day,,4.69,4.83,4.69,4.83,407995,,,Verified
NVT.AX,14-MAY-2015,,End Of Day,,4.76,4.84,4.71,4.84,462190,,,Verified
NVT.AX,15-MAY-2015,,End Of Day,,4.89,4.9,4.8,4.85,386368,,,Verified
NVT.AX,16-MAY-2015,,End Of Day,No Trades,,,,,,,,Verified
NVT.AX,17-MAY-2015,,End Of Day,No Trades,,,,,,,,Verified
NVT.AX,18-MAY-2015,,End Of Day,,4.86,4.87,4.77,4.77,264529,,,Verified
NVT.AX,19-MAY-2015,,End Of Day,,4.76,4.82,4.68,4.77,799994,,,Verified
NVT.AX,20-MAY-2015,,End Of Day,,4.74,4.8,4.71,4.8,288698,,,Verified
NVT.AX,21-MAY-2015,,End Of Day,,4.8,4.85,4.77,4.79,691987,,,Verified
NVT.AX,22-MAY-2015,,End Of Day,,4.83,4.87,4.8,4.81,643389,,,Verified
NVT.AX,23-MAY-2015,,End Of Day,No Trades,,,,,,,,Verified
NVT.AX,24-MAY-2015,,End Of Day,No Trades,,,,,,,,Verified
NVT.AX,25-MAY-2015,,End Of Day,,4.82,4.87,4.8,4.87,409140,,,Verified
NVT.AX,26-MAY-2015,,End Of Day,,4.86,4.89,4.82,4.85,610432,,,Verified
NVT.AX,27-MAY-2015,,End Of Day,,4.83,4.86,4.78,4.79,369971,,,Verified
NVT.AX,28-MAY-2015,,End Of Day,,4.82,4.82,4.75,4.76,187974,,,Verified
NVT.AX,29-MAY-2015,,End Of Day,,4.81,4.88,4.74,4.74,1055644,,,Verified
NVT.AX,30-MAY-2015,,End Of Day,No Trades,,,,,,,,Verified
NVT.AX,31-MAY-2015,,End Of Day,No Trades,,,,,,,,Verified
NVT.AX,01-JUN-2015,,End Of Day,,4.72,4.84,4.72,4.8,1164628,,,Verified
NVT.AX,02-JUN-2015,,End Of Day,,4.86,4.86,4.72,4.73,547746,,,Verified
NVT.AX,03-JUN-2015,,End Of Day,,4.71,4.73,4.55,4.62,892094,,,Verified
NVT.AX,04-JUN-2015,,End Of Day,,4.63,4.79,4.54,4.54,603715,,,Verified
NVT.AX,05-JUN-2015,,End Of Day,,4.5,4.58,4.46,4.54,336201,,,Verified
NVT.AX,06-JUN-2015,,End Of Day,No Trades,,,,,,,,Verified
NVT.AX,07-JUN-2015,,End Of Day,No Trades,,,,,,,,Verified
NVT.AX,08-JUN-2015,,End Of Day,No Trades,,,,,,,,Verified
NVT.AX,09-JUN-2015,,End Of Day,,4.48,4.53,4.43,4.44,432402,,,Verified
NVT.AX,10-JUN-2015,,End Of Day,,4.48,4.52,4.45,4.5,381412,,,Verified
NVT.AX,11-JUN-2015,,End Of Day,,4.52,4.71,4.52,4.65,601040,,,Verified
NVT.AX,12-JUN-2015,,End Of Day,,4.66,4.66,4.54,4.54,332760,,,Verified
NVT.AX,13-JUN-2015,,End Of Day,No Trades,,,,,,,,Verified
NVT.AX,14-JUN-2015,,End Of Day,No Trades,,,,,,,,Verified
NVT.AX,15-JUN-2015,,End Of Day,,4.56,4.57,4.5,4.5,401529,,,Verified
NVT.AX,16-JUN-2015,,End Of Day,,4.48,4.55,4.45,4.45,638375,,,Verified
NVT.AX,17-JUN-2015,,End Of Day,,4.48,4.57,4.455,4.53,511785,,,Verified
NVT.AX,18-JUN-2015,,End Of Day,,4.44,4.44,4.31,4.36,1259363,,,Verified
NVT.AX,19-JUN-2015,,End Of Day,,4.41,4.46,4.33,4.36,1249824,,,Verified
NVT.AX,20-JUN-2015,,End Of Day,No Trades,,,,,,,,Verified
NVT.AX,21-JUN-2015,,End Of Day,No Trades,,,,,,,,Verified
NVT.AX,22-JUN-2015,,End Of Day,,4.35,4.38,4.26,4.31,711313,,,Verified
NVT.AX,23-JUN-2015,,End Of Day,,4.39,4.52,4.36,4.49,1068537,,,Verified
NVT.AX,24-JUN-2015,,End Of Day,,4.5,4.5,4.32,4.36,728795,,,Verified
NVT.AX,25-JUN-2015,,End Of Day,,4.36,4.37,4.28,4.28,1167883,,,Verified
NVT.AX,26-JUN-2015,,End Of Day,,4.28,4.34,4.14,4.26,997096,,,Verified
NVT.AX,27-JUN-2015,,End Of Day,No Trades,,,,,,,,Verified
NVT.AX,28-JUN-2015,,End Of Day,No Trades,,,,,,,,Verified
NVT.AX,29-JUN-2015,,End Of Day,,4.17,4.28,4.14,4.25,832868,,,Verified
NVT.AX,30-JUN-2015,,End Of Day,,4.19,4.315,4.16,4.29,1248306,,,Verified
NVT.AX,01-JUL-2015,,End Of Day,,4.24,4.32,4.24,4.3,716307,,,Verified
NVT.AX,02-JUL-2015,,End Of Day,,4.31,4.32,4.26,4.28,1341081,,,Verified
NVT.AX,03-JUL-2015,,End Of Day,,4.25,4.3,4.2,4.27,492651,,,Verified
NVT.AX,04-JUL-2015,,End Of Day,No Trades,,,,,,,,Verified
NVT.AX,05-JUL-2015,,End Of Day,No Trades,,,,,,,,Verified
NVT.AX,06-JUL-2015,,End Of Day,,4.16,4.23,4.14,4.19,390136,,,Verified
NVT.AX,07-JUL-2015,,End Of Day,,4.23,4.34,4.23,4.32,723097,,,Verified
NVT.AX,08-JUL-2015,,End Of Day,,4.25,4.31,4.24,4.26,575035,,,Verified
NVT.AX,09-JUL-2015,,End Of Day,,4.18,4.29,4.15,4.27,641729,,,Verified
NVT.AX,10-JUL-2015,,End Of Day,,4.3,4.41,4.3,4.34,766584,,,Verified
NVT.AX,11-JUL-2015,,End Of Day,No Trades,,,,,,,,Verified
NVT.AX,12-JUL-2015,,End Of Day,No Trades,,,,,,,,Verified
NVT.AX,13-JUL-2015,,End Of Day,,4.32,4.38,4.26,4.3,607307,,,Verified
NVT.AX,14-JUL-2015,,End Of Day,,4.38,4.44,4.35,4.38,496873,,,Verified
NVT.AX,15-JUL-2015,,End Of Day,,4.41,4.48,4.4,4.47,369658,,,Verified
NVT.AX,16-JUL-2015,,End Of Day,,4.52,4.52,4.44,4.48,502108,,,Verified
NVT.AX,17-JUL-2015,,End Of Day,,4.5,4.52,4.43,4.44,608457,,,Verified
NVT.AX,18-JUL-2015,,End Of Day,No Trades,,,,,,,,Verified
NVT.AX,19-JUL-2015,,End Of Day,No Trades,,,,,,,,Verified
NVT.AX,20-JUL-2015,,End Of Day,,4.47,4.59,4.46,4.59,627420,,,Verified
NVT.AX,21-JUL-2015,,End Of Day,,4.6,4.73,4.58,4.71,605004,,,Verified
NVT.AX,22-JUL-2015,,End Of Day,,4.72,4.72,4.53,4.55,823112,,,Verified
NVT.AX,23-JUL-2015,,End Of Day,,4.56,4.63,4.53,4.58,592290,,,Verified
NVT.AX,24-JUL-2015,,End Of Day,,4.52,4.62,4.52,4.56,360239,,,Verified
NVT.AX,25-JUL-2015,,End Of Day,No Trades,,,,,,,,Verified
NVT.AX,26-JUL-2015,,End Of Day,No Trades,,,,,,,,Verified
NVT.AX,27-JUL-2015,,End Of Day,,4.15,4.42,4.05,4.27,1862179,,,Verified
NVT.AX,28-JUL-2015,,End Of Day,,4.22,4.27,4.09,4.13,2166594,,,Verified
NVT.AX,29-JUL-2015,,End Of Day,,4.05,4.12,3.98,4.08,3129623,,,Verified
NVT.AX,30-JUL-2015,,End Of Day,,4.08,4.13,4.04,4.11,1691721,,,Verified
NVT.AX,31-JUL-2015,,End Of Day,,4.11,4.15,4.06,4.13,612165,,,Verified
NVT.AX,01-AUG-2015,,End Of Day,No Trades,,,,,,,,Verified
NVT.AX,02-AUG-2015,,End Of Day,No Trades,,,,,,,,Verified
NVT.AX,03-AUG-2015,,End Of Day,,4.15,4.18,4.09,4.18,682376,,,Verified
NVT.AX,04-AUG-2015,,End Of Day,,4.15,4.28,4.15,4.19,2387224,,,Verified
NVT.AX,05-AUG-2015,,End Of Day,,4.17,4.25,4.15,4.16,742713,,,Verified
NVT.AX,06-AUG-2015,,End Of Day,,4.15,4.22,4.13,4.16,702273,,,Verified
NVT.AX,07-AUG-2015,,End Of Day,,4.1,4.15,4.1,4.11,875051,,,Verified
NVT.AX,08-AUG-2015,,End Of Day,No Trades,,,,,,,,Verified
NVT.AX,09-AUG-2015,,End Of Day,No Trades,,,,,,,,Verified
NVT.AX,10-AUG-2015,,End Of Day,,4.11,4.16,4.1,4.13,415347,,,Verified
NVT.AX,11-AUG-2015,,End Of Day,,4.17,4.18,4.1,4.12,1540768,,,Verified
NVT.AX,12-AUG-2015,,End Of Day,,4.12,4.22,4.06,4.06,1141426,,,Verified
NVT.AX,13-AUG-2015,,End Of Day,,4.05,4.12,4.04,4.07,1545131,,,Verified
NVT.AX,14-AUG-2015,,End Of Day,,4.06,4.18,4.06,4.14,878350,,,Verified
NVT.AX,15-AUG-2015,,End Of Day,No Trades,,,,,,,,Verified
NVT.AX,16-AUG-2015,,End Of Day,No Trades,,,,,,,,Verified
NVT.AX,17-AUG-2015,,End Of Day,,4.15,4.16,4.09,4.11,803722,,,Verified
NVT.AX,18-AUG-2015,,End Of Day,,4.07,4.12,4.06,4.08,1058657,,,Verified
NVT.AX,19-AUG-2015,,End Of Day,,4.08,4.14,4.06,4.13,890389,,,Verified
NVT.AX,20-AUG-2015,,End Of Day,,4.05,4.17,4.05,4.12,683794,,,Verified
NVT.AX,21-AUG-2015,,End Of Day,,4.08,4.1,3.94,4.01,1157185,,,Verified
NVT.AX,22-AUG-2015,,End Of Day,No Trades,,,,,,,,Verified
NVT.AX,23-AUG-2015,,End Of Day,No Trades,,,,,,,,Verified
NVT.AX,24-AUG-2015,,End Of Day,,3.99,3.99,3.86,3.9,1350394,,,Verified
NVT.AX,25-AUG-2015,,End Of Day,,3.82,4.05,3.82,4.05,2612918,,,Verified
NVT.AX,26-AUG-2015,,End Of Day,,3.94,4.03,3.925,4.01,978833,,,Verified
NVT.AX,27-AUG-2015,,End Of Day,,4.04,4.1,3.98,4.1,943794,,,Verified
NVT.AX,28-AUG-2015,,End Of Day,,3.99,4,3.89,3.93,802489,,,Verified
NVT.AX,29-AUG-2015,,End Of Day,No Trades,,,,,,,,Verified
NVT.AX,30-AUG-2015,,End Of Day,No Trades,,,,,,,,Verified
NVT.AX,31-AUG-2015,,End Of Day,,3.89,3.98,3.87,3.98,500789,,,Verified
NVT.AX,01-SEP-2015,,End Of Day,,3.92,3.99,3.9,3.97,651939,,,Verified
NVT.AX,02-SEP-2015,,End Of Day,,3.95,4.18,3.95,4.18,1354287,,,Verified
NVT.AX,03-SEP-2015,,End Of Day,,4.22,4.23,4.06,4.09,1226683,,,Verified
NVT.AX,04-SEP-2015,,End Of Day,,4.04,4.08,3.96,3.99,1252228,,,Verified
NVT.AX,05-SEP-2015,,End Of Day,No Trades,,,,,,,,Verified
NVT.AX,06-SEP-2015,,End Of Day,No Trades,,,,,,,,Verified
NVT.AX,07-SEP-2015,,End Of Day,,4,4.05,3.97,4.05,757808,,,Verified
NVT.AX,08-SEP-2015,,End Of Day,,4.06,4.12,3.99,4.07,562927,,,Verified
NVT.AX,09-SEP-2015,,End Of Day,,4.11,4.14,4.09,4.12,916829,,,Verified
NVT.AX,10-SEP-2015,,End Of Day,,3.99,4.06,3.97,3.99,1044219,,,Verified
NVT.AX,11-SEP-2015,,End Of Day,,3.98,4,3.92,3.97,470192,,,Verified
NVT.AX,12-SEP-2015,,End Of Day,No Trades,,,,,,,,Verified
NVT.AX,13-SEP-2015,,End Of Day,No Trades,,,,,,,,Verified
NVT.AX,14-SEP-2015,,End Of Day,,4,4.03,3.95,4.01,486485,,,Verified
NVT.AX,15-SEP-2015,,End Of Day,,3.98,4.04,3.97,3.98,721680,,,Verified
NVT.AX,16-SEP-2015,,End Of Day,,3.98,4.01,3.95,3.98,840106,,,Verified
NVT.AX,17-SEP-2015,,End Of Day,,3.93,3.99,3.9,3.92,1110953,,,Verified
NVT.AX,18-SEP-2015,,End Of Day,,3.91,3.97,3.9,3.93,1242484,,,Verified
NVT.AX,19-SEP-2015,,End Of Day,No Trades,,,,,,,,Verified
NVT.AX,20-SEP-2015,,End Of Day,No Trades,,,,,,,,Verified
NVT.AX,21-SEP-2015,,End Of Day,,3.9,3.93,3.78,3.82,859643,,,Verified
NVT.AX,22-SEP-2015,,End Of Day,,3.84,3.9,3.82,3.88,523509,,,Verified
NVT.AX,23-SEP-2015,,End Of Day,,3.83,3.85,3.81,3.83,1745061,,,Verified
NVT.AX,24-SEP-2015,,End Of Day,,3.85,3.91,3.83,3.91,1021543,,,Verified
NVT.AX,25-SEP-2015,,End Of Day,,3.94,3.98,3.9,3.95,1059597,,,Verified
NVT.AX,26-SEP-2015,,End Of Day,No Trades,,,,,,,,Verified
NVT.AX,27-SEP-2015,,End Of Day,No Trades,,,,,,,,Verified
NVT.AX,28-SEP-2015,,End Of Day,,3.91,4.05,3.89,4.04,614237,,,Verified
NVT.AX,29-SEP-2015,,End Of Day,,3.95,3.99,3.93,3.95,1307884,,,Verified
NVT.AX,30-SEP-2015,,End Of Day,,3.92,3.99,3.91,3.97,2356256,,,Verified
NVT.AX,01-OCT-2015,,End Of Day,,4,4.07,4,4.06,5440605,,,Verified
NVT.AX,02-OCT-2015,,End Of Day,,4.01,4.09,4.01,4.04,802921,,,Verified
NVT.AX,03-OCT-2015,,End Of Day,No Trades,,,,,,,,Verified
NVT.AX,04-OCT-2015,,End Of Day,No Trades,,,,,,,,Verified
NVT.AX,05-OCT-2015,,End Of Day,,4.05,4.16,4.05,4.16,350790,,,Verified
NVT.AX,06-OCT-2015,,End Of Day,,4.16,4.19,4.11,4.14,674157,,,Verified
NVT.AX,07-OCT-2015,,End Of Day,,4.18,4.18,4.08,4.13,916223,,,Verified
NVT.AX,08-OCT-2015,,End Of Day,,4.16,4.19,4.1,4.1,548243,,,Verified
NVT.AX,09-OCT-2015,,End Of Day,,4.16,4.19,4.13,4.17,538028,,,Verified
NVT.AX,10-OCT-2015,,End Of Day,No Trades,,,,,,,,Verified
NVT.AX,11-OCT-2015,,End Of Day,No Trades,,,,,,,,Verified
NVT.AX,12-OCT-2015,,End Of Day,,4.16,4.19,4.14,4.16,415414,,,Verified
NVT.AX,13-OCT-2015,,End Of Day,,4.11,4.17,4.1,4.14,646339,,,Verified
NVT.AX,14-OCT-2015,,End Of Day,,4.11,4.28,4.11,4.25,886972,,,Verified
NVT.AX,15-OCT-2015,,End Of Day,,4.23,4.26,4.2,4.23,606903,,,Verified
NVT.AX,16-OCT-2015,,End Of Day,,4.28,4.32,4.22,4.23,926984,,,Verified
NVT.AX,17-OCT-2015,,End Of Day,No Trades,,,,,,,,Verified
NVT.AX,18-OCT-2015,,End Of Day,No Trades,,,,,,,,Verified
NVT.AX,19-OCT-2015,,End Of Day,,4.24,4.28,4.21,4.22,545825,,,Verified
NVT.AX,20-OCT-2015,,End Of Day,,4.21,4.26,4.2,4.22,1709802,,,Verified
NVT.AX,21-OCT-2015,,End Of Day,,4.2,4.21,4.13,4.15,909437,,,Verified
NVT.AX,22-OCT-2015,,End Of Day,,4.12,4.13,4.09,4.12,929586,,,Verified
NVT.AX,23-OCT-2015,,End Of Day,,4.19,4.19,4.16,4.17,987580,,,Verified
NVT.AX,24-OCT-2015,,End Of Day,No Trades,,,,,,,,Verified
NVT.AX,25-OCT-2015,,End Of Day,No Trades,,,,,,,,Verified
NVT.AX,26-OCT-2015,,End Of Day,,4.2,4.2,4.11,4.13,898550,,,Verified
NVT.AX,27-OCT-2015,,End Of Day,,4.14,4.18,4.13,4.15,722830,,,Verified
NVT.AX,28-OCT-2015,,End Of Day,,4.15,4.16,4.1,4.15,1260247,,,Verified
NVT.AX,29-OCT-2015,,End Of Day,,4.18,4.21,4.13,4.15,2135537,,,Verified
NVT.AX,30-OCT-2015,,End Of Day,,4.1,4.2,4.1,4.2,835462,,,Verified
NVT.AX,31-OCT-2015,,End Of Day,No Trades,,,,,,,,Verified
NVT.AX,01-NOV-2015,,End Of Day,No Trades,,,,,,,,Verified
NVT.AX,02-NOV-2015,,End Of Day,,4.21,4.23,4.19,4.2,729508,,,Verified
NVT.AX,03-NOV-2015,,End Of Day,,4.25,4.29,4.23,4.27,706866,,,Verified
NVT.AX,04-NOV-2015,,End Of Day,,4.33,4.37,4.28,4.3,848729,,,Verified
NVT.AX,05-NOV-2015,,End Of Day,,4.29,4.32,4.23,4.29,1891878,,,Verified
NVT.AX,06-NOV-2015,,End Of Day,,4.3,4.38,4.29,4.36,1364483,,,Verified
NVT.AX,07-NOV-2015,,End Of Day,No Trades,,,,,,,,Verified
NVT.AX,08-NOV-2015,,End Of Day,No Trades,,,,,,,,Verified
NVT.AX,09-NOV-2015,,End Of Day,,4.35,4.39,4.29,4.32,978408,,,Verified
NVT.AX,10-NOV-2015,,End Of Day,,4.3,4.3,4.235,4.29,933247,,,Verified
NVT.AX,11-NOV-2015,,End Of Day,,4.29,4.29,4.21,4.27,558688,,,Verified
NVT.AX,12-NOV-2015,,End Of Day,,4.27,4.36,4.24,4.33,1210981,,,Verified
NVT.AX,13-NOV-2015,,End Of Day,,4.3,4.3,4.19,4.23,779095,,,Verified
NVT.AX,14-NOV-2015,,End Of Day,No Trades,,,,,,,,Verified
NVT.AX,15-NOV-2015,,End Of Day,No Trades,,,,,,,,Verified
NVT.AX,16-NOV-2015,,End Of Day,,4.19,4.25,4.18,4.21,498088,,,Verified
NVT.AX,17-NOV-2015,,End Of Day,,4.28,4.35,4.24,4.35,745017,,,Verified
NVT.AX,18-NOV-2015,,End Of Day,,4.33,4.42,4.33,4.4,832557,,,Verified
NVT.AX,19-NOV-2015,,End Of Day,,4.45,4.535,4.41,4.51,917042,,,Verified
NVT.AX,20-NOV-2015,,End Of Day,,4.62,4.62,4.48,4.51,1053472,,,Verified
NVT.AX,21-NOV-2015,,End Of Day,No Trades,,,,,,,,Verified
NVT.AX,22-NOV-2015,,End Of Day,No Trades,,,,,,,,Verified
NVT.AX,23-NOV-2015,,End Of Day,,4.53,4.62,4.53,4.57,855388,,,Verified
NVT.AX,24-NOV-2015,,End Of Day,,4.52,4.53,4.47,4.48,763063,,,Verified
NVT.AX,25-NOV-2015,,End Of Day,,4.5,4.51,4.38,4.41,846009,,,Verified
NVT.AX,26-NOV-2015,,End Of Day,,4.44,4.51,4.42,4.45,654793,,,Verified
NVT.AX,27-NOV-2015,,End Of Day,,4.5,4.5,4.38,4.42,470930,,,Verified
NVT.AX,28-NOV-2015,,End Of Day,No Trades,,,,,,,,Verified
NVT.AX,29-NOV-2015,,End Of Day,No Trades,,,,,,,,Verified
NVT.AX,30-NOV-2015,,End Of Day,,4.44,4.51,4.41,4.48,1727934,,,Verified
NVT.AX,01-DEC-2015,,End Of Day,,4.49,4.61,4.48,4.57,973377,,,Verified
NVT.AX,02-DEC-2015,,End Of Day,,4.58,4.58,4.45,4.48,682113,,,Verified
NVT.AX,03-DEC-2015,,End Of Day,,4.42,4.49,4.42,4.48,371629,,,Verified
NVT.AX,04-DEC-2015,,End Of Day,,4.39,4.47,4.38,4.45,640197,,,Verified
NVT.AX,05-DEC-2015,,End Of Day,No Trades,,,,,,,,Verified
NVT.AX,06-DEC-2015,,End Of Day,No Trades,,,,,,,,Verified
NVT.AX,07-DEC-2015,,End Of Day,,4.56,4.59,4.46,4.5,578903,,,Verified
NVT.AX,08-DEC-2015,,End Of Day,,4.48,4.54,4.46,4.5,592051,,,Verified
NVT.AX,09-DEC-2015,,End Of Day,,4.48,4.52,4.44,4.47,596040,,,Verified
NVT.AX,10-DEC-2015,,End Of Day,,4.44,4.47,4.4,4.44,498623,,,Verified
NVT.AX,11-DEC-2015,,End Of Day,,4.43,4.56,4.4,4.54,1392632,,,Verified
NVT.AX,12-DEC-2015,,End Of Day,No Trades,,,,,,,,Verified
NVT.AX,13-DEC-2015,,End Of Day,No Trades,,,,,,,,Verified
NVT.AX,14-DEC-2015,,End Of Day,,4.51,4.53,4.43,4.46,578366,,,Verified
NVT.AX,15-DEC-2015,,End Of Day,,4.45,4.45,4.27,4.28,1475365,,,Verified
NVT.AX,16-DEC-2015,,End Of Day,,4.3,4.34,4.28,4.3,1242473,,,Verified
NVT.AX,17-DEC-2015,,End Of Day,,4.4,4.45,4.4,4.45,1923814,,,Verified
NVT.AX,18-DEC-2015,,End Of Day,,4.39,4.49,4.39,4.47,762638,,,Verified
NVT.AX,19-DEC-2015,,End Of Day,No Trades,,,,,,,,Verified
NVT.AX,20-DEC-2015,,End Of Day,No Trades,,,,,,,,Verified
NVT.AX,21-DEC-2015,,End Of Day,,4.44,4.5,4.42,4.46,432310,,,Verified
NVT.AX,22-DEC-2015,,End Of Day,,4.54,4.59,4.53,4.58,721960,,,Verified
NVT.AX,23-DEC-2015,,End Of Day,,4.61,4.64,4.55,4.57,214853,,,Verified
NVT.AX,24-DEC-2015,,End Of Day,,4.65,4.65,4.57,4.6,79943,,,Verified
NVT.AX,25-DEC-2015,,End Of Day,No Trades,,,,,,,,Verified
NVT.AX,26-DEC-2015,,End Of Day,No Trades,,,,,,,,Verified
NVT.AX,27-DEC-2015,,End Of Day,No Trades,,,,,,,,Verified
NVT.AX,28-DEC-2015,,End Of Day,No Trades,,,,,,,,Verified
NVT.AX,29-DEC-2015,,End Of Day,,4.65,4.72,4.58,4.7,566349,,,Verified
NVT.AX,30-DEC-2015,,End Of Day,,4.8,4.8,4.69,4.7,415157,,,Verified
NVT.AX,31-DEC-2015,,End Of Day,,4.73,4.75,4.67,4.67,295839,,,Verified
NVT.AX,01-JAN-2016,,End Of Day,No Trades,,,,,,,,Verified
NVT.AX,02-JAN-2016,,End Of Day,No Trades,,,,,,,,Verified
NVT.AX,03-JAN-2016,,End Of Day,No Trades,,,,,,,,Verified
NVT.AX,04-JAN-2016,,End Of Day,,4.66,4.71,4.62,4.67,446300,,,Verified
NVT.AX,05-JAN-2016,,End Of Day,,4.67,4.67,4.6,4.61,416804,,,Verified
NVT.AX,06-JAN-2016,,End Of Day,,4.61,4.66,4.54,4.61,651738,,,Verified
NVT.AX,07-JAN-2016,,End Of Day,,4.62,4.63,4.5,4.53,614899,,,Verified
NVT.AX,08-JAN-2016,,End Of Day,,4.42,4.5,4.31,4.37,824105,,,Verified
NVT.AX,09-JAN-2016,,End Of Day,No Trades,,,,,,,,Verified
NVT.AX,10-JAN-2016,,End Of Day,No Trades,,,,,,,,Verified
NVT.AX,11-JAN-2016,,End Of Day,,4.25,4.35,4.24,4.34,1488537,,,Verified
NVT.AX,12-JAN-2016,,End Of Day,,4.37,4.385,4.31,4.35,1157799,,,Verified
NVT.AX,13-JAN-2016,,End Of Day,,4.34,4.37,4.33,4.37,514760,,,Verified
NVT.AX,14-JAN-2016,,End Of Day,,4.27,4.285,4.24,4.27,953995,,,Verified
NVT.AX,15-JAN-2016,,End Of Day,,4.36,4.4,4.29,4.33,779365,,,Verified
NVT.AX,16-JAN-2016,,End Of Day,No Trades,,,,,,,,Verified
NVT.AX,17-JAN-2016,,End Of Day,No Trades,,,,,,,,Verified
NVT.AX,18-JAN-2016,,End Of Day,,4.24,4.43,4.22,4.42,521019,,,Verified
NVT.AX,19-JAN-2016,,End Of Day,,4.39,4.53,4.39,4.53,542899,,,Verified
NVT.AX,20-JAN-2016,,End Of Day,,4.53,4.63,4.41,4.45,1120275,,,Verified
NVT.AX,21-JAN-2016,,End Of Day,,4.53,4.59,4.47,4.53,845321,,,Verified
NVT.AX,22-JAN-2016,,End Of Day,,4.57,4.6,4.49,4.57,370454,,,Verified
NVT.AX,23-JAN-2016,,End Of Day,No Trades,,,,,,,,Verified
NVT.AX,24-JAN-2016,,End Of Day,No Trades,,,,,,,,Verified
NVT.AX,25-JAN-2016,,End Of Day,,4.6,4.62,4.57,4.58,852231,,,Verified
NVT.AX,26-JAN-2016,,End Of Day,No Trades,,,,,,,,Verified
NVT.AX,27-JAN-2016,,End Of Day,,4.58,4.61,4.55,4.59,769130,,,Verified
NVT.AX,28-JAN-2016,,End Of Day,,4.58,4.62,4.54,4.56,920519,,,Verified
NVT.AX,29-JAN-2016,,End Of Day,,4.54,4.64,4.52,4.64,1415892,,,Verified
NVT.AX,30-JAN-2016,,End Of Day,No Trades,,,,,,,,Verified
NVT.AX,31-JAN-2016,,End Of Day,No Trades,,,,,,,,Verified
NVT.AX,01-FEB-2016,,End Of Day,,4.67,4.75,4.58,4.6,923231,,,Verified
NVT.AX,02-FEB-2016,,End Of Day,,4.91,5.12,4.78,4.78,1963087,,,Verified
NVT.AX,03-FEB-2016,,End Of Day,,4.71,4.87,4.66,4.7,1421125,,,Verified
NVT.AX,04-FEB-2016,,End Of Day,,4.72,4.725,4.57,4.61,967868,,,Verified
NVT.AX,05-FEB-2016,,End Of Day,,4.59,4.7,4.56,4.68,596340,,,Verified
NVT.AX,06-FEB-2016,,End Of Day,No Trades,,,,,,,,Verified
NVT.AX,07-FEB-2016,,End Of Day,No Trades,,,,,,,,Verified
NVT.AX,08-FEB-2016,,End Of Day,,4.66,4.7,4.62,4.66,839879,,,Verified
NVT.AX,09-FEB-2016,,End Of Day,,4.59,4.68,4.57,4.66,1918689,,,Verified
NVT.AX,10-FEB-2016,,End Of Day,,4.66,4.66,4.52,4.54,1315177,,,Verified
NVT.AX,11-FEB-2016,,End Of Day,,4.58,4.62,4.53,4.62,952049,,,Verified
NVT.AX,12-FEB-2016,,End Of Day,,4.53,4.59,4.51,4.57,497037,,,Verified
NVT.AX,13-FEB-2016,,End Of Day,No Trades,,,,,,,,Verified
NVT.AX,14-FEB-2016,,End Of Day,No Trades,,,,,,,,Verified
NVT.AX,15-FEB-2016,,End Of Day,,4.61,4.61,4.55,4.56,514211,,,Verified
NVT.AX,16-FEB-2016,,End Of Day,,4.63,4.67,4.51,4.65,740486,,,Verified
NVT.AX,17-FEB-2016,,End Of Day,,4.67,4.72,4.605,4.61,440352,,,Verified
NVT.AX,18-FEB-2016,,End Of Day,,4.69,4.85,4.69,4.84,814614,,,Verified
NVT.AX,19-FEB-2016,,End Of Day,,4.82,4.85,4.73,4.77,713305,,,Verified
NVT.AX,20-FEB-2016,,End Of Day,No Trades,,,,,,,,Verified
NVT.AX,21-FEB-2016,,End Of Day,No Trades,,,,,,,,Verified
NVT.AX,22-FEB-2016,,End Of Day,,4.8,4.86,4.8,4.85,704185,,,Verified
NVT.AX,23-FEB-2016,,End Of Day,,4.85,4.85,4.76,4.79,548754,,,Verified
NVT.AX,24-FEB-2016,,End Of Day,,4.79,4.825,4.77,4.79,690807,,,Verified
NVT.AX,25-FEB-2016,,End Of Day,,4.85,4.87,4.78,4.8,518429,,,Verified
NVT.AX,26-FEB-2016,,End Of Day,,4.7,4.75,4.56,4.71,879787,,,Verified
NVT.AX,27-FEB-2016,,End Of Day,No Trades,,,,,,,,Verified
NVT.AX,28-FEB-2016,,End Of Day,No Trades,,,,,,,,Verified
NVT.AX,29-FEB-2016,,End Of Day,,4.74,4.78,4.69,4.69,1216072,,,Verified
NVT.AX,01-MAR-2016,,End Of Day,,4.65,4.7,4.61,4.66,670545,,,Verified
NVT.AX,02-MAR-2016,,End Of Day,,4.73,4.76,4.69,4.73,1293986,,,Verified
NVT.AX,03-MAR-2016,,End Of Day,,4.73,4.77,4.71,4.74,920922,,,Verified
NVT.AX,04-MAR-2016,,End Of Day,,4.76,4.89,4.755,4.86,1319216,,,Verified
NVT.AX,05-MAR-2016,,End Of Day,No Trades,,,,,,,,Verified
NVT.AX,06-MAR-2016,,End Of Day,No Trades,,,,,,,,Verified
NVT.AX,07-MAR-2016,,End Of Day,,4.9,4.9,4.78,4.82,459722,,,Verified
NVT.AX,08-MAR-2016,,End Of Day,,4.8,4.82,4.61,4.72,947878,,,Verified
NVT.AX,09-MAR-2016,,End Of Day,,4.75,4.77,4.73,4.77,716605,,,Verified
NVT.AX,10-MAR-2016,,End Of Day,,4.8,4.83,4.78,4.81,557835,,,Verified
NVT.AX,11-MAR-2016,,End Of Day,,4.84,4.86,4.8,4.85,359466,,,Verified
NVT.AX,12-MAR-2016,,End Of Day,No Trades,,,,,,,,Verified
NVT.AX,13-MAR-2016,,End Of Day,No Trades,,,,,,,,Verified
NVT.AX,14-MAR-2016,,End Of Day,,4.88,4.88,4.81,4.81,531479,,,Verified
NVT.AX,15-MAR-2016,,End Of Day,,4.84,4.885,4.83,4.84,481611,,,Verified
NVT.AX,16-MAR-2016,,End Of Day,,4.86,4.93,4.85,4.9,920337,,,Verified
NVT.AX,17-MAR-2016,,End Of Day,,4.95,5.06,4.93,5.02,1408348,,,Verified
NVT.AX,18-MAR-2016,,End Of Day,,5.03,5.1,5.01,5.05,1233544,,,Verified
NVT.AX,19-MAR-2016,,End Of Day,No Trades,,,,,,,,Verified
NVT.AX,20-MAR-2016,,End Of Day,No Trades,,,,,,,,Verified
NVT.AX,21-MAR-2016,,End Of Day,,5.09,5.19,5.04,5.07,622746,,,Verified
NVT.AX,22-MAR-2016,,End Of Day,,5.1,5.11,5.07,5.1,787916,,,Verified
NVT.AX,23-MAR-2016,,End Of Day,,5.1,5.12,5.04,5.09,799683,,,Verified
NVT.AX,24-MAR-2016,,End Of Day,,5.08,5.11,5.05,5.08,905710,,,Verified
NVT.AX,25-MAR-2016,,End Of Day,No Trades,,,,,,,,Verified
NVT.AX,26-MAR-2016,,End Of Day,No Trades,,,,,,,,Verified
NVT.AX,27-MAR-2016,,End Of Day,No Trades,,,,,,,,Verified
NVT.AX,28-MAR-2016,,End Of Day,No Trades,,,,,,,,Verified
NVT.AX,29-MAR-2016,,End Of Day,,5.09,5.1,4.94,5,1046920,,,Verified
NVT.AX,30-MAR-2016,,End Of Day,,5.04,5.04,4.96,4.97,744591,,,Verified
NVT.AX,31-MAR-2016,,End Of Day,,5.05,5.1,4.98,5.08,1042760,,,Verified
NVT.AX,01-APR-2016,,End Of Day,,5.05,5.08,5,5.08,1142782,,,Verified
NVT.AX,02-APR-2016,,End Of Day,No Trades,,,,,,,,Verified
NVT.AX,03-APR-2016,,End Of Day,No Trades,,,,,,,,Verified
NVT.AX,04-APR-2016,,End Of Day,,5.09,5.12,5.01,5.02,982850,,,Verified
NVT.AX,05-APR-2016,,End Of Day,,4.94,5,4.94,4.97,789403,,,Verified
NVT.AX,06-APR-2016,,End Of Day,,4.95,4.985,4.915,4.97,1083054,,,Verified
NVT.AX,07-APR-2016,,End Of Day,,4.97,5.005,4.94,4.98,1008562,,,Verified
NVT.AX,08-APR-2016,,End Of Day,,4.9,4.98,4.87,4.97,660744,,,Verified
NVT.AX,09-APR-2016,,End Of Day,No Trades,,,,,,,,Verified
NVT.AX,10-APR-2016,,End Of Day,No Trades,,,,,,,,Verified
NVT.AX,11-APR-2016,,End Of Day,,4.92,4.97,4.91,4.92,360801,,,Verified
NVT.AX,12-APR-2016,,End Of Day,,4.87,4.98,4.87,4.96,874279,,,Verified
NVT.AX,13-APR-2016,,End Of Day,,4.99,5.01,4.95,4.95,507878,,,Verified
NVT.AX,14-APR-2016,,End Of Day,,4.94,4.96,4.86,4.92,773684,,,Verified
NVT.AX,15-APR-2016,,End Of Day,,4.94,4.975,4.91,4.93,846767,,,Verified
NVT.AX,16-APR-2016,,End Of Day,No Trades,,,,,,,,Verified
NVT.AX,17-APR-2016,,End Of Day,No Trades,,,,,,,,Verified
NVT.AX,18-APR-2016,,End Of Day,,4.93,5.02,4.93,4.97,1086298,,,Verified
NVT.AX,19-APR-2016,,End Of Day,,5.03,5.04,4.96,5.03,1059051,,,Verified
NVT.AX,20-APR-2016,,End Of Day,,5.05,5.06,5,5.05,668882,,,Verified
NVT.AX,21-APR-2016,,End Of Day,,5.12,5.12,5.03,5.1,890469,,,Verified
NVT.AX,22-APR-2016,,End Of Day,,5.1,5.11,5.02,5.04,846913,,,Verified
NVT.AX,23-APR-2016,,End Of Day,No Trades,,,,,,,,Verified
NVT.AX,24-APR-2016,,End Of Day,No Trades,,,,,,,,Verified
NVT.AX,25-APR-2016,,End Of Day,No Trades,,,,,,,,Verified
NVT.AX,26-APR-2016,,End Of Day,,5.06,5.09,5,5.05,962319,,,Verified
NVT.AX,27-APR-2016,,End Of Day,,5.1,5.115,5.05,5.08,1011395,,,Verified
NVT.AX,28-APR-2016,,End Of Day,,5.1,5.11,5.05,5.11,956921,,,Verified
NVT.AX,29-APR-2016,,End Of Day,,5.1,5.12,5.05,5.12,816108,,,Verified
NVT.AX,30-APR-2016,,End Of Day,No Trades,,,,,,,,Verified
NVT.AX,01-MAY-2016,,End Of Day,No Trades,,,,,,,,Verified
NVT.AX,02-MAY-2016,,End Of Day,,5.13,5.17,5.12,5.15,715896,,,Verified
NVT.AX,03-MAY-2016,,End Of Day,,5.2,5.35,5.15,5.34,1285302,,,Verified
NVT.AX,04-MAY-2016,,End Of Day,,5.45,5.45,5.32,5.34,1123268,,,Verified
NVT.AX,05-MAY-2016,,End Of Day,,5.32,5.36,5.25,5.36,809591,,,Verified
NVT.AX,06-MAY-2016,,End Of Day,,5.28,5.39,5.235,5.39,1064056,,,Verified
NVT.AX,07-MAY-2016,,End Of Day,No Trades,,,,,,,,Verified
NVT.AX,08-MAY-2016,,End Of Day,No Trades,,,,,,,,Verified
NVT.AX,09-MAY-2016,,End Of Day,,5.38,5.46,5.36,5.46,899403,,,Verified
NVT.AX,10-MAY-2016,,End Of Day,,5.46,5.5,5.44,5.47,1068048,,,Verified
NVT.AX,11-MAY-2016,,End Of Day,,5.5,5.52,5.43,5.46,929153,,,Verified
