{
"Name": "Wesfarmers Ltd (WES.AX)",
"Market Cap (intraday)": "46.36B",
"Enterprise Value (28/05/2016)": "51.95B",
"Trailing P/E (ttm, intraday):": "18.82",
"Forward P/E (fye 30/06/2017)": "17.67",
"PEG Ratio (5 yr expected)": "2.71",
"Price/Sales (ttm):": "0.71",
"Price/Book (mrq):": "1.82",
"Enterprise Value/Revenue (ttm)": "0.81",
"Enterprise Value/EBITDA (ttm)": "11.27",
"Fiscal Year Ends:": "30 Jun",
"Most Recent Quarter (mrq):": "31/12/2015",
"Profit Margin (ttm):": "3.84%",
"Operating Margin (ttm):": "5.37%",
"Return on Assets (ttm):": "5.21%",
"Return on Equity (ttm):": "9.89%",
"Revenue (ttm):": "63.94B",
"Revenue Per Share (ttm):": "57.01",
"Qtrly Revenue Growth (yoy):": "4.70%",
"Gross Profit (ttm):": "19.02B",
"EBITDA (ttm)": "4.61B",
"Net Income Avl to Common (ttm):": "2.46B",
"Diluted EPS (ttm):": "2.19",
"Qtrly Earnings Growth (yoy):": "1.20%",
"Total Cash (mrq):": "694.00M",
"Total Cash Per Share (mrq):": "0.62",
"Total Debt (mrq):": "6.28B",
"Total Debt/Equity (mrq):": "25.17",
"Current Ratio (mrq):": "0.91",
"Book Value Per Share (mrq):": "22.17",
"Operating Cash Flow (ttm):": "3.91B",
"Levered Free Cash Flow (ttm):": "412.62M",
"Beta:": "N/A",
"52-Week Change": "-4.10%",
"S&P500 52-Week Change": "-0.60%",
"52-Week High (18/02/2016)": "44.12",
"52-Week Low (16/11/2015)": "36.65",
"50-Day Moving Average": "41.96",
"200-Day Moving Average": "40.91",
"Avg Vol (3 month)": "2,229,860",
"Avg Vol (10 day)": "2,519,140",
"Shares Outstanding": "1.13B",
"Float:": "1.11B",
"% Held by Insiders": "N/A",
"% Held by Institutions": "N/A",
"Shares Short ": "N/A",
"Short Ratio ": "N/A",
"Short % of Float ": "N/A",
"Shares Short (prior month)": "N/A",
"Forward Annual Dividend Rate": "N/A",
"Forward Annual Dividend Yield": "N/A",
"Trailing Annual Dividend Yield": "2.89",
"Trailing Annual Dividend Yield": "7.10%",
"5 Year Average Dividend Yield": "N/A",
"Payout Ratio": "N/A",
"Dividend Date": "N/A",
"Ex-Dividend Date": "N/A",
"Last Split Factor (new per old)": "9:10",
"Last Split Date": "26/11/2014"
}
