#RIC,Date[L],Time[L],Type,Qualifiers,Open,High,Low,Last,Volume,Open Interest,Settle,Data Source
LLC.AX,01-JAN-2014,,End Of Day,No Trades,,,,,,,,Verified
LLC.AX,02-JAN-2014,,End Of Day,,11.21,11.29,11.17,11.18,426548,,,Verified
LLC.AX,03-JAN-2014,,End Of Day,,11.17,11.18,11.05,11.18,570627,,,Verified
LLC.AX,04-JAN-2014,,End Of Day,No Trades,,,,,,,,Verified
LLC.AX,05-JAN-2014,,End Of Day,No Trades,,,,,,,,Verified
LLC.AX,06-JAN-2014,,End Of Day,,11.18,11.21,11.09,11.13,522426,,,Verified
LLC.AX,07-JAN-2014,,End Of Day,,11.1,11.24,11.09,11.13,1107144,,,Verified
LLC.AX,08-JAN-2014,,End Of Day,,11.22,11.23,11.06,11.08,872618,,,Verified
LLC.AX,09-JAN-2014,,End Of Day,,11.04,11.14,11.015,11.14,794253,,,Verified
LLC.AX,10-JAN-2014,,End Of Day,,11.15,11.17,11.01,11.06,908929,,,Verified
LLC.AX,11-JAN-2014,,End Of Day,No Trades,,,,,,,,Verified
LLC.AX,12-JAN-2014,,End Of Day,No Trades,,,,,,,,Verified
LLC.AX,13-JAN-2014,,End Of Day,,10.95,11.175,10.95,11.11,1143134,,,Verified
LLC.AX,14-JAN-2014,,End Of Day,,11.14,11.14,10.81,10.83,1291485,,,Verified
LLC.AX,15-JAN-2014,,End Of Day,,10.99,11.05,10.9,11.02,1180245,,,Verified
LLC.AX,16-JAN-2014,,End Of Day,,11.08,11.24,11.045,11.21,1666779,,,Verified
LLC.AX,17-JAN-2014,,End Of Day,,11.05,11.19,11.05,11.12,978552,,,Verified
LLC.AX,18-JAN-2014,,End Of Day,No Trades,,,,,,,,Verified
LLC.AX,19-JAN-2014,,End Of Day,No Trades,,,,,,,,Verified
LLC.AX,20-JAN-2014,,End Of Day,,11.12,11.13,10.925,11.1,700418,,,Verified
LLC.AX,21-JAN-2014,,End Of Day,,11.09,11.17,11.04,11.12,676379,,,Verified
LLC.AX,22-JAN-2014,,End Of Day,,11.12,11.12,10.96,11,1037316,,,Verified
LLC.AX,23-JAN-2014,,End Of Day,,10.94,11.06,10.86,11.03,1122321,,,Verified
LLC.AX,24-JAN-2014,,End Of Day,,10.98,11.09,10.89,10.91,877328,,,Verified
LLC.AX,25-JAN-2014,,End Of Day,No Trades,,,,,,,,Verified
LLC.AX,26-JAN-2014,,End Of Day,No Trades,,,,,,,,Verified
LLC.AX,27-JAN-2014,,End Of Day,No Trades,,,,,,,,Verified
LLC.AX,28-JAN-2014,,End Of Day,,10.61,10.83,10.59,10.7,1493251,,,Verified
LLC.AX,29-JAN-2014,,End Of Day,,10.75,10.845,10.705,10.75,1109344,,,Verified
LLC.AX,30-JAN-2014,,End Of Day,,10.52,10.72,10.52,10.6,1407032,,,Verified
LLC.AX,31-JAN-2014,,End Of Day,,10.55,10.63,10.47,10.53,1606908,,,Verified
LLC.AX,01-FEB-2014,,End Of Day,No Trades,,,,,,,,Verified
LLC.AX,02-FEB-2014,,End Of Day,No Trades,,,,,,,,Verified
LLC.AX,03-FEB-2014,,End Of Day,,10.47,10.565,10.43,10.51,1059123,,,Verified
LLC.AX,04-FEB-2014,,End Of Day,,10.31,10.39,10.135,10.21,2292830,,,Verified
LLC.AX,05-FEB-2014,,End Of Day,,10.3,10.465,10.17,10.4,1908503,,,Verified
LLC.AX,06-FEB-2014,,End Of Day,,10.3,10.57,10.3,10.51,1353091,,,Verified
LLC.AX,07-FEB-2014,,End Of Day,,10.54,10.6,10.45,10.46,1048999,,,Verified
LLC.AX,08-FEB-2014,,End Of Day,No Trades,,,,,,,,Verified
LLC.AX,09-FEB-2014,,End Of Day,No Trades,,,,,,,,Verified
LLC.AX,10-FEB-2014,,End Of Day,,10.54,10.75,10.52,10.75,1344396,,,Verified
LLC.AX,11-FEB-2014,,End Of Day,,10.83,10.87,10.68,10.7,1169403,,,Verified
LLC.AX,12-FEB-2014,,End Of Day,,10.76,11.25,10.76,11.2,2783318,,,Verified
LLC.AX,13-FEB-2014,,End Of Day,,11.28,11.49,11.28,11.33,2115195,,,Verified
LLC.AX,14-FEB-2014,,End Of Day,,11.43,11.43,11.245,11.33,1437390,,,Verified
LLC.AX,15-FEB-2014,,End Of Day,No Trades,,,,,,,,Verified
LLC.AX,16-FEB-2014,,End Of Day,No Trades,,,,,,,,Verified
LLC.AX,17-FEB-2014,,End Of Day,,11.39,11.42,11.29,11.4,1341246,,,Verified
LLC.AX,18-FEB-2014,,End Of Day,,11.45,11.47,11.33,11.41,931652,,,Verified
LLC.AX,19-FEB-2014,,End Of Day,,11.47,11.66,11.3,11.64,2137950,,,Verified
LLC.AX,20-FEB-2014,,End Of Day,,11.65,11.67,11.345,11.5,2688922,,,Verified
LLC.AX,21-FEB-2014,,End Of Day,,11.56,11.64,11.465,11.54,1682840,,,Verified
LLC.AX,22-FEB-2014,,End Of Day,No Trades,,,,,,,,Verified
LLC.AX,23-FEB-2014,,End Of Day,No Trades,,,,,,,,Verified
LLC.AX,24-FEB-2014,,End Of Day,,11.6,11.66,11.54,11.66,1567652,,,Verified
LLC.AX,25-FEB-2014,,End Of Day,,11.75,11.88,11.47,11.57,1721149,,,Verified
LLC.AX,26-FEB-2014,,End Of Day,,10.91,11.3,10.87,11.14,3417115,,,Verified
LLC.AX,27-FEB-2014,,End Of Day,,11.2,11.42,11.13,11.34,3569647,,,Verified
LLC.AX,28-FEB-2014,,End Of Day,,11.41,11.49,11.22,11.28,2825370,,,Verified
LLC.AX,01-MAR-2014,,End Of Day,No Trades,,,,,,,,Verified
LLC.AX,02-MAR-2014,,End Of Day,No Trades,,,,,,,,Verified
LLC.AX,03-MAR-2014,,End Of Day,,10.99,11.09,10.76,11.08,1794628,,,Verified
LLC.AX,04-MAR-2014,,End Of Day,,10.97,11.075,10.9,10.96,2119848,,,Verified
LLC.AX,05-MAR-2014,,End Of Day,,11.08,11.24,11.06,11.14,2768369,,,Verified
LLC.AX,06-MAR-2014,,End Of Day,,11.05,11.26,11.02,11.22,2095341,,,Verified
LLC.AX,07-MAR-2014,,End Of Day,,11.28,11.61,11.22,11.51,2066736,,,Verified
LLC.AX,08-MAR-2014,,End Of Day,No Trades,,,,,,,,Verified
LLC.AX,09-MAR-2014,,End Of Day,No Trades,,,,,,,,Verified
LLC.AX,10-MAR-2014,,End Of Day,,11.48,11.83,11.44,11.66,2772056,,,Verified
LLC.AX,11-MAR-2014,,End Of Day,,11.66,11.73,11.53,11.61,2427146,,,Verified
LLC.AX,12-MAR-2014,,End Of Day,,11.46,11.47,11.24,11.31,3980584,,,Verified
LLC.AX,13-MAR-2014,,End Of Day,,11.45,11.51,11.33,11.5,1993974,,,Verified
LLC.AX,14-MAR-2014,,End Of Day,,11.26,11.39,11.12,11.32,1638451,,,Verified
LLC.AX,15-MAR-2014,,End Of Day,No Trades,,,,,,,,Verified
LLC.AX,16-MAR-2014,,End Of Day,No Trades,,,,,,,,Verified
LLC.AX,17-MAR-2014,,End Of Day,,11.3,11.56,11.3,11.42,1927608,,,Verified
LLC.AX,18-MAR-2014,,End Of Day,,11.64,11.865,11.58,11.77,3391314,,,Verified
LLC.AX,19-MAR-2014,,End Of Day,,11.66,11.83,11.61,11.82,3183821,,,Verified
LLC.AX,20-MAR-2014,,End Of Day,,11.9,12.1,11.65,11.66,3049716,,,Verified
LLC.AX,21-MAR-2014,,End Of Day,,11.67,11.79,11.58,11.76,1654531,,,Verified
LLC.AX,22-MAR-2014,,End Of Day,No Trades,,,,,,,,Verified
LLC.AX,23-MAR-2014,,End Of Day,No Trades,,,,,,,,Verified
LLC.AX,24-MAR-2014,,End Of Day,,11.73,11.86,11.63,11.81,1133849,,,Verified
LLC.AX,25-MAR-2014,,End Of Day,,11.61,11.83,11.54,11.83,2838840,,,Verified
LLC.AX,26-MAR-2014,,End Of Day,,11.9,12.015,11.81,11.96,2199350,,,Verified
LLC.AX,27-MAR-2014,,End Of Day,,11.87,11.87,11.68,11.74,2374826,,,Verified
LLC.AX,28-MAR-2014,,End Of Day,,11.66,11.93,11.65,11.87,1910885,,,Verified
LLC.AX,29-MAR-2014,,End Of Day,No Trades,,,,,,,,Verified
LLC.AX,30-MAR-2014,,End Of Day,No Trades,,,,,,,,Verified
LLC.AX,31-MAR-2014,,End Of Day,,11.95,11.99,11.85,11.85,1243420,,,Verified
LLC.AX,01-APR-2014,,End Of Day,,11.77,11.96,11.695,11.95,1345912,,,Verified
LLC.AX,02-APR-2014,,End Of Day,,11.99,12.21,11.85,12.19,2270971,,,Verified
LLC.AX,03-APR-2014,,End Of Day,,12.31,12.41,12.31,12.37,3984307,,,Verified
LLC.AX,04-APR-2014,,End Of Day,,12.4,12.53,12.36,12.51,4423476,,,Verified
LLC.AX,05-APR-2014,,End Of Day,No Trades,,,,,,,,Verified
LLC.AX,06-APR-2014,,End Of Day,No Trades,,,,,,,,Verified
LLC.AX,07-APR-2014,,End Of Day,,12.37,12.435,12.34,12.42,1036524,,,Verified
LLC.AX,08-APR-2014,,End Of Day,,12.4,12.4,12.31,12.34,1301467,,,Verified
LLC.AX,09-APR-2014,,End Of Day,,12.4,12.62,12.38,12.59,3695337,,,Verified
LLC.AX,10-APR-2014,,End Of Day,,12.6,12.7,12.54,12.63,2473921,,,Verified
LLC.AX,11-APR-2014,,End Of Day,,12.25,12.69,12.25,12.65,2077309,,,Verified
LLC.AX,12-APR-2014,,End Of Day,No Trades,,,,,,,,Verified
LLC.AX,13-APR-2014,,End Of Day,No Trades,,,,,,,,Verified
LLC.AX,14-APR-2014,,End Of Day,,12.6,12.68,12.425,12.53,2539619,,,Verified
LLC.AX,15-APR-2014,,End Of Day,,12.49,12.65,12.43,12.65,1686120,,,Verified
LLC.AX,16-APR-2014,,End Of Day,,12.7,12.845,12.68,12.77,1782911,,,Verified
LLC.AX,17-APR-2014,,End Of Day,,12.76,12.98,12.75,12.92,2037498,,,Verified
LLC.AX,18-APR-2014,,End Of Day,No Trades,,,,,,,,Verified
LLC.AX,19-APR-2014,,End Of Day,No Trades,,,,,,,,Verified
LLC.AX,20-APR-2014,,End Of Day,No Trades,,,,,,,,Verified
LLC.AX,21-APR-2014,,End Of Day,No Trades,,,,,,,,Verified
LLC.AX,22-APR-2014,,End Of Day,,12.91,13.01,12.82,12.97,1936392,,,Verified
LLC.AX,23-APR-2014,,End Of Day,,13,13.1,12.95,13.06,2542438,,,Verified
LLC.AX,24-APR-2014,,End Of Day,,13.03,13.05,12.85,13.01,2476338,,,Verified
LLC.AX,25-APR-2014,,End Of Day,No Trades,,,,,,,,Verified
LLC.AX,26-APR-2014,,End Of Day,No Trades,,,,,,,,Verified
LLC.AX,27-APR-2014,,End Of Day,No Trades,,,,,,,,Verified
LLC.AX,28-APR-2014,,End Of Day,,12.88,13.04,12.82,12.86,1593035,,,Verified
LLC.AX,29-APR-2014,,End Of Day,,12.86,13,12.695,12.84,1294503,,,Verified
LLC.AX,30-APR-2014,,End Of Day,,12.9,13.02,12.77,12.95,1964496,,,Verified
LLC.AX,01-MAY-2014,,End Of Day,,13.02,13.02,12.52,12.58,2360902,,,Verified
LLC.AX,02-MAY-2014,,End Of Day,,12.6,12.83,12.525,12.78,1894031,,,Verified
LLC.AX,03-MAY-2014,,End Of Day,No Trades,,,,,,,,Verified
LLC.AX,04-MAY-2014,,End Of Day,No Trades,,,,,,,,Verified
LLC.AX,05-MAY-2014,,End Of Day,,12.9,12.97,12.84,12.92,1477575,,,Verified
LLC.AX,06-MAY-2014,,End Of Day,,12.95,13.19,12.95,13.14,948977,,,Verified
LLC.AX,07-MAY-2014,,End Of Day,,13.09,13.13,12.935,13.09,1142042,,,Verified
LLC.AX,08-MAY-2014,,End Of Day,,13.14,13.31,13.06,13.31,1555828,,,Verified
LLC.AX,09-MAY-2014,,End Of Day,,13.22,13.24,13.08,13.13,1501219,,,Verified
LLC.AX,10-MAY-2014,,End Of Day,No Trades,,,,,,,,Verified
LLC.AX,11-MAY-2014,,End Of Day,No Trades,,,,,,,,Verified
LLC.AX,12-MAY-2014,,End Of Day,,13.2,13.31,13.16,13.28,1656934,,,Verified
LLC.AX,13-MAY-2014,,End Of Day,,13.5,13.59,13.35,13.5,2600366,,,Verified
LLC.AX,14-MAY-2014,,End Of Day,,13.57,13.57,13.39,13.51,2418809,,,Verified
LLC.AX,15-MAY-2014,,End Of Day,,13.43,13.71,13.35,13.69,3109817,,,Verified
LLC.AX,16-MAY-2014,,End Of Day,,13.63,13.8,13.62,13.7,2246378,,,Verified
LLC.AX,17-MAY-2014,,End Of Day,No Trades,,,,,,,,Verified
LLC.AX,18-MAY-2014,,End Of Day,No Trades,,,,,,,,Verified
LLC.AX,19-MAY-2014,,End Of Day,,13.7,13.74,13.38,13.38,1827034,,,Verified
LLC.AX,20-MAY-2014,,End Of Day,,13.36,13.44,13.3,13.37,1756631,,,Verified
LLC.AX,21-MAY-2014,,End Of Day,,13.22,13.34,13.105,13.32,2406686,,,Verified
LLC.AX,22-MAY-2014,,End Of Day,,13.31,13.41,13.26,13.34,1691580,,,Verified
LLC.AX,23-MAY-2014,,End Of Day,,13.25,13.285,13.09,13.11,1996091,,,Verified
LLC.AX,24-MAY-2014,,End Of Day,No Trades,,,,,,,,Verified
LLC.AX,25-MAY-2014,,End Of Day,No Trades,,,,,,,,Verified
LLC.AX,26-MAY-2014,,End Of Day,,13.2,13.22,13.125,13.15,1461877,,,Verified
LLC.AX,27-MAY-2014,,End Of Day,,13.15,13.21,13.13,13.13,906949,,,Verified
LLC.AX,28-MAY-2014,,End Of Day,,13.16,13.35,13.16,13.33,2062834,,,Verified
LLC.AX,29-MAY-2014,,End Of Day,,13.34,13.5,13.32,13.45,2126139,,,Verified
LLC.AX,30-MAY-2014,,End Of Day,,13.46,13.47,13.38,13.41,2543517,,,Verified
LLC.AX,31-MAY-2014,,End Of Day,No Trades,,,,,,,,Verified
LLC.AX,01-JUN-2014,,End Of Day,No Trades,,,,,,,,Verified
LLC.AX,02-JUN-2014,,End Of Day,,13.41,13.5,13.375,13.43,1089177,,,Verified
LLC.AX,03-JUN-2014,,End Of Day,,13.47,13.47,13.28,13.29,1336413,,,Verified
LLC.AX,04-JUN-2014,,End Of Day,,13.3,13.3,13.03,13.13,1834782,,,Verified
LLC.AX,05-JUN-2014,,End Of Day,,13.12,13.35,13.12,13.34,1937053,,,Verified
LLC.AX,06-JUN-2014,,End Of Day,,13.42,13.61,13.42,13.5,1537178,,,Verified
LLC.AX,07-JUN-2014,,End Of Day,No Trades,,,,,,,,Verified
LLC.AX,08-JUN-2014,,End Of Day,No Trades,,,,,,,,Verified
LLC.AX,09-JUN-2014,,End Of Day,No Trades,,,,,,,,Verified
LLC.AX,10-JUN-2014,,End Of Day,,13.53,13.59,13.48,13.5,1065726,,,Verified
LLC.AX,11-JUN-2014,,End Of Day,,13.48,13.49,13.38,13.45,762322,,,Verified
LLC.AX,12-JUN-2014,,End Of Day,,13.2,13.48,13.15,13.35,1181011,,,Verified
LLC.AX,13-JUN-2014,,End Of Day,,13.21,13.37,13.05,13.23,1760482,,,Verified
LLC.AX,14-JUN-2014,,End Of Day,No Trades,,,,,,,,Verified
LLC.AX,15-JUN-2014,,End Of Day,No Trades,,,,,,,,Verified
LLC.AX,16-JUN-2014,,End Of Day,,13.14,13.22,13.11,13.22,1320601,,,Verified
LLC.AX,17-JUN-2014,,End Of Day,,13.17,13.24,13.07,13.15,1613147,,,Verified
LLC.AX,18-JUN-2014,,End Of Day,,13.17,13.38,13.16,13.28,1367382,,,Verified
LLC.AX,19-JUN-2014,,End Of Day,,13.53,13.645,13.33,13.63,2525123,,,Verified
LLC.AX,20-JUN-2014,,End Of Day,,13.67,13.74,13.53,13.53,1771697,,,Verified
LLC.AX,21-JUN-2014,,End Of Day,No Trades,,,,,,,,Verified
LLC.AX,22-JUN-2014,,End Of Day,No Trades,,,,,,,,Verified
LLC.AX,23-JUN-2014,,End Of Day,,13.66,13.82,13.53,13.56,2237408,,,Verified
LLC.AX,24-JUN-2014,,End Of Day,,13.52,13.67,13.49,13.62,1063647,,,Verified
LLC.AX,25-JUN-2014,,End Of Day,,13.87,13.87,13.03,13.12,4961973,,,Verified
LLC.AX,26-JUN-2014,,End Of Day,,13.18,13.44,13.085,13.33,2142437,,,Verified
LLC.AX,27-JUN-2014,,End Of Day,,13.33,13.47,13.06,13.17,2675824,,,Verified
LLC.AX,28-JUN-2014,,End Of Day,No Trades,,,,,,,,Verified
LLC.AX,29-JUN-2014,,End Of Day,No Trades,,,,,,,,Verified
LLC.AX,30-JUN-2014,,End Of Day,,13.14,13.24,12.96,13.11,1875542,,,Verified
LLC.AX,01-JUL-2014,,End Of Day,,13.1,13.19,12.95,13.04,1387713,,,Verified
LLC.AX,02-JUL-2014,,End Of Day,,13.25,13.35,13.16,13.26,1548104,,,Verified
LLC.AX,03-JUL-2014,,End Of Day,,13.34,13.44,13.26,13.36,1043481,,,Verified
LLC.AX,04-JUL-2014,,End Of Day,,13.41,13.5,13.33,13.35,585338,,,Verified
LLC.AX,05-JUL-2014,,End Of Day,No Trades,,,,,,,,Verified
LLC.AX,06-JUL-2014,,End Of Day,No Trades,,,,,,,,Verified
LLC.AX,07-JUL-2014,,End Of Day,,13.36,13.39,13.24,13.34,958729,,,Verified
LLC.AX,08-JUL-2014,,End Of Day,,13.37,13.4,13.25,13.32,856745,,,Verified
LLC.AX,09-JUL-2014,,End Of Day,,13.26,13.32,13.22,13.27,2308922,,,Verified
LLC.AX,10-JUL-2014,,End Of Day,,13.4,13.47,13.2,13.26,1171219,,,Verified
LLC.AX,11-JUL-2014,,End Of Day,,13.14,13.37,13.14,13.24,924514,,,Verified
LLC.AX,12-JUL-2014,,End Of Day,No Trades,,,,,,,,Verified
LLC.AX,13-JUL-2014,,End Of Day,No Trades,,,,,,,,Verified
LLC.AX,14-JUL-2014,,End Of Day,,13.26,13.28,13.17,13.22,987483,,,Verified
LLC.AX,15-JUL-2014,,End Of Day,,13.31,13.33,13.15,13.19,930030,,,Verified
LLC.AX,16-JUL-2014,,End Of Day,,13.2,13.27,13.11,13.22,1568939,,,Verified
LLC.AX,17-JUL-2014,,End Of Day,,13.29,13.33,13.19,13.19,1804836,,,Verified
LLC.AX,18-JUL-2014,,End Of Day,,13.11,13.19,13,13.15,1491447,,,Verified
LLC.AX,19-JUL-2014,,End Of Day,No Trades,,,,,,,,Verified
LLC.AX,20-JUL-2014,,End Of Day,No Trades,,,,,,,,Verified
LLC.AX,21-JUL-2014,,End Of Day,,13.25,13.27,13.16,13.16,1347190,,,Verified
LLC.AX,22-JUL-2014,,End Of Day,,13.08,13.16,13.03,13.09,1518953,,,Verified
LLC.AX,23-JUL-2014,,End Of Day,,13.12,13.2,13.07,13.1,1405410,,,Verified
LLC.AX,24-JUL-2014,,End Of Day,,13.22,13.29,13.13,13.2,1431205,,,Verified
LLC.AX,25-JUL-2014,,End Of Day,,13.37,13.39,13.2,13.26,1645365,,,Verified
LLC.AX,26-JUL-2014,,End Of Day,No Trades,,,,,,,,Verified
LLC.AX,27-JUL-2014,,End Of Day,No Trades,,,,,,,,Verified
LLC.AX,28-JUL-2014,,End Of Day,,13.26,13.38,13.24,13.29,3794974,,,Verified
LLC.AX,29-JUL-2014,,End Of Day,,13.27,13.37,13.26,13.29,1059845,,,Verified
LLC.AX,30-JUL-2014,,End Of Day,,13.38,13.55,13.34,13.45,1466316,,,Verified
LLC.AX,31-JUL-2014,,End Of Day,,13.5,13.62,13.49,13.58,1636422,,,Verified
LLC.AX,01-AUG-2014,,End Of Day,,13.54,13.54,13.34,13.43,1878273,,,Verified
LLC.AX,02-AUG-2014,,End Of Day,No Trades,,,,,,,,Verified
LLC.AX,03-AUG-2014,,End Of Day,No Trades,,,,,,,,Verified
LLC.AX,04-AUG-2014,,End Of Day,,13.3,13.36,13.25,13.29,941061,,,Verified
LLC.AX,05-AUG-2014,,End Of Day,,13.26,13.285,13.06,13.12,3089517,,,Verified
LLC.AX,06-AUG-2014,,End Of Day,,13.11,13.24,13.08,13.24,1581666,,,Verified
LLC.AX,07-AUG-2014,,End Of Day,,13.25,13.4,13.25,13.31,1395136,,,Verified
LLC.AX,08-AUG-2014,,End Of Day,,13.13,13.32,13.005,13.01,1438836,,,Verified
LLC.AX,09-AUG-2014,,End Of Day,No Trades,,,,,,,,Verified
LLC.AX,10-AUG-2014,,End Of Day,No Trades,,,,,,,,Verified
LLC.AX,11-AUG-2014,,End Of Day,,13.16,13.28,13.12,13.2,1111157,,,Verified
LLC.AX,12-AUG-2014,,End Of Day,,13.21,13.47,13.21,13.45,3705454,,,Verified
LLC.AX,13-AUG-2014,,End Of Day,,13.47,13.6,13.41,13.51,1055817,,,Verified
LLC.AX,14-AUG-2014,,End Of Day,,13.49,13.65,13.45,13.54,1502015,,,Verified
LLC.AX,15-AUG-2014,,End Of Day,,13.65,13.735,13.55,13.55,1360422,,,Verified
LLC.AX,16-AUG-2014,,End Of Day,No Trades,,,,,,,,Verified
LLC.AX,17-AUG-2014,,End Of Day,No Trades,,,,,,,,Verified
LLC.AX,18-AUG-2014,,End Of Day,,13.55,13.65,13.485,13.62,907634,,,Verified
LLC.AX,19-AUG-2014,,End Of Day,,13.8,13.9,13.74,13.87,1799074,,,Verified
LLC.AX,20-AUG-2014,,End Of Day,,13.88,13.94,13.78,13.84,1181651,,,Verified
LLC.AX,21-AUG-2014,,End Of Day,,14.07,14.1,13.8,13.85,2607139,,,Verified
LLC.AX,22-AUG-2014,,End Of Day,,13.85,13.985,13.85,13.9,1120864,,,Verified
LLC.AX,23-AUG-2014,,End Of Day,No Trades,,,,,,,,Verified
LLC.AX,24-AUG-2014,,End Of Day,No Trades,,,,,,,,Verified
LLC.AX,25-AUG-2014,,End Of Day,,13.92,14.01,13.84,13.86,1269085,,,Verified
LLC.AX,26-AUG-2014,,End Of Day,,13.94,14.01,13.7,13.75,2579933,,,Verified
LLC.AX,27-AUG-2014,,End Of Day,,14.2,14.29,13.92,13.95,1871847,,,Verified
LLC.AX,28-AUG-2014,,End Of Day,,13.95,14.19,13.95,14.06,3246812,,,Verified
LLC.AX,29-AUG-2014,,End Of Day,,14.12,14.355,14.12,14.3,6356827,,,Verified
LLC.AX,30-AUG-2014,,End Of Day,No Trades,,,,,,,,Verified
LLC.AX,31-AUG-2014,,End Of Day,No Trades,,,,,,,,Verified
LLC.AX,01-SEP-2014,,End Of Day,,13.95,14.01,13.85,13.86,3368212,,,Verified
LLC.AX,02-SEP-2014,,End Of Day,,13.86,13.96,13.76,13.93,1047848,,,Verified
LLC.AX,03-SEP-2014,,End Of Day,,13.99,14.29,13.99,14.1,1658593,,,Verified
LLC.AX,04-SEP-2014,,End Of Day,,14.12,14.12,13.84,13.96,1802593,,,Verified
LLC.AX,05-SEP-2014,,End Of Day,,14.02,14.07,13.95,13.98,1550505,,,Verified
LLC.AX,06-SEP-2014,,End Of Day,No Trades,,,,,,,,Verified
LLC.AX,07-SEP-2014,,End Of Day,No Trades,,,,,,,,Verified
LLC.AX,08-SEP-2014,,End Of Day,,13.96,14.07,13.96,14.01,1003482,,,Verified
LLC.AX,09-SEP-2014,,End Of Day,,14.05,14.34,14.04,14.3,2782105,,,Verified
LLC.AX,10-SEP-2014,,End Of Day,,14.25,14.27,14.05,14.27,2129209,,,Verified
LLC.AX,11-SEP-2014,,End Of Day,,14.38,14.48,14.315,14.43,1959532,,,Verified
LLC.AX,12-SEP-2014,,End Of Day,,14.39,14.5,14.275,14.46,1387039,,,Verified
LLC.AX,13-SEP-2014,,End Of Day,No Trades,,,,,,,,Verified
LLC.AX,14-SEP-2014,,End Of Day,No Trades,,,,,,,,Verified
LLC.AX,15-SEP-2014,,End Of Day,,14.27,14.61,14.25,14.34,1812196,,,Verified
LLC.AX,16-SEP-2014,,End Of Day,,14.27,14.34,14.23,14.26,2416637,,,Verified
LLC.AX,17-SEP-2014,,End Of Day,,14.2,14.28,14.07,14.18,2265135,,,Verified
LLC.AX,18-SEP-2014,,End Of Day,,14.31,14.505,14.08,14.37,2055832,,,Verified
LLC.AX,19-SEP-2014,,End Of Day,,14.27,14.43,14.23,14.37,1839223,,,Verified
LLC.AX,20-SEP-2014,,End Of Day,No Trades,,,,,,,,Verified
LLC.AX,21-SEP-2014,,End Of Day,No Trades,,,,,,,,Verified
LLC.AX,22-SEP-2014,,End Of Day,,14.27,14.38,14.18,14.25,1614108,,,Verified
LLC.AX,23-SEP-2014,,End Of Day,,14.19,14.57,14.13,14.51,1771137,,,Verified
LLC.AX,24-SEP-2014,,End Of Day,,14.34,14.35,14.13,14.2,2446278,,,Verified
LLC.AX,25-SEP-2014,,End Of Day,,14.35,14.42,14.255,14.32,2076389,,,Verified
LLC.AX,26-SEP-2014,,End Of Day,,14.25,14.35,14.15,14.33,1610385,,,Verified
LLC.AX,27-SEP-2014,,End Of Day,No Trades,,,,,,,,Verified
LLC.AX,28-SEP-2014,,End Of Day,No Trades,,,,,,,,Verified
LLC.AX,29-SEP-2014,,End Of Day,,14.35,14.41,14.215,14.4,1603502,,,Verified
LLC.AX,30-SEP-2014,,End Of Day,,14.4,14.5,14.335,14.34,2007208,,,Verified
LLC.AX,01-OCT-2014,,End Of Day,,14.29,14.41,14.25,14.41,1863780,,,Verified
LLC.AX,02-OCT-2014,,End Of Day,,14.55,14.69,14.49,14.61,2124829,,,Verified
LLC.AX,03-OCT-2014,,End Of Day,,14.6,14.88,14.54,14.67,2733596,,,Verified
LLC.AX,04-OCT-2014,,End Of Day,No Trades,,,,,,,,Verified
LLC.AX,05-OCT-2014,,End Of Day,No Trades,,,,,,,,Verified
LLC.AX,06-OCT-2014,,End Of Day,,14.63,14.71,14.58,14.67,791307,,,Verified
LLC.AX,07-OCT-2014,,End Of Day,,14.82,14.82,14.445,14.61,2882801,,,Verified
LLC.AX,08-OCT-2014,,End Of Day,,14.65,14.75,14.51,14.67,3059572,,,Verified
LLC.AX,09-OCT-2014,,End Of Day,,14.96,15.28,14.95,15.04,3180697,,,Verified
LLC.AX,10-OCT-2014,,End Of Day,,14.85,15.1,14.79,14.98,5420249,,,Verified
LLC.AX,11-OCT-2014,,End Of Day,No Trades,,,,,,,,Verified
LLC.AX,12-OCT-2014,,End Of Day,No Trades,,,,,,,,Verified
LLC.AX,13-OCT-2014,,End Of Day,,14.9,14.955,14.84,14.89,2041047,,,Verified
LLC.AX,14-OCT-2014,,End Of Day,,14.79,14.87,14.73,14.83,2819684,,,Verified
LLC.AX,15-OCT-2014,,End Of Day,,14.91,15.03,14.86,14.95,1884844,,,Verified
LLC.AX,16-OCT-2014,,End Of Day,,14.93,14.93,14.64,14.8,2789416,,,Verified
LLC.AX,17-OCT-2014,,End Of Day,,14.98,15.14,14.82,14.86,4298003,,,Verified
LLC.AX,18-OCT-2014,,End Of Day,No Trades,,,,,,,,Verified
LLC.AX,19-OCT-2014,,End Of Day,No Trades,,,,,,,,Verified
LLC.AX,20-OCT-2014,,End Of Day,,15.14,15.26,15.01,15.08,2457720,,,Verified
LLC.AX,21-OCT-2014,,End Of Day,,15.09,15.11,14.99,15.06,2859379,,,Verified
LLC.AX,22-OCT-2014,,End Of Day,,15.29,15.29,15.085,15.2,3337080,,,Verified
LLC.AX,23-OCT-2014,,End Of Day,,15.27,15.27,15.02,15.13,2219941,,,Verified
LLC.AX,24-OCT-2014,,End Of Day,,15.27,15.47,15.21,15.35,2029287,,,Verified
LLC.AX,25-OCT-2014,,End Of Day,No Trades,,,,,,,,Verified
LLC.AX,26-OCT-2014,,End Of Day,No Trades,,,,,,,,Verified
LLC.AX,27-OCT-2014,,End Of Day,,15.5,15.51,15.43,15.51,1192871,,,Verified
LLC.AX,28-OCT-2014,,End Of Day,,15.5,15.57,15.44,15.51,1604769,,,Verified
LLC.AX,29-OCT-2014,,End Of Day,,15.55,15.59,15.34,15.36,1694908,,,Verified
LLC.AX,30-OCT-2014,,End Of Day,,15.5,15.6,15.4,15.55,1347867,,,Verified
LLC.AX,31-OCT-2014,,End Of Day,,15.75,15.89,15.66,15.66,2555177,,,Verified
LLC.AX,01-NOV-2014,,End Of Day,No Trades,,,,,,,,Verified
LLC.AX,02-NOV-2014,,End Of Day,No Trades,,,,,,,,Verified
LLC.AX,03-NOV-2014,,End Of Day,,15.76,15.89,15.7,15.77,996350,,,Verified
LLC.AX,04-NOV-2014,,End Of Day,,15.8,15.93,15.71,15.84,1250556,,,Verified
LLC.AX,05-NOV-2014,,End Of Day,,15.9,16,15.74,15.95,2492233,,,Verified
LLC.AX,06-NOV-2014,,End Of Day,,16,16.115,15.84,15.87,1351847,,,Verified
LLC.AX,07-NOV-2014,,End Of Day,,16.05,16.31,16.04,16.23,3343951,,,Verified
LLC.AX,08-NOV-2014,,End Of Day,No Trades,,,,,,,,Verified
LLC.AX,09-NOV-2014,,End Of Day,No Trades,,,,,,,,Verified
LLC.AX,10-NOV-2014,,End Of Day,,16.23,16.25,15.59,15.81,2359803,,,Verified
LLC.AX,11-NOV-2014,,End Of Day,,15.71,15.79,15.55,15.66,3056769,,,Verified
LLC.AX,12-NOV-2014,,End Of Day,,15.68,15.88,15.63,15.69,2019312,,,Verified
LLC.AX,13-NOV-2014,,End Of Day,,15.74,15.92,15.69,15.85,1708080,,,Verified
LLC.AX,14-NOV-2014,,End Of Day,,16,16.15,15.94,15.94,1334332,,,Verified
LLC.AX,15-NOV-2014,,End Of Day,No Trades,,,,,,,,Verified
LLC.AX,16-NOV-2014,,End Of Day,No Trades,,,,,,,,Verified
LLC.AX,17-NOV-2014,,End Of Day,,15.91,15.93,15.75,15.76,1410972,,,Verified
LLC.AX,18-NOV-2014,,End Of Day,,15.82,15.88,15.6,15.68,1031120,,,Verified
LLC.AX,19-NOV-2014,,End Of Day,,15.99,16.05,15.65,15.7,2049567,,,Verified
LLC.AX,20-NOV-2014,,End Of Day,,15.65,15.85,15.38,15.43,1456629,,,Verified
LLC.AX,21-NOV-2014,,End Of Day,,15.38,15.39,15.09,15.18,1927553,,,Verified
LLC.AX,22-NOV-2014,,End Of Day,No Trades,,,,,,,,Verified
LLC.AX,23-NOV-2014,,End Of Day,No Trades,,,,,,,,Verified
LLC.AX,24-NOV-2014,,End Of Day,,15.05,15.33,15.05,15.18,2043432,,,Verified
LLC.AX,25-NOV-2014,,End Of Day,,15.33,15.38,15.03,15.17,3345360,,,Verified
LLC.AX,26-NOV-2014,,End Of Day,,15.15,15.4,15.15,15.39,1423447,,,Verified
LLC.AX,27-NOV-2014,,End Of Day,,15.62,15.67,15.37,15.47,1158045,,,Verified
LLC.AX,28-NOV-2014,,End Of Day,,15.5,15.5,15.32,15.33,1676183,,,Verified
LLC.AX,29-NOV-2014,,End Of Day,No Trades,,,,,,,,Verified
LLC.AX,30-NOV-2014,,End Of Day,No Trades,,,,,,,,Verified
LLC.AX,01-DEC-2014,,End Of Day,,15.41,15.42,14.93,15,1783474,,,Verified
LLC.AX,02-DEC-2014,,End Of Day,,15.6,15.6,15.17,15.5,1961684,,,Verified
LLC.AX,03-DEC-2014,,End Of Day,,15.5,15.635,15.39,15.61,1609587,,,Verified
LLC.AX,04-DEC-2014,,End Of Day,,15.83,15.86,15.47,15.71,1754095,,,Verified
LLC.AX,05-DEC-2014,,End Of Day,,15.88,15.88,15.52,15.57,1517913,,,Verified
LLC.AX,06-DEC-2014,,End Of Day,No Trades,,,,,,,,Verified
LLC.AX,07-DEC-2014,,End Of Day,No Trades,,,,,,,,Verified
LLC.AX,08-DEC-2014,,End Of Day,,15.7,15.92,15.68,15.77,1168806,,,Verified
LLC.AX,09-DEC-2014,,End Of Day,,15.76,15.76,15.45,15.6,2066142,,,Verified
LLC.AX,10-DEC-2014,,End Of Day,,15.8,15.8,15.37,15.57,1933557,,,Verified
LLC.AX,11-DEC-2014,,End Of Day,,15.3,15.74,15.3,15.6,2274061,,,Verified
LLC.AX,12-DEC-2014,,End Of Day,,16.15,16.15,15.6,15.7,2540156,,,Verified
LLC.AX,13-DEC-2014,,End Of Day,No Trades,,,,,,,,Verified
LLC.AX,14-DEC-2014,,End Of Day,No Trades,,,,,,,,Verified
LLC.AX,15-DEC-2014,,End Of Day,,15.5,15.86,15.5,15.75,1077541,,,Verified
LLC.AX,16-DEC-2014,,End Of Day,,15.9,15.94,15.77,15.81,1878767,,,Verified
LLC.AX,17-DEC-2014,,End Of Day,,15.92,16.12,15.64,15.7,1764702,,,Verified
LLC.AX,18-DEC-2014,,End Of Day,,15.66,15.89,15.55,15.68,2406940,,,Verified
LLC.AX,19-DEC-2014,,End Of Day,,15.86,15.89,15.76,15.89,3987416,,,Verified
LLC.AX,20-DEC-2014,,End Of Day,No Trades,,,,,,,,Verified
LLC.AX,21-DEC-2014,,End Of Day,No Trades,,,,,,,,Verified
LLC.AX,22-DEC-2014,,End Of Day,,15.92,16.45,15.92,16.33,1939280,,,Verified
LLC.AX,23-DEC-2014,,End Of Day,,16.4,16.48,16.21,16.28,1063912,,,Verified
LLC.AX,24-DEC-2014,,End Of Day,,16.35,16.35,16.1,16.33,321876,,,Verified
LLC.AX,25-DEC-2014,,End Of Day,No Trades,,,,,,,,Verified
LLC.AX,26-DEC-2014,,End Of Day,No Trades,,,,,,,,Verified
LLC.AX,27-DEC-2014,,End Of Day,No Trades,,,,,,,,Verified
LLC.AX,28-DEC-2014,,End Of Day,No Trades,,,,,,,,Verified
LLC.AX,29-DEC-2014,,End Of Day,,16.37,16.66,16.36,16.58,1156810,,,Verified
LLC.AX,30-DEC-2014,,End Of Day,,16.83,16.83,16.38,16.43,916872,,,Verified
LLC.AX,31-DEC-2014,,End Of Day,,16.51,16.58,16.25,16.4,310018,,,Verified
LLC.AX,01-JAN-2015,,End Of Day,No Trades,,,,,,,,Verified
LLC.AX,02-JAN-2015,,End Of Day,,16.25,16.52,16.19,16.47,451487,,,Verified
LLC.AX,03-JAN-2015,,End Of Day,No Trades,,,,,,,,Verified
LLC.AX,04-JAN-2015,,End Of Day,No Trades,,,,,,,,Verified
LLC.AX,05-JAN-2015,,End Of Day,,16.63,16.66,16.47,16.53,1272896,,,Verified
LLC.AX,06-JAN-2015,,End Of Day,,16.53,16.68,16.11,16.22,1581301,,,Verified
LLC.AX,07-JAN-2015,,End Of Day,,16.41,16.47,16.15,16.29,1970492,,,Verified
LLC.AX,08-JAN-2015,,End Of Day,,16.46,16.59,16.24,16.34,1696742,,,Verified
LLC.AX,09-JAN-2015,,End Of Day,,16.79,16.79,16.48,16.59,1303626,,,Verified
LLC.AX,10-JAN-2015,,End Of Day,No Trades,,,,,,,,Verified
LLC.AX,11-JAN-2015,,End Of Day,No Trades,,,,,,,,Verified
LLC.AX,12-JAN-2015,,End Of Day,,16.7,16.75,16.375,16.52,975455,,,Verified
LLC.AX,13-JAN-2015,,End Of Day,,16.47,16.665,16.41,16.49,1053187,,,Verified
LLC.AX,14-JAN-2015,,End Of Day,,16.56,16.62,16.27,16.4,1700320,,,Verified
LLC.AX,15-JAN-2015,,End Of Day,,16.35,16.44,15.98,16.12,1827716,,,Verified
LLC.AX,16-JAN-2015,,End Of Day,,16.12,16.22,16.01,16.13,1157721,,,Verified
LLC.AX,17-JAN-2015,,End Of Day,No Trades,,,,,,,,Verified
LLC.AX,18-JAN-2015,,End Of Day,No Trades,,,,,,,,Verified
LLC.AX,19-JAN-2015,,End Of Day,,16.15,16.22,15.75,15.82,1704862,,,Verified
LLC.AX,20-JAN-2015,,End Of Day,,15.85,15.92,15.61,15.7,2006973,,,Verified
LLC.AX,21-JAN-2015,,End Of Day,,15.9,16.17,15.81,16.13,2413927,,,Verified
LLC.AX,22-JAN-2015,,End Of Day,,16.5,16.5,16.05,16.12,1975632,,,Verified
LLC.AX,23-JAN-2015,,End Of Day,,16.64,16.64,16.22,16.53,1948305,,,Verified
LLC.AX,24-JAN-2015,,End Of Day,No Trades,,,,,,,,Verified
LLC.AX,25-JAN-2015,,End Of Day,No Trades,,,,,,,,Verified
LLC.AX,26-JAN-2015,,End Of Day,No Trades,,,,,,,,Verified
LLC.AX,27-JAN-2015,,End Of Day,,16.7,16.95,16.66,16.79,1876290,,,Verified
LLC.AX,28-JAN-2015,,End Of Day,,16.62,16.67,16.38,16.53,1971621,,,Verified
LLC.AX,29-JAN-2015,,End Of Day,,16.31,16.52,16.27,16.41,1605365,,,Verified
LLC.AX,30-JAN-2015,,End Of Day,,16.76,16.9,16.57,16.68,2191680,,,Verified
LLC.AX,31-JAN-2015,,End Of Day,No Trades,,,,,,,,Verified
LLC.AX,01-FEB-2015,,End Of Day,No Trades,,,,,,,,Verified
LLC.AX,02-FEB-2015,,End Of Day,,16.75,16.82,16.45,16.56,1174744,,,Verified
LLC.AX,03-FEB-2015,,End Of Day,,16.7,16.82,16.46,16.75,1698930,,,Verified
LLC.AX,04-FEB-2015,,End Of Day,,17.14,17.18,16.69,16.83,2370026,,,Verified
LLC.AX,05-FEB-2015,,End Of Day,,17.26,17.26,16.89,17.02,1897835,,,Verified
LLC.AX,06-FEB-2015,,End Of Day,,17.29,17.33,17.045,17.08,1411465,,,Verified
LLC.AX,07-FEB-2015,,End Of Day,No Trades,,,,,,,,Verified
LLC.AX,08-FEB-2015,,End Of Day,No Trades,,,,,,,,Verified
LLC.AX,09-FEB-2015,,End Of Day,,17.3,17.45,16.93,17.06,1399149,,,Verified
LLC.AX,10-FEB-2015,,End Of Day,,17.2,17.2,16.89,17,1392715,,,Verified
LLC.AX,11-FEB-2015,,End Of Day,,17.27,17.4,16.84,16.92,969144,,,Verified
LLC.AX,12-FEB-2015,,End Of Day,,17.29,17.31,16.69,16.72,2626795,,,Verified
LLC.AX,13-FEB-2015,,End Of Day,,17.06,17.21,16.92,17.05,1322310,,,Verified
LLC.AX,14-FEB-2015,,End Of Day,No Trades,,,,,,,,Verified
LLC.AX,15-FEB-2015,,End Of Day,No Trades,,,,,,,,Verified
LLC.AX,16-FEB-2015,,End Of Day,,17,17.18,16.93,17.12,900399,,,Verified
LLC.AX,17-FEB-2015,,End Of Day,,17.25,17.31,16.8,16.85,1422501,,,Verified
LLC.AX,18-FEB-2015,,End Of Day,,17.06,17.15,16.85,16.98,1390874,,,Verified
LLC.AX,19-FEB-2015,,End Of Day,,17.02,17.22,16.82,16.88,1274774,,,Verified
LLC.AX,20-FEB-2015,,End Of Day,,17.18,17.19,16.73,16.85,758472,,,Verified
LLC.AX,21-FEB-2015,,End Of Day,No Trades,,,,,,,,Verified
LLC.AX,22-FEB-2015,,End Of Day,No Trades,,,,,,,,Verified
LLC.AX,23-FEB-2015,,End Of Day,,17.08,17.08,16.82,17,1448660,,,Verified
LLC.AX,24-FEB-2015,,End Of Day,,17.22,17.58,17.08,17.44,2916892,,,Verified
LLC.AX,25-FEB-2015,,End Of Day,,17.72,17.72,17.44,17.56,2862289,,,Verified
LLC.AX,26-FEB-2015,,End Of Day,,17.4,17.4,17.15,17.36,5302293,,,Verified
LLC.AX,27-FEB-2015,,End Of Day,,17.49,17.54,17.27,17.35,2004603,,,Verified
LLC.AX,28-FEB-2015,,End Of Day,No Trades,,,,,,,,Verified
LLC.AX,01-MAR-2015,,End Of Day,No Trades,,,,,,,,Verified
LLC.AX,02-MAR-2015,,End Of Day,,17.44,17.61,17.4,17.48,1081218,,,Verified
LLC.AX,03-MAR-2015,,End Of Day,,17.7,17.7,17.02,17.23,1484403,,,Verified
LLC.AX,04-MAR-2015,,End Of Day,,17.11,17.19,16.82,16.87,2087339,,,Verified
LLC.AX,05-MAR-2015,,End Of Day,,16.83,16.83,16.31,16.5,2368309,,,Verified
LLC.AX,06-MAR-2015,,End Of Day,,16.7,17.1,16.68,17.05,1828462,,,Verified
LLC.AX,07-MAR-2015,,End Of Day,No Trades,,,,,,,,Verified
LLC.AX,08-MAR-2015,,End Of Day,No Trades,,,,,,,,Verified
LLC.AX,09-MAR-2015,,End Of Day,,17.05,17.19,16.5,16.65,1622215,,,Verified
LLC.AX,10-MAR-2015,,End Of Day,,16.75,16.89,16.5,16.62,2477778,,,Verified
LLC.AX,11-MAR-2015,,End Of Day,,16.53,16.6,16.1,16.21,2634185,,,Verified
LLC.AX,12-MAR-2015,,End Of Day,,16.45,16.8,16.42,16.76,2136811,,,Verified
LLC.AX,13-MAR-2015,,End Of Day,,16.76,16.88,16.39,16.42,1619684,,,Verified
LLC.AX,14-MAR-2015,,End Of Day,No Trades,,,,,,,,Verified
LLC.AX,15-MAR-2015,,End Of Day,No Trades,,,,,,,,Verified
LLC.AX,16-MAR-2015,,End Of Day,,16.35,16.41,16.08,16.1,1303284,,,Verified
LLC.AX,17-MAR-2015,,End Of Day,,16.34,16.34,15.97,16.03,1250907,,,Verified
LLC.AX,18-MAR-2015,,End Of Day,,16.34,16.34,15.77,15.93,2428638,,,Verified
LLC.AX,19-MAR-2015,,End Of Day,,16.25,16.66,16.19,16.62,3077571,,,Verified
LLC.AX,20-MAR-2015,,End Of Day,,16.6,16.64,16.42,16.64,1824847,,,Verified
LLC.AX,21-MAR-2015,,End Of Day,No Trades,,,,,,,,Verified
LLC.AX,22-MAR-2015,,End Of Day,No Trades,,,,,,,,Verified
LLC.AX,23-MAR-2015,,End Of Day,,16.65,16.79,16.56,16.6,1375507,,,Verified
LLC.AX,24-MAR-2015,,End Of Day,,16.43,16.66,16.27,16.36,1319348,,,Verified
LLC.AX,25-MAR-2015,,End Of Day,,16.68,16.77,16.51,16.66,1855236,,,Verified
LLC.AX,26-MAR-2015,,End Of Day,,16.5,16.5,16.31,16.42,1313190,,,Verified
LLC.AX,27-MAR-2015,,End Of Day,,16.5,16.66,16.41,16.47,3817035,,,Verified
LLC.AX,28-MAR-2015,,End Of Day,No Trades,,,,,,,,Verified
LLC.AX,29-MAR-2015,,End Of Day,No Trades,,,,,,,,Verified
LLC.AX,30-MAR-2015,,End Of Day,,16.29,16.49,16.21,16.37,1086640,,,Verified
LLC.AX,31-MAR-2015,,End Of Day,,16.52,16.73,16.495,16.64,2464023,,,Verified
LLC.AX,01-APR-2015,,End Of Day,,16.67,16.84,16.51,16.69,1220282,,,Verified
LLC.AX,02-APR-2015,,End Of Day,,16.8,17.16,16.69,17,1441043,,,Verified
LLC.AX,03-APR-2015,,End Of Day,No Trades,,,,,,,,Verified
LLC.AX,04-APR-2015,,End Of Day,No Trades,,,,,,,,Verified
LLC.AX,05-APR-2015,,End Of Day,No Trades,,,,,,,,Verified
LLC.AX,06-APR-2015,,End Of Day,No Trades,,,,,,,,Verified
LLC.AX,07-APR-2015,,End Of Day,,17.34,17.34,16.8,16.93,1348120,,,Verified
LLC.AX,08-APR-2015,,End Of Day,,16.75,17.1,16.69,17,1345578,,,Verified
LLC.AX,09-APR-2015,,End Of Day,,17.08,17.1,16.78,16.95,1636682,,,Verified
LLC.AX,10-APR-2015,,End Of Day,,17,17,16.73,16.86,1117427,,,Verified
LLC.AX,11-APR-2015,,End Of Day,No Trades,,,,,,,,Verified
LLC.AX,12-APR-2015,,End Of Day,No Trades,,,,,,,,Verified
LLC.AX,13-APR-2015,,End Of Day,,16.86,16.9,16.55,16.56,1427791,,,Verified
LLC.AX,14-APR-2015,,End Of Day,,16.7,17.24,16.63,17.19,2425660,,,Verified
LLC.AX,15-APR-2015,,End Of Day,,17.2,17.24,16.9,17,2328195,,,Verified
LLC.AX,16-APR-2015,,End Of Day,,17.07,17.17,16.93,17.07,1824746,,,Verified
LLC.AX,17-APR-2015,,End Of Day,,17.05,17.11,16.97,17.04,1792248,,,Verified
LLC.AX,18-APR-2015,,End Of Day,No Trades,,,,,,,,Verified
LLC.AX,19-APR-2015,,End Of Day,No Trades,,,,,,,,Verified
LLC.AX,20-APR-2015,,End Of Day,,16.79,16.79,16.445,16.61,1491361,,,Verified
LLC.AX,21-APR-2015,,End Of Day,,16.6,16.97,16.6,16.9,1546622,,,Verified
LLC.AX,22-APR-2015,,End Of Day,,16.8,16.87,16.51,16.62,1428348,,,Verified
LLC.AX,23-APR-2015,,End Of Day,,16.81,16.81,16.43,16.63,1086311,,,Verified
LLC.AX,24-APR-2015,,End Of Day,,16.7,16.92,16.58,16.85,1391032,,,Verified
LLC.AX,25-APR-2015,,End Of Day,No Trades,,,,,,,,Verified
LLC.AX,26-APR-2015,,End Of Day,No Trades,,,,,,,,Verified
LLC.AX,27-APR-2015,,End Of Day,,16.89,17.09,16.85,17,910600,,,Verified
LLC.AX,28-APR-2015,,End Of Day,,16.78,16.93,16.66,16.7,1275488,,,Verified
LLC.AX,29-APR-2015,,End Of Day,,16.56,16.63,15.94,15.97,2782990,,,Verified
LLC.AX,30-APR-2015,,End Of Day,,15.78,16.05,15.51,16.05,2237664,,,Verified
LLC.AX,01-MAY-2015,,End Of Day,,15.84,16.32,15.72,16.24,1700391,,,Verified
LLC.AX,02-MAY-2015,,End Of Day,No Trades,,,,,,,,Verified
LLC.AX,03-MAY-2015,,End Of Day,No Trades,,,,,,,,Verified
LLC.AX,04-MAY-2015,,End Of Day,,16.27,16.43,16.15,16.33,829845,,,Verified
LLC.AX,05-MAY-2015,,End Of Day,,16.66,16.75,16.41,16.52,1472292,,,Verified
LLC.AX,06-MAY-2015,,End Of Day,,16.2,16.31,16.025,16.17,1747743,,,Verified
LLC.AX,07-MAY-2015,,End Of Day,,15.75,16.13,15.65,16.12,2306947,,,Verified
LLC.AX,08-MAY-2015,,End Of Day,,16,16.39,15.945,16.23,1137555,,,Verified
LLC.AX,09-MAY-2015,,End Of Day,No Trades,,,,,,,,Verified
LLC.AX,10-MAY-2015,,End Of Day,No Trades,,,,,,,,Verified
LLC.AX,11-MAY-2015,,End Of Day,,16.35,16.55,16.2,16.27,1380995,,,Verified
LLC.AX,12-MAY-2015,,End Of Day,,16.21,16.58,16.145,16.54,1351349,,,Verified
LLC.AX,13-MAY-2015,,End Of Day,,16.6,16.65,16.435,16.53,1628613,,,Verified
LLC.AX,14-MAY-2015,,End Of Day,,16.21,16.37,16.12,16.35,1260274,,,Verified
LLC.AX,15-MAY-2015,,End Of Day,,16.63,16.63,16.37,16.49,1196373,,,Verified
LLC.AX,16-MAY-2015,,End Of Day,No Trades,,,,,,,,Verified
LLC.AX,17-MAY-2015,,End Of Day,No Trades,,,,,,,,Verified
LLC.AX,18-MAY-2015,,End Of Day,,16.41,16.63,16.4,16.42,907013,,,Verified
LLC.AX,19-MAY-2015,,End Of Day,,16.3,16.3,15.89,16.04,2454325,,,Verified
LLC.AX,20-MAY-2015,,End Of Day,,16.05,16.27,15.92,16.1,1812289,,,Verified
LLC.AX,21-MAY-2015,,End Of Day,,16.02,16.02,15.67,15.8,4332217,,,Verified
LLC.AX,22-MAY-2015,,End Of Day,,15.8,15.82,15.69,15.77,2782040,,,Verified
LLC.AX,23-MAY-2015,,End Of Day,No Trades,,,,,,,,Verified
LLC.AX,24-MAY-2015,,End Of Day,No Trades,,,,,,,,Verified
LLC.AX,25-MAY-2015,,End Of Day,,15.83,15.97,15.78,15.91,2201336,,,Verified
LLC.AX,26-MAY-2015,,End Of Day,,15.95,16.24,15.86,16.24,2209199,,,Verified
LLC.AX,27-MAY-2015,,End Of Day,,16.23,16.4,16.13,16.23,2511694,,,Verified
LLC.AX,28-MAY-2015,,End Of Day,,16.4,16.56,16.3,16.45,2809062,,,Verified
LLC.AX,29-MAY-2015,,End Of Day,,16.6,16.84,16.59,16.66,2283256,,,Verified
LLC.AX,30-MAY-2015,,End Of Day,No Trades,,,,,,,,Verified
LLC.AX,31-MAY-2015,,End Of Day,No Trades,,,,,,,,Verified
LLC.AX,01-JUN-2015,,End Of Day,,16.73,16.79,16.28,16.53,1524438,,,Verified
LLC.AX,02-JUN-2015,,End Of Day,,16.59,16.71,16.34,16.38,1384583,,,Verified
LLC.AX,03-JUN-2015,,End Of Day,,16.1,16.2,15.79,15.91,2813900,,,Verified
LLC.AX,04-JUN-2015,,End Of Day,,15.9,16.05,15.64,15.69,2126830,,,Verified
LLC.AX,05-JUN-2015,,End Of Day,,15.6,15.81,15.56,15.75,1536173,,,Verified
LLC.AX,06-JUN-2015,,End Of Day,No Trades,,,,,,,,Verified
LLC.AX,07-JUN-2015,,End Of Day,No Trades,,,,,,,,Verified
LLC.AX,08-JUN-2015,,End Of Day,No Trades,,,,,,,,Verified
LLC.AX,09-JUN-2015,,End Of Day,,15.56,15.88,15.41,15.6,2302922,,,Verified
LLC.AX,10-JUN-2015,,End Of Day,,15.55,15.79,15.51,15.68,2891204,,,Verified
LLC.AX,11-JUN-2015,,End Of Day,,15.8,15.83,15.66,15.77,1600936,,,Verified
LLC.AX,12-JUN-2015,,End Of Day,,15.77,15.9,15.725,15.88,1678024,,,Verified
LLC.AX,13-JUN-2015,,End Of Day,No Trades,,,,,,,,Verified
LLC.AX,14-JUN-2015,,End Of Day,No Trades,,,,,,,,Verified
LLC.AX,15-JUN-2015,,End Of Day,,15.72,15.92,15.69,15.89,1464703,,,Verified
LLC.AX,16-JUN-2015,,End Of Day,,15.82,15.92,15.69,15.82,1699844,,,Verified
LLC.AX,17-JUN-2015,,End Of Day,,15.62,15.98,15.62,15.92,1735075,,,Verified
LLC.AX,18-JUN-2015,,End Of Day,,15.97,16,15.53,15.64,2362782,,,Verified
LLC.AX,19-JUN-2015,,End Of Day,,15.51,15.9,15.51,15.61,2990863,,,Verified
LLC.AX,20-JUN-2015,,End Of Day,No Trades,,,,,,,,Verified
LLC.AX,21-JUN-2015,,End Of Day,No Trades,,,,,,,,Verified
LLC.AX,22-JUN-2015,,End Of Day,,15.62,15.72,15.43,15.61,1393401,,,Verified
LLC.AX,23-JUN-2015,,End Of Day,,15.78,15.9,15.65,15.7,1723266,,,Verified
LLC.AX,24-JUN-2015,,End Of Day,,15.74,15.76,15.555,15.66,1567635,,,Verified
LLC.AX,25-JUN-2015,,End Of Day,,15.58,15.71,15.39,15.39,2215733,,,Verified
LLC.AX,26-JUN-2015,,End Of Day,,15.15,15.27,14.8,15.25,2411604,,,Verified
LLC.AX,27-JUN-2015,,End Of Day,No Trades,,,,,,,,Verified
LLC.AX,28-JUN-2015,,End Of Day,No Trades,,,,,,,,Verified
LLC.AX,29-JUN-2015,,End Of Day,,14.9,15.22,14.85,15.07,1874968,,,Verified
LLC.AX,30-JUN-2015,,End Of Day,,14.95,15.15,14.93,15.03,2956744,,,Verified
LLC.AX,01-JUL-2015,,End Of Day,,14.95,15.34,14.95,15.31,1379940,,,Verified
LLC.AX,02-JUL-2015,,End Of Day,,15.35,15.68,15.32,15.63,1704921,,,Verified
LLC.AX,03-JUL-2015,,End Of Day,,15.51,15.57,15.25,15.39,1182560,,,Verified
LLC.AX,04-JUL-2015,,End Of Day,No Trades,,,,,,,,Verified
LLC.AX,05-JUL-2015,,End Of Day,No Trades,,,,,,,,Verified
LLC.AX,06-JUL-2015,,End Of Day,,15.06,15.16,15.03,15.12,1104205,,,Verified
LLC.AX,07-JUL-2015,,End Of Day,,15.1,15.54,15.08,15.46,1379815,,,Verified
LLC.AX,08-JUL-2015,,End Of Day,,15.29,15.42,15.11,15.11,1181702,,,Verified
LLC.AX,09-JUL-2015,,End Of Day,,14.9,15.16,14.82,15.1,2214611,,,Verified
LLC.AX,10-JUL-2015,,End Of Day,,15.25,15.31,15.02,15.02,1053708,,,Verified
LLC.AX,11-JUL-2015,,End Of Day,No Trades,,,,,,,,Verified
LLC.AX,12-JUL-2015,,End Of Day,No Trades,,,,,,,,Verified
LLC.AX,13-JUL-2015,,End Of Day,,15.02,15.32,14.98,15.1,1128615,,,Verified
LLC.AX,14-JUL-2015,,End Of Day,,15.5,15.5,15.26,15.47,1148520,,,Verified
LLC.AX,15-JUL-2015,,End Of Day,,15.5,15.71,15.48,15.63,1217781,,,Verified
LLC.AX,16-JUL-2015,,End Of Day,,15.88,15.95,15.62,15.72,1286188,,,Verified
LLC.AX,17-JUL-2015,,End Of Day,,15.73,15.77,15.54,15.7,2058761,,,Verified
LLC.AX,18-JUL-2015,,End Of Day,No Trades,,,,,,,,Verified
LLC.AX,19-JUL-2015,,End Of Day,No Trades,,,,,,,,Verified
LLC.AX,20-JUL-2015,,End Of Day,,15.83,15.86,15.59,15.81,827659,,,Verified
LLC.AX,21-JUL-2015,,End Of Day,,16,16.04,15.84,15.94,1304926,,,Verified
LLC.AX,22-JUL-2015,,End Of Day,,16.1,16.1,15.66,15.66,1695114,,,Verified
LLC.AX,23-JUL-2015,,End Of Day,,15.73,15.76,15.48,15.52,1832145,,,Verified
LLC.AX,24-JUL-2015,,End Of Day,,15.4,15.41,15.24,15.38,2174120,,,Verified
LLC.AX,25-JUL-2015,,End Of Day,No Trades,,,,,,,,Verified
LLC.AX,26-JUL-2015,,End Of Day,No Trades,,,,,,,,Verified
LLC.AX,27-JUL-2015,,End Of Day,,15.38,15.53,15.25,15.38,1372315,,,Verified
LLC.AX,28-JUL-2015,,End Of Day,,15.2,15.45,15.03,15.35,2267890,,,Verified
LLC.AX,29-JUL-2015,,End Of Day,,15.42,15.53,15.37,15.44,1301874,,,Verified
LLC.AX,30-JUL-2015,,End Of Day,,15.49,15.64,15.44,15.58,1088952,,,Verified
LLC.AX,31-JUL-2015,,End Of Day,,15.65,15.7,15.51,15.59,1874084,,,Verified
LLC.AX,01-AUG-2015,,End Of Day,No Trades,,,,,,,,Verified
LLC.AX,02-AUG-2015,,End Of Day,No Trades,,,,,,,,Verified
LLC.AX,03-AUG-2015,,End Of Day,,15.61,15.66,15.51,15.58,1150281,,,Verified
LLC.AX,04-AUG-2015,,End Of Day,,15.59,15.75,15.44,15.71,2010495,,,Verified
LLC.AX,05-AUG-2015,,End Of Day,,15.57,15.77,15.51,15.77,1580320,,,Verified
LLC.AX,06-AUG-2015,,End Of Day,,15.75,15.75,15.34,15.42,3468591,,,Verified
LLC.AX,07-AUG-2015,,End Of Day,,15.24,15.39,15.11,15.13,1483405,,,Verified
LLC.AX,08-AUG-2015,,End Of Day,No Trades,,,,,,,,Verified
LLC.AX,09-AUG-2015,,End Of Day,No Trades,,,,,,,,Verified
LLC.AX,10-AUG-2015,,End Of Day,,14.91,15.37,14.9,15.32,1714913,,,Verified
LLC.AX,11-AUG-2015,,End Of Day,,15.5,15.5,15.07,15.14,1631416,,,Verified
LLC.AX,12-AUG-2015,,End Of Day,,15.14,15.24,14.9,15.01,1819946,,,Verified
LLC.AX,13-AUG-2015,,End Of Day,,14.95,15.06,14.65,14.72,2326210,,,Verified
LLC.AX,14-AUG-2015,,End Of Day,,14.74,14.9,14.68,14.79,2826810,,,Verified
LLC.AX,15-AUG-2015,,End Of Day,No Trades,,,,,,,,Verified
LLC.AX,16-AUG-2015,,End Of Day,No Trades,,,,,,,,Verified
LLC.AX,17-AUG-2015,,End Of Day,,14.83,14.99,14.8,14.84,957984,,,Verified
LLC.AX,18-AUG-2015,,End Of Day,,14.77,14.96,14.67,14.67,1724124,,,Verified
LLC.AX,19-AUG-2015,,End Of Day,,14.75,14.98,14.75,14.93,1090909,,,Verified
LLC.AX,20-AUG-2015,,End Of Day,,14.72,14.87,14.51,14.55,2930689,,,Verified
LLC.AX,21-AUG-2015,,End Of Day,,14.5,14.5,14.07,14.31,1842148,,,Verified
LLC.AX,22-AUG-2015,,End Of Day,No Trades,,,,,,,,Verified
LLC.AX,23-AUG-2015,,End Of Day,No Trades,,,,,,,,Verified
LLC.AX,24-AUG-2015,,End Of Day,,13.8,14.03,13.41,13.72,3194259,,,Verified
LLC.AX,25-AUG-2015,,End Of Day,,13.4,14.35,13.4,14.33,3260108,,,Verified
LLC.AX,26-AUG-2015,,End Of Day,,14.06,14.51,13.82,14.43,4300183,,,Verified
LLC.AX,27-AUG-2015,,End Of Day,,14.43,14.69,14.43,14.45,2238594,,,Verified
LLC.AX,28-AUG-2015,,End Of Day,,14.6,14.6,14.01,14.1,3493255,,,Verified
LLC.AX,29-AUG-2015,,End Of Day,No Trades,,,,,,,,Verified
LLC.AX,30-AUG-2015,,End Of Day,No Trades,,,,,,,,Verified
LLC.AX,31-AUG-2015,,End Of Day,,13.99,14.06,13.82,13.94,3331730,,,Verified
LLC.AX,01-SEP-2015,,End Of Day,,13.97,14.01,13.655,13.72,2797981,,,Verified
LLC.AX,02-SEP-2015,,End Of Day,,13.8,13.8,13.295,13.51,3435184,,,Verified
LLC.AX,03-SEP-2015,,End Of Day,,14,14,13.24,13.29,3674830,,,Verified
LLC.AX,04-SEP-2015,,End Of Day,,13.51,13.51,13.18,13.31,2387382,,,Verified
LLC.AX,05-SEP-2015,,End Of Day,No Trades,,,,,,,,Verified
LLC.AX,06-SEP-2015,,End Of Day,No Trades,,,,,,,,Verified
LLC.AX,07-SEP-2015,,End Of Day,,13.46,13.46,13.11,13.25,2639857,,,Verified
LLC.AX,08-SEP-2015,,End Of Day,,13.35,13.47,13.26,13.45,1519973,,,Verified
LLC.AX,09-SEP-2015,,End Of Day,,13.45,13.685,13.42,13.57,3136516,,,Verified
LLC.AX,10-SEP-2015,,End Of Day,,13.3,13.335,13.11,13.19,2566459,,,Verified
LLC.AX,11-SEP-2015,,End Of Day,,13.1,13.37,13,13.06,3267132,,,Verified
LLC.AX,12-SEP-2015,,End Of Day,No Trades,,,,,,,,Verified
LLC.AX,13-SEP-2015,,End Of Day,No Trades,,,,,,,,Verified
LLC.AX,14-SEP-2015,,End Of Day,,13.18,13.29,13.08,13.2,2546562,,,Verified
LLC.AX,15-SEP-2015,,End Of Day,,13.1,13.22,12.97,13.1,4799060,,,Verified
LLC.AX,16-SEP-2015,,End Of Day,,13.19,13.26,13.1,13.23,2517960,,,Verified
LLC.AX,17-SEP-2015,,End Of Day,,13.21,13.38,13.19,13.19,2851455,,,Verified
LLC.AX,18-SEP-2015,,End Of Day,,13.13,13.36,13.06,13.2,3739735,,,Verified
LLC.AX,19-SEP-2015,,End Of Day,No Trades,,,,,,,,Verified
LLC.AX,20-SEP-2015,,End Of Day,No Trades,,,,,,,,Verified
LLC.AX,21-SEP-2015,,End Of Day,,13.02,13.07,12.81,12.93,1860358,,,Verified
LLC.AX,22-SEP-2015,,End Of Day,,13.09,13.12,12.8,12.95,2041307,,,Verified
LLC.AX,23-SEP-2015,,End Of Day,,12.74,12.85,12.61,12.71,2921097,,,Verified
LLC.AX,24-SEP-2015,,End Of Day,,12.85,12.95,12.72,12.77,3270747,,,Verified
LLC.AX,25-SEP-2015,,End Of Day,,12.82,12.9,12.62,12.62,3209134,,,Verified
LLC.AX,26-SEP-2015,,End Of Day,No Trades,,,,,,,,Verified
LLC.AX,27-SEP-2015,,End Of Day,No Trades,,,,,,,,Verified
LLC.AX,28-SEP-2015,,End Of Day,,12.72,12.92,12.68,12.9,1228957,,,Verified
LLC.AX,29-SEP-2015,,End Of Day,,12.7,12.73,12.21,12.21,2620869,,,Verified
LLC.AX,30-SEP-2015,,End Of Day,,12.09,12.55,12.09,12.55,2593426,,,Verified
LLC.AX,01-OCT-2015,,End Of Day,,12.6,12.77,12.54,12.68,1958487,,,Verified
LLC.AX,02-OCT-2015,,End Of Day,,12.45,12.61,12.33,12.39,1985770,,,Verified
LLC.AX,03-OCT-2015,,End Of Day,No Trades,,,,,,,,Verified
LLC.AX,04-OCT-2015,,End Of Day,No Trades,,,,,,,,Verified
LLC.AX,05-OCT-2015,,End Of Day,,12.37,12.62,12.37,12.6,1384099,,,Verified
LLC.AX,06-OCT-2015,,End Of Day,,12.65,12.86,12.65,12.69,1731326,,,Verified
LLC.AX,07-OCT-2015,,End Of Day,,12.6,12.69,12.14,12.45,3306109,,,Verified
LLC.AX,08-OCT-2015,,End Of Day,,12.51,12.59,12.32,12.36,2828263,,,Verified
LLC.AX,09-OCT-2015,,End Of Day,,12.24,12.8,12.23,12.8,5004708,,,Verified
LLC.AX,10-OCT-2015,,End Of Day,No Trades,,,,,,,,Verified
LLC.AX,11-OCT-2015,,End Of Day,No Trades,,,,,,,,Verified
LLC.AX,12-OCT-2015,,End Of Day,,12.62,12.74,12.48,12.62,4352679,,,Verified
LLC.AX,13-OCT-2015,,End Of Day,,12.6,12.65,12.26,12.35,2327782,,,Verified
LLC.AX,14-OCT-2015,,End Of Day,,12.34,12.55,12.24,12.52,2337994,,,Verified
LLC.AX,15-OCT-2015,,End Of Day,,12.72,13.45,12.57,13.25,4503642,,,Verified
LLC.AX,16-OCT-2015,,End Of Day,,13.41,13.47,13.06,13.1,2946619,,,Verified
LLC.AX,17-OCT-2015,,End Of Day,No Trades,,,,,,,,Verified
LLC.AX,18-OCT-2015,,End Of Day,No Trades,,,,,,,,Verified
LLC.AX,19-OCT-2015,,End Of Day,,13.22,13.26,12.73,12.85,3328392,,,Verified
LLC.AX,20-OCT-2015,,End Of Day,,12.7,12.87,12.53,12.64,3752973,,,Verified
LLC.AX,21-OCT-2015,,End Of Day,,12.52,12.59,12.44,12.51,3042700,,,Verified
LLC.AX,22-OCT-2015,,End Of Day,,12.49,12.61,12.38,12.56,1594228,,,Verified
LLC.AX,23-OCT-2015,,End Of Day,,12.8,12.93,12.68,12.85,1815427,,,Verified
LLC.AX,24-OCT-2015,,End Of Day,No Trades,,,,,,,,Verified
LLC.AX,25-OCT-2015,,End Of Day,No Trades,,,,,,,,Verified
LLC.AX,26-OCT-2015,,End Of Day,,12.99,12.99,12.7,12.72,3006321,,,Verified
LLC.AX,27-OCT-2015,,End Of Day,,12.81,12.94,12.75,12.94,2542037,,,Verified
LLC.AX,28-OCT-2015,,End Of Day,,12.96,13.07,12.85,13.01,3230556,,,Verified
LLC.AX,29-OCT-2015,,End Of Day,,13.11,13.2,12.96,12.98,1888987,,,Verified
LLC.AX,30-OCT-2015,,End Of Day,,12.95,13.1,12.78,13,2070611,,,Verified
LLC.AX,31-OCT-2015,,End Of Day,No Trades,,,,,,,,Verified
LLC.AX,01-NOV-2015,,End Of Day,No Trades,,,,,,,,Verified
LLC.AX,02-NOV-2015,,End Of Day,,13.07,13.07,12.81,12.86,941415,,,Verified
LLC.AX,03-NOV-2015,,End Of Day,,13.01,13.19,12.93,13.15,1916563,,,Verified
LLC.AX,04-NOV-2015,,End Of Day,,13.35,13.35,12.81,12.89,2359064,,,Verified
LLC.AX,05-NOV-2015,,End Of Day,,12.79,12.97,12.43,12.57,3937276,,,Verified
LLC.AX,06-NOV-2015,,End Of Day,,12.55,12.62,12.5,12.58,2901035,,,Verified
LLC.AX,07-NOV-2015,,End Of Day,No Trades,,,,,,,,Verified
LLC.AX,08-NOV-2015,,End Of Day,No Trades,,,,,,,,Verified
LLC.AX,09-NOV-2015,,End Of Day,,12.49,12.56,12.21,12.24,2494233,,,Verified
LLC.AX,10-NOV-2015,,End Of Day,,12.19,12.26,11.985,12.23,2890352,,,Verified
LLC.AX,11-NOV-2015,,End Of Day,,12.27,12.32,12.14,12.18,2445744,,,Verified
LLC.AX,12-NOV-2015,,End Of Day,,12.1,12.35,12.09,12.27,1810167,,,Verified
LLC.AX,13-NOV-2015,,End Of Day,,12.07,12.13,11.92,12.05,1948994,,,Verified
LLC.AX,14-NOV-2015,,End Of Day,No Trades,,,,,,,,Verified
LLC.AX,15-NOV-2015,,End Of Day,No Trades,,,,,,,,Verified
LLC.AX,16-NOV-2015,,End Of Day,,11.84,11.94,11.78,11.81,1600536,,,Verified
LLC.AX,17-NOV-2015,,End Of Day,,12.03,12.44,12.01,12.44,2778892,,,Verified
LLC.AX,18-NOV-2015,,End Of Day,,12.35,12.6,12.33,12.59,1762176,,,Verified
LLC.AX,19-NOV-2015,,End Of Day,,12.7,12.75,12.6,12.7,2276223,,,Verified
LLC.AX,20-NOV-2015,,End Of Day,,12.71,12.78,12.56,12.63,1659538,,,Verified
LLC.AX,21-NOV-2015,,End Of Day,No Trades,,,,,,,,Verified
LLC.AX,22-NOV-2015,,End Of Day,No Trades,,,,,,,,Verified
LLC.AX,23-NOV-2015,,End Of Day,,12.59,12.66,12.54,12.58,977117,,,Verified
LLC.AX,24-NOV-2015,,End Of Day,,12.5,12.72,12.5,12.66,1814874,,,Verified
LLC.AX,25-NOV-2015,,End Of Day,,12.65,12.71,12.51,12.56,2402040,,,Verified
LLC.AX,26-NOV-2015,,End Of Day,,12.61,12.96,12.61,12.86,2166029,,,Verified
LLC.AX,27-NOV-2015,,End Of Day,,13.05,13.12,12.79,12.8,1128400,,,Verified
LLC.AX,28-NOV-2015,,End Of Day,No Trades,,,,,,,,Verified
LLC.AX,29-NOV-2015,,End Of Day,No Trades,,,,,,,,Verified
LLC.AX,30-NOV-2015,,End Of Day,,12.73,12.9,12.7,12.75,2668896,,,Verified
LLC.AX,01-DEC-2015,,End Of Day,,12.81,13.17,12.78,13.1,2526002,,,Verified
LLC.AX,02-DEC-2015,,End Of Day,,13.02,13.11,12.95,12.99,1820817,,,Verified
LLC.AX,03-DEC-2015,,End Of Day,,12.82,13.07,12.76,13,2115777,,,Verified
LLC.AX,04-DEC-2015,,End Of Day,,12.72,12.9,12.69,12.88,2634550,,,Verified
LLC.AX,05-DEC-2015,,End Of Day,No Trades,,,,,,,,Verified
LLC.AX,06-DEC-2015,,End Of Day,No Trades,,,,,,,,Verified
LLC.AX,07-DEC-2015,,End Of Day,,13.09,13.28,13.02,13.14,2234954,,,Verified
LLC.AX,08-DEC-2015,,End Of Day,,13,13.13,12.94,13,1278112,,,Verified
LLC.AX,09-DEC-2015,,End Of Day,,12.84,12.99,12.64,12.81,1776923,,,Verified
LLC.AX,10-DEC-2015,,End Of Day,,12.94,13.08,12.89,13.06,3160527,,,Verified
LLC.AX,11-DEC-2015,,End Of Day,,12.99,13.31,12.98,13.09,2715425,,,Verified
LLC.AX,12-DEC-2015,,End Of Day,No Trades,,,,,,,,Verified
LLC.AX,13-DEC-2015,,End Of Day,No Trades,,,,,,,,Verified
LLC.AX,14-DEC-2015,,End Of Day,,12.9,13.045,12.77,12.86,2088701,,,Verified
LLC.AX,15-DEC-2015,,End Of Day,,12.86,13.03,12.86,12.99,1976395,,,Verified
LLC.AX,16-DEC-2015,,End Of Day,,13.07,13.26,13.04,13.22,1731566,,,Verified
LLC.AX,17-DEC-2015,,End Of Day,,13.34,13.585,13.33,13.45,2455224,,,Verified
LLC.AX,18-DEC-2015,,End Of Day,,13.25,13.67,13.21,13.51,3698132,,,Verified
LLC.AX,19-DEC-2015,,End Of Day,No Trades,,,,,,,,Verified
LLC.AX,20-DEC-2015,,End Of Day,No Trades,,,,,,,,Verified
LLC.AX,21-DEC-2015,,End Of Day,,13.49,13.69,13.4,13.5,1004235,,,Verified
LLC.AX,22-DEC-2015,,End Of Day,,13.69,13.85,13.57,13.65,1606021,,,Verified
LLC.AX,23-DEC-2015,,End Of Day,,13.82,14.15,13.8,13.9,1652510,,,Verified
LLC.AX,24-DEC-2015,,End Of Day,,14.25,14.25,13.88,14.02,952002,,,Verified
LLC.AX,25-DEC-2015,,End Of Day,No Trades,,,,,,,,Verified
LLC.AX,26-DEC-2015,,End Of Day,No Trades,,,,,,,,Verified
LLC.AX,27-DEC-2015,,End Of Day,No Trades,,,,,,,,Verified
LLC.AX,28-DEC-2015,,End Of Day,No Trades,,,,,,,,Verified
LLC.AX,29-DEC-2015,,End Of Day,,14.11,14.29,14.02,14.26,1091037,,,Verified
LLC.AX,30-DEC-2015,,End Of Day,,14.49,14.54,14.23,14.28,1248133,,,Verified
LLC.AX,31-DEC-2015,,End Of Day,,14.24,14.4,14.19,14.26,663471,,,Verified
LLC.AX,01-JAN-2016,,End Of Day,No Trades,,,,,,,,Verified
LLC.AX,02-JAN-2016,,End Of Day,No Trades,,,,,,,,Verified
LLC.AX,03-JAN-2016,,End Of Day,No Trades,,,,,,,,Verified
LLC.AX,04-JAN-2016,,End Of Day,,14.2,14.42,14.05,14.18,1346968,,,Verified
LLC.AX,05-JAN-2016,,End Of Day,,13.98,14.24,13.94,14.08,2376029,,,Verified
LLC.AX,06-JAN-2016,,End Of Day,,13.98,14.11,13.71,13.82,2061224,,,Verified
LLC.AX,07-JAN-2016,,End Of Day,,13.8,13.92,13.57,13.67,1789599,,,Verified
LLC.AX,08-JAN-2016,,End Of Day,,13.5,13.81,13.37,13.42,2247776,,,Verified
LLC.AX,09-JAN-2016,,End Of Day,No Trades,,,,,,,,Verified
LLC.AX,10-JAN-2016,,End Of Day,No Trades,,,,,,,,Verified
LLC.AX,11-JAN-2016,,End Of Day,,13.15,13.35,13.1,13.32,905662,,,Verified
LLC.AX,12-JAN-2016,,End Of Day,,13.35,13.56,13.22,13.28,1317855,,,Verified
LLC.AX,13-JAN-2016,,End Of Day,,13.3,13.51,13.27,13.46,1288240,,,Verified
LLC.AX,14-JAN-2016,,End Of Day,,13.1,13.53,13.08,13.3,1612625,,,Verified
LLC.AX,15-JAN-2016,,End Of Day,,13.4,13.49,13.02,13.08,1307918,,,Verified
LLC.AX,16-JAN-2016,,End Of Day,No Trades,,,,,,,,Verified
LLC.AX,17-JAN-2016,,End Of Day,No Trades,,,,,,,,Verified
LLC.AX,18-JAN-2016,,End Of Day,,12.83,13.08,12.8,12.95,1094784,,,Verified
LLC.AX,19-JAN-2016,,End Of Day,,12.82,12.95,12.77,12.89,2204902,,,Verified
LLC.AX,20-JAN-2016,,End Of Day,,12.9,13,12.69,12.73,2275806,,,Verified
LLC.AX,21-JAN-2016,,End Of Day,,13.03,13.03,12.64,12.64,1935001,,,Verified
LLC.AX,22-JAN-2016,,End Of Day,,12.86,13.01,12.7,12.72,2162021,,,Verified
LLC.AX,23-JAN-2016,,End Of Day,No Trades,,,,,,,,Verified
LLC.AX,24-JAN-2016,,End Of Day,No Trades,,,,,,,,Verified
LLC.AX,25-JAN-2016,,End Of Day,,12.99,13.06,12.89,12.97,889738,,,Verified
LLC.AX,26-JAN-2016,,End Of Day,No Trades,,,,,,,,Verified
LLC.AX,27-JAN-2016,,End Of Day,,12.98,13.17,12.85,13.02,1670793,,,Verified
LLC.AX,28-JAN-2016,,End Of Day,,12.97,13.15,12.84,13.07,1468171,,,Verified
LLC.AX,29-JAN-2016,,End Of Day,,13.15,13.23,12.82,12.99,1916127,,,Verified
LLC.AX,30-JAN-2016,,End Of Day,No Trades,,,,,,,,Verified
LLC.AX,31-JAN-2016,,End Of Day,No Trades,,,,,,,,Verified
LLC.AX,01-FEB-2016,,End Of Day,,13.19,13.38,13.16,13.26,1627524,,,Verified
LLC.AX,02-FEB-2016,,End Of Day,,13.27,13.28,12.82,12.93,4274498,,,Verified
LLC.AX,03-FEB-2016,,End Of Day,,12.72,12.8,12.52,12.57,3224166,,,Verified
LLC.AX,04-FEB-2016,,End Of Day,,12.61,12.66,12.46,12.62,1507960,,,Verified
LLC.AX,05-FEB-2016,,End Of Day,,12.7,12.72,12.24,12.34,3622420,,,Verified
LLC.AX,06-FEB-2016,,End Of Day,No Trades,,,,,,,,Verified
LLC.AX,07-FEB-2016,,End Of Day,No Trades,,,,,,,,Verified
LLC.AX,08-FEB-2016,,End Of Day,,12.13,12.22,11.9,12.01,3767989,,,Verified
LLC.AX,09-FEB-2016,,End Of Day,,11.87,11.92,11.685,11.69,3654824,,,Verified
LLC.AX,10-FEB-2016,,End Of Day,,11.8,11.83,11.59,11.75,3649362,,,Verified
LLC.AX,11-FEB-2016,,End Of Day,,11.87,11.89,11.58,11.84,1625790,,,Verified
LLC.AX,12-FEB-2016,,End Of Day,,11.67,11.68,11.48,11.55,1958244,,,Verified
LLC.AX,13-FEB-2016,,End Of Day,No Trades,,,,,,,,Verified
LLC.AX,14-FEB-2016,,End Of Day,No Trades,,,,,,,,Verified
LLC.AX,15-FEB-2016,,End Of Day,,11.69,11.97,11.6,11.95,2004894,,,Verified
LLC.AX,16-FEB-2016,,End Of Day,,12.15,12.29,11.82,12.27,2203409,,,Verified
LLC.AX,17-FEB-2016,,End Of Day,,13,13.1,12.54,12.84,5257878,,,Verified
LLC.AX,18-FEB-2016,,End Of Day,,12.97,12.98,12.68,12.88,3693505,,,Verified
LLC.AX,19-FEB-2016,,End Of Day,,12.9,13.25,12.9,13.2,3073689,,,Verified
LLC.AX,20-FEB-2016,,End Of Day,No Trades,,,,,,,,Verified
LLC.AX,21-FEB-2016,,End Of Day,No Trades,,,,,,,,Verified
LLC.AX,22-FEB-2016,,End Of Day,,13.15,13.42,13.13,13.35,1662871,,,Verified
LLC.AX,23-FEB-2016,,End Of Day,,13.36,13.36,12.935,13.01,3491215,,,Verified
LLC.AX,24-FEB-2016,,End Of Day,,12.89,12.91,12.55,12.85,2971202,,,Verified
LLC.AX,25-FEB-2016,,End Of Day,,12.95,12.95,12.7,12.84,2498045,,,Verified
LLC.AX,26-FEB-2016,,End Of Day,,12.88,12.94,12.76,12.88,2319089,,,Verified
LLC.AX,27-FEB-2016,,End Of Day,No Trades,,,,,,,,Verified
LLC.AX,28-FEB-2016,,End Of Day,No Trades,,,,,,,,Verified
LLC.AX,29-FEB-2016,,End Of Day,,12.88,13.14,12.88,13.03,1838730,,,Verified
LLC.AX,01-MAR-2016,,End Of Day,,13.03,13.27,12.92,13.22,2114816,,,Verified
LLC.AX,02-MAR-2016,,End Of Day,,13.35,13.52,13.35,13.45,2552787,,,Verified
LLC.AX,03-MAR-2016,,End Of Day,,13.47,13.96,13.465,13.89,3241839,,,Verified
LLC.AX,04-MAR-2016,,End Of Day,,13.8,13.99,13.62,13.66,2541263,,,Verified
LLC.AX,05-MAR-2016,,End Of Day,No Trades,,,,,,,,Verified
LLC.AX,06-MAR-2016,,End Of Day,No Trades,,,,,,,,Verified
LLC.AX,07-MAR-2016,,End Of Day,,13.72,13.92,13.62,13.88,2476434,,,Verified
LLC.AX,08-MAR-2016,,End Of Day,,13.7,14.04,13.7,14.01,2007200,,,Verified
LLC.AX,09-MAR-2016,,End Of Day,,13.65,13.99,13.57,13.99,1771217,,,Verified
LLC.AX,10-MAR-2016,,End Of Day,,13.93,14.09,13.88,14.05,995253,,,Verified
LLC.AX,11-MAR-2016,,End Of Day,,14.1,14.11,13.83,14.02,1422765,,,Verified
LLC.AX,12-MAR-2016,,End Of Day,No Trades,,,,,,,,Verified
LLC.AX,13-MAR-2016,,End Of Day,No Trades,,,,,,,,Verified
LLC.AX,14-MAR-2016,,End Of Day,,14.12,14.3,14.05,14.24,1321595,,,Verified
LLC.AX,15-MAR-2016,,End Of Day,,14.23,14.23,13.84,13.95,1758140,,,Verified
LLC.AX,16-MAR-2016,,End Of Day,,13.95,14.06,13.86,14.06,1075943,,,Verified
LLC.AX,17-MAR-2016,,End Of Day,,14.3,14.45,14.22,14.38,2922304,,,Verified
LLC.AX,18-MAR-2016,,End Of Day,,14.45,14.45,14.235,14.31,1572725,,,Verified
LLC.AX,19-MAR-2016,,End Of Day,No Trades,,,,,,,,Verified
LLC.AX,20-MAR-2016,,End Of Day,No Trades,,,,,,,,Verified
LLC.AX,21-MAR-2016,,End Of Day,,14.31,14.4,14.155,14.2,1374365,,,Verified
LLC.AX,22-MAR-2016,,End Of Day,,14.2,14.27,14.11,14.17,1454132,,,Verified
LLC.AX,23-MAR-2016,,End Of Day,,14.19,14.23,14.11,14.18,1968931,,,Verified
LLC.AX,24-MAR-2016,,End Of Day,,14.18,14.23,13.95,14.04,2390103,,,Verified
LLC.AX,25-MAR-2016,,End Of Day,No Trades,,,,,,,,Verified
LLC.AX,26-MAR-2016,,End Of Day,No Trades,,,,,,,,Verified
LLC.AX,27-MAR-2016,,End Of Day,No Trades,,,,,,,,Verified
LLC.AX,28-MAR-2016,,End Of Day,No Trades,,,,,,,,Verified
LLC.AX,29-MAR-2016,,End Of Day,,14,14.19,13.9,13.9,1216252,,,Verified
LLC.AX,30-MAR-2016,,End Of Day,,14.01,14.15,13.6,13.65,2360920,,,Verified
LLC.AX,31-MAR-2016,,End Of Day,,13.83,14,13.73,13.87,2251035,,,Verified
LLC.AX,01-APR-2016,,End Of Day,,13.69,13.72,13.45,13.52,3215394,,,Verified
LLC.AX,02-APR-2016,,End Of Day,No Trades,,,,,,,,Verified
LLC.AX,03-APR-2016,,End Of Day,No Trades,,,,,,,,Verified
LLC.AX,04-APR-2016,,End Of Day,,13.53,13.78,13.53,13.63,1249992,,,Verified
LLC.AX,05-APR-2016,,End Of Day,,13.65,13.65,13.38,13.4,1600049,,,Verified
LLC.AX,06-APR-2016,,End Of Day,,13.4,13.47,13.3,13.4,1607550,,,Verified
LLC.AX,07-APR-2016,,End Of Day,,13.5,13.5,13.37,13.48,979786,,,Verified
LLC.AX,08-APR-2016,,End Of Day,,13.3,13.31,13.15,13.29,953955,,,Verified
LLC.AX,09-APR-2016,,End Of Day,No Trades,,,,,,,,Verified
LLC.AX,10-APR-2016,,End Of Day,No Trades,,,,,,,,Verified
LLC.AX,11-APR-2016,,End Of Day,,13.27,13.29,12.96,13.04,1617665,,,Verified
LLC.AX,12-APR-2016,,End Of Day,,13.01,13.27,13,13.24,1114638,,,Verified
LLC.AX,13-APR-2016,,End Of Day,,13.39,13.49,13.24,13.4,1935630,,,Verified
LLC.AX,14-APR-2016,,End Of Day,,13.44,13.52,13.29,13.3,1539488,,,Verified
LLC.AX,15-APR-2016,,End Of Day,,13.3,13.34,12.97,13.02,2616281,,,Verified
LLC.AX,16-APR-2016,,End Of Day,No Trades,,,,,,,,Verified
LLC.AX,17-APR-2016,,End Of Day,No Trades,,,,,,,,Verified
LLC.AX,18-APR-2016,,End Of Day,,13.08,13.14,12.87,12.87,2085398,,,Verified
LLC.AX,19-APR-2016,,End Of Day,,13.05,13.08,12.88,12.96,2304894,,,Verified
LLC.AX,20-APR-2016,,End Of Day,,13,13.04,12.76,12.83,2085741,,,Verified
LLC.AX,21-APR-2016,,End Of Day,,13,13.02,12.43,12.51,3739984,,,Verified
LLC.AX,22-APR-2016,,End Of Day,,12.49,12.62,12.39,12.46,2608679,,,Verified
LLC.AX,23-APR-2016,,End Of Day,No Trades,,,,,,,,Verified
LLC.AX,24-APR-2016,,End Of Day,No Trades,,,,,,,,Verified
LLC.AX,25-APR-2016,,End Of Day,No Trades,,,,,,,,Verified
LLC.AX,26-APR-2016,,End Of Day,,12.58,12.6,12.45,12.47,2504759,,,Verified
LLC.AX,27-APR-2016,,End Of Day,,12.5,12.7,12.4,12.42,2357965,,,Verified
LLC.AX,28-APR-2016,,End Of Day,,12.57,12.61,12.385,12.5,2115570,,,Verified
LLC.AX,29-APR-2016,,End Of Day,,12.59,12.76,12.45,12.7,2106661,,,Verified
LLC.AX,30-APR-2016,,End Of Day,No Trades,,,,,,,,Verified
LLC.AX,01-MAY-2016,,End Of Day,No Trades,,,,,,,,Verified
LLC.AX,02-MAY-2016,,End Of Day,,12.69,12.72,12.5,12.54,1209975,,,Verified
LLC.AX,03-MAY-2016,,End Of Day,,12.63,13.16,12.63,13.15,3095781,,,Verified
LLC.AX,04-MAY-2016,,End Of Day,,13.12,13.17,12.91,12.94,2450365,,,Verified
LLC.AX,05-MAY-2016,,End Of Day,,12.97,13.15,12.83,13.12,1440016,,,Verified
LLC.AX,06-MAY-2016,,End Of Day,,12.92,12.98,12.67,12.78,2421721,,,Verified
LLC.AX,07-MAY-2016,,End Of Day,No Trades,,,,,,,,Verified
LLC.AX,08-MAY-2016,,End Of Day,No Trades,,,,,,,,Verified
LLC.AX,09-MAY-2016,,End Of Day,,12.75,13,12.68,13,1710997,,,Verified
LLC.AX,10-MAY-2016,,End Of Day,,13.01,13.625,13,13.4,3421005,,,Verified
LLC.AX,11-MAY-2016,,End Of Day,,13.65,13.82,13.46,13.52,2285595,,,Verified
