{
"Name": "Austal Ltd (ASB.AX)",
"Market Cap (intraday)": "463.36M",
"Enterprise Value (28/05/2016)": "431.76M",
"Trailing P/E (ttm, intraday):": "11.77",
"Forward P/E (fye 30/06/2017)": "11.08",
"PEG Ratio (5 yr expected)": "1.23",
"Price/Sales (ttm):": "0.31",
"Price/Book (mrq):": "0.82",
"Enterprise Value/Revenue (ttm)": "0.29",
"Enterprise Value/EBITDA (ttm)": "6.05",
"Fiscal Year Ends:": "30 Jun",
"Most Recent Quarter (mrq):": "31/12/2015",
"Profit Margin (ttm):": "2.77%",
"Operating Margin (ttm):": "3.17%",
"Return on Assets (ttm):": "2.85%",
"Return on Equity (ttm):": "7.93%",
"Revenue (ttm):": "1.48B",
"Revenue Per Share (ttm):": "4.28",
"Qtrly Revenue Growth (yoy):": "9.90%",
"Gross Profit (ttm):": "118.00M",
"EBITDA (ttm)": "71.35M",
"Net Income Avl to Common (ttm):": "40.99M",
"Diluted EPS (ttm):": "0.11",
"Qtrly Earnings Growth (yoy):": "-42.30%",
"Total Cash (mrq):": "181.47M",
"Total Cash Per Share (mrq):": "0.52",
"Total Debt (mrq):": "150.83M",
"Total Debt/Equity (mrq):": "26.95",
"Current Ratio (mrq):": "2.04",
"Book Value Per Share (mrq):": "1.61",
"Operating Cash Flow (ttm):": "44.21M",
"Levered Free Cash Flow (ttm):": "4.92M",
"Beta:": "N/A",
"52-Week Change": "-25.70%",
"S&P500 52-Week Change": "-0.60%",
"52-Week High (23/11/2015)": "2.56",
"52-Week Low (15/01/2016)": "0.98",
"50-Day Moving Average": "1.47",
"200-Day Moving Average": "1.55",
"Avg Vol (3 month)": "1,354,190",
"Avg Vol (10 day)": "1,431,990",
"Shares Outstanding": "348.39M",
"Float:": "274.96M",
"% Held by Insiders": "N/A",
"% Held by Institutions": "N/A",
"Shares Short ": "N/A",
"Short Ratio ": "N/A",
"Short % of Float ": "N/A",
"Shares Short (prior month)": "N/A",
"Forward Annual Dividend Rate": "N/A",
"Forward Annual Dividend Yield": "N/A",
"Trailing Annual Dividend Yield": "0.07",
"Trailing Annual Dividend Yield": "5.40%",
"5 Year Average Dividend Yield": "N/A",
"Payout Ratio": "N/A",
"Dividend Date": "N/A",
"Ex-Dividend Date": "N/A",
"Last Split Factor (new per old)": "1:1",
"Last Split Date": "18/09/2001"
}
