{
"Name": "Bank of Queensland Ltd (BOQ.AX)",
"Market Cap (intraday)": "4.43B",
"Enterprise Value (28/05/2016)": "11.57B",
"Trailing P/E (ttm, intraday):": "13.75",
"Forward P/E (fye 31/08/2017)": "11.65",
"PEG Ratio (5 yr expected)": "3.20",
"Price/Sales (ttm):": "4.23",
"Price/Book (mrq):": "1.25",
"Enterprise Value/Revenue (ttm)": "11.15",
"Enterprise Value/EBITDA (ttm)": "N/A",
"Fiscal Year Ends:": "31 Aug",
"Most Recent Quarter (mrq):": "29/02/2016",
"Profit Margin (ttm):": "32.27%",
"Operating Margin (ttm):": "50.00%",
"Return on Assets (ttm):": "0.69%",
"Return on Equity (ttm):": "9.67%",
"Revenue (ttm):": "1.04B",
"Revenue Per Share (ttm):": "2.79",
"Qtrly Revenue Growth (yoy):": "4.80%",
"Gross Profit (ttm):": "1.01B",
"EBITDA (ttm)": "N/A",
"Net Income Avl to Common (ttm):": "335.00M",
"Diluted EPS (ttm):": "0.85",
"Qtrly Earnings Growth (yoy):": "11.00%",
"Total Cash (mrq):": "2.56B",
"Total Cash Per Share (mrq):": "6.82",
"Total Debt (mrq):": "9.74B",
"Total Debt/Equity (mrq):": "N/A",
"Current Ratio (mrq):": "N/A",
"Book Value Per Share (mrq):": "9.39",
"Operating Cash Flow (ttm):": "-2.93B",
"Levered Free Cash Flow (ttm):": "N/A",
"Beta:": "N/A",
"52-Week Change": "-10.66%",
"S&P500 52-Week Change": "-0.60%",
"52-Week High (23/11/2015)": "14.50",
"52-Week Low (15/02/2016)": "10.40",
"50-Day Moving Average": "11.43",
"200-Day Moving Average": "12.36",
"Avg Vol (3 month)": "1,969,840",
"Avg Vol (10 day)": "1,463,500",
"Shares Outstanding": "380.35M",
"Float:": "371.62M",
"% Held by Insiders": "N/A",
"% Held by Institutions": "N/A",
"Shares Short ": "N/A",
"Short Ratio ": "N/A",
"Short % of Float ": "N/A",
"Shares Short (prior month)": "N/A",
"Forward Annual Dividend Rate": "N/A",
"Forward Annual Dividend Yield": "N/A",
"Trailing Annual Dividend Yield": "0.54",
"Trailing Annual Dividend Yield": "4.60%",
"5 Year Average Dividend Yield": "N/A",
"Payout Ratio": "N/A",
"Dividend Date": "N/A",
"Ex-Dividend Date": "N/A",
"Last Split Factor (new per old)": "1:1",
"Last Split Date": "21/08/2009"
}
