{
"Name": "BWP Trust (BWP.AX)",
"Market Cap (intraday)": "2.34B",
"Enterprise Value (28/05/2016)": "2.79B",
"Trailing P/E (ttm, intraday):": "7.33",
"Forward P/E (fye 30/06/2017)": "21.47",
"PEG Ratio (5 yr expected)": "4.53",
"Price/Sales (ttm):": "15.68",
"Price/Book (mrq):": "1.44",
"Enterprise Value/Revenue (ttm)": "18.78",
"Enterprise Value/EBITDA (ttm)": "N/A",
"Fiscal Year Ends:": "30 Jun",
"Most Recent Quarter (mrq):": "31/12/2015",
"Profit Margin (ttm):": "215.41%",
"Operating Margin (ttm):": "88.02%",
"Return on Assets (ttm):": "3.98%",
"Return on Equity (ttm):": "21.24%",
"Revenue (ttm):": "148.35M",
"Revenue Per Share (ttm):": "0.23",
"Qtrly Revenue Growth (yoy):": "4.90%",
"Gross Profit (ttm):": "N/A",
"EBITDA (ttm)": "N/A",
"Net Income Avl to Common (ttm):": "319.56M",
"Diluted EPS (ttm):": "0.50",
"Qtrly Earnings Growth (yoy):": "93.30%",
"Total Cash (mrq):": "14.78M",
"Total Cash Per Share (mrq):": "0.02",
"Total Debt (mrq):": "488.79M",
"Total Debt/Equity (mrq):": "30.23",
"Current Ratio (mrq):": "0.62",
"Book Value Per Share (mrq):": "2.52",
"Operating Cash Flow (ttm):": "104.27M",
"Levered Free Cash Flow (ttm):": "50.29M",
"Beta:": "N/A",
"52-Week Change": "10.27%",
"S&P500 52-Week Change": "-0.60%",
"52-Week High (27/05/2016)": "3.67",
"52-Week Low (23/09/2015)": "2.95",
"50-Day Moving Average": "3.52",
"200-Day Moving Average": "3.27",
"Avg Vol (3 month)": "1,203,370",
"Avg Vol (10 day)": "1,271,600",
"Shares Outstanding": "642.38M",
"Float:": "N/A",
"% Held by Insiders": "N/A",
"% Held by Institutions": "N/A",
"Shares Short ": "N/A",
"Short Ratio ": "N/A",
"Short % of Float ": "N/A",
"Shares Short (prior month)": "N/A",
"Forward Annual Dividend Rate": "N/A",
"Forward Annual Dividend Yield": "N/A",
"Trailing Annual Dividend Yield": "0.16",
"Trailing Annual Dividend Yield": "4.60%",
"5 Year Average Dividend Yield": "N/A",
"Payout Ratio": "N/A",
"Dividend Date": "N/A",
"Ex-Dividend Date": "N/A",
"Last Split Factor (new per old)": "1:1",
"Last Split Date": "11/05/2009"
}
