{
"Name": "Gateway Lifestyle Group (GTY.AX)",
"Market Cap (intraday)": "841.31M",
"Enterprise Value (28/05/2016)": "826.68M",
"Trailing P/E (ttm, intraday):": "N/A",
"Forward P/E (fye 30/06/2017)": "14.79",
"PEG Ratio (5 yr expected)": "N/A",
"Price/Sales (ttm):": "12.56",
"Price/Book (mrq):": "1.59",
"Enterprise Value/Revenue (ttm)": "14.87",
"Enterprise Value/EBITDA (ttm)": "N/A",
"Fiscal Year Ends:": "30 Jun",
"Most Recent Quarter (mrq):": "31/12/2015",
"Profit Margin (ttm):": "-24.32%",
"Operating Margin (ttm):": "27.79%",
"Return on Assets (ttm):": "N/A",
"Return on Equity (ttm):": "N/A",
"Revenue (ttm):": "55.61M",
"Revenue Per Share (ttm):": "0.40",
"Qtrly Revenue Growth (yoy):": "2,764.80%",
"Gross Profit (ttm):": "5.00M",
"EBITDA (ttm)": "N/A",
"Net Income Avl to Common (ttm):": "-13.53M",
"Diluted EPS (ttm):": "-0.10",
"Qtrly Earnings Growth (yoy):": "2,608.40%",
"Total Cash (mrq):": "16.21M",
"Total Cash Per Share (mrq):": "0.07",
"Total Debt (mrq):": "139.16M",
"Total Debt/Equity (mrq):": "31.68",
"Current Ratio (mrq):": "1.14",
"Book Value Per Share (mrq):": "1.75",
"Operating Cash Flow (ttm):": "-29.20M",
"Levered Free Cash Flow (ttm):": "N/A",
"Beta:": "N/A",
"52-Week Change": "N/A",
"S&P500 52-Week Change": "-0.60%",
"52-Week High (20/11/2015)": "3.10",
"52-Week Low (10/07/2015)": "2.00",
"50-Day Moving Average": "2.80",
"200-Day Moving Average": "2.81",
"Avg Vol (3 month)": "901,066",
"Avg Vol (10 day)": "707,223",
"Shares Outstanding": "299.40M",
"Float:": "231.43M",
"% Held by Insiders": "N/A",
"% Held by Institutions": "N/A",
"Shares Short ": "N/A",
"Short Ratio ": "N/A",
"Short % of Float ": "N/A",
"Shares Short (prior month)": "N/A",
"Forward Annual Dividend Rate": "N/A",
"Forward Annual Dividend Yield": "N/A",
"Trailing Annual Dividend Yield": "0.05",
"Trailing Annual Dividend Yield": "1.90%",
"5 Year Average Dividend Yield": "N/A",
"Payout Ratio": "N/A",
"Dividend Date": "N/A",
"Ex-Dividend Date": "N/A",
"Last Split Factor (new per old)": "N/A",
"Last Split Date": "N/A"
}
